strict graph grafo2 {
	graph [bb="0,0,1590.5,273",
		id=grafo2,
		overlap=False
	];
	node [fontsize=8,
		label="\N",
		shape=rectangle,
		style=filled
	];
	0	 [URL="http://lattes.cnpq.br/1122249150531103",
		color="#17272B",
		fontcolor="#FFFFFF",
		height=0.23611,
		label="Leonidas Conceicao Barroso [0]",
		pos="60,264.5",
		width=1.6667];
	1	 [URL="http://lattes.cnpq.br/9807601418124791",
		color="#17272B",
		fontcolor="#FFFFFF",
		height=0.23611,
		label="Júlia E. Engrácia de Oliveira [0]",
		pos="198,264.5",
		width=1.6667];
	2	 [URL="http://lattes.cnpq.br/7209599572627626",
		color="#17272B",
		fontcolor="#FFFFFF",
		height=0.23611,
		label="Jorge T. de Ramos Neves [6]",
		pos="331,264.5",
		width=1.5278];
	8	 [URL="http://lattes.cnpq.br/7150900381295527",
		color="#17272B",
		fontcolor="#FFFFFF",
		height=0.23611,
		label="Jose M. Carvalho de Mesquita [12]",
		pos="393,200.5",
		width=1.7917];
	2 -- 8	 [fontsize=8,
		label=1.0,
		lp="370.5,232.5",
		pos="338.6,255.9 350.5,244 373.4,221.1 385.34,209.16"];
	11	 [URL="http://lattes.cnpq.br/1283869098677703",
		color="#17272B",
		fontcolor="#FFFFFF",
		height=0.23611,
		label="Fabricio Ziviani [11]",
		pos="394,136.5",
		width=1.1667];
	2 -- 11	 [fontsize=8,
		label=3.0,
		lp="314.5,200.5",
		pos="324.98,255.95 314.95,242.38 297.04,213.27 309,191.5 321.97,167.9 350.09,153.15 370.45,145.15"];
	17	 [URL="http://lattes.cnpq.br/0450255381559550",
		color="#17272B",
		fontcolor="#FFFFFF",
		height=0.23611,
		label="Cristiana Fernandes De Muylder [9]",
		pos="412,8.5",
		width=1.8333];
	2 -- 17	 [fontsize=8,
		label=1.0,
		lp="164.5,136.5",
		pos="283.54,255.93 232.63,246.42 159,228.08 159,201.5 159,201.5 159,201.5 159,71.5 159,33.004 270.9,18.289 345.86,12.751"];
	18	 [URL="http://lattes.cnpq.br/5793213524176108",
		color="#17272B",
		fontcolor="#FFFFFF",
		height=0.23611,
		label="Orlando Abreu Gomes [1]",
		pos="526,200.5",
		width=1.4028];
	2 -- 18	 [fontsize=8,
		label=1.0,
		lp="445.5,232.5",
		pos="354.91,255.9 392.44,243.97 464.74,220.98 502.2,209.07"];
	8 -- 11	 [fontsize=8,
		label=3.0,
		lp="398.5,168.5",
		pos="393.12,191.9 393.31,180 393.68,157.1 393.88,145.16"];
	8 -- 17	 [fontsize=8,
		label=4.0,
		lp="294.5,104.5",
		pos="382.75,191.97 350.28,167.69 252.87,91.384 272,63.5 289.83,37.508 322.08,24.023 351.14,17.028"];
	12	 [URL="http://lattes.cnpq.br/8300496710272234",
		color="#17272B",
		fontcolor="#FFFFFF",
		height=0.23611,
		label="Daniel Jardim Pardini [6]",
		pos="490,72.5",
		width=1.3611];
	8 -- 12	 [fontsize=8,
		label=3.0,
		lp="462.5,136.5",
		pos="401.3,191.92 412.05,181.88 431.07,163.35 445,145.5 462.05,123.65 478.33,95.063 485.77,81.417"];
	11 -- 17	 [fontsize=8,
		label=2.0,
		lp="409.5,72.5",
		pos="395.07,128 398.27,105.64 407.69,39.637 410.91,17.125"];
	11 -- 12	 [fontsize=8,
		label=2.0,
		lp="452.5,104.5",
		pos="405.77,127.9 424.2,116 459.65,93.102 478.13,81.165"];
	16	 [URL="http://lattes.cnpq.br/6502942873335887",
		color="#17272B",
		fontcolor="#FFFFFF",
		height=0.23611,
		label="Luiz C. Gomes Maia [4]",
		pos="328,72.5",
		width=1.3194];
	11 -- 16	 [fontsize=8,
		label=3.0,
		lp="369.5,104.5",
		pos="385.91,127.9 373.24,116 348.87,93.102 336.16,81.165"];
	12 -- 17	 [fontsize=8,
		label=2.0,
		lp="460.5,40.5",
		pos="480.44,63.898 465.47,51.998 436.66,29.102 421.64,17.165"];
	3	 [URL="http://lattes.cnpq.br/7442068334410248",
		color="#17272B",
		fontcolor="#FFFFFF",
		height=0.23611,
		label="Joao V. Boechat Gomide [0]",
		pos="743,264.5",
		width=1.5];
	4	 [URL="http://lattes.cnpq.br/0965415757596306",
		color="#17272B",
		fontcolor="#FFFFFF",
		height=0.23611,
		label="Guilherme H. Cordeiro Martins [0]",
		pos="880,264.5",
		width=1.7917];
	5	 [URL="http://lattes.cnpq.br/8070300230910861",
		color="#17272B",
		fontcolor="#FFFFFF",
		height=0.23611,
		label="Rodrigo Rodrigues da Fonseca [0]",
		pos="1026,264.5",
		width=1.7639];
	6	 [URL="http://lattes.cnpq.br/9006683778296973",
		color="#17272B",
		fontcolor="#FFFFFF",
		height=0.23611,
		label="Marta M. Kerr Pinheiro [9]",
		pos="619,264.5",
		width=1.4444];
	6 -- 8	 [fontsize=8,
		label=1.0,
		lp="524.5,232.5",
		pos="591.29,255.9 547.79,243.97 464,220.98 420.58,209.07"];
	20	 [URL="http://lattes.cnpq.br/4390865555343440",
		color="#17272B",
		fontcolor="#FFFFFF",
		height=0.23611,
		label="Rodrigo Moreno Marques [8]",
		pos="650,200.5",
		width=1.5417];
	6 -- 20	 [fontsize=8,
		label=8.0,
		lp="641.5,232.5",
		pos="622.8,255.9 628.75,244 640.2,221.1 646.17,209.16"];
	7	 [URL="http://lattes.cnpq.br/0383502868789993",
		color="#17272B",
		fontcolor="#FFFFFF",
		height=0.23611,
		label="Luiz C. Vieira de Oliveira [4]",
		pos="610,136.5",
		width=1.5556];
	7 -- 17	 [fontsize=8,
		label=2.0,
		lp="681.5,72.5",
		pos="625.33,127.84 649.41,114.82 691.47,87.427 672,63.5 648,33.998 546.92,20.093 478.1,13.935"];
	7 -- 12	 [fontsize=8,
		label=1.0,
		lp="562.5,104.5",
		pos="595.29,127.9 572.25,116 527.94,93.102 504.83,81.165"];
	13	 [URL="http://lattes.cnpq.br/9737143632051924",
		color="#17272B",
		fontcolor="#FFFFFF",
		height=0.23611,
		label="Ana M. Pereira Cardoso [1]",
		pos="610,72.5",
		width=1.4722];
	7 -- 13	 [fontsize=8,
		label=1.0,
		lp="615.5,104.5",
		pos="610,127.9 610,116 610,93.102 610,81.165"];
	9	 [URL="http://lattes.cnpq.br/9431313605945669",
		color="#17272B",
		fontcolor="#FFFFFF",
		height=0.23611,
		label="Jersone T. Moreira Silva [1]",
		pos="242,136.5",
		width=1.4861];
	9 -- 16	 [fontsize=8,
		label=1.0,
		lp="272.5,104.5",
		pos="245.62,127.95 249.78,119.94 257.32,107.38 267,99.5 277.09,91.286 290.16,85.258 301.61,81.086"];
	10	 [URL="http://lattes.cnpq.br/8059629683929778",
		color="#17272B",
		fontcolor="#FFFFFF",
		height=0.23611,
		label="Fernando Parreiras da Silva [0]",
		pos="1166,264.5",
		width=1.6111];
	14	 [URL="http://lattes.cnpq.br/2106034162135390",
		color="#17272B",
		fontcolor="#FFFFFF",
		height=0.23611,
		label="Ana L. C. de Castro Magalhães [0]",
		pos="1306,264.5",
		width=1.7778];
	15	 [URL="http://lattes.cnpq.br/0174551632500870",
		color="#17272B",
		fontcolor="#FFFFFF",
		height=0.23611,
		label="Alair Dias Júnior [0]",
		pos="1430,264.5",
		width=1.1528];
	19	 [URL="http://lattes.cnpq.br/0662405513775966",
		color="#17272B",
		fontcolor="#FFFFFF",
		height=0.23611,
		label="Luiz O. Borges Duarte [0]",
		pos="1540,264.5",
		width=1.4028];
}
