1122249150531103
9807601418124791
7209599572627626
7442068334410248
0965415757596306
8070300230910861
9006683778296973
0383502868789993
7150900381295527
9431313605945669
8059629683929778
1283869098677703
8300496710272234
9737143632051924
2106034162135390
0174551632500870
6502942873335887
0450255381559550
5793213524176108
0662405513775966
4390865555343440
