9404945858555096
6295539300088848
9514001738151737
9817303059261114
6614550860293610
8597052075790062
4736488524972465
5266867099516480
0796077542730627
8395680021547657
4602196835460192
5739340737701994
8275273010766169
6476569938591123
8118978612486649
0479784808667103
