ID_Lattes|MATRICULA|NOME|CH|mail|LP_1|PROGRAMA_1|CATEG_1|Periodo_Inicio_1|Periodo_Fim_1|Resp_prog|Resp_LP1
K4784683U0|99999|PAULO ROBERTO BERGAMASCHI|40|UFG@UFG.br|MO|MO|P|2013|2016||
K4210286Y0|99999|MURIS LAGE JUNIOR|40|UFG@UFG.br|MO|MO|P|2013|2016||
K4756389Z0|99999|MICHELLE ANDRADE|40|UFG@UFG.br|MO|MO|P|2013|2016||
K4702141E9|99999|MARCOS NAPOLEAO RABELO|40|UFG@UFG.br|MO|MO|P|2013|2016||
K4400485Y9|99999|MARCOS AURELIO BATISTA|40|UFG@UFG.br|MO|MO|P|2013|2016||
K4799293A1|99999|MARCELO HENRIQUE STOPPA|40|UFG@UFG.br|MO|MO|P|2013|2016||
K4709568A6|99999|JOSE DOS REIS VIEIRA DE MOURA JUNIOR|40|UFG@UFG.br|MO|MO|P|2013|2016||
K4751503E9|99999|HELIO YOCHIHIRO FUCHIGAMI|40|UFG@UFG.br|MO|MO|P|2013|2016||
K4750483A1|99999|WELLINGTON ANDRADE DA SILVA|40|UFG@UFG.br|MO|MO|P|2013|2016||
K4735590Y6|99999|VASTON GONCALVES DA COSTA|40|UFG@UFG.br|MO|MO|P|2013|2016||
K4764956A1|99999|HEBER MARTINS DE PAULA|40|UFG@UFG.br|MO|MO|P|2013|2016||
K4169590P3|99999|FRAN SERGIO LOBATO|40|UFG@UFG.br|MO|MO|P|2013|2016||
K4701479Y1|99999|DONALD MARK SANTEE|40|UFG@UFG.br|MO|MO|P|2013|2016||
K4201782Z6|99999|CELSO VIEIRA ABUD|40|UFG@UFG.br|MO|MO|P|2013|2016||
K4700610T1|99999|TOBIAS ANDERSON GUIMARAES|40|UFG@UFG.br|MO|MO|P|2013|2016||
K4715919E4|99999|THIAGO ALVES DE QUEIROZ|40|UFG@UFG.br|MO|MO|P|2013|2016||
K4330723P0|99999|SERGIO FRANCISCO DA SILVA|40|UFG@UFG.br|MO|MO|P|2013|2016||
K4737737P7|99999|ROMES ANTONIO BORGES|40|UFG@UFG.br|MO|MO|P|2013|2016||
K4794552Z3|99999|ROBERTO MENDES FINZI NETO|40|UFG@UFG.br|MO|MO|P|2013|2016||
