strict graph grafo1 {
	graph [bb="0,0,1540,179",
		id=grafo1,
		overlap=False
	];
	node [fontsize=8,
		label="\N",
		shape=rectangle,
		style=filled
	];
	0	 [URL="http://lattes.cnpq.br/9568978600271651",
		color="#17272B",
		fontcolor="#FFFFFF",
		height=0.23611,
		label="Kátia C. Rodrigues Madruga [0]",
		pos="60,170.5",
		width=1.6667];
	1	 [URL="http://lattes.cnpq.br/1594563006260546",
		color="#17272B",
		fontcolor="#FFFFFF",
		height=0.23611,
		label="Juarez Bento da Silva [10]",
		pos="189,170.5",
		width=1.4028];
	6	 [URL="http://lattes.cnpq.br/0007890894387249",
		color="#17272B",
		fontcolor="#FFFFFF",
		height=0.23611,
		label="Simone M. Sommer Bilessimo [3]",
		pos="189,116.5",
		width=1.7639];
	1 -- 6	 [pos="189,161.83 189,152 189,135.05 189,125.2"];
	7	 [URL="http://lattes.cnpq.br/0122916218414168",
		color="#17272B",
		fontcolor="#FFFFFF",
		height=0.23611,
		label="Roderval Marcelino [12]",
		pos="140,62.5",
		width=1.3333];
	1 -- 7	 [pos="164.61,161.98 147.66,155.33 126.33,143.8 116,125.5 105.55,107.01 122.52,83.069 132.89,71.066"];
	17	 [URL="http://lattes.cnpq.br/5501474017902654",
		color="#17272B",
		fontcolor="#FFFFFF",
		height=0.23611,
		label="Vilson Gruber [11]",
		pos="216,8.5",
		width=1.0833];
	1 -- 17	 [pos="213.06,161.89 229.78,155.2 250.82,143.64 261,125.5 282.56,87.066 241.18,36.225 223.48,17.157"];
	6 -- 7	 [pos="181.77,107.83 172.51,97.996 156.54,81.051 147.26,71.204"];
	6 -- 17	 [pos="190.94,107.88 195.92,88.319 209.11,36.536 214.08,17.054"];
	7 -- 17	 [pos="151.21,53.827 165.67,43.939 190.63,26.856 204.99,17.035"];
	2	 [URL="http://lattes.cnpq.br/4046984728286369",
		color="#17272B",
		fontcolor="#FFFFFF",
		height=0.23611,
		label="Joao B. da Mota Alves [0]",
		pos="318,170.5",
		width=1.4028];
	3	 [URL="http://lattes.cnpq.br/4058978461118686",
		color="#17272B",
		fontcolor="#FFFFFF",
		height=0.23611,
		label="Giovani Mendonça Lunardi [1]",
		pos="450,170.5",
		width=1.625];
	5	 [URL="http://lattes.cnpq.br/9999217523842385",
		color="#17272B",
		fontcolor="#FFFFFF",
		height=0.23611,
		label="Eliane Pozzebon [10]",
		pos="417,116.5",
		width=1.1806];
	3 -- 5	 [pos="445.13,161.83 438.89,152 428.14,135.05 421.89,125.2"];
	12	 [URL="http://lattes.cnpq.br/6348215204947696",
		color="#17272B",
		fontcolor="#FFFFFF",
		height=0.23611,
		label="Luciana Bolan Frigo [10]",
		pos="420,8.5",
		width=1.3611];
	3 -- 12	 [pos="454.13,161.79 463.82,142.61 485.96,91.52 469,53.5 461.83,37.42 445.55,24.763 433.72,17.231"];
	5 -- 12	 [pos="404.37,107.99 387.61,96.993 361.23,75.411 371,53.5 378.17,37.42 394.45,24.763 406.28,17.231"];
	10	 [URL="http://lattes.cnpq.br/8339563650267766",
		color="#17272B",
		fontcolor="#FFFFFF",
		height=0.23611,
		label="Olga Yevseyeva [2]",
		pos="420,62.5",
		width=1.1111];
	5 -- 10	 [pos="417.44,107.83 418.01,97.996 418.99,81.051 419.56,71.204"];
	10 -- 12	 [pos="420,53.827 420,43.996 420,27.051 420,17.204"];
	4	 [URL="http://lattes.cnpq.br/9722066254398087",
		color="#17272B",
		fontcolor="#FFFFFF",
		height=0.23611,
		label="Fernando Jose Spanhol [0]",
		pos="578,170.5",
		width=1.4167];
	8	 [URL="http://lattes.cnpq.br/0816918235211326",
		color="#17272B",
		fontcolor="#FFFFFF",
		height=0.23611,
		label="Paulo C. Leite Esteves [0]",
		pos="697,170.5",
		width=1.3889];
	9	 [URL="http://lattes.cnpq.br/4619779231164354",
		color="#17272B",
		fontcolor="#FFFFFF",
		height=0.23611,
		label="Patricia Jantsch Fiuza [0]",
		pos="814,170.5",
		width=1.3611];
	11	 [URL="http://lattes.cnpq.br/9274837225584499",
		color="#17272B",
		fontcolor="#FFFFFF",
		height=0.23611,
		label="Márcio Vieira de Souza [0]",
		pos="933,170.5",
		width=1.4444];
	13	 [URL="http://lattes.cnpq.br/7481868767930127",
		color="#17272B",
		fontcolor="#FFFFFF",
		height=0.23611,
		label="Robson Rodrigues Lemos [0]",
		pos="1059,170.5",
		width=1.5417];
	14	 [URL="http://lattes.cnpq.br/0540194149670095",
		color="#17272B",
		fontcolor="#FFFFFF",
		height=0.23611,
		label="Andréa Cristina Trierweiller [0]",
		pos="1192,170.5",
		width=1.6528];
	15	 [URL="http://lattes.cnpq.br/3424804303469383",
		color="#17272B",
		fontcolor="#FFFFFF",
		height=0.23611,
		label="Anderson L. Fernandes Perez [0]",
		pos="1331,170.5",
		width=1.6944];
	16	 [URL="http://lattes.cnpq.br/5138758521691630",
		color="#17272B",
		fontcolor="#FFFFFF",
		height=0.23611,
		label="Alexandre Leopoldo Gonçalves [0]",
		pos="1475,170.5",
		width=1.8056];
}
