artigoEmPeriodico	2013		Levantamento Exploratório sobre o tema Gestão Ambiental no Setor da Construção	Espacios (Caracas)	CAMPOS, L. M. S. ; TRIERWEILLER, A. C. ; BORNIA, A. C. ; CARVALHO, D. N. ; SANTOS, T. H. S. ; PEIXE, B. C. S.	B1	
artigoEmPeriodico	2013		Um levantamento exploratório de referencial teórico sobre o tema custos ambientais	Custos e @gronegócio Online	CAMPOS, L. M. S. ; TRIERWEILLER, A. C. ; CARVALHO, D. N. ; SANTOS, T. H. S. ; BORNIA, A. C.	B2	
artigoEmPeriodico	2013		Extensão e Gestão Universitária: um estudo do Projeto Chiquitos na Chiquitania Boliviana	Espacios (Caracas)	DELGADO, A. S. ; BOHN, C. S. ; DANDOLIN, G. A. ; ALVES, J. B. M.	B1	
artigoEmPeriodico	2013	http://dx.doi.org/10.5339/qproc.2013.mlearn.6	Large Scale Deployment of Tablet Computers in High Schools in Brazil	QScience Proceedings	FARIAS, GIOVANNI ; ALLY, MOHAMED ; DE SOUZA PINTO, CLAUDIA ALEXANDRA ; SPANHOL, FERNANDO JOSÉ	Qualis nao identificado	QScience Proceedings
artigoEmPeriodico	2013		Motivos para adesão e permanência discente em cursos na modalidade de educação a distância	Psicologia: Ciência e Profissão (Impresso)	FIUZA, P. J.; SARRIERA, J. C.	A2	
artigoEmPeriodico	2013		Tradução, adaptação e validação da Escala de Avaliação de Fatores de Motivação com Relação à Integração das Tecnologias de Informação e Comunicação do Ensino (EMITICE).	Psicologia Escolar e Educacional (Impresso)	FIUZA, P. J.; SARRIERA, J. C. ; BEDIN, L. M.	B1	
artigoEmPeriodico	2013		O gerenciamento da cadeia de suprimentos: Um estudo de caso no frigorífico Alfa	Revista do CCEI	FLORES, R. D. ; WEISE, A.D. ; CORREA, A. C. ; TRIERWEILLER, A. C. ; PEIXE, B. C. S.	B3	
artigoEmPeriodico	2013		Principios decisórios para diminuição dos riscos de Integração após fusão e aquisição.	Espacios (Caracas)	FREIRE, P S. ; SPANHOL, F. J.	B1	
artigoEmPeriodico	2013		DIAGNÓSTICO DA CAPACITAÇÃO ORGANIZACIONAL PARA O TRABALHO EM EQUIPE	Navus Revista de Gestão e Tecnologia	FREIRE, P. S. ; JENOVEVA NETO, R. ; SPANHOL, F. J. ; MONTIBELLER-FILHO, G.	B5	
artigoEmPeriodico	2013		Knowledge sharing and creation: defining the concepts and relationships between the terms	Espacios (Caracas)	Freire, P. S. ; UENO, A. T. ; CARVALHO, I. M. ; SPANHOL, F. J.	B1	
artigoEmPeriodico	2013		EL ANÁLISIS DE LA DIFERENCIA DE GÉNERO EN LA EDUCACIÓN. ESTUDIO DE CASO EN ARARANGUÁ-BRASIL	Mundo Nuevo: revista de estudios latinoamericanos	FRIGO, L. B. ; YEVSEYEVA, OLGA ; Pozzebon, Eliane	B3	
artigoEmPeriodico	2013		Modelo de Descoberta de Conhecimentos e Interesses Baseado em Insumos Textuais Eletrônicos: Uma proposta para apoio a Gestão do Capital Humano	Revista Gestão & Tecnologia	GONÇALVES, Alexandre L.; MORALES, A. B. T. ; BORDIN, A. S.	B3	
artigoEmPeriodico	2013	http://dx.doi.org/10.3991/ijoe.v9is1.2233	Technology PLC - Power Line Communication, Used in Monitoring Systems Online	international journal of online engineering (IJOE)	Gruber, Vilson ; Marcelino, Roderval ; DA SILVA, JUAREZ BENTO	B4	International Journal of Online Engineering
artigoEmPeriodico	2013		Aplicação da experimentação remota no ensino básico através de dispositivos móveis	Revista Técnico-Científica do IFSC	LIMA, J. P. C. ; SIMÃO, J.P.S. ; ROCHADEL, W. ; SILVA, J. B.	C	
artigoEmPeriodico	2013		A distinção entre ?sentir? e ?experimentar? na filosofia moral de Hume	Controvérsia (UNISINOS)	LUNARDI, G. M	B3	
artigoEmPeriodico	2013		Sistemas embarcados com Gnu Linux para aplicações em laboratórios de experimentação remota	Revista Técnico-Científica do IFSC	MACIEL, D. ; ROCHADEL, W. ; SILVA, J. B.	C	
artigoEmPeriodico	2013	http://dx.doi.org/10.3991/ijoe.v9i1.2298	Remote Educational Experiment Applied To Electrical Engineering	international journal of online engineering (IJOE)	MARCELINO, RODERVAL ; NETO, JOÃO MOTA ; PEREIRA, CARLOS EDUARDO ; GRUBER, VILSON ; SILVA, JUAREZ BENTO DA ; PALADINI, SUENONI	B4	
artigoEmPeriodico	2013	http://dx.doi.org/10.3991/ijoe.v9is1.2353	Immersive Learning Environment Using 3D Virtual Worlds and Integrated Remote Experimentation	international journal of online engineering (IJOE)	MARCELINO, RODERVAL ; SILVA, JUAREZ BENTO DA ; GRUBER, VILSON ; BILESSIMO, SIMONE MEISTER	B4	International Journal of Online Engineering
artigoEmPeriodico	2013		O portal e-democracia da Câmara dos Deputados como sistema sócio-tecnológico	Democracia Digital e Governo Eletrônico	MEZZAROBA, M. P. ; SEWALD JUNIOR, E. ; ALVES, J. B. M. ; ROVER, A. J.	B5	
artigoEmPeriodico	2013		Uma visão geral sobre os equipamentos utilizados no processo de forjamento	Ferramental (Curitiba)	MICHELS, L. B. ; Lima, D.R.S. ; SCHAEFFER, L. ; GRUBER, V. ; SCHAEFFER, L.	B4	
artigoEmPeriodico	2013		A herança cultural e a violência simbólica no ensino técnico: reflexões a partir do curso de Moda do IF-SC de Araranguá	Educação e Cultura Contemporânea	MICHELS, L. B. ; VOLPATO, G. ; GRUBER, V.	B1	
artigoEmPeriodico	2013	http://dx.doi.org/10.3991/ijoe.v9is8.3325	Didactic Press for Remote Experimentation Applied in Spring to Study Hooke's Law	International Journal of Online Engineering	MICHELS, LUCAS BOEIRA ; GRUBER, VILSON ; SCHAEFFER, LIRIO ; MARCELINO, RODERVAL ; CASAGRANDE, LUAN CARLOS ; GUERRA, SARAH DE REZENDE	B4	
artigoEmPeriodico	2013	http://dx.doi.org/10.3991/ijoe.v9is3.2538	Extending access to remote labs from mobile devices in educational contexts	International Journal of Online Engineering	ROCHADEL, WILLIAN ; BENTO DA SILVA, JUAREZ ; SIMÃO, JOSÉ PEDRO ; RIBEIRO ALVES, GUSTAVO ; MARCELINO, RODERVAL ; GRUBER, VILSON	B4	
artigoEmPeriodico	2013		Application of Mobile Devices and Remote Experiments for Physics Teaching in Elementary Education	Proceedings Paper: IEEE Global Engineering Education Conference (EDUCON)	ROCHADEL, WILLIAN ; SIMÃO, J.P.S. ; SILVA, J. B. ; FIDALGO, A.V.	Qualis nao identificado	Proceedings Paper: IEEE Global Engineering Education Conference (EDUCON)
artigoEmPeriodico	2013		A UTILIZAÇÃO DE ROBÓTICA NAS DISCIPLINAS DA EDUCAÇÃO BÁSICA	Revista Técnico-Científica do IFSC	SANTOS, T. N. ; POZZEBON, Eliane ; FRIGO, L. B.	C	
artigoEmPeriodico	2013		O bem-estar pessoal dos adolescentes através do seu tempo livre	Estudos de Psicologia (UFRN)	SARRIERA, J. C. ; PARADISO, A. C. ; CRUZ, D. A. ; SOARES, D. H. P. ; SILVA, C. L. ; FIUZA, P. J.	A2	
artigoEmPeriodico	2013		DESENVOLVIMENTO DE UM VEÍCULO AUTÔNOMO INTELIGENTE PARA TAREFAS DE NAVEGAÇÃO LIVRE DE COLISÕES	Evolvere Scientia	SILVA, I. R. A. ; PEREZ, A. L. F.	Qualis nao identificado	Evolvere Scientia
artigoEmPeriodico	2013	http://dx.doi.org/10.1109/RITA.2013.2273108	Utilization of NICTs Applied to Mobile Devices	IEEE-RITA	SILVA, J. B. ; ROCHADEL, WILLIAN ; GRUBER, V. ; MARCELINO, R.	B2	
artigoEmPeriodico	2013		Uso de dispositivos móveis para acesso a Experimentos Remotos na Educação Básica	VAEP RITA	SILVA, J. B.; ROCHADEL, W. ; SIMÃO, J.P.S. ; SIMÃO, J.P.S. ; FIDALGO, A.V.	Qualis nao identificado	VAEP RITA
artigoEmPeriodico	2013		Games educacionais baseados em experimentação remota móvel	Revista Técnico-Científica do IFSC	SIMÃO, J.P.S. ; LIMA, J. P. C. ; ROCHADEL, W. ; SILVA, J. B.	C	
artigoEmPeriodico	2013		Utilização de Experimentação Remota Móvel no Ensino Médio	RENOTE. Revista Novas Tecnologias na Educação	SIMÃO, J.P.S. ; LIMA, J. P. C. ; SILVA, J. B. ; ROCHADEL, W.	B3	
artigoEmPeriodico	2013		Management of Mechanical Vibration and Temperature in Small Wind Turbines Using Zigbee Wireless Network	Revista IEEE América Latina	SPACEK, A. ; ANDO JR, O. H. ; MOTA NETO, J. ; COELHO, V. L. ; OLIVEIRA, M. O. ; GRUBER, V. ; SCHAEFFER, L.	B1	
artigoEmPeriodico	2013	http://dx.doi.org/10.5592/otmcj.2013.2.8	Environmental Management In Project Oriented Companies Within Construction Sector	Organization, Technology & Management in Construction: An International Journal	SRDI', ALEKSANDER ; CAMPOS, LUCILA M. S. ; TRIERWEILLER, ANDREA C. ; ?ELIH, JANA	Qualis nao identificado	Organization, Technology & Management in Construction: An International Journal
artigoEmPeriodico	2013		Responsabilidade Social Corporativa: um estudo de caso na empresa Beta	Revista Produção Online	TRIERWEILLER, A. C.; SPENASSATO, D. ; PEIXE, B. C. S. ; TOMAZ, R. S. ; BORNIA, Antonio Cezar ; BORNIA, Antonio Cezar ; TEZZA, R. ; BORTOLOTTI, S.L.V.	B2	
artigoEmPeriodico	2013	http://dx.doi.org/10.1016/j.jclepro.2012.10.025	Measuring environmental management disclosure in industries in Brazil with Item Response Theory	Journal of Cleaner Production	TRIERWEILLER, ANDRÉA CRISTINA; SEVERO PEIXE, BLÊNIO CEZAR ; TEZZA, Rafael ; BORNIA, ANTONIO CEZAR ; CAMPOS, LUCILA M.S.	A1	
artigoEmPeriodico	2013	http://dx.doi.org/10.3991/ijep.v3iS2.2397	Impact of different Moodle Course Designs on Students Performance	International Journal of Engineering Pedagogy (iJEP)	VIEGAS, MARIA C. ; MARQUES, MARIA A. ; COSTA-LOBO, MARIA C. ; SILVA, ANTONIO A. ; FORMANSKI, F.N. ; DA SILVA, JUAREZ B. ; SILVA, J. B.	Qualis nao identificado	International Journal of Engineering Pedagogy (iJEP)
artigoEmPeriodico	2013		Contramedidas da especulação imobiliária no mercado residencial	Cadernos de Arquitetura e Urbanismo (PUCMG)	WEISE, A.D. ; PHILIPS, J. W. ; HOCHHEIM, N. ; TRIERWEILLER, A. C. ; BORNIA, A. C.	Qualis nao identificado	Cadernos de Arquitetura e Urbanismo (PUCMG)
artigoEmPeriodico	2013	http://dx.doi.org/10.1590/S1413-99362013000300003	Mineração de textos biomédicos: uma revisão bibliométrica	Perspectivas em Ciência da Informação (Impresso)	WOSZEZENKI, C. ; GONÇALVES, Alexandre L.	A2	
trabalhoCompletoEmCongresso	2013		Environmental Management in Project Oriented Companies	11th International Conference: Organization	?ELIH, J. ; SRDI#262 ; CAMPOS, L. M. S. ; TRIERWEILLER, A. C.		
trabalhoCompletoEmCongresso	2013		Análise da Produção Científica do Simpósio Internacional sobre Interdisciplinaridade no Ensino, na Pesquisa e na Extensão ? Região Sul	Simpósio Internacional sobre Interdisciplinaridade no Ensino	BORDIN, A. S. ; CECI, F. ; GONÇALVES, Alexandre L. ; GAUTHIER, F. A. O. ; PACHECO, R. C. S.		
trabalhoCompletoEmCongresso	2013		Custos Ambientais: Levantamento Exploratório da Produção Científica na Área	XIII Congresso do Instituto Internacional de Custos	BORNIA, A. C. ; TRIERWEILLER, A. C. ; SPENASSATO, D.		
trabalhoCompletoEmCongresso	2013		Jogo computacional 3D no ensino de física	XII Simpósio Brasileiro de Jogos e Entretenimento Digital (SBGames 2013)	CALEGARI, P. ; QUIRINO, S. ; FRIGO, L. B. ; POZZEBON, Eliane		
trabalhoCompletoEmCongresso	2013		Environmental Management System ISO 14001: Comparative Analysis of Business Sectors between Regions and Countries	4th International Workshop Advances in Cleaner Production	CAMPOS, L. M. S. ; SANTOS, T. H. S. ; SPENASSATO, D. ; TRIERWEILLER, A. C. ; BORNIA, A. C. ; CARVALHO, D. N.		
trabalhoCompletoEmCongresso	2013		Characteristics of Environmental Management Systems in the Construction Industry	4th International Workshop Advances in Cleaner Production	CAMPOS, L. M. S. ; TRIERWEILLER, A. C. ; CARVALHO, D. N. ; BORNIA, A. C. ; SANTOS, T. H. S. ; SPENASSATO, D. ; ?ELIH, J.		
trabalhoCompletoEmCongresso	2013		Teoria da Resposta ao Item: Levantamento Exploratório da Produção Científica	III Conbratri - Congresso Braslieiro de Teoria de Resposta ao Item	CASTRO, R. B. ; SANTOS, T. H. S. ; TRIERWEILLER, A. C. ; CAMPOS, L. M. S. ; BORNIA, A.C.		
trabalhoCompletoEmCongresso	2013		Museu de arqueologia subaquática: patrimônio preservado	XIII Semana de Engenharia de Produção Sul-americana ? SEPROSUL	CORREA, P. M. ; TRIERWEILLER, A. C. ; WEISE, A.D. ; BORNIA, A. C.		
trabalhoCompletoEmCongresso	2013	http://dx.doi.org/10.1109/CISPEE.2013.6701967	Remote experimentation using mobile devices	2013 1st International Conference of the Portuguese Society for Engineering Education (CISPEE)	DA SILVA FIDALGO, ANDRE VAZ ; ROCHANDEL, WILLIAM ; BENTO DA SILVA, JUAREZ		
trabalhoCompletoEmCongresso	2013		O Ciclo de Gestão do Conhecimento na Prática: um estudo nos núcleos empresariais catarinenses	Congresso Internacional do Conhecimento e Inovação	DAVILA, G. A. ; FRAGA, B. D. ; DIANA, J. B. ; SPANHOL, F. J.		
trabalhoCompletoEmCongresso	2013		Estudo da Células Fotovoltaicas e suas Características para a Aplicabilidade no Clima Brasileiro	3ª RenoMat - Conferência Internacional de Materiais e Processos para Energias Renováveis	DRESH, H. ; MARCELINO, R. ; SCHAEFFER, L. ; GRUBER, V. ; PEROZA, J. ; ESPINDOLA, G.		
trabalhoCompletoEmCongresso	2013		A Geração e o Desenvolvimento de Ideias em Organizações Empreendedoras	X Congresso Online de Administração	ESPER, A. ; Kracik, M. ; REZENDE, M. S. C. ; GOMES, R. K. ; ALVES, J. B. M.		
trabalhoCompletoEmCongresso	2013		Estudo da Aplicabilidade de Células Fotovoltaicas a Revestimentos Metálicos	3ª RenoMat - Conferência Internacional de Materiais e Processos para Energias Renováveis	ESPINDOLA, G. ; GRUBER, V. ; DRESH, H. ; GUERRA, M. M. ; MARCELINO, R.		
trabalhoCompletoEmCongresso	2013		Universidade como Centro de um Sistema Regional de Inovação	XIII Colóquio Internacional de Gestión Universitária en América del Sur	ESTEVES, P. C. L.; SILVA, S. M.		
trabalhoCompletoEmCongresso	2013	http://dx.doi.org/10.1063/1.4804089	Test of 3D CT reconstructions by EM + TV algorithm from undersampled data	XXXV BRAZILIAN WORKSHOP ON NUCLEAR PHYSICS	EVSEEV, I. ; Ahmann, F. ; DA SILVA, HAMILTON P. ; Schelin, H.R. ; YEVSEYEVA, Olga ; KLOCK, M. C. L.		
trabalhoCompletoEmCongresso	2013		Certificação ISO 14001: estudo de casos múltiplos nas empresas catarinenses	XX Simpep - Simpósio de Engenharia de Produção	FIGUEIREDO, C. E. M. ; SARTORI, S. ; TRIERWEILLER, A. C. ; CAMPOS, L. M. S.		
trabalhoCompletoEmCongresso	2013		Diagnostico da Capacitação Organizacional para o Trabalho em Equipe	Congresso Internacional do Conhecimento e Inovação	FREIRE, P S. ; SPANHOL, F. J. ; JENOVEVA NETO, R.		
trabalhoCompletoEmCongresso	2013		Análise da Diferença de Gênero na Educação: Estudo de caso na cidade de Araranguá - Sul do Brasil	CLEI - Conferencia Latino Americana en Informática	FRIGO, L. B. ; YEVSEYEVA, O. ; POZZEBON, Eliane		
trabalhoCompletoEmCongresso	2013	http://dx.doi.org/10.5753/CBIE.WCBIE.2013.345	Tecnologias Computacionais como Práticas Motivacionais no Ensino Médio	Worshops do II Congresso Brasileiro de Informática na Educação	FRIGO, Luciana Bolan ; CARDOSO, PAMELA ; CARDOSO, JOICE PREUSS ; FONTANA, CAROLINE ; IRIZAGA, AMANDA ; VICTORY, NATÁLIA ; Pozzebon, Eliane ; YEVSEYEVA, OLGA		
trabalhoCompletoEmCongresso	2013		Raspberry Pi e experimentação remota	ICBL 2013- International Conference on Interactive Computer Blended Learning	Marcelino, Roderval; CROTTI, Y. ; SILVA, J. B. ; GRUBER, V. ; CASAGRANDE, L. C. S.		
trabalhoCompletoEmCongresso	2013		Modelo Conceitual para Criação de Jogos Educativos Digitais	Congresso Internacional do Conhecimento e Inovação	JAPPUR, R. F. ; FORCELINI, F. A. ; SPANHOL, F. J.		
trabalhoCompletoEmCongresso	2013		Sistemas de B-Learning e suas Vantagens	ICBL2013 - International Conference on Interactive Computer Aided Blended Learning	Leite, T. R. ; SOUZA, R. P. L. ; ALVES, J. B. M.		
trabalhoCompletoEmCongresso	2013		Utilização da experimentação remota móvel em disciplina de física do ensino médio	ICBL 2013 - International Conference on Interactive Computer	LIMA, J. P. C. ; ROCHADEL, W. ; SILVA, J. B.		
trabalhoCompletoEmCongresso	2013		Vitual World 3D - An educational tool for the early years of elementary school	2nd Experiment@ International Conference ? Online Experimentation	MARCELINO, R. ; SILVA, J. B. ; GRUBER, V. ; BILESSIMO, S.M.S. ; OLIVEIRA, J. ; SANTANA, S. B. ; MELLO, I.		
trabalhoCompletoEmCongresso	2013		Sistema Embarcado para o Controle e Aquisição de Dados de uma Luminária Pública de LED com Alimentação Híbrida	3ª RenoMat - Conferência Internacional de Materiais e Processos para Energias Renováveis	MARCELINO, R.; AMOROSO, M. M. ; MOTA NETO, J. ; SILVA, M. M.		
trabalhoCompletoEmCongresso	2013		Sistema Híbrido , Fotovoltaico, Eólico e Conectado à Rede Elétrica para Iluminação a LED	3ª RenoMat - Conferência Internacional de Materiais e Processos para Energias Renováveis	MARCELINO, R.; SILVA, M. M. ; AMOROSO, M. M.		
trabalhoCompletoEmCongresso	2013		Virtual World 3D - An Educational Tool For The Early of Elementary School	2nd Experiment@ Internacional Conference	MARCELINO, RODERVAL ; SILVA, J. B. ; GRUBER, V. ; BILESSIMO, SIMONE MEISTER ; OLIVEIRA, J. ; SANTANA, S.B. ; MELLO, I.		
trabalhoCompletoEmCongresso	2013		Utilização de mundos virtuais 3D para a educação básica	ICBL 2013- International Conference on Interactive Computer Blended Learning	Marcelino, Roderval; MELLO, I. ; OLIVEIRA, J. ; SANTANA, S. B.		
trabalhoCompletoEmCongresso	2013		Mundo Virtual 3D aplicado aos Anos Iniciais do Ensino Fundamental	ICBL 2013- International Conference on Interactive Computer Blended Learning	Marcelino, Roderval; MENDES, G. M. L. ; SILVA, J. B. ; GRUBER, V. ; OLIVEIRA, J. ; SANTANA, S. B. ; MELLO, I.		
trabalhoCompletoEmCongresso	2013		Mundo Virtual 3D aplicado aos Anos Iniciais do Ensino Fundamental	ICBL 2013- International Conference on Interactive Computer Blended Learning	Marcelino, Roderval; MENDES, G. M. L. ; SILVA, J. B. ; GRUBER, V. ; OLIVEIRA, J. ; SANTANA, S. B. ; MELLO, I.		
trabalhoCompletoEmCongresso	2013		Experimentação remota usando Prensa didática para estudo de propriedades elásticas dos Materiais	COBENGE 2013- XLI Congresso Brasileiro de Educação em Engenharia	MICHELS, L. B. ; GRUBER, V. ; SCHAEFFER, L. ; MARCELINO, R.		
trabalhoCompletoEmCongresso	2013		Desenvolvimento de experimento remoto para introdução à iniciação ci entífica no Ensino Técnico aplicado ao tema Lei de Hooke	ICBL 2013- International Conference on Interactive Computer Blended Learning	MICHELS, L. B. ; GRUBER, V. ; Marcelino, Roderval ; SCHAEFFER, L. ; FERREIRA, G. S.		
trabalhoCompletoEmCongresso	2013	http://dx.doi.org/10.1109/ExpAt.2013.6703076	Using remote experimentation for study on engineering concepts through a didactic press	2013 2nd Experiment@ International Conference (exp.at'13)	MICHELS, LUCAS BOEIRA ; GRUBER, VILSON ; SCHAEFFER, LIRIO ; MARCELINO, RODERVAL ; BENTO DA SILVA, JUAREZ ; DE RESENDE GUERRA, SARAH		
trabalhoCompletoEmCongresso	2013		A influência dos Valores Religiosos no Processo de Tomada de Decisão nas Organizações Empreendedoras	CONVIBRA: X Congreso en Línea de Administración	MIGUEL, A. M. ; PEIXE, B. C. S. ; GARCIA, J. R. ; LEZANA, A. G. R. ; TRIERWEILLER, A. C.		
trabalhoCompletoEmCongresso	2013		Virtual Environment as a Tool Support the Studyng of the Digestive Sytem in Public Schools	International Conference on Interactive Computer	MINATTO, S. G. ; POZZEBON, Eliane		
trabalhoCompletoEmCongresso	2013		Marco regulatório ambiental das políticas públicas no estado do Paraná: um estudo exploratório dos municípios com mais de 106 mil habitantes	XV Encontro Internacional sobre Gestão Empresarial e Meio Ambiente	PEIXE, B. C. S. ; MIGUEL, A. M. ; BORNIA, A.C. ; TRIERWEILLER, A. C.		
trabalhoCompletoEmCongresso	2013		Business Certifications for ISO 14001: Descriptive and Comparative Study of the Evolution Over the Period 2000 to 2010	4th International Workshop Advances in Cleaner Production	PEIXE, B. C. S. ; TRIERWEILLER, A. C. ; SPENASSATO, D. ; TEZZA, R.		
trabalhoCompletoEmCongresso	2013		Robótica no Processo de Ensino Aprendizagem	ICBL 2013 - : International Conference on Interactive Computer,	POZZEBON, Eliane; FRIGO, Luciana B.		
trabalhoCompletoEmCongresso	2013		Jogos Computacionais Educacionais e Inclusão da Cultura Regional	ICBL 2013 - : International Conference on Interactive Computer,	POZZEBON, Eliane; FRIGO, Luciana B. ; PEREIRA, L. P. ; ROQUE, A. J. D.		
trabalhoCompletoEmCongresso	2013		Tecnologias da Informação e Comunicação para Professores da Educação Básica	ICBL 2013 - International Conference on Interactive Computer aided Blended Learning	POZZEBON, Eliane; LUNARDI, G. M. ; FRIGO, Luciana Bolan		
trabalhoCompletoEmCongresso	2013		Programação de Computadores no Ensino Médio	ICBL 2013 - : International Conference on Interactive Computer,	POZZEBON, Eliane; MACHADO, G. ; MINATTO, S. G. ; IZE, M. J. ; FRIGO, Luciana B.		
trabalhoCompletoEmCongresso	2013		Desenvolvimento de um Robô Explorador para Ambientes Indoor	2º Simpósio de Integração Científica do Sul Catarinense	PUNTEL, F. E. ; NANDI, G. C. S. ; SCHUEROFF, J. ; PEREZ, A. L. F.		
trabalhoCompletoEmCongresso	2013	http://dx.doi.org/10.1109/REV.2013.6502905	Educational application of remote experimentation for mobile devices	2013 10th International Conference on Remote Engineering and Virtual Instrumentation (REV)	ROCHADEL, W. ; DA SILVA, JUAREZ BENTO ; SIMÃO, J.P.S. ; DA COSTA ALVES, GUSTAVO RIBEIRO		
trabalhoCompletoEmCongresso	2013	http://dx.doi.org/10.1109/EduCon.2013.6530210	Application of mobile devices and remote experiments for physics teaching in elementary education	2013 IEEE Global Engineering Education Conference (EDUCON)	ROCHADEL, WILLIAN ; BENTO DA SILVA, JUAREZ ; SHARDOSIM SIMAO, JOSE PEDRO ; FIDALGO, ANDRE VAZ DA SILVA		
trabalhoCompletoEmCongresso	2013		Análise Sistêmica de uma Estratégia de Manutenção e Disseminação do Conhecimento Aplicada no Contexto da Segurança Pública	Congresso Brasileiro de Sistemas	ROSA, A. J. P. ; COSTA, L. A. ; ALVES, J. B. M.		
trabalhoCompletoEmCongresso	2013		Robótica Aplicada à Educação Especial	ICBL 2013 - : International Conference on Interactive Computer,	SANTOS, T. N. ; POZZEBON, Eliane ; FRIGO, Luciana B.		
trabalhoCompletoEmCongresso	2013		A utilização de robótica nas disciplinas da Educação Básica	2º SICT-SUL - Simpósio de Integração Científica e Tecnológica do Sul Catarinense	SANTOS, T. N. ; POZZEBON, Eliane ; FRIGO, Luciana Bolan		
trabalhoCompletoEmCongresso	2013		Designer instrucional: da formação múltipla a atuação interdisciplinar	Simpósio Internacional sobre Interdisciplinaridade no Ensino	SILVA, A.R.L. ; DIANA, J. B. ; SPANHOL, FERNANDO JOSÉ		
trabalhoCompletoEmCongresso	2013		Construção do Conhecimento na EAD:uma reflexão a luz do Material didático	III Coloquio Luso Brasileiro de Educação a Distância e Elearning	SILVA, A.R.L. ; SPANHOL, F. J. ; SARTORI, V.		
trabalhoCompletoEmCongresso	2013		Elaborando material didático em EaD: uma abordagem centrada na equipe multidisciplinar	19 Congresso Internacional ABED de Educação a Distância	SILVA, A.R.L. ; SPANHOL, FERNANDO JOSÉ		
trabalhoCompletoEmCongresso	2013		Aplicação de Hardware de Baixo Custo na Automação Residencial	2º Simpósio de Integração Científica do Sul Catarinense	SILVA, E. G. ; PEREZ, A. L. F.		
trabalhoCompletoEmCongresso	2013		Using mobile remote experimentation to teach physics in public school	ICBL 2013- International Conference on Interactive Computer Blended Learning	SILVA, J. B. ; Marcelino, Roderval ; GRUBER, V. ; ROCHADEL, WILLIAN ; SIMÃO, JOSÉ PEDRO		
trabalhoCompletoEmCongresso	2013		Estudo sobre métrica avaliativa da aprendizagem: uma integração entre lógica de fuzzy, mapa conceitual e taxonomia educacional	XVIII Congresso Internacional de Informática Educativa - TISE 2013	SILVA, N. V. ; MENDES, E. B. ; ALVES, J. B. M.		
trabalhoCompletoEmCongresso	2013		A Oferta de Valor de Cursos de Graduação em Administração a partir da Estrutura de Preferência dos Alunos	XIII Colóquio Internacional de Gestión Universitária en América del Sur	SILVA, S. M. ; ESTEVES, P. C. L.		
trabalhoCompletoEmCongresso	2013		Metodologia para aplicação de pequenos sistemas fotovoltaicos residenciais conectados a rede conforme normativas da ANEEL	3 RENOMAT	SPACEK, A. D. ; ANDO JUNIOR, O. ; GRUBER, V. ; MARCELINO, R. ; Schaeffer, Lírio		
trabalhoCompletoEmCongresso	2013		Previsão para o Índice Dow Jones de Sustentabilidade usando séries temporais: uma comparação entre modelos ARIMA e suavização exponencial	XV Encontro Internacional sobre Gestão Empresarial e Meio Ambiente	SPENASSATO, D. ; AZEVEDO, V. G. ; TRIERWEILLER, A. C. ; BORNIA, A. C.		
trabalhoCompletoEmCongresso	2013		Métodos quantitativos na gestão de custos: levantamento exploratório da produção científica no Congresso Brasileiro de Custos	XX Congresso Brasileiro de Custos	SPENASSATO, D. ; TRIERWEILLER, A. C. ; FRAZZON, L. S. ; BORNIA, A. C. ; CASTRO, R. B. ; BORGES, H. F.		
trabalhoCompletoEmCongresso	2013		Estudo de Células Fotovoltaicas para Aplicações em Estruturas Metálicas	3ª RenoMat - Conferência Internacional de Materiais e Processos para Energias Renováveis	TORQUATO, J. ; MARCELINO, R.		
trabalhoCompletoEmCongresso	2013		Construção de uma Escala para Avaliar o Comportamento Sustentável de Estudantes Universitários por meio da Teoria da Resposta ao Item	XXXVII Encontro da ANPAD - EnANPAD 2013	TRIERWEILLER, A. C.; BORNIA, A. C. ; CAMPOS, L. M. S. ; SPENASSATO, D. ; AZEVEDO, B.M. de ; ERDMANN, R. H.		
trabalhoCompletoEmCongresso	2013		A indústria da Construção e o Sistema de Gestão Ambiental ISO 14001: Uma análise entre regiões e países	XXXIII ENEGEP - Encontro Nacional de Engenharia de Produção	TRIERWEILLER, A. C.; CAMPOS, L. M. S. ; SPENASSATO, D. ; CARVALHO, D. N. ; SANTOS, T. H. S.		
trabalhoCompletoEmCongresso	2013		Ensino-aprendizagem em gestão estratégica da produção: jogo para as salas de aula da engenharia de produção	XX Simpep - Simpósio de Engenharia de Produção	WEISE, A.D. ; ROOS, C. ; SCHRIPPE, P. ; MEDEIROS, F. S. B. ; TRIERWEILLER, ANDREA C.		
trabalhoCompletoEmCongresso	2013		Jogo didático online na disciplina de Administração Financeira	Adm 2013 - Congresso Internacional de Administração	WEISE, A.D. ; SCHRIPPE, P. ; SILVA, N. C. B. ; SCHIMITH, C. D. ; TRIERWEILLER, A. C.		
trabalhoCompletoEmCongresso	2013		A influência de um software simulador na disciplina de engenharia econômica	XXXIII Encontro Nacional de Engenharia de Produção	WEISE, A.D. ; SCHRIPPE, P. ; TRIERWEILLER, A. C. ; SILVA, N. C. B. ; FLORES, R. D.		
trabalhoCompletoEmCongresso	2013		THICKNESS MEASUREMENT STUDY FOR THIN METAL LAYERS	XVI Encontro de Modelagem Computacional	YEVSEYEVA, Olga; IEVSIEIEVA, Ievgeniia ; ASSIS, Joaquim Teixeira de ; EVSEEV, I.		
resumoExpandidoEmCongresso	2013	Uso da Plataforma Arduino para o Ensino e o Aprendizado de Robótica	International Conference on Interactive Computer aided Blended Learning, 2013, Florianópolis. International Conference on Interactive Computer aided Blended Learning. Vienna, Austria: International Association of Online Engineering (IAOE)	PEREZ, A. L. F.; DAROS, R. R. ; PUNTEL, F. E. ; VARGAS, S. R.		
