strict graph grafo1 {
	graph [bb="0,0,5948.1,287",
		id=grafo1,
		overlap=False
	];
	node [fontsize=8,
		label="\N",
		shape=rectangle,
		style=filled
	];
	0	 [URL="http://lattes.cnpq.br/2275828437667452",
		color="#17272B",
		fontcolor="#FFFFFF",
		height=0.23611,
		label="Nicolino Trompieri Filho [0]",
		pos="520.18,278.5",
		width=1.5139];
	1	 [URL="http://lattes.cnpq.br/6577452599388165",
		color="#17272B",
		fontcolor="#FFFFFF",
		height=0.23611,
		label="Gerardo Cristino Filho [6]",
		pos="145.18,224.5",
		width=1.4028];
	34	 [URL="http://lattes.cnpq.br/1478333245297251",
		color="#17272B",
		fontcolor="#FFFFFF",
		height=0.23611,
		label="Lissiana M. Vasconcelos Aguiar [4]",
		pos="192.18,170.5",
		width=1.8333];
	1 -- 34	 [pos="152.12,215.83 161,206 176.32,189.05 185.22,179.2"];
	41	 [URL="http://lattes.cnpq.br/6899498686139516",
		color="#17272B",
		fontcolor="#FFFFFF",
		height=0.23611,
		label="Vicente de P. Teixeira Pinto [5]",
		pos="98.177,116.5",
		width=1.6389];
	1 -- 41	 [pos="139.34,215.76 133.14,207.25 123.39,192.98 117.18,179.5 108.6,160.89 102.61,137.41 99.871,125.38"];
	62	 [URL="http://lattes.cnpq.br/0614961188016863",
		color="#17272B",
		fontcolor="#FFFFFF",
		height=0.23611,
		label="Mirna Marques Bezerra [13]",
		pos="347.18,62.5",
		width=1.5];
	1 -- 62	 [pos="175.67,215.98 201.24,208.87 238.13,196.73 267.18,179.5 298.32,161.03 308.59,155.95 328.18,125.5 339.39,108.08 344.3,83.672 346.18,\
71.32"];
	65	 [URL="http://lattes.cnpq.br/3839272083508826",
		color="#17272B",
		fontcolor="#FFFFFF",
		height=0.23611,
		label="Norma M. Barros Benevides [12]",
		pos="266.18,8.5",
		width=1.7222];
	1 -- 65	 [pos="126.13,215.9 86.229,198.83 0,155.19 30.177,107.5 67.364,48.737 147.5,25.194 204.04,15.771"];
	34 -- 41	 [pos="178.31,161.83 160.44,151.94 129.55,134.86 111.8,125.04"];
	34 -- 65	 [pos="192.73,162 193.8,150.08 196.74,126.25 204.18,107.5 218.73,70.82 247.34,32.86 259.96,17.082"];
	54	 [URL="http://lattes.cnpq.br/8758840770361071",
		color="#17272B",
		fontcolor="#FFFFFF",
		height=0.23611,
		label="Lea Carvalho Rodrigues [1]",
		pos="266.18,116.5",
		width=1.4722];
	34 -- 54	 [pos="203.1,161.83 217.09,152 241.2,135.05 255.22,125.2"];
	41 -- 62	 [pos="134.12,107.99 181.39,98.122 263.98,80.874 311.25,71.003"];
	41 -- 65	 [pos="105.72,107.87 118.39,95.341 145.12,70.161 171.18,53.5 195.37,38.029 225.89,24.894 245.71,17.106"];
	62 -- 65	 [pos="335.23,53.827 319.83,43.939 293.22,26.856 277.92,17.035"];
	2	 [URL="http://lattes.cnpq.br/4215337018359713",
		color="#17272B",
		fontcolor="#FFFFFF",
		height=0.23611,
		label="Edson H. Teixeira Junior [0]",
		pos="863.18,278.5",
		width=1.5];
	3	 [URL="http://lattes.cnpq.br/6367176618425888",
		color="#17272B",
		fontcolor="#FFFFFF",
		height=0.23611,
		label="Armenio Aguiar dos Santos [1]",
		pos="1041.1,278.5",
		width=1.625];
	39	 [URL="http://lattes.cnpq.br/6177966440557388",
		color="#17272B",
		fontcolor="#FFFFFF",
		height=0.23611,
		label="Jose R. Vasconcelos da Graca [1]",
		pos="1041.1,224.5",
		width=1.7222];
	3 -- 39	 [pos="1041.1,269.83 1041.1,260 1041.1,243.05 1041.1,233.2"];
	4	 [URL="http://lattes.cnpq.br/2023603210832390",
		color="#17272B",
		fontcolor="#FFFFFF",
		height=0.23611,
		label="Walter Araujo Zin [0]",
		pos="1161.1,278.5",
		width=1.2083];
	5	 [URL="http://lattes.cnpq.br/1068691320807960",
		color="#17272B",
		fontcolor="#FFFFFF",
		height=0.23611,
		label="Igor I. Castro da Silva [0]",
		pos="1272.1,278.5",
		width=1.375];
	6	 [URL="http://lattes.cnpq.br/9516354961432684",
		color="#17272B",
		fontcolor="#FFFFFF",
		height=0.23611,
		label="Márcia V. Alves Saraiva [4]",
		pos="646.18,278.5",
		width=1.4861];
	19	 [URL="http://lattes.cnpq.br/1918056067943429",
		color="#17272B",
		fontcolor="#FFFFFF",
		height=0.23611,
		label="Rodrigo M. Silva da Cunha [4]",
		pos="603.18,224.5",
		width=1.6111];
	6 -- 19	 [pos="639.84,269.83 631.71,260 617.69,243.05 609.55,233.2"];
	56	 [URL="http://lattes.cnpq.br/7013269523847698",
		color="#17272B",
		fontcolor="#FFFFFF",
		height=0.23611,
		label="José R. Viana Silva [4]",
		pos="676.18,170.5",
		width=1.25];
	6 -- 56	 [pos="651.63,269.82 657.32,261.36 665.99,247.14 670.18,233.5 675.96,214.69 676.55,191.29 676.41,179.33"];
	19 -- 34	 [pos="545.17,216.16 467.39,206.32 330.04,188.94 251.56,179.01"];
	19 -- 65	 [pos="601.56,215.95 598.8,203.97 592.58,180.07 583.18,161.5 555.21,106.26 549.16,83.827 495.18,53.5 443.83,24.648 376.87,14.379 328.64,\
10.89"];
	19 -- 56	 [pos="613.95,215.83 627.75,206 651.54,189.05 665.36,179.2"];
	36	 [URL="http://lattes.cnpq.br/4999713109630711",
		color="#17272B",
		fontcolor="#FFFFFF",
		height=0.23611,
		label="Kyria Santiago do Nascimento [16]",
		pos="804.18,170.5",
		width=1.8056];
	19 -- 36	 [pos="632.41,215.94 670.52,206.08 736.79,188.93 774.92,179.07"];
	42	 [URL="http://lattes.cnpq.br/5029704662813380",
		color="#17272B",
		fontcolor="#FFFFFF",
		height=0.23611,
		label="Benildo Sousa Cavada [16]",
		pos="870.18,62.5",
		width=1.4444];
	36 -- 42	 [pos="815.06,161.98 825.72,154.07 841.71,140.67 851.18,125.5 862.15,107.93 867.16,83.585 869.12,71.284"];
	37	 [URL="http://lattes.cnpq.br/7732407650135099",
		color="#17272B",
		fontcolor="#FFFFFF",
		height=0.23611,
		label="Celso Shiniti Nagano [11]",
		pos="792.18,116.5",
		width=1.3889];
	36 -- 37	 [pos="802.41,161.83 800.14,152 796.23,135.05 793.96,125.2"];
	61	 [URL="http://lattes.cnpq.br/8248342079629374",
		color="#17272B",
		fontcolor="#FFFFFF",
		height=0.23611,
		label="Bruno A. Matias da Rocha [4]",
		pos="756.18,8.5",
		width=1.5694];
	36 -- 61	 [pos="780.79,161.94 764.24,155.22 743.27,143.62 733.18,125.5 712.71,88.727 739.77,36.463 751.37,17.099"];
	42 -- 61	 [pos="853.36,53.827 831.68,43.939 794.23,26.856 772.7,17.035"];
	60	 [URL="http://lattes.cnpq.br/4451863190439405",
		color="#17272B",
		fontcolor="#FFFFFF",
		height=0.23611,
		label="Ricardo Pires dos Santos [2]",
		pos="885.18,8.5",
		width=1.5];
	42 -- 60	 [pos="872.39,53.827 875.23,43.996 880.12,27.051 882.96,17.204"];
	37 -- 42	 [pos="803.69,107.83 818.52,97.939 844.15,80.856 858.88,71.035"];
	37 -- 61	 [pos="789.59,107.88 782.95,88.319 765.36,36.536 758.75,17.054"];
	7	 [URL="http://lattes.cnpq.br/3193698890688967",
		color="#17272B",
		fontcolor="#FFFFFF",
		height=0.23611,
		label="Karuza M. Alves Pereira [2]",
		pos="521.18,170.5",
		width=1.4861];
	7 -- 62	 [pos="521.77,161.88 522.34,148.91 521.51,122.5 507.18,107.5 480.02,79.058 436.34,68.437 401.47,64.719"];
	7 -- 65	 [pos="524.71,161.93 529.94,149.5 538.02,124.44 527.18,107.5 484.79,41.248 391.05,19.618 328.23,12.656"];
	57	 [URL="http://lattes.cnpq.br/1810849698154444",
		color="#17272B",
		fontcolor="#FFFFFF",
		height=0.23611,
		label="Antonio A. Rodrigues e Silva [2]",
		pos="437.18,116.5",
		width=1.7083];
	7 -- 57	 [pos="508.79,161.83 492.81,151.94 465.22,134.86 449.35,125.04"];
	57 -- 62	 [pos="423.9,107.83 406.79,97.939 377.22,80.856 360.22,71.035"];
	8	 [URL="http://lattes.cnpq.br/0430275226558223",
		color="#17272B",
		fontcolor="#FFFFFF",
		height=0.23611,
		label="Leonardo Damasceno de Sá [0]",
		pos="1398.1,278.5",
		width=1.625];
	9	 [URL="http://lattes.cnpq.br/5941161934316711",
		color="#17272B",
		fontcolor="#FFFFFF",
		height=0.23611,
		label="Maria Elias Soares [0]",
		pos="1519.1,278.5",
		width=1.2222];
	10	 [URL="http://lattes.cnpq.br/8957236315615454",
		color="#17272B",
		fontcolor="#FFFFFF",
		height=0.23611,
		label="Maria do S. Rodrigues de Sousa [0]",
		pos="1647.1,278.5",
		width=1.8194];
	11	 [URL="http://lattes.cnpq.br/3993754230332852",
		color="#17272B",
		fontcolor="#FFFFFF",
		height=0.23611,
		label="Andre Jalles Monteiro [0]",
		pos="1780.1,278.5",
		width=1.375];
	12	 [URL="http://lattes.cnpq.br/8799551213988584",
		color="#17272B",
		fontcolor="#FFFFFF",
		height=0.23611,
		label="Vicente Lima Crisóstomo [0]",
		pos="1903.1,278.5",
		width=1.5278];
	13	 [URL="http://lattes.cnpq.br/2149928021922564",
		color="#17272B",
		fontcolor="#FFFFFF",
		height=0.23611,
		label="Alberto Sampaio Lima [0]",
		pos="2027.1,278.5",
		width=1.4028];
	14	 [URL="http://lattes.cnpq.br/0506346607081493",
		color="#17272B",
		fontcolor="#FFFFFF",
		height=0.23611,
		label="Wagner Bandeira Andriola [0]",
		pos="2153.1,278.5",
		width=1.5833];
	15	 [URL="http://lattes.cnpq.br/0145509726999114",
		color="#17272B",
		fontcolor="#FFFFFF",
		height=0.23611,
		label="Maxweel Veras Rodrigues [3]",
		pos="2285.1,278.5",
		width=1.5694];
	66	 [URL="http://lattes.cnpq.br/5234277371908895",
		color="#17272B",
		fontcolor="#FFFFFF",
		height=0.23611,
		label="Joao W. Carneiro Alexandre [3]",
		pos="2285.1,224.5",
		width=1.6528];
	15 -- 66	 [pos="2285.1,269.83 2285.1,260 2285.1,243.05 2285.1,233.2"];
	16	 [URL="http://lattes.cnpq.br/1962466876884560",
		color="#17272B",
		fontcolor="#FFFFFF",
		height=0.23611,
		label="Sueli M. de Araújo Cavalcante [0]",
		pos="2423.1,278.5",
		width=1.7639];
	17	 [URL="http://lattes.cnpq.br/4257594561432768",
		color="#17272B",
		fontcolor="#FFFFFF",
		height=0.23611,
		label="Eloisa Maia Vidal [0]",
		pos="2548.1,278.5",
		width=1.1944];
	18	 [URL="http://lattes.cnpq.br/8992341585329383",
		color="#17272B",
		fontcolor="#FFFFFF",
		height=0.23611,
		label="Virginia Bentes Pinto [0]",
		pos="2658.1,278.5",
		width=1.3472];
	20	 [URL="http://lattes.cnpq.br/3883239297819453",
		color="#17272B",
		fontcolor="#FFFFFF",
		height=0.23611,
		label="Andre Haguette [0]",
		pos="2764.1,278.5",
		width=1.0972];
	21	 [URL="http://lattes.cnpq.br/6087042073634790",
		color="#17272B",
		fontcolor="#FFFFFF",
		height=0.23611,
		label="Francisco P. Nogueira Arcanjo [0]",
		pos="2885.1,278.5",
		width=1.7639];
	22	 [URL="http://lattes.cnpq.br/7385143792598274",
		color="#17272B",
		fontcolor="#FFFFFF",
		height=0.23611,
		label="Maria A. Monteiro da Silva [3]",
		pos="3025.1,278.5",
		width=1.6111];
	28	 [URL="http://lattes.cnpq.br/9270913804724785",
		color="#17272B",
		fontcolor="#FFFFFF",
		height=0.23611,
		label="Cibelly A. S. Lima Freitas [17]",
		pos="2782.1,224.5",
		width=1.6111];
	22 -- 28	 [pos="2990.1,269.99 2943.9,260.12 2863.3,242.87 2817.2,233"];
	32	 [URL="http://lattes.cnpq.br/5537817532828798",
		color="#17272B",
		fontcolor="#FFFFFF",
		height=0.23611,
		label="Maristela I. Osawa Vasconcelos [8]",
		pos="2924.1,116.5",
		width=1.8194];
	22 -- 32	 [pos="3025.9,269.87 3027.7,249.98 3029.7,195.71 3005.1,161.5 2992,143.16 2968.7,131.68 2950.5,125.06"];
	69	 [URL="http://lattes.cnpq.br/9251743262592177",
		color="#17272B",
		fontcolor="#FFFFFF",
		height=0.23611,
		label="Maria S. de Araujo Dias [7]",
		pos="2924.1,62.5",
		width=1.4722];
	22 -- 69	 [pos="3028.6,269.91 3032.3,261.29 3037.9,246.72 3040.1,233.5 3041.4,225.61 3041.3,223.42 3040.1,215.5 3032.7,164.53 3032.9,145.48 2998.1,\
107.5 2982.8,90.746 2959.6,78.376 2943.2,71.09"];
	28 -- 32	 [pos="2764.9,215.9 2741.7,204.62 2705.2,182.5 2722.1,161.5 2739.1,140.4 2806.4,128.88 2858.6,122.98"];
	28 -- 69	 [pos="2761.5,215.89 2736.4,205.4 2699.1,185.08 2714.1,161.5 2749.4,106.19 2824.9,81.58 2875.1,71.003"];
	30	 [URL="http://lattes.cnpq.br/8155612498783539",
		color="#17272B",
		fontcolor="#FFFFFF",
		height=0.23611,
		label="Izabelle M. Napoleão Albuquerque [15]",
		pos="2924.1,170.5",
		width=2.0139];
	28 -- 30	 [pos="2802.8,215.94 2829.7,206.08 2876.5,188.93 2903.5,179.07"];
	31	 [URL="http://lattes.cnpq.br/9795597292263465",
		color="#17272B",
		fontcolor="#FFFFFF",
		height=0.23611,
		label="Eliany Nazaré Oliveira [1]",
		pos="2782.1,170.5",
		width=1.4167];
	28 -- 31	 [pos="2782.1,215.83 2782.1,206 2782.1,189.05 2782.1,179.2"];
	32 -- 69	 [pos="2924.1,107.83 2924.1,97.996 2924.1,81.051 2924.1,71.204"];
	30 -- 32	 [pos="2924.1,161.83 2924.1,152 2924.1,135.05 2924.1,125.2"];
	23	 [URL="http://lattes.cnpq.br/4138758876612437",
		color="#17272B",
		fontcolor="#FFFFFF",
		height=0.23611,
		label="Luiz O. Monteiro de Andrade [3]",
		pos="3163.1,278.5",
		width=1.7083];
	68	 [URL="http://lattes.cnpq.br/0926082188345417",
		color="#17272B",
		fontcolor="#FFFFFF",
		height=0.23611,
		label="Ivana C. de H. Cunha Barreto [3]",
		pos="3163.1,224.5",
		width=1.7083];
	23 -- 68	 [pos="3163.1,269.83 3163.1,260 3163.1,243.05 3163.1,233.2"];
	24	 [URL="http://lattes.cnpq.br/2222107613838755",
		color="#17272B",
		fontcolor="#FFFFFF",
		height=0.23611,
		label="Percy A. Galimbertti Catanio [0]",
		pos="3304.1,278.5",
		width=1.6944];
	25	 [URL="http://lattes.cnpq.br/3817419583415614",
		color="#17272B",
		fontcolor="#FFFFFF",
		height=0.23611,
		label="Geison Vasconcelos Lira [1]",
		pos="2924.1,224.5",
		width=1.5];
	25 -- 30	 [pos="2924.1,215.83 2924.1,206 2924.1,189.05 2924.1,179.2"];
	26	 [URL="http://lattes.cnpq.br/8444547145601106",
		color="#17272B",
		fontcolor="#FFFFFF",
		height=0.23611,
		label="Camilla A. Lopes Vieira [1]",
		pos="3436.1,278.5",
		width=1.4722];
	27	 [URL="http://lattes.cnpq.br/7174269574652869",
		color="#17272B",
		fontcolor="#FFFFFF",
		height=0.23611,
		label="Luis A. Rodrigues Furtado [1]",
		pos="3436.1,224.5",
		width=1.5833];
	26 -- 27	 [pos="3436.1,269.83 3436.1,260 3436.1,243.05 3436.1,233.2"];
	29	 [URL="http://lattes.cnpq.br/1065956470701739",
		color="#17272B",
		fontcolor="#FFFFFF",
		height=0.23611,
		label="Deborah Christina Antunes [0]",
		pos="3565.1,278.5",
		width=1.5972];
	33	 [URL="http://lattes.cnpq.br/4989617783837981",
		color="#17272B",
		fontcolor="#FFFFFF",
		height=0.23611,
		label="Ana L. Figueiredo Porto [3]",
		pos="908.18,224.5",
		width=1.4722];
	33 -- 36	 [pos="892.83,215.83 873.06,205.94 838.89,188.86 819.25,179.04"];
	33 -- 42	 [pos="906.35,215.78 899.91,188.69 878.4,98.11 871.99,71.14"];
	35	 [URL="http://lattes.cnpq.br/2834403735297272",
		color="#17272B",
		fontcolor="#FFFFFF",
		height=0.23611,
		label="José L. de Lima Filho [2]",
		pos="985.18,170.5",
		width=1.3611];
	33 -- 35	 [pos="919.54,215.83 934.18,205.94 959.48,188.86 974.02,179.04"];
	38	 [URL="http://lattes.cnpq.br/4856342729161082",
		color="#17272B",
		fontcolor="#FFFFFF",
		height=0.23611,
		label="Paulo V. Alves Carneiro [0]",
		pos="3694.1,278.5",
		width=1.4722];
	40	 [URL="http://lattes.cnpq.br/3982243706104818",
		color="#17272B",
		fontcolor="#FFFFFF",
		height=0.23611,
		label="Marcelo de Miranda Melo [0]",
		pos="3821.1,278.5",
		width=1.5556];
	43	 [URL="http://lattes.cnpq.br/6672867433887720",
		color="#17272B",
		fontcolor="#FFFFFF",
		height=0.23611,
		label="Christian D. Monteiro de Oliveira [0]",
		pos="3963.1,278.5",
		width=1.8889];
	44	 [URL="http://lattes.cnpq.br/9262063602399799",
		color="#17272B",
		fontcolor="#FFFFFF",
		height=0.23611,
		label="Maria D. de Brito Mota [0]",
		pos="4101.1,278.5",
		width=1.4444];
	45	 [URL="http://lattes.cnpq.br/7986697292459304",
		color="#17272B",
		fontcolor="#FFFFFF",
		height=0.23611,
		label="Fernando J. Pires de Sousa [1]",
		pos="4228.1,278.5",
		width=1.5833];
	46	 [URL="http://lattes.cnpq.br/6222392839472168",
		color="#17272B",
		fontcolor="#FFFFFF",
		height=0.23611,
		label="Carlos A. Leite Moreira [1]",
		pos="4228.1,224.5",
		width=1.4583];
	45 -- 46	 [pos="4228.1,269.83 4228.1,260 4228.1,243.05 4228.1,233.2"];
	47	 [URL="http://lattes.cnpq.br/5941867047206757",
		color="#17272B",
		fontcolor="#FFFFFF",
		height=0.23611,
		label="Alba M. Pinho de Carvalho [0]",
		pos="4361.1,278.5",
		width=1.6111];
	48	 [URL="http://lattes.cnpq.br/4445388887592052",
		color="#17272B",
		fontcolor="#FFFFFF",
		height=0.23611,
		label="Elza M. Franco Braga [0]",
		pos="4486.1,278.5",
		width=1.3611];
	49	 [URL="http://lattes.cnpq.br/6074006170274002",
		color="#17272B",
		fontcolor="#FFFFFF",
		height=0.23611,
		label="Francisca S. de Sousa Monte [0]",
		pos="4613.1,278.5",
		width=1.6667];
	50	 [URL="http://lattes.cnpq.br/6362352492858096",
		color="#17272B",
		fontcolor="#FFFFFF",
		height=0.23611,
		label="Rejane Batista Vasconcelos [0]",
		pos="4750.1,278.5",
		width=1.625];
	51	 [URL="http://lattes.cnpq.br/7306722117822350",
		color="#17272B",
		fontcolor="#FFFFFF",
		height=0.23611,
		label="Alcides Fernando Gussi [1]",
		pos="4879.1,278.5",
		width=1.4583];
	52	 [URL="http://lattes.cnpq.br/2352567866641388",
		color="#17272B",
		fontcolor="#FFFFFF",
		height=0.23611,
		label="Elione M. Nogueira Diogenes [1]",
		pos="4879.1,224.5",
		width=1.7222];
	51 -- 52	 [pos="4879.1,269.83 4879.1,260 4879.1,243.05 4879.1,233.2"];
	53	 [URL="http://lattes.cnpq.br/9529052562255476",
		color="#17272B",
		fontcolor="#FFFFFF",
		height=0.23611,
		label="Gema G. S. Leite Esmeraldo [0]",
		pos="5010.1,278.5",
		width=1.6667];
	55	 [URL="http://lattes.cnpq.br/3048795266534895",
		color="#17272B",
		fontcolor="#FFFFFF",
		height=0.23611,
		label="Luiz A. Maciel de Paula [0]",
		pos="5141.1,278.5",
		width=1.4722];
	58	 [URL="http://lattes.cnpq.br/3660059315904005",
		color="#17272B",
		fontcolor="#FFFFFF",
		height=0.23611,
		label="Carla T. Vasconcelos de Melo [0]",
		pos="5275.1,278.5",
		width=1.7361];
	59	 [URL="http://lattes.cnpq.br/0156118338258425",
		color="#17272B",
		fontcolor="#FFFFFF",
		height=0.23611,
		label="André L. Coelho da Silva [0]",
		pos="5411.1,278.5",
		width=1.5278];
	63	 [URL="http://lattes.cnpq.br/6492671109544154",
		color="#17272B",
		fontcolor="#FFFFFF",
		height=0.23611,
		label="Eduardo Girao Santiago [0]",
		pos="5537.1,278.5",
		width=1.4583];
	64	 [URL="http://lattes.cnpq.br/7275712282541003",
		color="#17272B",
		fontcolor="#FFFFFF",
		height=0.23611,
		label="José A. Farias Filho [0]",
		pos="5654.1,278.5",
		width=1.2778];
	67	 [URL="http://lattes.cnpq.br/1161853804012604",
		color="#17272B",
		fontcolor="#FFFFFF",
		height=0.23611,
		label="Roberta C. Muniz Lira [0]",
		pos="5769.1,278.5",
		width=1.4028];
	70	 [URL="http://lattes.cnpq.br/5589121427880123",
		color="#17272B",
		fontcolor="#FFFFFF",
		height=0.23611,
		label="Paulo Roberto dos Santos [0]",
		pos="5893.1,278.5",
		width=1.5278];
}
