artigoEmPeriodico	2014	http://dx.doi.org/10.1088/0967-3334/35/2/177	<i>In vitro</i> estimation of pressure drop across tracheal tubes during high-frequency percussive ventilation	Physiological Measurement (Print)	AJCEVIC, M. ; LUCANGELO, U. ; FERLUGA, M. ; ZIN, W. A. ; ACCARDO, A.	Qualis nao identificado	Physiological Measurement (Print)
artigoEmPeriodico	2014	http://dx.doi.org/10.1590/0001-37652014116312	Antioxidant potential and cytotoxic activity of two red seaweed species, Amansia multifida and Meristiella echinocarpa, from the coast of Northeastern Brazil	Anais da Academia Brasileira de Ciências (Impresso)	ALENCAR, DANIEL B. DE ; SILVA, SUZETE R. DA ; PIRES-CAVALCANTE, KELMA M.S. ; LIMA, REBECA L. DE ; PEREIRA JÚNIOR, FRANCISCO N. ; SOUSA, MÁRCIA B. DE ; VIANA, FRANCISCO A. ; Nagano, Celso S. ; NASCIMENTO, KYRIA S. DO ; Cavada, Benildo S. ; Sampaio, Alexandre H. ; Saker-Sampaio, Silvana	A1	
artigoEmPeriodico	2014		Políticas públicas de trabalho, renda e desenvolvimento no Banco do Nordeste	Aval - Revista Avaliação de Políticas Públicas	ALMEIDA, G. F. B. de ; THÉ, R. F. S. ; GUSSI, Alcides Fernando	B4	Revista Avaliação de Políticas Públicas
artigoEmPeriodico	2014		PERFIL DAS GESTANTES ADOLESCENTES INTERNADAS EM ENFERMARIA DE ALTO RISCO EM HOSPITAL DE ENSINO	Sanare (Sobral)	ANDRADE, A. C. M. ; TEODOSIO, T. B. T. ; CAVALCANTE, A. E. S. ; FREITAS, Cibelly Aliny Siqueira Lima ; VASCONCELOS, M. I. O. ; SILVA, Maria Adelane Monteiro da	C	
artigoEmPeriodico	2014	http://dx.doi.org/10.1016/j.jphotochem.2014.09.005	Study of the bioconjugation of ternary alloyed ZnCdTe nanocrystals to Concanavalin A	Journal of Photochemistry and Photobiology. A, Chemistry	ANDRADE, GEORGE RICARDO SANTANA ; NASCIMENTO, CRISTIANE DA CUNHA ; MATOS, CHARLENE REGINA SANTOS ; SUSSUCHI, ELIANA MIDORI ; COSTA, LUIZ PEREIRA DA ; Nascimento, Kyria Santiago do ; Cavada, Benildo Sousa ; GIMENEZ, IARA DE FÁTIMA	A2	
artigoEmPeriodico	2014	http://dx.doi.org/10.1016/s0140-6736(14)61494-x	Social determinants of health, universal health coverage, and sustainable development: case studies from Latin American countries	Lancet (British edition)	ANDRADE, L. O. M.; PELLEGRINI FILHO, A. ; SOLAR, O. ; RIGOLI, F. ; SALAZAR, L. M. ; SERRATE, P. C. ; Ribeiro, K.G. ; KOLER, T. S. ; CRUZ, F. N. B. ; ATUN, R.	A1	
artigoEmPeriodico	2014	http://dx.doi.org/10.1590/0104-4060.36720	Estudo de egressos de cursos de graduação: subsídios para a autoavaliação e o planejamento institucionais	Educar em Revista (Impresso)	ANDRIOLA, W. B	A2	
artigoEmPeriodico	2014	http://dx.doi.org/10.1590/S0104-40362014000100009	Avaliação diagnóstica da Educação de Jovens e Adultos (EJA) no Brasil	Ensaio (Fundação Cesgranrio. Impresso)	ANDRIOLA, WAGNER BANDEIRA	A2	
artigoEmPeriodico	2014	http://dx.doi.org/10.1007/s11695-014-1231-0	Antibiotic Prophylaxis in Bariatric Surgery with Continuous Infusion of Cefazolin: Determination of Concentration in Adipose Tissue	Obesity Surgery	ANLICOARA, RAFAEL ; FERRAZ, ÁLVARO A. B. ; DA P. COELHO, KILMA ; DE LIMA FILHO, JOSÉ L. ; Siqueira, Luciana T. ; DE ARAÚJO, JOSÉ G. C. ; Campos, Josemberg M. ; FERRAZ, EDMUNDO M.	A2	
artigoEmPeriodico	2014		A conexão entre reflexão filosófica e pesquisa social empírica como práxis nas Teoria Crítica da Sociedade	Revista Sul-Americana de Filosofia e Educação	ANTUNES, D. C	B1	
artigoEmPeriodico	2014		Turismo, populações tradicionais e ambiente	Gaia Scientia (UFPB)	ARAUJO, A. G. P. ; ARAGAO, L. L. ; RODRIGUES, Lea Carvalho	B3	
artigoEmPeriodico	2014	http://dx.doi.org/10.13070/rs.en.1.1240	Is C-reactive protein a good predictor for neonatal sepsis?	Research	Arcanjo, Francisco Plácido Nogueira; AGUIAR, CRYSLANY PORTELA DE ; MOURA JÚNIOR, JOSÉ VALMIR ; PEREIRA, TIAGO CÉSAR UCHOA ; EVANGELISTA, ANDRESSA DA ROCHA	Qualis nao identificado	Research
artigoEmPeriodico	2014	http://dx.doi.org/10.1016/s0140-6736(14)61646-9	Health-system reform and universal health coverage in Latin America	Lancet (British edition)	ATUN, R. ; Luiz Odorico Monteiro de Andrade ; ALMEIDA, G. ; COTLEAR, D. ; DMYTRACZENKO, T. ; FRENZ, P. ; GARCIA, P. ; GOMEZ-DANTES, O. ; KNAUL, F. M. ; MUNTANER, C. ; Paula, J.B. ; RIGOLI, F. ; SERRATE, P. C. ; WAGSTAFF, A.	A1	
artigoEmPeriodico	2014		Melhoria da Qualidade de Uso em Portais web de Organizações Públicas e Privadas através da Avaliação contínua de Usabilidade	Revista Eletrônica Acta Sapientia	BARBOSA, T. N. ; Lima A.S.	Qualis nao identificado	Revista Eletrônica Acta Sapientia
artigoEmPeriodico	2014		Survival and prognostic factors of patients with invasive cervical cancer	Global Advanced Research Journal of Medicine and Medical Sciences (GARJMMS)	BARRETO, CARLA LIMEIRA ; MARTINS, D. B. G. ; DE LIMA FILHO, JOSÉ L. ; MAGALHÃES, VERA	B4	
artigoEmPeriodico	2014		Reforma Sanitária no Ceará: lutas e conquistas em um cenário adverso	Saude em Debate	BARRETO, Ivana Cristina de Holanda Cunha; ANDRADE, Luiz Odorico Monteiro de ; Moreira, A.E.M.M	B1	
artigoEmPeriodico	2014	http://dx.doi.org/10.1016/j.abb.2013.12.006	Vasorelaxant activity of Canavalia grandiflora seed lectin: A structural analysis	Archives of Biochemistry and Biophysics (Print)	Barroso-Neto, Ito Liberato ; Simões, Rafael Conceição ; ROCHA, Bruno Anderson Matias da ; Bezerra, Maria Julia Barbosa ; Pereira-Junior, Francisco Nascimento ; SILVA OSTERNE, VINICIUS JOSÉ ; NASCIMENTO, Kyria Santiago ; NASCIMENTO, Kyria Santiago ; NAGANO, Celso Shiniti ; Delatorre, Plinio ; PEREIRA, MARIA GONÇALVES ; Freitas Pires, Alana ; SAMPAIO, Alexandre Holanda ; ASSREUY, Ana Maria Sampaio ; CAVADA, Benildo Sousa	Qualis nao identificado	Archives of Biochemistry and Biophysics (Print)
artigoEmPeriodico	2014	http://dx.doi.org/10.1016/j.ejphar.2014.07.016	Antispasmodic and myorelaxant effects of the flavoring agent methyl cinnamate in gut: Potential inhibition of tyrosine kinase	European Journal of Pharmacology	BATISTA-LIMA, FRANCISCO J. ; COSKER, FRANÇOIS ; DE BRITO, TERESINHA S. ; RIBEIRO-FILHO, HÉLDER V. ; SILVA, CAMILA M.S. ; ARAGÃO, KAROLINE S. ; LAHLOU, Saad ; SOUZA, MARCELLUS H.L.P. ; DOS SANTOS, ARMÊNIO A. ; Magalhães, Pedro J.C.	A2	
artigoEmPeriodico	2014	http://dx.doi.org/10.1371/journal.pone.0103057	Liquid- and Air-Filled Catheters without Balloon as an Alternative to the Air-Filled Balloon Catheter for Measurement of Esophageal Pressure	Plos One	BEDA, A. ; GUELDNER, A. ; CARVALHO, A.R. ; ZIN, W. A. ; CARVALHO, N. C. ; HUHLE, R. ; GIANNELLA NETO, A. ; KOCH, T. ; GAMA-DE-AREU, M.	A1	
artigoEmPeriodico	2014	http://dx.doi.org/10.1007/s00404-014-3480-5	Site of infections associated with human papillomavirus	Archives of Gynecology and Obstetrics (Print)	BELTRÃO, MONIQUE ; WANDERLEY, MARCELA SILVESTRE OUTTES ; DE SANTANA, NATALY AMORIM ; Bruneska, Danyelly ; DE LIMA FILHO, JOSÉ LUIZ	B1	
artigoEmPeriodico	2014		SNOMED-CT as Standard Language for Organization and Representation of the Information in Patient Records	Knowledge Organization	BENTES PINTO, Virginia	B1	
artigoEmPeriodico	2014	http://dx.doi.org/10.3390/molecules19044145	Optical Absorption of the Antitrypanocidal Drug Benznidazole inWater	Molecules (Basel. Online)	BEZERRA, EVELINE ; BEZERRA-NETO, JOÃO ; SALES, FRANCISCO ; DOS SANTOS, RICARDO ; MARTINS, ALICE ; DE LIMA-NETO, PEDRO ; CAETANO, EWERTON ; ALBUQUERQUE, EUDENILSON ; FREIRE, VALDER	A2	
artigoEmPeriodico	2014	http://dx.doi.org/10.1371/journal.pone.0097015	Structural Studies of an Anti-Inflammatory Lectin from Canavalia boliviana Seeds in Complex with Dimannosides	Plos One	BEZERRA, Gustavo Arruda ; VIERTLMAYR, ROLAND ; Moura, Tales Rocha ; DELATORRE, Plínio ; Rocha, Bruno Anderson Matias ; do Nascimento, Kyria Santiago ; FIGUEIREDO, JOZI GODOY ; BEZERRA, INGRID GONÇALVES ; TEIXEIRA, CICERO SILVANO ; SIMÕES, RAFAEL CONCEIÇÃO ; Nagano, Celso Shiniti ; DE ALENCAR, NYLANE MARIA NUNES ; Gruber, Karl ; CAVADA, Benildo Sousa	A1	
artigoEmPeriodico	2014		Preclinical evaluation of a xenogenic hydroxyapatite/collagen-based bone substitute material	Revista Odonto Ciência (Online)	BITTENCOURT, R. C. ; CASTRO-SILVA, I.I. ; Paulo, A.O. ; TAVARES, D. S. ; GRANJEIRO, J. M.	Qualis nao identificado	Revista Odonto Ciência (Online)
artigoEmPeriodico	2014	http://dx.doi.org/10.1093/mmy/myt027	In vitro inhibitory effect of miltefosine against strains of Histoplasma capsulatum var. capsulatum and Sporothrix spp.	Medical Mycology (Oxford. Print)	BRILHANTE, R. S. N. ; MALAQUIAS, A. D. M. ; CAETANO, E. P. ; Castelo-Branco, D. d. S. C. M. ; LIMA, R. A. C. D. ; MARQUES, F. J. F. ; SILVA, N. F. ; ALENCAR, L. P. D. ; MONTEIRO, A. J. ; CAMARGO, Z. P. D. ; BANDEIRA, T. D. J. P. G. ; RODRIGUES, A. M. ; Cordeiro, R. d. A. ; MOREIRA, J. L. B. ; SIDRIM, J. J. C. ; ROCHA, M. F. G.	A2	
artigoEmPeriodico	2014	http://dx.doi.org/10.1099/jmm.0.076216-0	Candida parapsilosis complex from animals and its antifungal susceptibility and virulence attributes	Journal of Medical Microbiology	Brilhante, R. S. N. ; RODRIGUES, T. D. J. S. ; CASTELO-BRANCO, D. S. C. M. ; TEIXEIRA, C. E. C. ; MACEDO, R. B. ; BANDEIRA, S. P. ; ALENCAR, L. P. ; MONTEIRO, A. J. ; Cordeiro, R. d. A. ; BANDEIRA, T. D. J. P. G. ; MOREIRA, J. L. B. ; Sidrim, J. J. C. ; Rocha, M. F. G.	A2	
artigoEmPeriodico	2014	http://dx.doi.org/10.1590/0103-8478cr20140016	Macrobrachium amazonicum: an alternative for microbiological monitoring of aquatic environments in Brazil	Ciência Rural (UFSM. Impresso)	Brilhante, Raimunda Sâmia Nogueira ; Paiva, Manoel de Araújo Neto ; Sampaio, Célia Maria de Souza ; TEXEIRA, C. E. C. ; Ribeiro, Joyce Fonteles ; Castelo-Branco, Débora de Souza Collares Maia ; BANDEIRA, TEREZA DE JESUS PINHEIRO GOMES ; MONTEIRO, A. J. ; Cordeiro, Rossana de Aguiar ; Sidrim, José Júlio Costa ; MONTEIRO, FREDERICO OZANAN BARROS ; MOREIRA, JOSÉ LUCIANO BEZERRA ; Rocha, Marcos Fábio Gadelha	A2	
artigoEmPeriodico	2014		Atenção à saúde do idoso e família: evidências da produção científica	Revista Kairós (Online)	BRITO, M. C. C. ; FREITAS, C. A. S. L. ; VASCONCELOS, M. I. O. ; DIAS, M. S. A. ; SANTIAGO, L. M. M. ; GOMES, D. F.	B3	
artigoEmPeriodico	2014		Atenção à Saúde do Idoso: O sistema de referência e contrarreferência nos serviços de saúde	Revista de Pesquisa: Cuidado e Fundamental (Online)	BRITO, Maria da Conceição Coelho ; FREITAS, Cibelly Aliny Siqueira Lima ; SILVA, Maria Josefina ; ALBUQUERQUE, Isabelle Mont'alverne Napoleão ; DIAS, Maria Socorro de Araújo	B2	
artigoEmPeriodico	2014		Família sob o foco sistêmico: um olhar do cuidado de enfermagem	Paraninfo Digital	BRITO, Maria da Conceição Coelho ; VIEIRA, L. L. ; CHAGAS, Maristela Inês Osawa ; PAIVA, G. M. ; XIMENES NETO, F. R. G. ; DIAS, Maria Socorro de Araújo	B3	
artigoEmPeriodico	2014		Steady-state levels of vasoactive intestinal peptide (VIP) mRNA in goat ovaries and the effect of VIP on the in vitro development of isolated preantral follicles	Animal Reproduction	BRUNO, J. B. ; CELESTINO, J. J. H. ; SARAIVA, Márcia Viviane Alves ; ROCHA, R. M. P. ; BRITO, I.R. ; DUARTE, A.B.G. ; ARAUJO, V. R. ; SILVA, C. M. G. ; Lima, I.M.T ; MATOS, M H T ; Campello, C.C. ; SILVA, José Roberto Viana ; FIGUEIREDO, José Ricardo de	B1	
artigoEmPeriodico	2014	http://dx.doi.org/10.12817/20514263.47.1.27703470	Purification and Partial Characterization of a New Mannose/Glucose-Specific Lectin from Centrolobium tomentosum Guill. ex Benth Seeds Exhibiting Low Toxicity on Artemia sp.	International Journal of Indigenous Medicinal Plants	C. ALMEIDA, ALYSSON ; C. Silva, Helton ; N. Pereira-Junior, Francisco ; B. CAJAZEIRAS, JOÃO ; DELATORRE, Plinio ; S. Nagano, Celso ; S. Nascimento, Kyria ; S. CAVADA, BENILDO	Qualis nao identificado	International Journal of Indigenous Medicinal Plants
artigoEmPeriodico	2014		Compreendendo a pesca artesanal sob a ótica da multifuncionalidade e pluriatividade. Estudo de Caso	Extensão Rural	CAJADO, Diana M. ; FERNANDES, I. L. C. ; SILVA, J. Glaudervane S. ; ESMERALDO, G. G. S. L.	Qualis nao identificado	Extensão Rural
artigoEmPeriodico	2014	http://dx.doi.org/10.1371/journal.pone.0110817	Positive End-Expiratory Pressure and Variable Ventilation in Lung-Healthy Rats under General Anesthesia	Plos One	CAMILO, L.M. ; AVILA, M.B. ; PAULA, L.F.S.C. ; RIBEIRO, G.C.M. ; SPIETH, P. M. ; RESKE, A. A. ; AMATO, M. B. P. ; GIANNELLA NETO, A. ; ZIN, W. A. ; CARVALHO, A.R.	A1	
artigoEmPeriodico	2014	http://dx.doi.org/10.4025/actascibiolsci.v36i2.19328	Analysis of some chemical nutrients in four Brazilian tropical seaweeds	Acta Scientiarum. Biological Sciences (Impresso)	CARNEIRO, J. G. ; RODRIGUES, J. A. G. ; TELES, F. B. ; CAVALCANTE,	B2	
artigoEmPeriodico	2014	http://dx.doi.org/10.1111/bcpt.12234	Peripheral Antinociception and Anti-Inflammatory Effects of Sulphated Polysaccharides from the Alga <i>Caulerpa mexicana</i>	Basic & Clinical Pharmacology & Toxicology (Print)	CARNEIRO, JOSÉ GERARDO ; Rodrigues, José Ariévilo Gurgel ; DE SOUSA OLIVEIRA VANDERLEI, EDFRANCK ; SOUZA, RICARDO BASTO ; Quinderé, Ana Luíza Gomes ; Coura, Chistiane Oliveira ; de Araújo, Ianna Wivianne Fernandes ; Chaves, Hellíada Vasconcelos ; Bezerra, Mirna Marques ; Benevides, Norma Maria Barros	A2	
artigoEmPeriodico	2014	http://dx.doi.org/10.5020/18061230.2014.p422	Ação educativa para agentes comunitários de saúde na prevenção e controle da sífilis	Revista Brasileira em Promoção da Saúde (Online)	CARVALHO MARTINS, KEILA MARIA ; CARVALHO SOUSA, ANNA JÉSSICA ; FARIAS LIMA, RAIMUNDA LÍVIA ; XAVIER, ANA SAMYHA ; MONTEIRO DA SILVA, MARIA ADELANE	B3	
artigoEmPeriodico	2014		A precarização estrutural do trabalho na civilização do capital em crise: o precariado como enigma contemporâneo	Revista de Politicas Publicas (UFMA)	CARVALHO, Alba M	B1	
artigoEmPeriodico	2014	http://dx.doi.org/10.3389/fphys.2014.00366	Time course of pulmonary burden in mice exposed to residual oil fly ash	Frontiers in Physiology	CARVALHO, G.M. ; NAGATO, L. K. S. ; FAGUNDES, S.S. ; SANTOS, F. B. ; CALHEIROS, A. S. ; MALM, O. ; BOZZA, P. T. ; SALDIVA, PAULO H.N. ; FAFFE, DÉBORA S. ; Rocco, Patricia R. M. ; ZIN, W. A.	B2	
artigoEmPeriodico	2014		Aprendizagem baseada em problemas na Odontologia: ensinando o aluno a aprender	Jornal de Odontologia da FACIT	CASTRO-SILVA, I.I	Qualis nao identificado	Jornal de Odontologia da FACIT
artigoEmPeriodico	2014		Criança com Síndrome de Apert: diagnóstico clínico-radiográfico, manifestações orofaciais e qualidade de vida	ROBRAC (Online) (Goiânia)	CASTRO-SILVA, I.I.; NASCIMENTO, L. A. ; COUTINHO, L. A. C. R. ; COSTA, D. O. P.	B3	
artigoEmPeriodico	2014	http://dx.doi.org/10.1590/rou.2014.028	Uso da rugoscopia palatina como ferramenta biométrica: um estudo populacional em Niterói-RJ, Brasil	Revista de Odontologia da UNESP (Online)	CASTRO-SILVA, I.I.; SILVA, O. M. L. ; VEIGA, B. M. C.	B2	
artigoEmPeriodico	2014	http://dx.doi.org/10.1111/jdv.12460	An adult blind man presenting severe impairment of the right finger, ecchymosis in the thorax region, and haemorrhagic blisters on the oral mucosa	JEADV. Journal of the European Academy of Dermatology and Venereology	CHAVES, F.N. ; FONTELES, C.S.R. ; CARVALHO, F.S.R. ; Ribeiro, T.R. ; PEREIRA, K.M.A. ; COSTA, F.W.G.	A2	
artigoEmPeriodico	2014		Resumos e Seminários como metodologias de ensino e aprendizagem: um relato de experiência.	Em Questão	Coelho, Odete Mayra Mesquita ; BRITO, C. F. ; BENTES PINTO, Virginia	B1	
artigoEmPeriodico	2014		Artificial Ventilation During Pneumoperitoneum	Shortness of Breath	COMUZZI, L. ; RONCALLY-CARVALHO, A. ; LUCANGELO, U. ; ZIN, W. A.	Qualis nao identificado	Shortness of Breath
artigoEmPeriodico	2014	http://dx.doi.org/10.1007/s12010-013-0692-2	Parkia pendula Seed Lectin: Potential Use to Treat Cutaneous Wounds in Healthy and Immunocompromised Mice	Applied Biochemistry and Biotechnology	CORIOLANO, MARÍLIA CAVALCANTI ; MELO, CRISTIANE MOUTINHO LAGOS ; SILVA, FLÁVIO DE OLIVEIRA ; SCHIRATO, Giuliana Viegas ; PORTO, Camila Souza ; SANTOS, PAULO JORGE PARREIRA ; CORREIA, Maria Tereza dos Santos ; PORTO, A. L. F. ; CARNEIRO-LEÃO, A. M. A. ; COELHO, LUANA CASSANDRA BREITENBACH BARROSO	A1	
artigoEmPeriodico	2014		ANÁLISE DA PRODUÇÃO CIENTÍFICA SOBRE SAÚDE AUDITIVA NO BRASIL EM QUATRO PERIÓDICOS SELECIONADOS	SANARE-REVISTA DE POLÍTICAS PÚBLICAS	CORREIA, R. B. F. ; CATANIO, A. P. G. ; ALBUQUERQUE, I. M. N. ; LINHARES, M. S. C.	B1	Revista de Políticas Públicas
artigoEmPeriodico	2014	http://dx.doi.org/10.1155/2014/384292	Clinical Aspects, Imaging Features, and Considerations on Bisphosphonate-Related Osteonecrosis Risk in a Pediatric Patient with Osteogenesis Imperfecta	Case Reports in Dentistry (Print)	COSTA ; CHAVES, F. N. ; NOGUEIRA, Alexandre Simões ; CARVALHO, FSR ; PEREIRA, K.M.A. ; KURITA, L. M. ; RODRIGUES ; FONTELES	Qualis nao identificado	Case Reports in Dentistry (Print)
artigoEmPeriodico	2014	http://dx.doi.org/10.5935/1808-8694.20140038	Solitary neurofibroma of the palate	Brazilian Journal of Otorhinolaryngology	COSTA ; SOUSA, C.F. ; CARVALHO, FSR ; CAVALCANTE, Roberta Barroso ; PEREIRA, Karuza Maria Alves	B2	
artigoEmPeriodico	2014	http://dx.doi.org/10.1097/scs.0000000000000712	A Clinicoradiographic and Pathological Study of Pericoronal Follicles Associated to Mandibular Third Molars	The Journal of Craniofacial Surgery (Print)	COSTA ; THALES VIANA ; SILVA, P.G.B. ; CAVALCANTE, Roberta Barroso ; KARUZA MARIA ALVES PEREIRA	B1	
artigoEmPeriodico	2014	http://dx.doi.org/10.1097/scs.0000000000000916	Dental Trauma	The Journal of Craniofacial Surgery (Print)	COSTA, FÁBIO WILDSON GURGEL ; DE OLIVEIRA, ELAINE HELENA ; BEZERRA, Marcelo Ferraro ; NOGUEIRA, Alexandre Simões ; SOARES, Eduardo Costa Studart ; PEREIRA, Karuza Maria Alves	B1	
artigoEmPeriodico	2014	http://dx.doi.org/10.1111/jgs.12717	Bilateral Oral Nodules After the Use of a Dermal Filler Containing Polymethylmethacrylate Microspheres in an Older Woman	Journal of the American Geriatrics Society	COSTA, FÁBIO WILDSONGURGEL ; SOUSA ; CHAVES, FILIPENOBRE ; CARVALHO, FRANCISCO SAMUELRODRIGUES ; TURATTI, Eveline ; RIBEIRO, T. R. ; KARUZA MARIA ALVES PEREIRA	A1	
artigoEmPeriodico	2014	http://dx.doi.org/10.1016/S0140-6736(14)61647-0	Overcoming social segregation in health care in Latin America	Lancet (British edition)	COTLEAR, DANIEL ; GÓMEZ-DANTÉS, OCTAVIO ; KNAUL, FELICIA ; ATUN, RIFAT ; BARRETO, IVANA C H C ; CETRÁNGOLO, OSCAR ; CUETO, MARCOS ; FRANCKE, PEDRO ; FRENZ, PATRICIA ; GUERRERO, RAMIRO ; LOZANO, RAFAEL ; MARTEN, ROBERT ; SÁENZ, ROCÍO	A1	
artigoEmPeriodico	2014	http://dx.doi.org/10.14482/pege.37.7024	An analysis of corporate social responsibility in Brazil: growth, firm size, sector and internal stakeholders involved in policy definition	Pensamiento y Gestion	CRISÓSTOMO, V. L.; FREIRE, Fátima de Souza ; PARENTE, P. H. N.	Qualis nao identificado	Pensamiento y Gestion
artigoEmPeriodico	2014	http://dx.doi.org/10.1016/j.ememar.2014.01.005	Nonfinancial companies as large shareholders alleviate financial constraints of Brazilian firm	Emerging Markets Review	CRISÓSTOMO, V. L.; López-Iturriaga, Félix J. ; VALLELADO, E.	Qualis nao identificado	Emerging Markets Review
artigoEmPeriodico	2014	http://dx.doi.org/10.1108/IJMF-11-2012-0121	Financial constraints for investment in Brazil	International Journal of Managerial Finance	CRISÓSTOMO, VICENTE LIMA; ITURRIAGA, FÉLIX JAVIER LÓPEZ ; GONZÁLEZ, Eleuterio Vallelado	Qualis nao identificado	International Journal of Managerial Finance
artigoEmPeriodico	2014	http://dx.doi.org/10.1016/j.intimp.2014.04.009	A lectin from the green seaweed Caulerpa cupressoides reduces mechanical hyper-nociception and inflammation in the rat temporomandibular joint during zymosan-induced arthritis	International Immunopharmacology (Print)	DA CONCEIÇÃO RIVANOR, RENATA LINE ; Chaves, Hellíada Vasconcelos ; DO VAL, DANIELLE ROCHA ; DE FREITAS, ALICE RAMOS ; LEMOS, JONAS CAVALCANTE ; Rodrigues, José Ariévilo Gurgel ; PEREIRA, KARUZA MARIA ALVES ; de Araújo, Ianna Wivianne Fernandes ; Bezerra, Mirna Marques ; Benevides, Norma Maria Barros	A2	
artigoEmPeriodico	2014	http://dx.doi.org/10.1002/ptr.4953	Linalool-rich Rosewood Oil Induces Vago-vagal Bradycardic and Depressor Reflex in Rats	PTR. Phytotherapy Research	DE SIQUEIRA, RODRIGO JOSÉ ; RODRIGUES, KARILANE MARIA SILVINO ; DA SILVA, MOISÉS TOLENTINO BENTO ; CORREIA JUNIOR, CARLOS ANTÔNIO BARROS ; DUARTE, GLORIA PINTO ; MAGALHÃES, Pedro Jorge Caldas ; SANTOS, ARMÊNIO AGUIAR DOS ; MAIA, JOSÉ GUILHERME SOARES ; DA CUNHA, PERGENTINO JOSÉ SOUSA ; LAHLOU, Saad	A2	
artigoEmPeriodico	2014		Programa Saúde na Escola: Tecendo uma Análise nos Documentos Oficiais	Sanare (Sobral)	DIAS, Maria Socorro de Araújo; GOMES, D. F. ; SANTOS, R. B. ; BRITO, M. C. C. ; SILVA, Lielma Carla Chagas da ; SILVA, Alexandro do Vale	C	
artigoEmPeriodico	2014	http://dx.doi.org/10.1590/1413-812320141911.11442014	Intersetorialidade e Estratégia Saúde da Família: tudo ou quase nada a ver?	Ciência e Saúde Coletiva (Impresso)	DIAS, Maria Socorro de Araújo ; PARENTE, JOSÉ REGINALDO FEIJÃO ; VASCONCELOS, MARISTELA INÊS OSAWA ; DIAS, FERNANDO ANTÔNIO CAVALCANTE	A2	
artigoEmPeriodico	2014		EDUCAÇÃO EM DIREITOS HUMANOS: NARRATIVAS EMERGENTES	REV. TRIANGULO	DIOGENES, Elione Maria Nogueira	Qualis nao identificado	REV. TRIANGULO
artigoEmPeriodico	2014	http://dx.doi.org/10.5212/PraxEduc.v.9i2.0002	Análise das bases epistemológicas do campo teórico da política educacional.	PRÁXIS EDUCATIVA (UEPG. ONLINE)	DIÓGENES, ELIONE MARIA NOGUEIRA. Análise das bases epistemológicas do campo teórico da política educacional	Qualis nao identificado	PRÁXIS EDUCATIVA (UEPG. ONLINE)
artigoEmPeriodico	2014	http://dx.doi.org/10.1002/j.1532-2149.2014.488.x	<i>T</i> <i>ephrosia toxicaria</i> -Pers. reduces temporomandibular joint inflammatory hypernociception: The involvement of the HO-1 pathway	European Journal of Pain (London, England)	DO VAL, D.R. ; BEZERRA, M.M. ; SILVA, A.A.R. ; PEREIRA, K.M.A. ; RIOS, L.C. ; LEMOS, J.C. ; ARRIAGA, N.C. ; VASCONCELOS, J.N. ; Benevides, N.M.B. ; PINTO, V.P.T. ; CRISTINO-FILHO, G. ; BRITO, G.A.C. ; SILVA, F.R.L. ; SANTIAGO, G.M.P. ; ARRIAGA, A.M.C. ; CHAVES, H.V.	A2	
artigoEmPeriodico	2014	http://dx.doi.org/10.1155/2014/154651	Coal Fly Ash Ceramics: Preparation, Characterization, and Use in the Hydrolysis of Sucrose	The Scientific World Journal	dos Santos, Ricardo Pires ; MARTINS, JORGE ; GADELHA, CARLOS ; CAVADA, BENILDO ; ALBERTINI, ALESSANDRO VICTOR ; ARRUDA, FRANCISCO ; VASCONCELOS, MAYRON ; TEIXEIRA, EDSON ; ALVES, FRANCISCA ; LIMA FILHO, JOSÉ ; FREIRE, VALDER	B1	
artigoEmPeriodico	2014		Sobrecarga do Cuidador famailiar com transtorno mental: revisão integrativa	Saude em Debate	ELOIA, S. C. ; OLIVEIRA, E. N. ; ELOIA, S. M. C. ; LOMEO, R. C.Lomeo ; PINTO,J.R	B1	
artigoEmPeriodico	2014	http://dx.doi.org/10.9789/2175-5361.2014.v6i4.1687-1694	Attention of nursing to the health of the elderly: an integrative review	Revista de Pesquisa: Cuidado é Fundamental	ELOIA, SARA CORDEIRO ; OLIVEIRA, ELIANY NAZARÉ ; CORDEIRO ELOIA, SUZANA MARA ; LOPES, ROBERLANDIA EVANGELISTA	B2	
artigoEmPeriodico	2014	http://dx.doi.org/10.1155/2014/729358	Antimicrobial Effect of the Triterpene 3 <b> <i>β</i> </b> ,6 <b> <i>β</i> </b> ,16 <b> <i>β</i> </b> -Trihydroxylup-20(29)-ene on Planktonic Cells and Biofilms from Gram Positive and Gram Negative Bacteria	BIOMED RES INT	Evaristo, Francisco Flávio Vasconcelos ; ALBUQUERQUE, MARIA ROSE JANE R. ; DOS SANTOS, HÉLCIO SILVA ; Bandeira, Paulo Nogueira ; ÁVILA, FÁBIO DO NASCIMENTO ; da Silva, Bruno Rocha ; VASCONCELOS, ARIANA AZEVEDO ; RABELO, ÉRICA DE MENEZES ; Nascimento-Neto, Luiz Gonzaga ; Arruda, Francisco Vassiliepe Sousa ; VASCONCELOS, MAYRON ALVES ; CARNEIRO, Victor Alves ; Cavada, Benildo Sousa ; Teixeira, Edson Holanda	Qualis nao identificado	BIOMED RES INT
artigoEmPeriodico	2014		?Cede-se com as palavras para logo ceder com as coisas?: observações freudianas sobre alguns mal-entendidos em torno do autismo.	A peste: Revista de Psicanálise e Sociedade e Filosofia	FURTADO, Luis Achilles Rodrigues. ?Cede-se com as palavras para logo ceder com as coisas?: observações freudianas sobre alguns mal-entendidos em torno do autismo	Qualis nao identificado	A peste: Revista de Psicanálise e Sociedade e Filosofia
artigoEmPeriodico	2014		Transtornos Globais do Desenvolvimento e Saúde Pública: uma revisão integrativa	PERCURSO ACADÊMICO	FURTADO, Luis Achilles Rodrigues; SILVA, L. S. ; BRAYNER, J. C.	Qualis nao identificado	PERCURSO ACADÊMICO
artigoEmPeriodico	2014		A psicanálise e as fases da organização da libido	Scientia- Revista de Ensino, Pesquisa e Extensão	FURTADO, Luis Achilles Rodrigues; VIEIRA, C. A. L.	Qualis nao identificado	Scientia- Revista de Ensino, Pesquisa e Extensão
artigoEmPeriodico	2014		PRÁTICA DA HUMANIZAÇÃO NA VISITA EM UNIDADE DE TERAPIA INTENSIVA	Revista Enfermagem Contemporâne	FÉLIX, T.A. ; FERREIRA, F. V. ; OLIVEIRA, E. N. ; ELOIA, S. C. ; GOMES, B. V. ; ELOIA, S. M. C.	Qualis nao identificado	Revista Enfermagem Contemporâne
artigoEmPeriodico	2014	http://dx.doi.org/10.4028/www.scientific.net/JBBTE.19.109	Comparative in vivo study of biocompatibility of apatites incorporated with 1% zinc or lead ions versus stoichiometric hydroxyapatite	Journal of Biomimetics, Biomaterials, and Tissue Engineering	GIORNO, B. ; CASTRO-SILVA, I.I. ; Rossi, A. M. ; GRANJEIRO, J. M.	Qualis nao identificado	Journal of Biomimetics, Biomaterials, and Tissue Engineering
artigoEmPeriodico	2014	http://dx.doi.org/10.1160/TH13-08-0712	Update on selective treatments targeting neutrophilic inflammation in atherogenesis and atherothrombosis	Thrombosis and Haemostasis	GOMES QUINDERÉ, A. L. ; BENEVIDES, N. M. B. ; Carbone, F. ; MACH, F. ; VUILLEUMIER, N. ; MONTECUCCO, F.	Qualis nao identificado	Thrombosis and Haemostasis
artigoEmPeriodico	2014		Sustentabilidade e Territorialidade: fios que tecem a luta e a resistência das mulheres camponesas	Sustentabilidade em Debate	GOMES, Debir Soares ; ESMERALDO, G. G. S. L.	B4	
artigoEmPeriodico	2014		ACOLHIMENTO COM AVALIAÇÃO E CLASSIFICAÇÃO DE RISCO: DOS DESAFIOS ÀS POTENCIALIDADES	Sanare (Sobral)	GOYANNA, N. F. ; NETTO, J. J. M. ; FREITAS, C. A. S. L. ; PONTE, Maria Alzenir Coelho ; DIAS, Maria Do Socorro de Araújo	C	
artigoEmPeriodico	2014	http://dx.doi.org/10.1590/s0102-86502014000600003	Glutamine and ornithine alpha-ketoglutarate supplementation on malate dehydrogenases expression in hepatectomized rats	Acta Cirúrgica Brasileira (Online)	GUIMARÃES FILHO, ARTUR ; Cunha, Rodrigo Maranguape Silva da ; VASCONCELOS, PAULO ROBERTO LEITÃO DE ; GUIMARÃES, SERGIO BOTELHO	B1	
artigoEmPeriodico	2014		Epidermoid Cyst Arising in the Buccal Mucosa: Case Report and Literature	Acta Stomatologica Croatica (Online)	GURGEL COSTA, F. W. ; CARVALHO, F. S. R. ; CHAVES, F. N. ; STEPHANIE DE ALMEIDA ; ALVES, Ana Paula Negreiros Nunes ; PATROCÍNIO, R.M.S.V. ; PEREIRA, K.M.A.	Qualis nao identificado	Acta Stomatologica Croatica (Online)
artigoEmPeriodico	2014		Políticas Públicas de Trabalho renda e desenvolvimento no Banco do Nordeste	Revista Avaliação de Políticas Públicas	GUSSI, Alcides Fernando; THÉ, R. F. S. ; ALMEIDA, G. F. B. de	B4	
artigoEmPeriodico	2014		METODOLOGIAS E EXPERIÊNCIAS ETNOGRÁFICAS EM AVALIAÇÃO POLÍTICAS PÚBLICAS: Avaliação de programas de microcrédito do Banco do Nordeste no Ceará	RP3 - Revistas de Pesquisa em Políticas Públicas	GUSSI, Alcides Fernando; THÉ, R. F. S. ; PEREIRA, J. E. O.	Qualis nao identificado	RP3 - Revistas de Pesquisa em Políticas Públicas
artigoEmPeriodico	2014	http://dx.doi.org/10.5897/ajmr2013.6565	Optimization of phytase production by Aspergillus japonicus Saito URM 5633 using cassava bast as substrate in solid state fermentation	African Journal of Microbiology Research	KEILA, A. MOREIRA ; POLYANNA, N. HERCULANO ; MARLIA, DE H. C. MACIEL ; TATIANA, S. PORTO ; MICHELE, R. SPIER ; CRISTINA, MARIA SOUZA-MOTTA ; ANA, L. F. PORTO ; CARLOS, R. SOCCOL	Qualis nao identificado	African Journal of Microbiology Research
artigoEmPeriodico	2014	http://dx.doi.org/10.1016/j.bbagen.2013.09.028	The influence of 5-lipoxygenase on cigarette smoke-induced emphysema in mice	Biochimica et Biophysica Acta. G, General Subjects (Print)	KENNEDY-FEITOSA, EMANUEL ; PINTO, RÔMULO FONSECA SANTOS ; PIRES, KARLA MARIA PEREIRA ; MONTEIRO, ANA PAULA TEIXEIRA ; MACHADO, MARIANA NASCIMENTO ; SANTOS, JULIANA CARVALHO ; RIBEIRO, MARCELO LIMA ; ZIN, WALTER ARAÚJO ; CANETTI, CLÁUDIO AZEVEDO ; ROMANA-SOUZA, BRUNA ; PORTO, LUÍS CRISTÓVÃO ; VALENCA, SAMUEL SANTOS	A1	
artigoEmPeriodico	2014	http://dx.doi.org/10.3171/2014.2.JNS131288	Atrophic changes in the trigeminal nerves of patients with trigeminal neuralgia due to neurovascular compression and their association with the severity of compression and clinical outcomes	Journal of Neurosurgery	LEAL, PAULO ROBERTO LACERDA ; BARBIER, CHARLOTTE ; Hermier, Marc ; Souza, Miguel Angelo ; Cristino-Filho, Gerardo ; Sindou, Marc	A2	
artigoEmPeriodico	2014		Effects of GDF-9 and FSH on mRNA Expression for FSH-R, GDF-9 and BMPs in in vitro Cultured Goat Preantral Follicles	Brazilian Archives of Biology and Technology (Impresso)	LEITAO, C. C. F. ; Costa, José J. N. ; Brito, IR ; Magalhães-Padilha, D.M. ; Almeida, A.P. ; Figueiredo, J.R. ; van den Hurk, Rob ; Silva, JRV	B1	
artigoEmPeriodico	2014	http://dx.doi.org/10.1007/s13197-014-1463-y	Antimicrobial and radical scavenging properties of bovine collagen hydrolysates produced by Penicillium aurantiogriseum URM 4622 collagenase	Journal of Food Science and Technology	Lima, Carolina A. ; CAMPOS, JÚLIA FURTADO ; Filho, José L. Lima ; CONVERTI, Attilio ; DA CUNHA, MARIA G. CARNEIRO ; Porto, Ana L. F.	B2	
artigoEmPeriodico	2014		METHYLPHENIDATE: PROCONVULSANT EFFECT AND ACTION ON ACETYL CHOLINESTERASE ACTIVITY IN YOUNG AND ADULT MICE	International Journal of Pharmacy and Pharmaceutical Sciences	LINHARES, M. I. ; VENANCIO, E. T. ; LIMA, C. N. C. ; FEITOSA, M. L. ; SALVIANO, L. H. M. S. ; SOUZA, A. G. ; ALVES, K. ; SOUSA, F. C. F. ; WOODS, D. J. ; Lissiana M. V. Aguiar ; Fonteles, M.M.F.	B4	
artigoEmPeriodico	2014		CORPOS E CIDADE EM MOVIMENTO: JOVENS E (IN) VISIBILIDADES NOS CIRCUITOS ECONÔMICOS E COMERCIAIS NA CIDADE DE SOBRAL-CEARÁ	Revista da Sociedade Brasileira de Sociologia	LINHARES, M. I. B. ; ALMEIDA, N. R. O. ; CARVALHO, Alba M. Pinho de	B4	Revista da Sociedade Brasileira de Cancerologia
artigoEmPeriodico	2014		Avaliação do Programa Nacional da Melhoria do Acesso e da qualidade da atenção básica no estado do Ceará	Saude em Debate	LINHARES, P. H. A. ; Lira, Geison Vasconcelos ; ALBUQUERQUE, I. M. N.	B1	
artigoEmPeriodico	2014		Aproveitamento dos subprodutos de cavala (Scomberomorus cavala) para obtenção de proteases digestivas: temperatura ótima e termoestabilidade	REVISTA SAÚDE & CIÊNCIA ON LINE	LINO, L. H. S. ; ROBERTO, N. A. ; BEZERRA, R. S. ; OLIVEIRA, V.M. ; PORTO, A. L. F.	B5	Revista Saúde & Ciência
artigoEmPeriodico	2014	http://dx.doi.org/10.1186/1753-6561-8-s4-p226	Isolation, purification and partial physicochemical characterization of a lectin in Andira pisonis Mart seed	BMC Proceedings	LOSSIO, CLAUDIA ; DA SILVA, MAYARA ; BARBOSA, LIA ; MOREIRA, CLEANE ; RANGEL MIGUEL, THAIZ ; DO NASCIMENTO, ANTONIA ; DA SILVA, IVANICE ; do Nascimento, Kyria ; CAVADA, BENILDO	Qualis nao identificado	BMC Proceedings
artigoEmPeriodico	2014	http://dx.doi.org/10.1007/s10877-013-9516-8	End-tidal versus manually-controlled low-flow anaesthesia	Journal of Clinical Monitoring and Computing	LUCANGELO, U. ; GARUFI, G. ; MARRAS, E. ; FERLUGA, M. ; TURCHET, F. ; BERNABE, F. ; COMUZZI, L. ; BERLOT, G. ; ZIN, W. A.	Qualis nao identificado	Journal of Clinical Monitoring and Computing
artigoEmPeriodico	2014		Posicionamento dos Coordenadores da Atenção Básica Sobre Egressos da Residência Multiprofissional em Saúde da Família	Revista Brasileira Ciências da Saúde	LUNAS JUNIOR, F. J. ; BARRETO, R. M. A. ; VASCONCELOS, MARISTELA INÊS OSAWA	B3	
artigoEmPeriodico	2014	http://dx.doi.org/10.1016/j.resp.2014.02.007	Pulmonary Functional and Morphological Damage after Exposure to Tripoli Dust	Respiratory Physiology & Neurobiology	MACHADO, M.N. ; SCHMIDT, A.C. ; SALDIVA, PAULO H.N. ; FAFFE, D. S. ; ZIN, W. A.	B1	
artigoEmPeriodico	2014	http://dx.doi.org/10.1016/j.resp.2014.06.005	Papain-induced experimental pulmonary emphysema in male and female mice	Respiratory Physiology & Neurobiology	MACHADO, MARIANA NASCIMENTO ; FIGUEROA, S.F. ; MAZZOLI-ROCHA, FLAVIA ; VALENCA, SAMUEL SANTOS ; ZIN, W. A.	B1	
artigoEmPeriodico	2014		Pectinolytic complex production by Aspergillus niger URM 4645 using yellow passion fruit peels in solid state fermentation	African Journal of Biotechnology	MACIEL, M. H. C. ; HERCULANO, P. N. ; FERNANDES, M. J. S. ; PORTO, Tatiana Souza ; LIMA, J. S. ; MAGALHAES, O. M. C. ; SILVA, L. R. C. ; PORTO, A. L. F. ; MOREIRA, K. A. ; Souza-Motta Cristina Maria	B2	
artigoEmPeriodico	2014	http://dx.doi.org/10.1016/j.fluid.2014.03.018	Purification of polygalacturonases produced by Aspergillus niger using an aqueous two-phase system	Fluid Phase Equilibria	MACIEL, MARÍLIA DE H.C. ; OTTONI, CRISTIANE A. ; HERCULANO, POLYANNA N. ; Porto, Tatiana S. ; Porto, Ana L.F. ; SANTOS, CLEDIR ; LIMA, NELSON ; MOREIRA, KEILA A. ; SOUZA-MOTTA, CRISTINA	A2	
artigoEmPeriodico	2014		Effect of cashew (Anacardium occidentale L.) peduncle bagasse extract on Streptococcus mutans and its biofilm	Revista Brasileira de Biociências (Online)	Manuela Almeida Montenegro Furtado ; Francisca das Chagas de Sousa Alves ; Jorge Luiz Martins ; Mayron Alves de Vasconcelos ; Vanessa Sabrine Correia Ramos ; Giselly Soares de Sousa ; André Luis Coelho da Silva ; Wladimir Ronald Lobo Farias ; Edson Holanda Teixeira ; Benildo Sousa Cavada ; SANTOS, R. P.	B2	
artigoEmPeriodico	2014	http://dx.doi.org/10.1590/s1517-83822014000300022	Screening of wild type Streptomyces isolates able to overproduce clavulanic acid'	Brazilian Journal of Microbiology (Impresso)	Marques, Daniela A. Viana ; SANTOS-EBINUMA, VALÉRIA DE CARVALHO ; OLIVEIRA, PATRÍCIA MARIA SOBRAL DE ; LIMA, GLÁUCIA MANOELLA DE SOUZA ; ARAÚJO, JANETE M. ; Lima-Filho, José L. ; CONVERTI, Attilio ; PESSOA-JÚNIOR, ADALBERTO ; Porto, Ana L.F.	A2	
artigoEmPeriodico	2014	http://dx.doi.org/10.1016/j.theriogenology.2014.02.019	Presence of growth hormone receptor (GH-R) mRNA and protein in goat ovarian follicles and improvement of in vitro preantral follicle survival and development with GH	Theriogenology	MARTINS, Fabricio Sousa ; SARAIVA, Márcia Viviane Alves ; MAGALHÃES-PADILHA, D.M. ; ALMEIDA, A.P. ; Celestino, J.J.H. ; PADILHA, R.T. ; CUNHA, R.M.S. ; Silva, J.R.V. ; Campello, C.C. ; Figueiredo, J.R.	A2	
artigoEmPeriodico	2014	http://dx.doi.org/10.1016/j.resp.2013.11.004	Respiratory toxicity of repeated exposure to particles produced by traffic and sugar cane burning	Respiratory Physiology & Neurobiology	MAZZOLI-ROCHA, FLAVIA ; CARVALHO, GIOVANNA M.C. ; LANZETTI, MANUELLA ; VALENÇA, SAMUEL S. ; SILVA, LUIZ F.F. ; SALDIVA, PAULO H.N. ; Zin, Walter A. ; FAFFE, DÉBORA S.	B1	
artigoEmPeriodico	2014	http://dx.doi.org/10.1016/j.ijbiomac.2013.12.035	HGA-2, a novel galactoside-binding lectin from the sea cucumber Holothuria grisea binds to bacterial cells	International Journal of Biological Macromolecules	MELO, ARTHUR ALVES DE ; CARNEIRO, RÔMULO FARIAS ; SILVA, WINNIE DE MELO ; MOURA, RANIERE DA MATA ; SILVA, GISELLE CRISTINA ; SOUSA, OSCARINA VIANA DE ; SABOYA, JEFFERSON PABLO DE SOUSA ; Nascimento, Kyria Santiago do ; Saker-Sampaio, Silvana ; Nagano, Celso Shiniti ; Cavada, Benildo Sousa ; SAMPAIO, Alexandre Holanda	A2	
artigoEmPeriodico	2014		AS TICs COMO APOIO DIDÁTICO NO PROCESSO DE LEITURA E PRODUÇÃO TEXTUAL NO 5º ANO DO ENSINO FUNDAMENTAL	COLABOR@ (CURITIBA)	MELO, G. R. ; DIOGENES, Elione Maria Nogueira	B4	
artigoEmPeriodico	2014		ABORDAGEM GRUPAL COMO ESTRATÉGIA DE CUIDADO NO PRÉ-NATAL	Sanare (Sobral)	MENDONCA, G. M. M. ; ABREU, L. D. P. ; ARAUJO, F. A. ; SILVA, Maria Adelane Monteiro da	C	
artigoEmPeriodico	2014		ANÁLISE DA TRIAGEM NEONATAL NO MUNICÍPIO DE SOBRAL, CEARÁ	Revista Eletrônica Gestão & Saúde	MENEZES, R. S. P. ; SILVA, Maria Adelane Monteiro da ; MARTINS, Keila Maria Carvalho ; CHAGAS, M. I. O. ; LIRA, G. V.	B4	
artigoEmPeriodico	2014	http://dx.doi.org/10.1016/j.jash.2014.09.006	Onset of hypertension during pregnancy is associated with long-term worse blood pressure control and adverse cardiac remodeling	Journal of the American Society of Hypertension	MESQUITA, R. ; REIS, M. ; BEPPLER, A. P. ; BELLINAZZI, V. R. ; MATTOS, S. A. ; DE LIMA FILHO, JOSÉ L. ; Cipolli, J. A. ; COELHO-FILHO, O. ; PIO-MAGALHAES, J. A. ; SPOSITO, ANDREI C. ; Matos-Souza, J. R. ; NADRUZ, W Jr ou NADRUZ JUNIOR, Wilson	Qualis nao identificado	Journal of the American Society of Hypertension
artigoEmPeriodico	2014	http://dx.doi.org/10.1016/j.jmau.2014.03.004	Morphology, ultrastructure and immunocytochemistry of Hypnea cervicornis and Hypnea musciformis-(Hypneaceae, Rhodophyta) from the coastal waters of Ceará, Brazil	Journal of Microscopy and Ultrastructure	MIGUEL, THAIZ B.A. RANGEL ; SCHMIDT, EDER C. ; BOUZON, ZENILDA L. ; NASCIMENTO, FERNANDO E.P. ; DA CUNHA, MAURA ; PIREDA, SAULO F. ; Nascimento, Kyria S. ; Nagano, Celso S. ; Saker-Sampaio, Silvana ; Cavada, Benildo S. ; MIGUEL, EMILIO C. ; Sampaio, Alexandre H.	Qualis nao identificado	Journal of Microscopy and Ultrastructure
artigoEmPeriodico	2014		PADRÃO OPENEHR APLICADO COMO SISTEMA DE ORGANIZAÇÃO DO CONHECIMENTO CLÍNICO	Pesquisa Brasileira em Ciência da Informação e Biblioteconomia	MIRANDA, N. J. ; BENTES PINTO, Virginia	Qualis nao identificado	Pesquisa Brasileira em Ciência da Informação e Biblioteconomia
artigoEmPeriodico	2014	http://dx.doi.org/10.1155/2014/239208	A Lectin from <i>Dioclea violacea</i> Interacts with Midgut Surface of <i>Lutzomyia migonei</i> , Unlike Its Homologues, <i>Cratylia floribunda</i> Lectin and <i>Canavalia gladiata</i> Lectin	The Scientific World Journal	MONTEIRO TÍNEL, JULIANA MONTEZUMA BARBOSA ; BENEVIDES, MELINA FECHINE COSTA ; FRUTUOSO, MÉRCIA SINDEAUX ; ROCHA, CAMILA FARIAS ; Arruda, Francisco Vassiliepe Sousa ; VASCONCELOS, MAYRON ALVES ; Pereira-Junior, Francisco Nascimento ; Cajazeiras, João Batista ; do Nascimento, Kyria Santiago ; MARTINS, JORGE LUIZ ; Teixeira, Edson Holanda ; Cavada, Benildo Sousa ; dos Santos, Ricardo Pires ; LIMA POMPEU, MARGARIDA MARIA	B1	
artigoEmPeriodico	2014	http://dx.doi.org/10.1155/2014/239208	A Lectin from Interacts with Midgut Surface of , Unlike Its Homologues, Lectin and Lectin	The Scientific World Journal	MONTEIRO TÍNEL, JULIANA MONTEZUMA BARBOSA ; BENEVIDES, MELINA FECHINE COSTA ; FRUTUOSO, MÉRCIA SINDEAUX ; ROCHA, CAMILA FARIAS ; ARRUDA, FRANCISCO VASSILIEPE SOUSA ; VASCONCELOS, MAYRON ALVES ; PEREIRA-JUNIOR, FRANCISCO NASCIMENTO ; CAJAZEIRAS, João Batista ; DO NASCIMENTO, KYRIA SANTIAGO ; MARTINS, JORGE LUIZ ; TEIXEIRA, EDSON HOLANDA ; CAVADA, Benildo Sousa ; DOS SANTOS, RICARDO PIRES ; LIMA POMPEU, MARGARIDA MARIA	B1	
artigoEmPeriodico	2014	http://dx.doi.org/10.1371/journal.pone.0110185	P2X7 Receptor Modulates Inflammatory and Functional Pulmonary Changes Induced by Silica	Plos One	MONÇÃO-RIBEIRO, L. C. ; FAFFE, D. S. ; SANTANA, P. T. ; VIEIRA, F. S. ; GRACA, C. L. A. L. ; MARQUES-DA-SILVA, C. ; MACHADO, M.N. ; CARUSO-NEVES, C. ; ZIN, W. A. ; BOROJEVIC, R. ; TAKIYA, C.M. ; COUTINHO-SILVA, R.	A1	
artigoEmPeriodico	2014		Um novo padrão exportador de especialização produtiva? considerações sobre o caso brasileiro	Revista da Sociedade Brasileira de Economia Política	MOREIRA, C. A. L.; SEBAG, E.	B1	
artigoEmPeriodico	2014	http://dx.doi.org/10.1186/1753-6561-8-s4-p238	Isolation and characterization of a lectin from Andira anthelmia seeds	BMC Proceedings	MOREIRA, CLEANE ; SILVA, MAYARA ; NOBRE, CAMILA ; MIGUEL, THAIZ ; NASCIMENTO, ANTONIA ; NAGANO, CELSO ; NASCIMENTO, KYRIA ; CAVADA, BENILDO ; SILVA, IVANICE	Qualis nao identificado	BMC Proceedings
artigoEmPeriodico	2014	http://dx.doi.org/10.1093/ajh/hpu159	A Modified Blood Pressure to Height Ratio Improves Accuracy for Hypertension in Childhood	American Journal of Hypertension	MOURATO, F. A. ; Nadruz, W. ; MOSER, L. R. D. N. ; de Lima Filho, J. L. ; Mattos, S. S.	A2	
artigoEmPeriodico	2014	http://dx.doi.org/10.1016/j.jped.2014.08.008	Comparison of different screening methods for blood pressure disorders in children and adolescents	Jornal de Pediatria (Impresso)	MOURATO, FELIPE ALVES ; LIMA FILHO, JOSÉ LUIZ ; MATTOS, SANDRA DA SILVA	A2	
artigoEmPeriodico	2014		Assistencia domiciliar ao idoso no contexto da ESF:analise da produção cientifica	Sanare (Sobral)	MUNIZ, E. A. ; FREITAS, C. A. S. L. ; ALBUQUERQUE, I. M. N. ; LINHARES, Maria Socorro Carneiro	C	
artigoEmPeriodico	2014		ESTUDO DE AVALIABILIDADE DA POLÍTICA NACIONAL DE ATENÇÃO INTEGRAL À SAÚDE DO HOMEM NO MUNICÍPIO DE SOBRAL, CEARÁ	Revista Baiana de Saúde Publica	NASCIMENTO, L.V. ; MACHADO, W. D. ; GOMES, D.F. ; VASCONCELOS, M. I. O.	B2	
artigoEmPeriodico	2014	http://dx.doi.org/10.3390/molecules19045434	Quantification, Antioxidant and Antimicrobial Activity of Phenolics Isolated from Different Extracts of Capsicum frutescens (Pimenta Malagueta)	Molecules (Basel. Online)	NASCIMENTO, PATRÍCIA ; NASCIMENTO, TALITA ; RAMOS, NATÁLIA ; SILVA, GIRLIANE ; GOMES, JOSÉ ; FALCÃO, ROSÂNGELA ; MOREIRA, KEILA ; PORTO, ANA ; SILVA, TANIA	A2	
artigoEmPeriodico	2014		Production and partial characterization of thermostable chitinase by streptomycin owasiensis isolated from lichens of the Amazon	African Journal of Microbiology Research	NASCIMENTO, T. C. E. S. ; NASCIMENTO, P. L. A. ; SILVA, A. C. ; MEDEIROS, E. V. ; LIMA, G. M. S. ; TEIXEIRA, Maria Francisca Simas ; PORTO, A. L. F. ; MOREIRA, K. A.	Qualis nao identificado	African Journal of Microbiology Research
artigoEmPeriodico	2014		Arquivo Brasileiro de Medicina Veterinária e Zootecnia (Online)	Arquivo Brasileiro de Medicina Veterinária e Zootecnia (Online)	Nascimento, T. P. ; PORTO, C. S. ; TEIXEIRA, Maria Francisca Simas ; PORTO, T. S. ; Porto, A.L.F.	B1	
artigoEmPeriodico	2014	http://dx.doi.org/10.1109/TLA.2014.6868866	A Risk Management Methodology Proposal for Information Technology Projects	Revista IEEE América Latina	NOBREGA, D. A. ; FENNER, G. ; Lima A.S.	B1	
artigoEmPeriodico	2014		Ser mulher e participar de grupo educativo em saúde na comunidade: motivações e expectativas	Revista Enfermagem UERJ	NUNES, J. M. ; OLIVEIRA, E. N. ; MACHADO, M.F.A.S ; PINHEIRO,P.N.C ; VIEIRA, N. F. C.	B1	
artigoEmPeriodico	2014	http://dx.doi.org/10.1590/0104-070720140004500013	Educational practice with women in the community: prevention of pregnancy in adolescence	Texto & Contexto Enfermagem (UFSC. Impresso)	NUNES, JOYCE MAZZA ; OLIVEIRA, ELIANY NAZARÉ ; BEZERRA, SOLEANE MAZZA NUNES ; COSTA, PATRÍCIA NEYVA PINHEIRO DA ; VIEIRA, NEIVA FRANCENELY CUNHA	A2	
artigoEmPeriodico	2014		200 AÑOS DE LA DEVOCIÓN A LA VIRGEN DEL ROCÍO EN PARANAGUÁ-PR (BRASIL)	EXVOTO	OLIVEIRA, Christian D	Qualis nao identificado	EXVOTO
artigoEmPeriodico	2014		A FAMÍLIA NO CUIDADO À PESSOA COM TRANSTORNO MENTAL : UMA REVISÃO INTEGRATIVA	ReTEP. Revista de Tendências da Enfermagem Profissional (Impresso)	OLIVEIRA, E. N.; ELOIA, S. M. C. ; LIMA, D. S. ; ELOIA, S. C. ; FÉLIX, T.A. ; CHAGAS, M. I. O.	B5	
artigoEmPeriodico	2014	http://dx.doi.org/10.3109/01612840.2013.869286	Clinical Aspects and Care Production in a Brazilian Psychosocial Care Center of Alcohol and Other Drugs (CAPS AD)	Issues in Mental Health Nursing	OLIVEIRA, ELIANY NAZARÉ; VASCONCELOS ALVES, PRISCILA MARIA ; XIMENES NETO, FRANCISCO ROSEMIRO GUIMARÃES ; TELES ANDRADE, ALINE ; VIEIRA GOMES, BRUNA ; GRANDE, ANTONIO JOSE	Qualis nao identificado	Issues in Mental Health Nursing
artigoEmPeriodico	2014		Inserção de Egressos do Curso de Graduação em Enfermagem no Mercado de Trabalho	Sanare (Sobral)	OLIVEIRA, F. M. M. ; CAVALCANTE, A. S. P. ; TEOFILO, F. K. S. ; VIEIRA, I. P. G. F. ; FERREIRA, A. G. N. ; VASCONCELOS, M. I. O.	C	
artigoEmPeriodico	2014		Caracterização parcial à íons metálicos de uma protease com propriedades colagenolíticas extraída de vísceras digestivas de pescada-branca (Cynoscion leiarchus)	REVISTA SAÚDE & CIÊNCIA ON LINE	OLIVEIRA, V.M. ; ROBERTO, N. A. ; LINO, L. H. S. ; BEZERRA, R. S. ; PORTO, A. L. F.	B5	Revista Saúde & Ciência
artigoEmPeriodico	2014	http://dx.doi.org/10.1007/s12010-014-0751-3	Purification, Partial Characterization, and CNBr-Sepharose Immobilization of a Vasorelaxant Glucose/Mannose Lectin from Canavalia virosa Seeds	Applied Biochemistry and Biotechnology	OSTERNE, VINICIUS J. S. ; SANTIAGO, MAYARA Q. ; PINTO-JUNIOR, VANIR R. ; Cajazeiras, João B. ; CORREIA, JORGE L. A. ; LEITÃO, CINTIA C. F. ; CARNEIRO, RÔMULO F. ; PEREIRA-JUNIOR, FRANCISCO N. ; VASCONCELOS, MAYRON A. ; ROCHA, Bruno Anderson Matias da ; Assreuy, Ana Maria S. ; BRINGEL, PEDRO HENRIQUE S. F. ; Nagano, Celso S. ; Nascimento, Kyria S. ; Cavada, B.S.	A1	
artigoEmPeriodico	2014	http://dx.doi.org/10.1590/S0004-28032014000200006	THE PARTICIPATION OF THE NITRERGIC PATHWAY IN INCREASED RATE OF TRANSITORY RELAXATION OF LOWER ESOPHAGEAL SPHINCTER INDUCED BY RECTAL DISTENSION IN DOGS	Arquivos de Gastroenterologia (Impresso)	PALHETA, MICHEL SANTOS ; GRAÇA, JOSÉ RONALDO VASCONCELOS DA ; SANTOS, Armênio Aguiar dos ; LOPES, LIZIANE HERMÓGENES ; PALHETA JÚNIOR, RAIMUNDO CAMPOS ; NOBRE E SOUZA, MIGUEL ÂNGELO	B2	
artigoEmPeriodico	2014		EXTENSÃO UNIVERSITÁRIA E FORMAÇÃO PROFISSIONAL EM UM HOSPITAL DE ENSINO: percepção de acadêmicos de enfermagem	Sanare (Sobral)	PESSOA, C. V. ; RODRIGUES, A. B. ; DIAS, Maria Socorro de Araújo ; SILVA, A. S. R.	C	
artigoEmPeriodico	2014	http://dx.doi.org/10.1590/1413-81232014197.09862013	Avaliação da acessibilidade ao Centro de Especialidades Odontológicas de abrangência macrorregional de Sobral, Ceará, Brasil	Ciência e Saúde Coletiva (Impresso)	PINTO, V. P. T.; SARAIVA, S. R. M. ; MOREIRA, M. A. G. ; Santos, P. R. ; ARAUJO, M. W. A. ; Teixeira A.H.	A2	
artigoEmPeriodico	2014		Alternative pathways involved in the anti ncociceptive effect of Canavalia brasiliensis lectin: nitric oxid and adennergic system	Current Topics in Pharmacology	Pires, Alana F. ; S, Cavada B ; Soiuza, A.N.C. ; Laranjeira, E.P.P. ; Cajazeiras, João B. ; Assreuy, Ana M. S. ; Santos, C.F.	Qualis nao identificado	Current Topics in Pharmacology
artigoEmPeriodico	2014		Avaliação cognitiva em larga escala dos conteúdos da Educação Física escolar	Bordon: revista de pedagogia	Pontes Júnior, José Airton de F. ; ALMEIDA, L. S. ; TROMPIERI FILHO, N.	Qualis nao identificado	Bordon: revista de pedagogia
artigoEmPeriodico	2014		Perspectivas dos acadêmicos de Educação Física no contexto da Educação Inclusiva	INFAD (Barcelona)	Pontes Júnior, José Airton de F. ; BARBOSA, A. P. L. ; MONTE, M. C. V. ; TROMPIERI FILHO, N. ; MAGALHAES, R. C. B. P.	Qualis nao identificado	INFAD (Barcelona)
artigoEmPeriodico	2014		Pesquisa científica na formação pedagógica do professor de Educação Física escolar. Revista Expressão Católica	Revista Expressão Católica	Pontes Júnior, José Airton de F. ; TAHIM, A. P. V. O. ; MONTEIRO, J. R. S. ; ALBUQUERQUE, M. S. ; TROMPIERI FILHO, N.	Qualis nao identificado	Revista Expressão Católica
artigoEmPeriodico	2014	http://dx.doi.org/10.1016/j.smallrumres.2013.10.021	Effects of different concentrations of concanavalin A and follicle stimulating hormone on goat primordial follicles activation, survival and gene expression	Small Ruminant Research	PORTELA, A.M.L.R. ; RIBEIRO, R.P. ; COSTA, J.J.N. ; ROSSI, R.O.D.S. ; PASSOS, J.R.S. ; VASCONCELOS, G.L. ; DONATO, M.A.M. ; PEIXOTO, C.A. ; SARAIVA, Márcia Viviane Alves ; VAN DEN HURK, R. ; J.R.V. SILVA	B1	
artigoEmPeriodico	2014		'Il n'y aura pas d'agroecologie sans feminisme': L'expérience brésilienne	Sustentabilidade em Debate	PREVOST, H. ; ESMERALDO, G. G. S. L. ; GUETAT-BERNAND, H.	B4	
artigoEmPeriodico	2014	http://dx.doi.org/10.4025/actascibiolsci.v36i4.23704	<b>Inhibition of coagulation proteases and thrombosis and sub-chronic toxicological study of a sulfated polysaccharidic fraction from the red alga <i>Gelidiella acerosa</i></b>	Acta Scientiarum. Biological Sciences (Online)	Queiroz, Ismael Nilo Lino de ; Rodrigues, José Ariévilo Gurgel ; Quinderé, Ana Luíza Gomes ; HOLANDA, Márjory Lima ; PEREIRA, Maria Gonçalves ; Benevides, Norma Maria Barros	B2	
artigoEmPeriodico	2014	http://dx.doi.org/10.1111/jth.12448	Is the antithrombotic effect of sulfated galactans independent of serpin?	Journal of Thrombosis and Haemostasis (Print)	Quinderé, Ana Luíza Gomes ; SANTOS, G. R. C. ; OLIVEIRA, S. M. C. G. ; GAUSER, B. F. ; Fontes, Bruno Pedrosa ; Queiroz I. N. L. ; BENEVIDES, N. M. B. ; POMIN, V. H. ; MOURAO, P. A. S.	Qualis nao identificado	Journal of Thrombosis and Haemostasis (Print)
artigoEmPeriodico	2014		ATUAÇÃO DO ENFERMEIRO DA ESTRATÉGIA SAÚDE DA FAMÍLIA NA PREVENÇÃO DO CÂNCER DE COLO DE ÚTERO	Revista SANARE	RAMOS, A. L. ; SILVA, D. P. ; MACHADO, G. M. O. ; OLIVEIRA, E. N. ; LIMA, D. S.	Qualis nao identificado	Revista SANARE
artigoEmPeriodico	2014		Expression levels of mRNA for insulin-like growth factors 1 and 2, IGF receptors and IGF binding proteins in in vivo and in vitro grown bovine follicles	Zygote (Cambridge. Print)	REBOUÇAS, EMANUELA L. ; COSTA, J.J.N. ; PASSOS, M.J. ; SILVA, A.W.B. ; ROSSI, RODRIGO O.D.S. ; van den Hurk, Robert ; J.R.V. SILVA	B1	
artigoEmPeriodico	2014	http://dx.doi.org/10.6008/SPC2179-684X.2014.002.0007	Tomada de decisão multicritério na migração de aplicativos para ambientes de nuvem do tipo software as a service	Revista Brasileira de Administração Científica	RIBAS, M. ; Lima A.S. ; DE SOUZA, J. N. ; SOUSA, F. R. C. ; FENNER, G.	Qualis nao identificado	Revista Brasileira de Administração Científica
artigoEmPeriodico	2014	http://dx.doi.org/10.1597/13-204	A Clinical Multicenter Study of Orofacial Features in 26 Brazilian Patients With Different Types of Mucopolysaccharidosis	The Cleft Palate-Craniofacial Journal (Print)	RIBEIRO, ERLANE MARQUES ; FONTELES, CRISTIANE S.R. ; FREITAS, ADRIANA BEZERRA ; DA SILVA ALVES, KARLA SHANGELA ; Monteiro, André Jalles ; DA SILVA, CARLOS ANTÔNIO BRUNO	B1	
artigoEmPeriodico	2014		GRUPO DE AUTOAJUDA COM MULHERES MASTECTOMIZADAS: TRABALHANDO ESTRATÉGIAS DE EDUCAÇÃO EM SAÚDE	SANARE-REVISTA DE POLÍTICAS PUBLICAS	RIBEIRO, I. F. A. ; SOUSA, R. D. F. ; ANDRADE, S. P. ; BRITO, M. C. C. ; ALBUQUERQUE, I. M. N.	Qualis nao identificado	SANARE-REVISTA DE POLÍTICAS PUBLICAS
artigoEmPeriodico	2014		GEORREFERENCIAMENTO: FERRAMENTA DE ANÁLISE DO SISTEMA DE SAÚDE DE SOBRAL - CEARÁ	Sanare	RIBEIRO, M. A. ; ALBUQUERQUE, I. M. N. ; PAIVA, G. M. ; VASCONCELOS, J. P. C. ; ARAUJO, M. A. V. F. ; VASCONCELOS, M. I. O.	Qualis nao identificado	Sanare
artigoEmPeriodico	2014		Georreferenciamento:ferramenta de análise do sistema municipal de saúde de Sobral-CE	Sanare (Sobral)	RIBEIRO, M. A. ; ALBUQUERQUE, I. M. N. ; PAIVA, G. M. ; VASCONCELOS, J. P. C. ; Maria Aparecida Vilela de Freitas Araújo ; CHAGAS, M. I. O.	C	
artigoEmPeriodico	2014	http://dx.doi.org/10.1007/s00011-014-0728-2	Sulfated polysaccharides isolated from the green seaweed Caulerpa racemosa plays antinociceptive and anti-inflammatory activities in a way dependent on HO-1 pathway activation	Inflammation Research (Printed ed.)	RIBEIRO, NATÁSSIA ALBUQUERQUE ; ABREU, Ticiana Monteiro ; Chaves, Hellíada Vasconcelos ; Bezerra, Mirna Marques ; Monteiro, Helena Serra Azul ; Jorge, Roberta Jeane Bezerra ; Benevides, Norma Maria Barros	A2	
artigoEmPeriodico	2014	http://dx.doi.org/10.1017/s0967199414000173	Effects of jacalin and follicle-stimulating hormone on in vitro goat primordial follicle activation, survival and gene expression	Zygote (Cambridge. Print)	RIBEIRO, R. P. ; PORTELA, A. M. L. R. ; SILVA, ANDERSON W.B. ; COSTA, JOSÉ J.N. ; PASSOS, J.R.S. ; CUNHA, E.V. ; SOUZA, G. B. ; SARAIVA, Márcia Viviane Alves ; C.A. PEIXOTO ; van den Hurk, Robert ; J.R.V. SILVA	B1	
artigoEmPeriodico	2014	http://dx.doi.org/10.1111/adj.12145	Caries experience, mutans streptococci and total protein concentrations in children with protein-energy undernutrition	Australian Dental Journal (Print)	RIBEIRO, T RODRIGUES ; ALVES, K SHANGELA DA SILVA ; DE MIRANDA MOTA, AC ; COSTA, D PEREIRA ; DE CARVALHO, C BARRETO MANO ; SANTOS, CF ; MONTEIRO, AJ ; FONTELES, CSR	Qualis nao identificado	Australian Dental Journal (Print)
artigoEmPeriodico	2014	http://dx.doi.org/10.1016/j.pbb.2014.03.008	Antidepressant-like effect of Canavalia brasiliensis (ConBr) lectin in mice: Evidence for the involvement of the glutamatergic system	Pharmacology, Biochemistry and Behavior	RIEGER, DÉBORA K. ; Costa, Ana Paula ; BUDNI, JOSIANE ; MORETTI, MORGANA ; BARBOSA, SABRINA GIOVANA ROCHA ; Nascimento, Kyria S. ; Teixeira, Edson H. ; Cavada, Benildo S. ; RODRIGUES, ANA LÚCIA S. ; Leal, Rodrigo B.	A2	
artigoEmPeriodico	2014	http://dx.doi.org/10.1002/jmr.2401	ConBr, a lectin from <i>Canavalia brasiliensis</i> seeds, modulates signaling pathways and increases BDNF expression probably via a glycosylated target	JMR. Journal of Molecular Recognition	Rieger, Débora K. ; Cunha, Rodrigo M. S. ; LOPES, MARK WILLIAM ; Costa, Ana Paula ; BUDNI, JOSIANI ; RODRIGUES, ANA LÚCIA S. ; WALZ, ROGER ; Teixeira, Edson H. ; Nascimento, Kyria S. ; Cavada, Benildo S. ; Leal, Rodrigo B.	Qualis nao identificado	JMR. Journal of Molecular Recognition
artigoEmPeriodico	2014	http://dx.doi.org/10.1002/jmr.2401	ConBr, a lectin from seeds, modulates signaling pathways and increases BDNF expression probably via a glycosylated target	JMR. Journal of Molecular Recognition	RIEGER, DÉBORA K. ; Cunha, Rodrigo M. S. ; LOPES, MARK WILLIAM ; Costa, Ana Paula ; BUDNI, JOSIANI ; RODRIGUES, ANA LÚCIA S. ; WALZ, ROGER ; Teixeira, Edson H. ; Nascimento, Kyria S. ; Cavada, Benildo S. ; Leal, Rodrigo B.	Qualis nao identificado	JMR. Journal of Molecular Recognition
artigoEmPeriodico	2014	http://dx.doi.org/10.4025/actascibiolsci.v36i2.19342	Structural features and assessment of zymosan-induced arthritis in rat temporomandibular joint model using sulfated polysaccharide	Acta Scientiarum. Biological Sciences (Impresso)	RODRIGUES, J. A. G. ; CHAVES, H. V. ; ALVES, K. S. ; FILGUEIRA, A. A. ; BEZERRA, M. M. ; BENEVIDES, N. M. B.	B2	
artigoEmPeriodico	2014		Structural analysis of a sulfated polysaccharidic fraction obtained from the coenocytic green seaweed Caulerpa cupressoides var. lycopodium	Acta Scientiarum. Technology (Impresso)	RODRIGUES, J. A. G. ; MOURA NETO, E. ; SANTOS, G. R. C. ; PAULA, Regina C M de ; MOURÃO, Paulo A. S. ; BENEVIDES, N. M. B.	B1	
artigoEmPeriodico	2014	http://dx.doi.org/10.4025/actascitechnol.v36i2.17866	<b>Structural analysis of a sulfated polysaccharidic fraction obtained from the coenocytic green seaweed <i>Caulerpa cupressoides<i> var. <i>lycopodium<i> </b>	Acta Scientiarum. Technology (Impresso)	Rodrigues, José Ariévilo Gurgel ; NETO, ÉRICO MOURA ; SANTOS, GUSTAVO RAMALHO CARDOSO DOS ; PAULA, R. C. M. ; MOURÃO, PAULO ANTÔNIO DE SOUZA ; BENEVIDES, N. M. B.	B1	
artigoEmPeriodico	2014		Elites empresariais e a configuração dos espaços Turisticos na Ilha de Cozumel, México. In: Idéias Revista do Instituto de Filosofia e Ciências Humanas da Unicamp.	Idéias - Revista do Instituto de Filosofia e Ciências Humanas da UNICAMP	RODRIGUES, Lea Carvalho. Elites empresariais e a configuração dos espaços Turisticos na Ilha de Cozumel, México. In: Idéias Revista do Instituto de Filosofia e Ciências Humanas da Unicamp	B2	
artigoEmPeriodico	2014		A VIOLÊNCIA CONTRA O IDOSO NA VISÃO DO AGENTE COMNUNITÁRIO DE SAÚDE	Estudos Interdisciplinares sobre o Envelhecimento	SALES, D. S. ; FREITAS, C. A. S. L. ; Brito, Maria da Conceição Coelho ; OLIVEIRA, E. ; SILVA, Maria Josefina da	B1	
artigoEmPeriodico	2014	http://dx.doi.org/10.3109/10242422.2013.872633	Aqueous two-phase extraction for partial purification of <i>Schizophyllum commune</i> phytase produced under solid-state fermentation	Biocatalysis and Biotransformation (Print)	SALMON, DENISE NAOMI XAVIER ; WALTER, ALFREDO ; PORTO, Tatiana Souza ; MOREIRA, Keila Aparecida ; VANDENBERGHE, LUCIANA PORTO DE SOUZA ; Soccol, Carlos Ricardo ; Porto, Ana Lúcia Figueiredo ; Spier, Michele Rigon	Qualis nao identificado	Biocatalysis and Biotransformation (Print)
artigoEmPeriodico	2014	http://dx.doi.org/10.1016/j.rppneu.2013.06.009	Associação entre a mecânica respiratória e função autonómica na obesidade mórbida	Revista Portuguesa de Pneumologia	SANT' ANNA JUNIOR, M. ; CARVALHAL, R.F. ; CARNEIRO, J.R.I. ; LAPA, M.S. ; ZIN, W.A. ; LUGON, J.R. ; GUIMARÃES, F.S.	B2	
artigoEmPeriodico	2014	http://dx.doi.org/10.1590/1809-4503201400060004	Equitable access to health services for children aged 5 to 9 in a medium city of northeasth of Brazil: a result of Family Health Strategy	Revista Brasileira de Epidemiologia	SANTIAGO, ADRIANA XAVIER DE ; BARRETO, Ivana Cristina de Holanda Cunha ; SUCUPIRA, ANA CECÍLIA SILVEIRA LINS ; LIMA, JOSÉ WELLINGTON DE OLIVEIRA ; ANDRADE, Luiz Odorico Monteiro de	B1	Revista Brasileira de Epidemiologia (Impresso)
artigoEmPeriodico	2014		EDUCAÇÃO PROFISSIONAL: UMA ANÁLISE DA PRODUÇÃO CIENTÍFICA BRASILEIRA NA BASE DE DADOS LILACS	Essentia (Sobral/CE)	SANTIAGO, L. M. M. ; BARRETO, R.M.A. ; VASCONCELOS, M. I. O.	B5	
artigoEmPeriodico	2014	http://dx.doi.org/10.1002/jmr.2340	Purification, characterization and partial sequence of a pro-inflammatory lectin from seeds of <i>Canavalia oxyphylla</i> Standl.	JMR. Journal of Molecular Recognition	SANTIAGO, MAYARA Q. ; LEITÃO, CINTIA C. F. ; PEREIRA-JUNIOR, FRANCISCO N. ; PINTO-JUNIOR, VANIR R. ; OSTERNE, VINICIUS J. S. ; LOSSIO, CLAUDIA F. ; Cajazeiras, João B. ; SILVA, HELTON C. ; ARRUDA, FRANCISCO V. S. ; PEREIRA, LIVIA P. ; Assreuy, Ana M. S. ; Nascimento, Kyria S. ; Nagano, Celso S. ; Cavada, Benildo S.	Qualis nao identificado	JMR. Journal of Molecular Recognition
artigoEmPeriodico	2014		DIREITOS HUMANOS NO BRASIL: BASES POLÍTICAS E LEGAIS	EDUCAÇÃO EM REVISTA (UNESP. MARÍLIA)	SANTOS, Dayvid Farias ; DIOGENES, Elione Maria Nogueira ; Tânia Suely Antonelli Marcelino Brabo	B3	
artigoEmPeriodico	2014	http://dx.doi.org/10.1002/jbm.b.33093	BIOCOMPATIBILITY OF WOLLASTONITE-POLY(N-BUTYL-2-CYANOACRYLATE) COMPOSITES	Journal of Biomedical Materials Research. Part B, Applied Biomaterials	SENA, L. A. ; ALMEIDA, Marcelo Sanmartin de ; FERNANDES, G. V. O. ; BRETANA, R. M. G. ; CASTRO-SILVA, I.I. ; GRANJEIRO, J. M. ; ACHETE, C. A.	A2	
artigoEmPeriodico	2014		Differential effects of Activin-A and FSH on growth, viability and messenger RNA expression in cultured bovine preantral follicles	Livestock Science (Print)	SILVA, A. W. B. ; Bezerra, F.T.G. ; COSTA, J. J. N. ; ROSSI, R. O. D. S. ; PASSOS, M. J. ; VASCONCELOS, G. L. ; Rossetto, R. ; Donato, M.A.M ; MAGALHÃES, D.M. ; Campello, C.C. ; SARAIVA, Márcia Viviane Alves ; Figueiredo, J.R. ; Peixoto, C.A. ; van den Hurk, R. ; SILVA, J. R. V.	B1	
artigoEmPeriodico	2014		Avaliação do Curso de Formação Continuada em Avaliação Educacional na Perspectiva dos Alunos	Meta: Avaliação	SILVA, Antônia Bruna ; VASCONCELOS, F. H. L. ; TROMPIERI FILHO, N.	B3	
artigoEmPeriodico	2014	http://dx.doi.org/10.1016/j.rvsc.2014.01.005	Antiproliferative effect of Canavalia brasiliensis lectin on B16F10 cells	Research in Veterinary Science	SILVA, FLÁVIO DE OLIVEIRA ; SANTOS, PRISCILA DAS NEVES ; FIGUEIRÔA, EVELLYNE DE OLIVEIRA ; DE MELO, CRISTIANE MOUTINHO LAGOS ; DE ANDRADE LEMOINE NEVES, JULIANA KELLE ; Arruda, Francisco Vassiliepe Sousa ; Cajazeiras, João Batista ; do Nascimento, Kyria Santiago ; Teixeira, Edson Holanda ; Cavada, Benildo Sousa ; Porto, Ana Lúcia Figueiredo ; PEREIRA, VALÉRIA RÊGO ALVES	A2	
artigoEmPeriodico	2014	http://dx.doi.org/10.1016/j.ejbt.2014.11.001	Fibrinolytic protease production by new Streptomyces sp. DPUA 1576 from Amazon lichens	Electronic Journal of Biotechnology	SILVA, GERMANA M.M. ; BEZERRA, RAQUEL P. ; Teixeira, José A. ; Porto, Tatiana S. ; Lima-Filho, José L. ; Porto, Ana Lúcia F.	B1	
artigoEmPeriodico	2014		BUL: A novel lectin from Bauhinia ungulata L. seeds with fungistatic and antiproliferative activities	Process Biochemistry (1991)	Silva, H.C. ; PINTO, L.S. ; TEIXEIRA, E.H. ; Nascimento, K.S. ; S, Cavada B ; Silva, A.L.	A2	
artigoEmPeriodico	2014		PRO-PET-Saúde Enquanto Disparador da Formação dos Monitores: Aprendizagem Significativa Junto ao PSE	Revista Brasileira em Promoção da Saúde (Online)	SILVA, M. M. S. ; DIAS, Maria Socorro de Araújo ; VASCONCELOS, M. I. O. ; FREITAS, Cibelly Aliny Siqueira Lima ; EVANGELISTA, A. R.	B3	
artigoEmPeriodico	2014	http://dx.doi.org/10.1152/japplphysiol.01242.2013	Sodium bicarbonate treatment prevents gastric emptying delay caused by acute exercise in awake rats	Journal of Applied Physiology (1985)	SILVA, M. T. B. ; PALHETA-JUNIOR, R. C. ; SOUSA, D. F. ; FONSECA-MAGALHAES, P. A. ; OKOBA, W. ; CAMPOS, C. P. S. ; OLIVEIRA, R. B. ; MAGALHAES, P. J. C. ; SANTOS, A. A.	Qualis nao identificado	Journal of Applied Physiology (1985)
artigoEmPeriodico	2014		NECESSIDADES PSICOSSOCIAIS DE UMA GESTANTE ADOLESCENTE DE ALTO RISCO HOSPITALIZADA: ESTUDO DE CASO CLÍNICO COM BASE NA TEORIA DE WNADA HORTA	Essentia (Sobral/CE)	SILVA, Maria Adelane Monteiro da; CAVALCANTE, A. E. S. ; TEODOSIO, T. B. T.	B5	
artigoEmPeriodico	2014		Aleitamento materno de recém-nascidos hospitalizados: grupo de apoio desenvolvido junto às puérperas adolescentes	Adolescência & Saúde	SILVA, Maria Adelane Monteiro da; PORTELA, Élcia Maria Mendes ; ARRUDA, L. P.	B1	
artigoEmPeriodico	2014		DESENVOLVIMENTO DE TECNOLOGIAS EDUCATIVAS NO CENTRO DE CONTROLE DE ZOONOZES: VIVÊNCIA DE ACADÊMICOS DE ENFERMAGEM	Essentia (Sobral/CE)	SILVA, Maria Adelane Monteiro da; VASCONCELOS, M. N. ; VIEIRA NETO, R.	B5	
artigoEmPeriodico	2014	http://dx.doi.org/10.1186/1753-6561-8-s4-p227	Physico-chemical characterization and partial sequence of a lectin from Canavalia bonariensis Lindl seeds	BMC Proceedings	SILVA, MAYARA ; SILVA, SUZETE ; NASCIMENTO, KYRIA ; NAGANO, CELSO ; CAVADA, BENILDO	Qualis nao identificado	BMC Proceedings
artigoEmPeriodico	2014	http://dx.doi.org/10.1590/s0103-73312014000400010	Coordenação dos cuidados em saúde no Brasil: o desafio federal de fortalecer a atenção primária à saúde	Physis (UERJ. Impresso)	SILVA, ROBERTA MARINHO DA ; ANDRADE, Luiz Odorico Monteiro de	B1	
artigoEmPeriodico	2014	http://dx.doi.org/10.1111/j.1472-8206.2012.01069.x	Involvement of monoaminergic system in the antidepressant-like effect of riparin I from <i>Aniba riparia</i> (Nees) Mez (Lauraceae) in mice	Fundamental & Clinical Pharmacology	SOUSA, F. C. F. ; OLIVEIRA, I. A. ; SILVA, M. I. G. ; MELO, C. T. V. ; SANTIAGO, V. R. ; CHAVES, R. C. ; FERNANDES, M. L. ; GUTIERREZ, S. J. C. ; VASCONCELOS, S. M. M. ; MACEDO, D. S. ; BARBOSA-FILHO, J.M. ; Barbosa Filho, José Maria	B1	
artigoEmPeriodico	2014		CAPACITAÇÃO DE AGENTES COMUNITÁRIOS DE SAÚDE EM PEQUENAS URGÊNCIAS: COMPARTILHANDO EXPERIÊNCIAS	Revista Sanare	SOUSA, L. B. S. ; OTAVIANO, M. D. A. ; FÉLIX, T.A. ; VASCONCELOS, A. K. B. ; FEIJAO, D. M. J. ; OLIVEIRA, E. N.	Qualis nao identificado	Revista Sanare
artigoEmPeriodico	2014		A língua portuguesa em Timor Leste: a percepção de estudantes timorenses.	Revista do GELNE	SOUSA, S. C. T. ; SOARES, M. E. ; MOREIRA E SILVA, M. E.	Qualis nao identificado	Revista do GELNE
artigoEmPeriodico	2014		UM ESTUDO SOBRE AS POLÍTICAS LINGUÍSTICAS NO BRASIL	Revista de Letras	SOUSA, S. C. T. DE ; SOARES, M. E.	Qualis nao identificado	Revista de Letras
artigoEmPeriodico	2014		Electrochemical DNA Biosensor for Sequences Related to the Human Papillomavirus Type 16 using Methylene Blue	Biosensors Journal	SOUZA, E. V. M. ; NASCIMENTO, G. A. ; Santana, Nataly Amorim ; Campos-Ferreira, D. S. ; BIBIANO, J. ; ARRUDA, M. S. ; Bruneska, Danyelly ; DE LIMA FILHO, JOSÉ L.	Qualis nao identificado	Biosensors Journal
artigoEmPeriodico	2014	http://dx.doi.org/10.1590/1809-4503201400060014	Social Determinants of Health among children aged between 5 and 9 years within the urban area, Sobral, Ceará, Brazil	Revista Brasileira de Epidemiologia	SUCUPIRA, ANA CECÍLIA SILVEIRA LINS ; ANDRADE, Luiz Odorico Monteiro de ; BARRETO, IVANA CRISTINA HOLANDA CUNHA ; LIMA, JOSÉ WELLINGTON ; SANTIAGO, ANNA VICENTE ; SANTIAGO, Adriana Xavier	B1	Revista Brasileira de Epidemiologia (Impresso)
artigoEmPeriodico	2014		Análise da produção em auditoria e saúde pública a partir da base de dados da Biblioteca Virtual em Saúde	Saude em Debate	TAJRA, F. S. ; Lira, Geison Vasconcelos ; RODRIGUES, A. B. ; GIRAO JUNIOR, L.	B1	
artigoEmPeriodico	2014		CONHECIMENTO POPULAR SOBRE O USO DE PLANTAS MEDICINAIS NO MUNICÍPIO DE SOBRAL-CEARÁ, BRASIL	Sanare (Sobral)	TEIXEIRA, A. H. ; BEZERRA, M. M. ; Chaves H. V. ; Val, D ; Pereira Filho, SM ; SILVA, Antonio Alfredo Rodrigues e	C	
artigoEmPeriodico	2014	http://dx.doi.org/10.1016/j.procbio.2013.12.020	Mannose-specific legume lectin from the seeds of Dolichos lablab (FRIL) stimulates inflammatory and hypernociceptive processes in mice	Process Biochemistry (1991)	TEIXEIRA, CLAUDENER SOUZA ; ASSREUY, Ana Maria Sampaio ; DA SILVA OSTERNE, VINÍCIUS JOSÉ ; AMORIM, RENATA MORAIS FERREIRA ; BRIZENO, LUIZ ANDRÉ CAVALCANTE ; DEBRAY, Henri ; Nagano, Celso Shiniti ; Delatorre, Plinio ; SAMPAIO, Alexandre Holanda ; Rocha, Bruno Anderson Matias ; CAVADA, Benildo Sousa	A2	
artigoEmPeriodico	2014		Resolução do pronome nulo em Português Brasileiro: Evidência de movimentação ocular	Veredas (UFJF. Online)	TEIXEIRA, E. N. ; FONSECA, M. C. M. ; SOARES, M. E.	B1	
artigoEmPeriodico	2014		Efeito de hiperonímia no processamento da correferência interfrasal em português brasileiro	Cadernos de Letras da UFF	TEIXEIRA, E. N. ; SOARES, M. E.	B1	
artigoEmPeriodico	2014		Saúde Reprodutiva: percepção de adolescentes de um município do Estado do Ceará, Brasil	Paraninfo Digital	TIMBO, M. S. A. ; SILVA, Maria Adelane Monteiro da ; FERREIRA, A.G.N. ; BEZERRA, A. E. M. ; ABREU, L. D. P. ; GUIMARAES, R. X.	B3	
artigoEmPeriodico	2014	http://dx.doi.org/10.1002/j.1532-2149.2014.488.x	Tephrosia toxicaria Pers. reduces temporomandibular joint inflammatory hypernociception: The involvement of the HO-1 pathway	European Journal of Pain (London, England)	VAL, Danielle Rocha do ; BEZERRA, MIRNAMARQUES ; SILVA, A.A.R. ; PEREIRA, K. M. A. ; RIOS, L. C. ; LEMOS, J. C. ; ARRIAGA, N. C. ; Benevides, Norma Maria Barros ; PINTO, V. P. T. ; CRISTINO FILHO, G. ; Brito, Gerly Anne de Castro ; ARRIAGA, A. M. C. ; Chaves, Hellíada Vasconcelos	A2	
artigoEmPeriodico	2014		ACESSO DOS USUÁRIOS AOS SERVIÇOS DE SAÚDE NA ESTRATÉGIA SAÚDE DA FAMÍLIA: PERCEPÇÃO DOS ENFERMEIROS	Revista de APS (Online)	VASCONCELOS, MARISTELA INÊS OSAWA; FARIAS, C. M. T. ; TEOFILO, F. K. S. ; Cavalcante, A. S. P	B3	
artigoEmPeriodico	2014	http://dx.doi.org/10.1016/j.indcrop.2014.07.027	Effect of a casbane diterpene isolated from Croton nepetaefolius on the prevention and control of biofilms formed by bacteria and Candida species	Industrial Crops and Products (Print)	VASCONCELOS, MAYRON A. ; Arruda, Francisco V.S. ; SANTOS, HÉLCIO S. ; RODRIGUES, ADRIANO S. ; BANDEIRA, PAULO N. ; ALBUQUERQUE, MARIA R.J.R. ; Cavada, Benildo S. ; Teixeira, Edson H. ; Henriques, Mariana ; PEREIRA, MARIA O.	A2	
artigoEmPeriodico	2014	http://dx.doi.org/10.1155/2014/365272	Effect of Algae and Plant Lectins on Planktonic Growth and Biofilm Formation in Clinically Relevant Bacteria and Yeasts	BioMed Research International	VASCONCELOS, MAYRON ALVES ; Arruda, Francisco Vassiliepe Sousa ; CARNEIRO, Victor Alves ; Silva, Helton Colares ; Nascimento, Kyria Santiago ; SAMPAIO, Alexandre Holanda ; CAVADA, BENILDO ; Teixeira, Edson Holanda ; Henriques, Mariana ; PEREIRA, MARIA OLIVIA	Qualis nao identificado	BioMed Research International
artigoEmPeriodico	2014	http://dx.doi.org/10.1155/2014/248656	Antibacterial and Antioxidant Activities of Derriobtusone A Isolated from Lonchocarpus obtusus	BIOMED RES INT	VASCONCELOS, MAYRON ALVES ; Arruda, Francisco Vassiliepe Sousa ; DE ALENCAR, DANIEL BARROSO ; Saker-Sampaio, Silvana ; Albuquerque, Maria Rose Jane Ribeiro ; DOS SANTOS, HÉLCIO SILVA ; Bandeira, Paulo Nogueira ; PESSOA, OTÍLIA DEUSDÊNIA LOIOLA ; Cavada, Benildo Sousa ; Henriques, Mariana ; PEREIRA, MARIA OLIVIA ; Teixeira, Edson Holanda	Qualis nao identificado	BIOMED RES INT
artigoEmPeriodico	2014		E por que não a violência?	Revista de Politicas Publicas (UFMA)	VASCONCELOS, Rejane B	B1	
artigoEmPeriodico	2014		Avaliação do perfil e cuidados no pré-natal de mulheres com diabetes mellitus gestacional	Revista da Rede de Enfermagem do Nordeste - Rev Rene	Vieira Neta, Francisca Adriele ; CRISÓSTOMO, V. L. ; CASTRO, R. C. M. B. ; Pessoa, Sarah Maria Fraxe ; Aragão, Maria Marly Santos ; Calou, Cinthia Gondim Pereira	B2	
artigoEmPeriodico	2014		A psicanálise entre a educação inclusiva e a saúde: uma proposta de trabalho interdisciplinar para pessoas autistas	A Peste Revista de Psicanálise e Sociedade	VIEIRA, C. A. L. ; FURTADO, Luis Achilles Rodrigues	Qualis nao identificado	A Peste Revista de Psicanálise e Sociedade
artigoEmPeriodico	2014		Perfil e Formação de gestores escolares no Brasil	Dialogia (UNINOVE. Impresso)	VIEIRA, Sofia Lerche ; VIDAL, E. M.	Qualis nao identificado	Dialogia (UNINOVE. Impresso)
trabalhoCompletoEmCongresso	2014		Venturas e Desventuras na busca da Previdência Social: sentimentos e percursos trilhados pelas mulheres Trabalhadoras Rurais da Comunidade Bom Jesus - Assentamento Maceió - Itapipoca-CE	18 Encontro Nacional da Rede Feminista Norte e Nordeste de Estudos e Pesquisas sobre a Mulher e Relações de Gênero	AIRES, Kélia da Silva ; ESMERALDO, G. G. S. L. ; GOMES, Debir Soares ; SOUSA, N. R. ; CAMURCA, A. M.		
trabalhoCompletoEmCongresso	2014		Um Estudo sobre a Análise Qualitativa de Riscos em Projetos de TI através de uma Ferramenta de Software	VII Congresso Tecnológico TI e Telecom - Infobrasil	ALMEIDA JUNIOR, J. F. ; Lima, Alberto S. ; FENNER, G.		
trabalhoCompletoEmCongresso	2014		Populações rurais e os riscos frente à expansão do turismo: vertentes socioambientais e ressignificações da relação espaço-natureza	III Congresso Internacional	ALMEIDA, G.L. ; RODRIGUES, Lea Carvalho		
trabalhoCompletoEmCongresso	2014		LEITURA CRÍTICA, INTERDISCIPLINARIDADE E SEQUÊNCIA DIDÁTICA: PROPOSTAS PARA UMA DIDÁTICA CONTEXTUALIZADA DO ENSINO DA LÍNGUA MATERNA	XVII ENDIPE - ENCONTRO NACIONAL DE DIDÁTICA E PRÁTICA DE ENSINO	ALVES, A. P. M. ; SERAFIM, M. S. ; SOARES, M. E.		
trabalhoCompletoEmCongresso	2014		Gestão Participativa: O caso das Comissões Especializadas de estudo do Sistema de Bibliotecas da Universidade Federal do Ceará -UFC	XVIII Seminário Nacional de Bibliotecas Universitárias	ALVES, N. B. ; MESQUITA, M. F. N. ; SOUSA, M. R. ; BARROCAS, A. L. ; Lima A.S.		
trabalhoCompletoEmCongresso	2014		MÚSICA E SUBJETIVIDADE: ELEMENTOS PARA PENSAR A MUDANÇA ANTROPOLÓGICA DO RADIO GENERATION A PARTIR DOS ESTUDOS DE ADORNO SOBRE MÚSICA NO RÁDIO	Encontros do Eixo Temático de Pesquisa Marxismo	ANTUNES, D. C		
trabalhoCompletoEmCongresso	2014		Um Estudo sobre Gerenciamento de Projetos com Equipes Muitifuncionais	VII Congresso Tecnológico TI e Telecom - Infobrasil	ASSIS, T. E. A. ; FENNER, G. ; Lima A.S.		
trabalhoCompletoEmCongresso	2014		As mulheres semeando autonomia: a importância das Casas de Sementes Comunitárias na busca pela emancipação feminina	18 Encontro Nacional da Rede Feminista Norte e Nordeste de Estudos e Pesquisas sobre a Mulher e Relações de Gênero	BARBOSA, M. M. ; ESMERALDO, G. G. S. L. ; FIGUEIREDO, G. P.		
trabalhoCompletoEmCongresso	2014		Redefinição da condição de morador: reciprocidades conflituosas entre polícia e população no patrulhamento ostensivo da polícia Militar	29a Reunião Brasileira de Antropologia	BARBOSA, W. F. ; SÁ, Leonardo		
trabalhoCompletoEmCongresso	2014		A gestão policial do cotidiano: intersubjetividade, informalidade e conflito nas práticas policiais do Programa de Policiamento Ronda do Quarteirão no Ceará	38º ENCONTRO ANUAL DA ANPOCS	BARBOSA, W. F. ; SÁ, Leonardo		
trabalhoCompletoEmCongresso	2014		AVALIAÇÃO DO USO DOS LIVROS ELETRÔNICOS DO ACERVO DA UNIVERSIDADE FEDERAL DO CEARÁ PELOS ESTUDANTES DOS PROGRAMAS DE PÓS-GRADUAÇÃO	XVIII SNBU	BARROCAS, A. L. ; BENTES PINTO, Virginia		
trabalhoCompletoEmCongresso	2014		Os Fatores relacionados à Implantação de Escritório de Projetos nas Organizações - Um estudo exploratório	VII Congresso Tecnológico TI e Telecom - Infobrasil	BRANCO JUNIOR, E. C. ; Lima, Alberto S.		
trabalhoCompletoEmCongresso	2014		Um Estudo sobre a Gestão de Pesoas no Gerenciamento de Projetos	VII Congresso Tecnológico TI e Telecom - Infobrasil	CANDIDO, J. G. B. ; BRANCO JUNIOR, E. C. ; Lima A.S.		
trabalhoCompletoEmCongresso	2014		COLONIALISMO EPISTÊMICO NA ACADEMIA: EXPERIÊNCIAS DISSIDENTES DE EPISTEMOLOGIAS EMANCIPATÓRIAS NO CONTEXTO UNIVERSITÁRIO	IV CONGRESSO INTERNACIONAL EM ESTUDOS CULTURAIS - COLONIALISMOS	CARVALHO, Alba M. Pinho de; GUERRA, E. C.		
trabalhoCompletoEmCongresso	2014		POLÍTICAS DE FORMAÇÃO DOCENTE: PROPOSTAS E PRÁTICAS NUMA INSTITUIÇÃO DE ENSINO SUPERIOR - IES, IMPLICAÇÕES PARA A FORMAÇÃO DE PROFESSORES	II CONGRESSO DE FORMAÇÃO DE PROFESSORES - XII CONGRESSO ESTADUAL PAULISTA SOBRE FORMAÇÃO DE EDUCADOES - ' POR UMA REVOLUÇÃO NO CAMPO DA FORMAÇÃO DE PROFESSORES	CARVALHO, D. A. B. ; SOBRAL, A. E. B. ; MENEZES, L. A. ; TROMPIERI FILHO, N.		
trabalhoCompletoEmCongresso	2014		Construção de diretrizes para correção de atividades no curso de licenciatura em Ciências Biológicas a distância da UECE	ESUD 2014	CASTRO, L. ; CONDE, I. B. ; PONTE, E. L. ; VIDAL, E. M. ; PAIXAO, G. C.		
trabalhoCompletoEmCongresso	2014		Sigilo, confiança e práticas de moralidade nos serviços de inteligência da PM no Ceará	38º Encontro Anual da ANPOCS	CAVALCANTE, R. M. B. ; SÁ, Leonardo		
trabalhoCompletoEmCongresso	2014		CORPORATE SOCIAL AND SUSTAINABILITY PERFORMANCE AND OWNERSHIP CONCENTRATION - AN ANALYSIS OF BRAZILIAN FIRMS	VIII Congresso ANPCONT	CRISÓSTOMO, V. L.; Oliveira, Maria Rafaela		
trabalhoCompletoEmCongresso	2014		Ownership Concentration is Negative to Corporate Social and Sustainability Performance in Brazil	XXXVIII Encontro da ANPAD - EnANPAD	CRISÓSTOMO, V. L.; Oliveira, Maria Rafaela		
trabalhoCompletoEmCongresso	2014		ASPECTOS HISTÓRICOS DA REFORMA DO ENSINO MÉDIO NO BRASIL	II Jornadas Latinoamericanas de Estudios Epistemológicos en Política Educativa	DIOGENES, Elione Maria Nogueira; JOANA D'ARC FERREIRA DE MACEDO ; SENA		
trabalhoCompletoEmCongresso	2014		Subjetividade e Gênero: campo de diálogos e descobertas na construção do sujeito mulher assentada	VI Simpósio sobre Reforma Agrária e Questões Rurais	ESMERALDO, G. G. S. L		
trabalhoCompletoEmCongresso	2014		Por uma história do urbanismo em Fortaleza. E algumas considerações sobre incompletudes epistemológicas	XIII Seminário da História da Cidade e do Urbanismo	FARIAS FILHO, J. A		
trabalhoCompletoEmCongresso	2014		A urbanização dispersa e a produção de vazios metropolitanos	III ENANPARQ - Encontro da Associação Nacional de Pesquisa e Pós-Graduação em Arquitetura e Urbanismo	FARIAS FILHO, J. A		
trabalhoCompletoEmCongresso	2014		Projeto urbano e democracia técnica	III ENANPARQ - Encontro da Associação Nacional de Pesquisa e Pós-Graduação em Arquitetura e Urbanismo	FARIAS FILHO, J. A		
trabalhoCompletoEmCongresso	2014		Experiências educativas em Agroecologia do Programa Residência Agrária: quais os caminhos escolhidos pelos sujeitos?	I Seminário Nacional de Educação em Agroecologia	FERNANDES, I. L. C. ; ALBIERO, D. ; ESMERALDO, G. G. S. L. ; CAJADO, Diana M. ; CHAVES, Renata P. C.		
trabalhoCompletoEmCongresso	2014		Fios que tecem territórios de resistência: as mulheres rendeiras do Assentamento Maceió - Itapipoca/CE	18 Encontro Nacional da Rede Feminista Norte e Nordeste de Estudos e Pesquisas sobre a Mulher e Relações de Gênero	GOMES, Debir Soares ; ESMERALDO, G. G. S. L. ; AIRES, Kélia da Silva ; SOUSA, N. R. ; CAMURCA, A. M.		
trabalhoCompletoEmCongresso	2014		Avaliação de políticas públicas educacionais: um olhar reflexivo	XX EPENN	GOMES, M. G. C. ; DIOGENES, Elione Maria Nogueira ; SILVA, S. C.		
trabalhoCompletoEmCongresso	2014		Avaliação de políticas públicas sob uma perspectiva etnográfica	V SEMEAP - Seminário de Modelos e Experiências e Avaliação de Política	GUSSI, Alcides Fernando		
trabalhoCompletoEmCongresso	2014		AVALIAÇÃO DO PROGRAMA MAIS EDUCAÇÃO COMO POLÍTICA PÚBLICA DE EDUCAÇÃO INTEGRAL NO SISTEMA PÚBLICO MUNICIPAL DE ENSINO DE FORTALEZA	Fórum Internacional de Pedagogia	GUSSI, Alcides Fernando; GARCIA, S. M. C.		
trabalhoCompletoEmCongresso	2014		Experiências Metodológicas de Avaliação: usos da noção de trajetória em políticas públicas	V SEMEAP - Seminário de Modelos e Experiências e Avaliação de Política	GUSSI, Alcides Fernando; THE, R. F. S. ; PEREIRA, J. E. O.		
trabalhoCompletoEmCongresso	2014		Avaliação de Usabilidade em Aplicativos para Dispositivos Móveis com Sistema Android - Um Estudo de Caso	VII Congresso Tecnológico TI e Telecom - Infobrasil	HOLANDA, M. A. B. ; Lima A.S. ; ANDRIOLA, W. B.		
trabalhoCompletoEmCongresso	2014		Gestão de Indicadores de Desempenho como Método para Aperfeiçoamento do Sistema de Qualidade em Construtoras: Estudo de Caso	XXI SIMPÓSIO DE ENGENHARIA DE PRODUÇÃO - SIMPEP 2014	LUZ, L. A. ; Maxweel Veras Rodrigues ; RODRIGUES, M. R. M. S. ; ALEXANDRE, J. W. C.		
trabalhoCompletoEmCongresso	2014		Residência em Saúde Coletiva: Formação para Ação Transformadora	11º Congresso Internacional da Rede Unida	MAERSCHNER, R. L. ; COELHO, L. C. A. ; FROTA, A. C. ; BARRETO, I. C. H. C.		
trabalhoCompletoEmCongresso	2014		MAPEAMENTO DO FLUXO LOGÍSTICO FUNDAMENTADO NA METODOLOGIA SCOR (SUPPLY CHAIN OPERATIONS REFERENCE): UMA APLICAÇÃO NO SETOR CALÇADISTA	XXI SIMPÓSIO DE ENGENHARIA DE PRODUÇÃO - SIMPEP 2014	MARTINS, J. R. ; FERREIRA, T. A. ; RODRIGUES, M. V.		
trabalhoCompletoEmCongresso	2014		?DIÁLOGOS ENTRE EDUCAÇÃO PERMANENTE E A GRADUAÇÃO EM SAÚDE: TRILHAS DO PROJETO VER-SUS/BRASIL	XI Jornadas Nacionales de Debate Interdisciplinario en Salud y Población	MATIAS ; OLIVEIRA, E. N. ; LEAL, M. B. ; PONTE, H. M. S.		
trabalhoCompletoEmCongresso	2014		Competências essenciais necessárias à atuação dos bibliotecários gestores de pessoas nas bibliotecas da Rede Federal de Educação Profissional, Científica e Tecnológica	XVIII SNBU	MENDES, A. R. L. ; BENTES PINTO, Virginia		
trabalhoCompletoEmCongresso	2014		AVALIAÇÃO DOS ORIENTADORES DE ESTUDO DO PACTO NACIONAL PELA ALFABETIZAÇÃO NA IDADE CERTA (PNAIC), POLO IGUATU, CEARÁ	II CONGRESSO DE FORMAÇÃO DE PROFESSORES - XII CONGRESSO ESTADUAL PAULISTA SOBRE FORMAÇÃO DE EDUCADOES - ' POR UMA REVOLUÇÃO NO CAMPO DA FORMAÇÃO DE PROFESSORES	MENEZES, L. A. ; TROMPIERI FILHO, N. ; CARVALHO, D. A. B. ; SOBRAL, A. E. B.		
trabalhoCompletoEmCongresso	2014		Evasão escolar: acompanhamento e estratégias pedagógicas, gerenciais e comportamentais de minimização de suas taxas	ESUD 2014	MOURÃO, C. L. ; MENEZES, J. B. F. ; MENDES, R. M. S ; VIDAL, E. M. ; PAIXAO, G. C. ; ARRUDA FILHO, J. N.		
trabalhoCompletoEmCongresso	2014		Análise do Nível de Maturidade de Escritórios de Projetos de TI através do método PMO Maturity Cube	X Simpósio Brasileiro de Sistemas de Informação (SBSI 2014)	NORONHA, B. H. C. ; FENNER, G. ; Lima, A., S.		
trabalhoCompletoEmCongresso	2014		BASES METODOLÓGICAS PARA ARQUITETURA DA INFORMAÇÃO PERVASIVA	XV Encontro Nacional de Pesquisa em Ciência da Informação : além das nuvens	OLIVEIRA, H. P. de ; VIDOTTI, S. A. ; BENTES PINTO, Virginia		
trabalhoCompletoEmCongresso	2014	http://dx.doi.org/10.1109/healthcom.2014.7001842	Towards a cost-effective homecare for a public health management system in Brazil	2014 IEEE 16th International Conference on eHealth Networking	OLIVEIRA, MAURO ; ANDRADE, LUIZ O. M. ; SANTOS, MARCOS ; ALCANTRA, ROBERTO ; TELES, GERMANNO ; AGOULMINE, NAZIM		
trabalhoCompletoEmCongresso	2014		Estudo da Eficiência do Gráfico de Controle por Grupos (GG) quando há Presença de Correlação entre os Fluxos do Processo	XXXIV Encontro Nacional de Engenharia de Produção	Oliveira, Max Brandão de ; BRANDAO, N. S. B. ; ALEXANDRE, J. W. C.		
trabalhoCompletoEmCongresso	2014		Autonomia criativa em educação a distância uso do flipsnack em um curso de Ciências Biológicas	XVI Encuentro Iberoamericano de Educación a Distancia	PAIXAO, G. C. ; HENRIQUES, A. C. ; FILHO, J. N. A. ; BRANCO, F. F. C. ; VIDAL, E. M. ; PANTOJA, L. D. M.		
trabalhoCompletoEmCongresso	2014		Para Além Da Ead Práticas Formativas E Relacionais Num Curso De Graduação Em Ciências Biológicas	XVI Encuentro Iberoamericano de Educación a Distancia	PAIXAO, G. C. ; HENRIQUES, A. C. P. T. ; BRANCO, F. F. C. ; VIDAL, E. M.		
trabalhoCompletoEmCongresso	2014		APLICAÇÃO DE UM QUESTIONÁRIO PARA ANÁLISE DA CONDUTA ÉTICA DO PROFESSOR NO AMBIENTE EDUCACIONAL UNIVERSITÁRIO	XXI SIMPÓSIO DE ENGENHARIA DE PRODUÇÃO - SIMPEP 2014	PEREIRA, N. S. ; SOUZA, F. J. S. ; RODRIGUES, M. V.		
trabalhoCompletoEmCongresso	2014		Os Caminhos da Inclusão Digital: O Projeto UCA Total em São João da Ponta/PA	XIX Conferência Internacional de Informática na Educação	PEREIRA, T. E. B. ; GUSSI, Alcides Fernando		
trabalhoCompletoEmCongresso	2014		Produção de tutoriais de jogos didáticos em video como atividades avaliativas em um curso de Ciênicas Biológicas EaD	ESUD 2014	PINHEIRO, C. B. ; PAULA, F. W. S. ; PONTE, F. L. ; VIDAL, E. M. ; PAIXAO, G. C.		
trabalhoCompletoEmCongresso	2014		Tomada de Decisão Multicritério na Migração de Aplicativos para Ambientes de Nuvem do tipo Software as a Service	III Simpósio Brasileiro de Tecnologia da Informação - SBTI	RIBAS, M. ; Lima A.S. ; DE SOUZA, J. N. ; SOUSA, F. R. C. ; FENNER, G.		
trabalhoCompletoEmCongresso	2014	http://dx.doi.org/10.1109/NOMS.2014.6838372	Assessing cloud computing SaaS adoption for enterprise applications using a Petri net MCDM framework	NOMS 2014 2014 IEEE/IFIP Network Operations and Management Symposium	RIBAS, MARISTELLA ; Lima, Alberto S. ; SOUZA, NEUMAN ; Moura, Antao ; SOUSA, FLAVIO R. C. ; FENNER, GERMANO		
trabalhoCompletoEmCongresso	2014		Expansão turística e dinâmicas espaciais urbanas na região nordeste do Brasil e no Caribe Mexicano	29ª Reunião Brasileira de Antropologia - 29ª RBA	RODRIGUES, Lea Carvalho		
trabalhoCompletoEmCongresso	2014		Polícia militar em crise: uma análise sobre o movimento reivindicatório de 1997 no Ceará	38° Encontro Nacional da ANPOCS	Sales, Larissa ; SÁ, Leonardo		
trabalhoCompletoEmCongresso	2014		PROPOSTA DE UM MÉTODO DE GESTÃO DA QUALIDADE NO PROCESSO BASEADO NA REDUÇÃO DOS CUSTOS E MAXIMIZAÇÃO DO RETORNO FINANCEIRO - O ESTUDO DE CASO DE UMA INDÚSTRIA DE CONFECÇÃO	XXXVI ENCONTRO NACIONAL DE ENGENHARIA DE PRODUCAO	SANTOS, C. L. dos ; AUGUSTO, B. P. ; BAQUIT, M. P. ; RODRIGUES, M. V.		
trabalhoCompletoEmCongresso	2014		Liderança e Insulto Moral na greve policial de 2011 no Ceará: um estudo das formas de acusação	38º Encontro Anual da ANPOCS	SILVA NETO ; SÁ, Leonardo		
trabalhoCompletoEmCongresso	2014		LAZER E SAÚDE: GRUPO DE CONVIVÊNCIA COM IDOSAS EM UM BAIRRO DA ZONA URBANA DO MUNICÍPIO DE SOBRAL	11º CONGRESSO INTERNACIONAL DA REDE UNIDA	SILVA, M.L.M ; GONZAGA, M.J.D ; SILVA, A.L.F da ; VASCONCELOS, M. I. O. ; ALBUQUERQUE, I. M. N. ; MOURÃO, K.B.		
trabalhoCompletoEmCongresso	2014		Alinhamento Estratégico e Ações de Formação para a Docência no Ensino Superior em uma IES Pública	XXXIV Encontro Nacional de Engenharia de Produção	SIMOES, A. M. L. ; Maxweel Veras Rodrigues ; ALEXANDRE, J. W. C.		
trabalhoCompletoEmCongresso	2014		Léxico e contexto social em O quinze, de Rachel de Queiroz	I CINELI - Congresso Internacional Estudos dos Léxicos e suas Interfaces	SOARES, M. E		
trabalhoCompletoEmCongresso	2014		Projeto Análise Avaliativa dos Planos Plurianuais do Estado do Ceará (PPAS) dos três últimos governos como instrumentos centrais de planejamento e implementação de Políticas Públicas	Encontros Universitários/XXIII Encontro de Extensão	SOUSA, A. V. B. ; SOUSA, Fernando J. Pires de.		
trabalhoCompletoEmCongresso	2014		Acessibilidade à informação científica na Educação Superior: caminhos trilhados pelo Sistema de Bibliotecas da Universidade Federal do Ceará	XVIII Seminário Nacional de Bibliotecas Universitárias	Sousa, C. S. ; Bezerra, N. A. ; ANDRIOLA, W. B. ; Silva, G. M. A.		
trabalhoCompletoEmCongresso	2014		Precariedade do Mercado de Trabalho e Mobilidade de trabalhadores: implicações inquietantes do Neoliberalismo na América Latina	IV Jornadas Internacionais de Problemas Latino-Americanos	SOUSA, Fernando J. Pires de		
trabalhoCompletoEmCongresso	2014		Um Estudo do Desempenho dos Gráficos de Controle por Grupos na Presença de Autocorrelação no Processo	XXI SIMPÓSIO DE ENGENHARIA DE PRODUÇÃO - SIMPEP 2014	SOUSA, V. G. ; ALEXANDRE, J. W. C. ; FREITAS, S. M. ; Maxweel Veras Rodrigues		
trabalhoCompletoEmCongresso	2014		Dor, sofrimento e luto das mães de periferia em Fortaleza	29a Reunião Brasileira de Antropologia	SÁ, Leonardo; JUSTINO, H. S. ; AGUIAR, D. P.		
trabalhoCompletoEmCongresso	2014		PREVENÇÃO E CONTROLE DA TRANSMISSÃO VERTICAL DA SÍFILIS: ANÁLISE DA ASSISTÊNCIA PRÉ-NATAL PRESTADA ÀS MULHERES RESIDENTES EM MUNICÍPIOS DA ZONA NORTE DO ESTADO DO CEARÁ	V SEMINÁRIO INTERNACIONAL EM PROMOÇÃO DA SAÚDE	VASCONCELOS, M. N. ; NAKA, A. A. R. ; PAIVA, C. V. A. ; MENDES, J. D. ; MARTINS, Keila Maria Carvalho ; SILVA, Maria Adelane Monteiro da		
trabalhoCompletoEmCongresso	2014		CONSTRUÇÃO DE PROJETO TERAPÊUTICO SINGULAR PARA PACIENTES COM DISTÚRBIO GLOBAL DO DESENVOLVIMENTO (AUTISMO) - A EXPERIÊNCIA DO PET-SAÚDE/REDE DE ATENÇÃO	11º Congresso Internacional da Rede Unida	VIEIRA, C. A. L. ; VIANA, R. P. ; FURTADO, Luis Achilles Rodrigues		
resumoExpandidoEmCongresso	2014	Uso de ferramentas de bioinformática para análises físico-químicas e filogenéticas da sequência N-terminal da lectina purificada da macroalga marinha vermelha Solieria filiformis (Kützing) P. W. Gabrielson	XV Congresso Brasileiro de Ficologia, 2014, Aão Lourenço. XV Congresso Brasileiro de Ficologia	ABREU, T. M. ; SOUZA, R. B. ; MARTINS, A. B. S. ; VASCONCELOS, I. M. ; BENEVIDES, N. M. B.		
resumoExpandidoEmCongresso	2014	Hospital de Ensino PRO PET-SAÚDE UVA/ Programa Saúde na Escola: Um Olhar sobre o Processo a Partir da Avaliação dos Componentes	V Seminário Internacional de Promoção da Saúde, 2014, Fortaleza. Promoção da Saúde na Integralidade do Cuidado	ARAUJO JUNIOR, D. G. ; MACHADO, W. D. ; OLIVEIRA, K. M. C. P. ; CUNHA, C. G. ; DIAS, Maria Socorro de Araújo ; FREITAS, C.A.S.L.		
resumoExpandidoEmCongresso	2014	PRO PET-SAÚDE UVA/ Programa Saúde na Escola: Um Olhar sobre o Processo a Partir da Avaliação dos Componentes	V Seminário Internacional de Promoção da Saúde, 2014, Fortaleza. Promoção da Saúde na Integralidade do Cuidado	ARAUJO JUNIOR, D. G. ; MACHADO, W. D. ; OLIVEIRA, K. M. C. P. ; CUNHA, C. G. ; DIAS, Maria Socorro de Araújo ; FREITAS, Cibelly Aliny Siqueira Lima		
resumoExpandidoEmCongresso	2014	Conhecendo a Saúde do Adolescente Através do Processo de Territorialização: Relato de Experiência PET-SAÚDE PSE	V Seminário Internacional de Promoção da Saúde, 2014, Fortaleza. Promoção da Saúde na Integralidade do Cuidado	ARAUJO, C. R. C. E. ; MELO, I. M. ; REBOUCAS JUNIOR, F. G. ; BRAGA, F. D. P. ; DIAS, Maria Socorro de Araújo		
resumoExpandidoEmCongresso	2014	Educação Permanente como Ferramenta para Transformação das Práticas de Saúde: Um Relato de Experiência dos Monitores do PET-SAÚDE PSE	V Seminário Internacional de Promoção da Saúde, 2014, Fortaleza. Promoção da Saúde na Integralidade do Cuidado	ARAUJO, C. R. C. E. ; MELO, I. M. ; REBOUCAS JUNIOR, F. G. ; BRAGA, F. D. P. ; DIAS, Maria Socorro de Araújo		
resumoExpandidoEmCongresso	2014	Sindrome Hematofagocitica secundaria a Leishmaniose Visceral	18º Congresso Brasileiro de Infectologia Pediatrica, 2014, Gramado. 18º Congresso Brasileiro de Infectologia Pediatrica	Arcanjo, F P N; ARCANJO, C. C.		
resumoExpandidoEmCongresso	2014	EXPRESSÃO IN VITRO DE TNF-ALFA E DOS SEUS RECEPTORES NO TECIDO OVARIANO CULTIVADO NA PRESENÇA DE FITOHEMAGLUTININA E/OU EGF	II SIMPÓSIO LATINO-AMERICANO DE BIOTECNOLOGIA DO NORDESTE, 2014, PARNAÍBA-PI. ANAIS SIMPÓSIO LATINO-AMERICANO DE BIOTECNOLOGIA DO NORDESTE	BARROSO, P. A. A. ; LOPES, T. A. ; COSTA, J.J.N. ; SOARES, M.A.A. ; RIBEIRO, R. P. ; PASSOS, J.R.S. ; J.R.V. SILVA		
resumoExpandidoEmCongresso	2014	INFLUENCIA DA ARTRITE-ENCEFALITE CAPRINA NA EXPRESSÃO IN VIVO DE RNAm PARA GDF-9, BMP-15 E BMP-IB EM FOLÍCULOS OVARIANOS CAPRINOS	II SIMPÓSIO LATINO-AMERICANO DE BIOTECNOLOGIA DO NORDESTE, 2014, PARNAÍBA - PI. NAIS SIMPÓSIO LATINO-AMERICANO DE BIOTECNOLOGIA DO NORDESTE	BERNARDO, J. M. P. ; LOPES, T. A. ; COSTA, J. J. N. ; SOARES, A. A. ; RIBEIRO, R. P. ; MELO, L. R. F. ; SILVA, JOSÉ R.V.		
resumoExpandidoEmCongresso	2014	A system dynamics model to support strategic decision making on IT outsourcing: A case study at a state revenue agency in Brazil	NOMS 2014 2014 IEEE/IFIP Network Operations and Management Symposium, 2014	BEZERRA, TARCIO R. ; Moura, Antao ; Lima, Alberto S.		
resumoExpandidoEmCongresso	2014	Mulheres e Agroecologia semeando possibilidades para sustentabilidade local da Comunidade Bom Jesus, Assentamento Maceió, Itapipoca-CE/Brasil	IX Congreso Sociedades Rurales Latinoamericanas Deversidades Contrastes y Alternativas, 2014, México. Anais do IX ALASRU. México: ALASRU	CAMURCA, A. M. ; ESMERALDO, G. G. S. L.		
resumoExpandidoEmCongresso	2014	PLANO DE AÇÃO REGIONAL DE EDUCAÇÃO PERMANENTE EM SAÚDE: PERCEPÇÃO DE MEMBROS DA CIES DE MACRORREGIONAIS DE SAÚDE	11 Congresso Internacional da Rede Unida, 2014, Fortaleza. Anais do 11 Congresso Internacional da Rede Unida	COSTA, A. A. ; VASCONCELOS, MARISTELA INÊS OSAWA ; Cavalcante, A. S. P ; TEOFILO, F. K. S.		
resumoExpandidoEmCongresso	2014	A pesquisa e a interlocução interinstitucional da emergência de um novo programa de pós-graduação em Arquitetura e Urbanismo	III ENANPARQ - Encontro da Associação Nacional de Pesquisa e Pós-Graduação em Arquitetura e Urbanismo, 2014, São Paulo. Anais do III ENANPARQ. São Paulo / Campinas: Universidade Presbiteriana Mackenzie - Pontifícia Universidade Católica de Campinas	FARIAS FILHO, J. A		
resumoExpandidoEmCongresso	2014	PROMOÇÃO DA SAÚDE SEXUAL E REPRODUTIVA DE JOVENS: DISCUTINDO COM ESCOLARES SOBRE HIV/AIDS	V Seminário Internacional em Promoção da Saúde, 2014, Fortaleza. Anais do V Seminário Internacional em Promoção da Saúde	FROTA, A. O. Q. M. ; RIOS, A. J. S. ; ARAUJO, R. M. B. V. ; SOUSA, I. O. ; TORRES, R. A. M. ; SILVA, Maria Adelane Monteiro da		
resumoExpandidoEmCongresso	2014	A PRODUÇÃO CIENTÍFICA DO PET REDE DE ATENÇÃO À PESSOA COM DEFICIÊNCIA	ENCONTRO ESTADUAL PRÓ-SAÚDE / PET-SAÚDE - CEARÁ, 2014, FORTALEZA. I MOSTRA PRÓ-SAÚDE / PET-SAÚDE UNIFOR/SMS - CORES-6 E ENCONTRO ESTADUAL PRÓ-SAÚDE / PET-SAÚDE - CEARÁ. FORTALEZA: Rev Bras Promoç Saúde	LINHARES, J. M. ; OLIVEIRA, E. N. ; SOUSA, A. M. M. ; LIMA, E. G.		
resumoExpandidoEmCongresso	2014	ANÁLISE IMUNO-HISTOQUÍMICA DE GLUT-1 E CARCINOMAS EPIDERMÓIDES ORAIS,	31 Reunião da Sociedade Brasileira de Pesquisa Odontológica	LOPES, M.C.M.S. ; PONTE, J.S. ; CHAVES, F. N. ; LUNA, E. M. C. ; CAVALCANTE, R. B. ; CHAVES, HELLÍADA VASCONCELOS ; PEREIRA, K.M.A.		
resumoExpandidoEmCongresso	2014	Expressão imuno-histoquímica do fator induzido por hipóxia-1 em lesões potencialmente malignas e carcinoma epidermóide ora	31 Reunião da Sociedade Brasileira de Pesquisa Odontológica- SBPQO, 2014, SÃO PAULO. Brazilian Oral Research	LUNA, E. M. C. ; FEITOSA, S. G. ; CHAVES, F. N. ; CAVALCANTE, R. B. ; SILVA, P.G.B. ; COSTA, F. W. G. ; ALVES, Ana Paula Negreiros Nunes ; PEREIRA, K.M.A.		
resumoExpandidoEmCongresso	2014	EXUBERANT PYOGENIC GRANULOMA IN AN UNUSUAL SITE	XXII Congresso Brasileiro de Estomatologia e Patologia Oral, 2014, CAMPINA GRANDE. Oral Surgery, Oral Medicine, Oral Pathology and Oral Radiology	LUNA, E. M. C. ; SILVA, M.R.F. ; CHAVES, F. N. ; BITU, F.S. ; COSTA, FÁBIO WILDSON GURGEL ; PEREIRA, K.M.A.		
resumoExpandidoEmCongresso	2014	Ações de Controle de Infecção Hospitalar como Proposta de Educação Permanente em um Hospital de Ensino	V Seminário Internacional de Promoção da Saúde, 2014, Fortaleza. Promoção da Saúde na Integralidade do Cuidado	MELO, M. M. ; MESQUITA, D. M. A. ; LIRA, G. V. ; ARAGÃO, A.E.A. ; DIAS, Maria Socorro de Araújo ; NOGUEIRA, Denise Lima		
resumoExpandidoEmCongresso	2014	PROGRAMA NACIONAL DE TRIAGEM NEONATAL: UM RELATO DE EXPERIÊNCIA	V Seminário Internacional em Promoção da Saúde, 2014, Fortaleza. Anais do V Seminário Internacional em Promoção da Saúde	MENEZES, R. S. P. ; NAKA, A. A. R. ; MENDES, J. D. ; VASCONCELOS, M. N. ; SILVA, Maria Adelane Monteiro da		
resumoExpandidoEmCongresso	2014	PROGRAMA NACIONAL DE TRIAGEM NEONATAL: DESAFIOS PARA A EQUIPE DE SAÚDE DA FAMÍLIA	V Seminário Internacional em Promoção da Saúde, 2014, Fortaleza. Anais do V Seminário Internacional em Promoção da Saúde	MENEZES, R. S. P. ; SILVA, Maria Adelane Monteiro da		
resumoExpandidoEmCongresso	2014	Promoção da saúde e Integralidade na atenção ao idoso: Uma realidade brasileira?	V Seminário Internacional em promoção da saúde, 2014, Fortaleza. Anais do V Seminário Internacional em promoção da saúde 2014	MESQUITA, J. S. ; CAVALCANTE, M. L. R. ; Brito, Maria da Conceição Coelho ; MUNIZ, E. A. ; FREITAS, C. A. S. L.		
resumoExpandidoEmCongresso	2014	Cuidado domiciliar ao idoso no contexto da Estratégia ESF: análise da produção bibliográfica e sua interface com as políticas de saúde	11 Congresso Internacional da Rede Unida, 2014, Fortaleza-CE. Anais do 11 Congresso Internacional da Rede Unida. Botucatu: Rede Unida	MUNIZ, E. A. ; FREITAS, C. A. S. L. ; Lira, Geison Vasconcelos		
resumoExpandidoEmCongresso	2014	ASSISTÊNCIA PRÉ-NATAL À GESTANTES COM SÍFILIS: ESTRUTURA DE UNIDADES DE SAÚDE DO CEARÁ	XVI ENCONTRO DE INICIAÇÃO CIENTÍFICA DA UVA, 2014, SOBRAL. Anais do XVI Encontro de Iniciação Científica da UVA	NAKA, A. A. R. ; SILVA, Maria Adelane Monteiro da ; SIQUEIRA, D. D.		
resumoExpandidoEmCongresso	2014	Programa de educação pelo trabalho para saúde: o tecer das redes de cuidados	IV Congresso de Investigação em Enfermagem e X Conferência da Rede Global dos Centros Colaboradores da OMS, 2014, COIMBRA. Suplemento ao nº2 - Série IV Congresso de Investigação em Enfermagem e X Conferência da Rede Global dos Centros Colaboradores da OMS. COIMBRA PT: REFERÊNCIA REVISTA DE ENFERMAGEM	OLIVEIRA, E. N.; OSAWA, M. I. ; FÉLIX, T.A. ; DIAS, MARIA SOCORRO DE ARAÚJO ; LINHARES, M. S. C. ; LIMA, C. A. S.		
resumoExpandidoEmCongresso	2014	In: VI Seminário da Rede Brasileira de Monitoramento e Avaliação, 2014, Porto Alegre. VI Seminário da Rede Brasileira de Monitoramento e Avaliação. Porto Alegre, RS: UFRGS		RODRIGUES, Lea Carvalho. Contribuições do método experiencial à avaliação de políticas públicas		
resumoExpandidoEmCongresso	2014	Programa Saúde na Escola: Desafios em sua Implementação no Estado do Ceará	V Seminário Internacional de Promoção da Saúde, 2014, Fortaleza. Promoção da Saúde na Integralidade do Cuidado	SANTOS, R. B. ; BRITO, M. C. C. ; SILVA, Lielma Carla Chagas da ; GOMES, D. F. ; SILVA, A. V. ; DIAS, Maria Socorro de Araújo		
resumoExpandidoEmCongresso	2014	Avaliação de método alternativo para isolamento de polisssacarídeos sulfatados da macroalga marinha Gracilaria cornea com álcool isoamílico	XV Congresso Brasileiro de Ficologia, 2014, São Lourenço. XV Congresso Brasileiro de Ficologia	SILVA NETO, A. A. ; SOUZA, R. B. ; COURA, C. O. ; CARNEIRO, J. G. ; Queiroz I. N. L. ; Pereira, R. F. ; BENEVIDES, N. M. B.		
resumoExpandidoEmCongresso	2014	RODA DE CONVERSA SOBRE A IMPORTÂNCIA DOS CUIDADOS COM O RN: RELATO DE EXPERIÊNCIA DO PET-REDE CEGONHA	IV CONGRESSO PIAUIENSE DE SAÚDE PÚBLICA E IV SEMINÁRIO DE ENSINO NA SAÚDE, 2015, PARNAÍBA. ANAIS IV CONGRESSO PIAUIENSE DE SAÚDE PÚBLICA E IV SEMINÁRIO DE ENSINO NA SAÚDE. SOBRAL: REVISTA SANARE	TEIXEIRA, S. E. S. ; OLIVEIRA, E. N. ; MACHADO, A. M. A. ; LINHARES, F. J. S. ; NASCIMENTO, C. G. ; FARIAS, L. M. A.		
resumoExpandidoEmCongresso	2014	RODA DE CONVERSA SOBRE A IMPORTÂNCIA DOS CUIDADOS COM O RN: RELATO DE	IV CONGRESSO PIAUIENSE DE SAÚDE PÚBLICA E IV SEMINÁRIO DE ENSINO NA SAÚDE, 2015, Parnaíba. IV CONGRESSO PIAUIENSE DE SAÚDE PÚBLICA E IV SEMINÁRIO DE ENSINO NA SAÚDE. Sobral: Revista Sanare	TEIXEIRA, S. E. S. ; OLIVEIRA, E. N. ; MACHADO, A. M. A. ; LINHARES, F. J. S. ; NASCIMENTO, C. G. ; FARIAS, L. M. A. ; BARBOSA, C. H. M.		
