artigoEmPeriodico	2013		Characterization and extraction of volatile compounds from pineapple (Ananas comosus L. Merril) processing residue	Ciência e Tecnologia de Alimentos (Impresso)	BARRETO, L. C. O. ; R.A.R Santos ; MOREIRA, J. J. S. ; Narain, Narendra ; Santos, João Antonio Belmino dos	B1	
artigoEmPeriodico	2013		DANÇA COMO FERRAMENTA PEDAGÓGICA NAS AULAS DE EDUCAÇÃO FÍSICA	Cadernos de Pesquisa: Pensamento Educacional (Curitiba. Online)	Behring, I. M. S. ; De-Bortoli, Robelius	B2	
artigoEmPeriodico	2013	http://dx.doi.org/10.1590/S0102-05362013000100017	Parâmetros genotípicos, fenotípicos e ambientais para caracteres morfológicos e agronômicos em abóbora	Horticultura Brasileira (Impresso)	BLANK, A. F. ; SILVA, T. B. ; MATOS, M. L. ; CARVALHO FILHO, J. L. S. ; SILVA-MANN, R.	B1	
artigoEmPeriodico	2013	http://dx.doi.org/10.4322/rca.2013.090	Prospection and genetic diversity of bromeliad genera in fragmented areas	Revista de Ciências Agrárias (Belém)	BLANK, A. F. ; VIEIRA, S. D. ; RABBANI, A. R. C. ; SILVA-MANN, R. ; ARRIGONI-BLANK, M. F. ; RESENDE, L. V. ; BLANK, A. F.	B2	
artigoEmPeriodico	2013	http://dx.doi.org/10.5935/0103-5053.20130174	Evaluation of the Oxidative Stability of Biodiesel Blends from Soybean, Tallow and Castor Bean using Experimental Mixture Design	Journal of the Brazilian Chemical Society (Impresso)	CARVALHO, ANAILDES L. ; SANTANA, SARAH M. F. ; SILVA, CRISTIANE S. ; Pepe, Iuri M. ; BEZERRA, MARCOS A. ; ARAGÃO, LEANDRO M. ; Quintella, Cristina M. ; TEIXEIRA, LEONARDO S. G.	A2	
artigoEmPeriodico	2013		PRODUÇÃO E CARACTERIZAÇÃO DE CONSERVA DE TOMATE CEREJA ORGÂNICO (Lycopersicon esculentum var. cerasiforme) SECO	Revista Magistra	CONSTANT, P. B. L. ; SANTOS, J. A. B.	B3	Revista Magistro
artigoEmPeriodico	2013		TRANSFERÊNCIA DE CALOR NO PROCESSO DE REFRIGERAÇÃO DE TOMATE TIPO ITALIANO	Higiene Alimentar	COSTA, D. G. ; MOTA, L. O. ; REIS, J. R. G. ; LIMA, L. A. L. C. ; NUNES, T. P. ; OLIVEIRA JÚNIOR, A. M.	B3	
artigoEmPeriodico	2013		Impact of Dehydrated Jackfruit in the Acceptance of a Probiotic Fermented Milk	IJET: International Journal of Engineering & Technology	COSTA, R. A. ; SOUZA, M. S. S. ; SILVA, T. C. S. ; NUNES, T. P. ; OLIVEIRA JÚNIOR, A. M. ; CHAVES, A. C. S. D.	Qualis nao identificado	IJET: International Journal of Engineering & Technology
artigoEmPeriodico	2013	http://dx.doi.org/10.7198/S2237-0722201300040014	REGISTRATION OF SOFTWARE IN FEDERAL UNIVERSITY OF SERGIPE: A COMPARATIVE ANALYSIS	Revista GEINTEC: gestao, inovacao e tecnologias	DALL'AGNOL, R.P. ; MACHADO, G.J.C	B4	
artigoEmPeriodico	2013	http://dx.doi.org/10.7198/s2318-34032013001003	A UTILIZAÇÃO DE CORANTES ARTIFICIAIS EM PRODUTOS ALIMENTÍCIOS NO BRASIL	ANAIS DO SIMPÓSIO INTERNACIONAL DE INOVAÇÃO TECNOLÓGICA - SIMTEC	DALL?AGNOL, R.P. ; SANTOS, J.A.B. ; MACHADO, G.J.C. ; SILVA, R. ; SANTOS, A.P.S.	Qualis nao identificado	ANAIS DO SIMPÓSIO INTERNACIONAL DE INOVAÇÃO TECNOLÓGICA - SIMTEC
artigoEmPeriodico	2013		Analysis of Program PRIME at Brazil	World Academy of Science, Engineering and Technology (Online)	GOMES, I. M. A. ; BARRETO, I. D. C. ; RUSSO, S. L.	B2	
artigoEmPeriodico	2013	http://dx.doi.org/10.7198/s2237-0722201300030008	ANÁLISE DA SELEÇÃO DE PROJETOS DO PROGRAMA PRIMEIRA EMPRESA INOVADORA (PRIME) NO CENTRO INCUBADOR DO ESTADO DE SERGIPE/BRASIL (CISE)	GEINTEC - Gestão, Inovação e Tecnologias	GOMES, I.M.A. ; BARRETO, I.D.C. ; PAIXÃO, A.E.A. ; RUSSO, S.L.	B4	
artigoEmPeriodico	2013	http://dx.doi.org/10.9771/S.CPROSP.2013.006.017	BIORREMEDIAÇÃO MICROBIOLÓGICA DE ÁREAS IMPACTADAS COM PETRÓLEO ATRAVÉS DO USO DE FUNGOS E SUBPRODUTOS DO BIODÍESEL DE MAMONA: MAPEAMENTO PATENTÁRIO	Cadernos de Prospecção	GONÇALVES, ODETE ; CERQUEIRA, GABRIELA SILVA ; Quintella, Cristina M.	C	
artigoEmPeriodico	2013	http://dx.doi.org/10.7198/s2318-34032013001006	ANÁLISE DA PRODUÇÃO DE COCO NO ESTADO DE SERGIPE FRENTE AO CRESCIMENTO DA CULTURA NO NORDESTE E NO BRASIL	ANAIS DO SIMPÓSIO INTERNACIONAL DE INOVAÇÃO TECNOLÓGICA - SIMTEC	JESUS JÚNIOR, L.A. ; TOMMASI, A.C. ; OLIVEIRA JÚNIOR, A.M. ; RUSSO, S.L.	Qualis nao identificado	ANAIS DO SIMPÓSIO INTERNACIONAL DE INOVAÇÃO TECNOLÓGICA - SIMTEC
artigoEmPeriodico	2013		Caracterização química avaliação do rendimento em resíduos de camarão cinza (Litopenaeus vannamei)	Higiene Alimentar	LIMA, M. M. ; NUNES, M. L. ; AQUINO, L. C. L. ; SANTOS, J. A. B. ; MUJICA, P. I. C.	B3	
artigoEmPeriodico	2013		Caracterização química e avaliação do rendimento em filés de atum (Katsuwonus pelamis)	Higiene Alimentar	LIMA, M. M. ; NUNES, M. L. ; SANTOS, J. A. B. ; MUJICA, P. I. C.	B3	
artigoEmPeriodico	2013	http://dx.doi.org/10.9771/S.CPROSP.2013.006.057	POLIMEROS COMO METODOS PARA RECUPERAÇÃO AVANÇADA DE PETRÓLEO	Cadernos de Prospecção	MARQUES, LANDSON S. ; Quintella, Cristina M. ; MUSSE NETO, GUILHERME JOÃO ; CAVALCANTI, DAVID FALCÃO ; SANTOS, LAURO TIAGO SOUZA	C	
artigoEmPeriodico	2013	http://dx.doi.org/10.7198/S2318-34032013001001	ANÁLISE DAS MARCAS DE ALTO RENOME EM VIGÊNCIA NO BRASIL	ANAIS DO SIMPÓSIO INTERNACIONAL DE INOVAÇÃO TECNOLÓGICA - SIMTEC	MEDEIROS FILHO, A.R. ; RUSSO, S.L.	Qualis nao identificado	ANAIS DO SIMPÓSIO INTERNACIONAL DE INOVAÇÃO TECNOLÓGICA - SIMTEC
artigoEmPeriodico	2013	http://dx.doi.org/10.4236/ajac.2013.42013	Prediction of Concentration of Animal Fat in Mixture with Vegetable Oil by Multivariate Calibration Associated with Spectrofluorimetry	American Journal of Analytical Chemistry	MEIRA, M. ; QUINTELLA, C. M. ; RIBEIRO, E.M.O ; GUIMARÃES, A. K ; SANTOS, M. A. ; CERQUEIRA, G. S. ; Alexandre Lopez Del Cid ; Luna, S. ; SILVA, W. L.	B4	
artigoEmPeriodico	2013		AVALIAÇÃO MICROBIOLÓGICA DE AMENDOINS COZIDOS COMERCIALIZADOS EM FEIRAS LIVRES E SUPERMERCADOS DA CIDADE DE ARACAJU-SE	Higiene Alimentar	MOURA, J. C. A. ; LEITE, T. S. ; NEVES, B. S. S. ; BRITO, T. T. ; SANTOS, G. S. ; OLIVEIRA JÚNIOR, A. M. ; NUNES, T. P.	B3	
artigoEmPeriodico	2013		QUALIDADE FISÍCO-QUIMICA E MICROBIOLÓGICA DE DIFERENTES FRUTAS TROPICAIS COMERCIALIZADAS NO ESTADO DE SERGIPE	Higiene Alimentar	NEVES, B. S. S. ; SANTOS, G. S. ; MOURA, J. C. A. ; LEITE, T. S. ; CHAVES, A. C. S. D. ; OLIVEIRA JÚNIOR, A. M. ; NUNES, T. P.	B3	
artigoEmPeriodico	2013	http://dx.doi.org/10.7198/S2237-0722201300020017	DISCUSSÕES SOBRE PRODUÇÃO ACADÊMICO-CIENTÍFICA	GEINTEC - Gestão, Inovação e Tecnologias	NUNES, M. A. S. N. ; CAZELLA, S. C. ; PIRES, E. A. ; RUSSO, S. L.	B4	
artigoEmPeriodico	2013		ESTUDO COMPARATIVO DA COMPOSIÇÃO E ATIVIDADE ANTIOXIDANTE DA POLPA DE CAJA (Spondias mombin L.) IN NATURA E DESIDRATADA POR LIOFILIZAÇÃO	Revista Magistra	Olegário, L. S. ; NARAIN, N. ; SANTOS, J. A. B. ; OLIVEIRA, G. B.	B3	Revista Magistro
artigoEmPeriodico	2013	http://dx.doi.org/10.7198/s2237-0722201300010008	PROSPECÇÃO TECNOLÓGICA: PROCESSO DE LIOFILIZAÇÃO NA INDÚSTRIA DE ALIMENTOS	GEINTEC - Gestão, Inovação e Tecnologias	OLIVEIRA, G. R. ; SANTOS, J. T. S. ; CAMPOS, A. F. P. ; NUNES, T. P. ; RUSSO, S. L. ; OLIVEIRA JÚNIOR, A. M.	B4	
artigoEmPeriodico	2013	http://dx.doi.org/10.7198/S2318-34032013001007	PROSPECÇÃO TECNOLÓGICA SOBRE A BRUCELOSE BOVINA (Brucella Abortus)	ANAIS DO SIMPÓSIO INTERNACIONAL DE INOVAÇÃO TECNOLÓGICA - SIMTEC	OLIVEIRA, L.B. ; SANTOS, I.N.N. ; CRUZ, R.S. ; CAMARGO, M.E. ; RUSSO, S.L.	Qualis nao identificado	ANAIS DO SIMPÓSIO INTERNACIONAL DE INOVAÇÃO TECNOLÓGICA - SIMTEC
artigoEmPeriodico	2013		Análise do parâmetro de cor a* e intenção de compra de nhoque enriquecido com farinha da folha de Moringa oleífera Lamarck em diferentes proporções	Higiene Alimentar	PASSOS, R. M. ; SANTOS, D. M. C. ; BERY, C. C. S. ; SANTOS, J. A. B. ; CONSTANT, P. B. L. ; SILVA, G. F.	B3	
artigoEmPeriodico	2013	http://dx.doi.org/10.7198/s2237-0722201300010010	QUALIDADE PÓS-COLHEITA DA MORINGA (MORINGA OLEIFERA LAM) UTILIZADA NA FORMA IN NATURA E SECA	GEINTEC - Gestão, Inovação e Tecnologias	PASSOS, R. M. ; SANTOS, D. M. C. ; SANTOS, B. S. ; SOUZA, D. C. L. ; SANTOS, J. A. B. ; SILVA, G. F.	B4	
artigoEmPeriodico	2013	http://dx.doi.org/10.1016/j.talanta.2013.08.018	Development of a spectrofluorimetry-based device for determining the acetylene content in the oils of power transformers	Talanta (Oxford)	QUINTELLA, C. M.; MEIRA, M. ; ARAÚJO, A. L. C. ; DIOGENES FILHO, R. G.	A1	
artigoEmPeriodico	2013		Efeito do estresse salino na qualidade fisiológica de sementes de girassol	Scientia Plena	RABBANI, A. R. C. ; SANTOS, A. R. F. ; SILVA-MANN, R. ; FERREIRA, R. A. ; CARVALHO, S. V. A. ; NUNES, F. B. da S. ; BRITO, A. S.	B3	
artigoEmPeriodico	2013		Pré ? embebição em sementes de moringa	Scientia Plena	RABBANI, A. R. C. ; SILVA-MANN, R. ; FERREIRA, R. A. ; VASCONCELOS, M. C.	B3	
artigoEmPeriodico	2013		Efeito do estresse salino sobre atributos da germinação de sementes de girassol	Scientia Plena	RABBANI, A. R. C. ; SILVA-MANN, R. ; FERREIRA, Robério Anastácio. ; CARVALHO, Sheila Valéria Álvares ; NUNES, F. B. S. ; BRITO, Alexandro de Souza	B3	
artigoEmPeriodico	2013		Restrição hídrica em sementes de moringa (Moringa oleifera L.)	UDO Agricola. Revista Cientifica	RABBANI, A. R. C. ; SILVA-MANN, R. ; FERREIRA, Robério Anastácio. ; PESSOA, A. M. S. ; BARROS, E. S. ; MESQUITA, Joao Basilio	Qualis nao identificado	UDO Agricola. Revista Cientifica
artigoEmPeriodico	2013	http://dx.doi.org/10.7198/s2237-0722201300030002	ANÁLISE DA CORRELAÇÃO LINEAR ENTRE A DENSIDADE MÁXIMA E O ÍNDICE DE SUPORTE CALIFÓRNIA	GEINTEC - Gestão, Inovação e Tecnologias	RIOS, A.A.C ; MENDONÇA, A.T. ; SANTANA, F.I.T. ; ROCHA, L.T. ; RUSSO, S.L.	B4	
artigoEmPeriodico	2013		Indicadores científicos e tecnológicos em biodiesel na Bahia: panorama sobre grupos de pesquisa do CNPq e pesquisadores da RBTB	Revista Economia & Tecnologia (RET)	ROCHA, A. M. ; SILVA, M. S. ; QUINTELLA, C. M. ; TORRES, E. A.	B5	
artigoEmPeriodico	2013		Employment Of Arima Models For Prediction Of Sugar Cane In Sergipe, Brazil	Australian Journal of Basic and Applied Sciences	RUSSO, S. L.; GOMES, I. M. A. ; SANTANA, L. V. R. ; FABRIS, Jonas Pedro	Qualis nao identificado	Australian Journal of Basic and Applied Sciences
artigoEmPeriodico	2013		Sonic log analysis in oil wells through Box and Jenkins methodology	Journal of Petroleum and Gas Engineering	RUSSO, S.L.; JESUS, J. S. ; GUIMARAES, D. C. ; SANTOS, J. A. B. ; CAMARGO, M. E.	B4	
artigoEmPeriodico	2013		The interaction university-business as a factor of local development: A study of oil and gas sector of Sergipe	African Journal of Business Management	RUSSO, S.L.; MARTINS, F. A. ; SANTANA, J. R. ; GOMES, I. M. A.	B1	
artigoEmPeriodico	2013		The Potential Entrepreneur Of Management Students At The Federal University Of Sergipe, Brasil	Australian Journal of Basic and Applied Sciences	SANTOS, A. G. ; SILVA, A. S. R. ; GOMES, I. M. A. ; RUSSO, S.L.	Qualis nao identificado	Australian Journal of Basic and Applied Sciences
artigoEmPeriodico	2013		Condicionamento osmótico em sementes de girassol (Helianthus annuus L)	UDO Agricola. Revista Cientifica	SANTOS, A. R. F. ; SILVA-MANN, R. ; FERREIRA, R. A. ; NUNES, F. B. da S. ; CARVALHO, S. V. A.	Qualis nao identificado	UDO Agricola. Revista Cientifica
artigoEmPeriodico	2013	http://dx.doi.org/10.7198/s2237-0722201300010010	QUALIDADE PÓS-COLHEITA DA MORINGA (MORINGA OLEIFERA LAM) UTILIZADA NA FORMA IN NATURA E SECA	GEINTEC - Gestão, Inovação e Tecnologias	SANTOS, B. S. ; PASSOS, R. M. ; SANTOS, D. M. C. ; SOUZA, D. C. L. ; SANTOS, J. A. B. ; SILVA, G. F.	B4	
artigoEmPeriodico	2013		Desenvolvimento e caracterização físico-química de extratos de capim-limão (Cymbopogon citratus)	Higiene Alimentar	SANTOS, B. S. ; SANTOS, E. D. A. ; BERY, C. C. S. ; SANTOS, J. A. B. ; SILVA, G. F. ; REINOSO, A. C. L.	B3	
artigoEmPeriodico	2013		Desenvolvimento e caracterização de extrato aquoso de chá verde (Camellia sinesis)	Higiene Alimentar	SANTOS, E. D. A. ; SANTOS, B. S. ; BERY, C. C. S. ; SANTOS, J. A. B. ; SILVA, G. F.	B3	
artigoEmPeriodico	2013		Desenvolvimento e caracterização de extrato aquoso de chá verde (Camellia sinesis)	Higiene Alimentar	SANTOS, E. D. A. ; SANTOS, B. S. ; BERY, C. C. S. ; SANTOS, J. A. B. ; SILVA, G. F.	B3	
artigoEmPeriodico	2013		Desenvolvimento e caracterização físico-química de extratos de capim-limão (Cymbopogon citratus)	Higiene Alimentar	SANTOS, E. D. A. ; SANTOS, B. S. ; BERY, C. C. S. ; SANTOS, J. A. B. ; SILVA, G. F. ; REINOSO, A. C. L.	B3	
artigoEmPeriodico	2013		Caracterização molecular de germoplasma de patchouli (Pogostemon sp.) por marcadores RAPD.	Scientia Plena	SANTOS, P. S. ; ARRIGONI-BLANK, M. F. ; BLANK, A. F. ; SILVA, S. A. ; GOES, I. B. ; SILVA-MANN, R.	B3	
artigoEmPeriodico	2013	http://dx.doi.org/10.7198/S2318-34032013001028	PROSPECÇÃO TECNOLÓGICA: GESSO ACARTONADO	ANAIS DO SIMPÓSIO INTERNACIONAL DE INOVAÇÃO TECNOLÓGICA - SIMTEC	SANTOS, S.A. ; SANTOS, L.C. ; FERREIRA, J.L. ; DEUS, G.S. ; FABRIS, S.R. ; RUSSO, S.L.	Qualis nao identificado	ANAIS DO SIMPÓSIO INTERNACIONAL DE INOVAÇÃO TECNOLÓGICA - SIMTEC
artigoEmPeriodico	2013	http://dx.doi.org/10.7198/S2237-0722201300020002	UTILIZAÇÃO DE SEMENTES DE MORINGA OLEÍFERA LAM COMO ALTERNATIVA PARA PRODUÇÃO DE BIODIESEL	GEINTEC - Gestão, Inovação e Tecnologias	SILVA, T. C. S. ; NUNES, T. P. ; COSTA, D. G. ; LIMA, L. A. L. C. ; SILVA, G. F. ; OLIVEIRA JÚNIOR, A. M.	B4	
artigoEmPeriodico	2013	http://dx.doi.org/10.7213/academica.10.S01.AO05	Variabilidade genética em populações de Erythrina velutina Willd. por meio de isoenzimas	Revista Acadêmica: Ciências Agrárias e Ambientais (PUCPR. Impresso)	SILVA-MANN, R.; AZEVEDO, R.M. ; SANTOS, H. O. ; FERREIRA,R.A. ; MARCAL, R. M.	B4	
artigoEmPeriodico	2013	http://dx.doi.org/10.1590/S0100-204X2013001100005	Capacidade combinatória e parâmetros genéticos de genótipos de pinhão-manso quanto a caracteres morfoagronômicos	Pesquisa Agropecuária Brasileira (1977. Impressa)	SILVA-MANN, R.; SANTANA, U. A. ; CARVALHO FILHO, J. L. S. ; BLANK, A. F.	A2	
artigoEmPeriodico	2013		AVALIAÇÃO DA TRANSFERÊNCIA DE CALOR POR CONVECÇÃO DA COXINHA EM TEMPERATURA AMBIENTE	Higiene Alimentar	SOARES, D. S. C. ; SANTOS, J. T. S. ; NUNES, T. P. ; OLIVEIRA JÚNIOR, A. M.	B3	
artigoEmPeriodico	2013		ANÁLISE TÉRMICA DIFERENCIAL DA POLPA DE MANGABA DESIDRATADA POR DIFERENTES PROCESSOS DE DESIDRATAÇÃO	Higiene Alimentar	SOARES, D. S. C. ; SANTOS, J. T. S. ; OLIVEIRA, G. R. ; NUNES, T. P. ; OLIVEIRA JÚNIOR, A. M.	B3	
artigoEmPeriodico	2013	http://dx.doi.org/10.7198/S2318-34032013001013	MAPEAMENTO DO POTENCIAL DE INOVAÇÃO DOS RESULTADOS DE PESQUISAS DESENVOLVIDAS PELA UFS	ANAIS DO SIMPÓSIO INTERNACIONAL DE INOVAÇÃO TECNOLÓGICA - SIMTEC	SOUZA, A.A.A. ; JESUS, M.F.N. ; RUSSO, S.L.	Qualis nao identificado	ANAIS DO SIMPÓSIO INTERNACIONAL DE INOVAÇÃO TECNOLÓGICA - SIMTEC
artigoEmPeriodico	2013	http://dx.doi.org/10.1590/s0100-67622013000500015	Produção de frutos e características morfofisiológicas de Schinus terebinthifolius Raddi., na região do baixo São Francisco, Brasil	Revista Árvore (Impresso)	SOUZA, D. C. L. ; Mann, Renata Silva ; FERREIRA, Robério Anastácio. ; GOMES, L. J. ; ALMEIDA, T. T. S. A. S. ; OLIVEIRA, A. S. ; PEREIRA, G. S. ; GOIS, I. B.	A2	
artigoEmPeriodico	2013	http://dx.doi.org/10.7198/s2237-07222013000300023	CULTURA, LIDERANÇA E ANSIEDADE: UMA COMBINAÇÃO PSICODINÂMICA QUE PODE FAZER RUIR QUALQUER SISTEMA DE GESTÃO EM SEGURANÇA INDUSTRIAL SE NÃO FOR ANALISADA DE FORMA GLOBAL	Revista GEINTEC: gestao, inovacao e tecnologias	SOUZA, J.C.R. ; MACHADO, G.J.C	B4	
artigoEmPeriodico	2013	http://dx.doi.org/10.1590/s1413-81232013000200006	Intervenção nutricional educativa como ferramenta eficaz para mudança de hábitos alimentares e peso corporal entre praticantes de atividade física	Ciência e Saúde Coletiva (Impresso)	TEIXEIRA, PRYSCILA DRYELLE SOUSA ; REIS, BRUNA ZAVARIZE ; VIEIRA, DIVA ALIETE DOS SANTOS ; COSTA, DAYANNE DA ; COSTA, JAMILLE OLIVEIRA ; RAPOSO, OSCAR FELIPE FALCÃO ; WARTHA, ELMA REGINA SILVA DE ANDRADE ; NETTO, RAQUEL SIMÕES MENDES	A2	
artigoEmPeriodico	2013	http://dx.doi.org/10.9771/S.CPROSP.2013.006.023	PROSPECÇÃO DO USO DE CLOROFILA COMO PARÂMETRO DE DIFERENCIAÇÃO DA ADIÇÃO DE ÓLEO VEGETAL AO DIESEL EM VEZ DE BIODIESEL	Cadernos de Prospecção	TOMAZZONI, GIANCARLO ; Quintella, Cristina M. ; Pepe, Iuri M. ; Meira, Marilena ; OKAMURA, LAYSSA ALINE ; DA COSTA NETO, PEDRO RAMOS	C	
artigoEmPeriodico	2013	http://dx.doi.org/10.1016/j.wasman.2013.07.030	Recovery of different waste vegetable oils for biodiesel production: A pilot experience in Bahia State, Brazil	Waste Management (Elmsford)	TORRES, E. A. ; CERQUEIRA, GILBERTO S. ; M. FERRER, TIAGO. ; QUINTELLA, C. M. ; RABONI, MASSIMO ; TORRETTA, VINCENZO ; URBINI, GIORDANO	A1	
trabalhoCompletoEmCongresso	2013		ESTUDO DE VAIBILIZAÇÃO TÉCNICO-ECONÔMICA E AMBIENTAL DE MOTORES A GÁS NATURAL EM COGERAÇÃO PARA O SETOR PEQUEIRO	CONGRESSO IBEROAMERICANO DE ENGENHARIA MECÂNICA	ALENCAR, R. ; SANTOS, C. A. C.		
trabalhoCompletoEmCongresso	2013		FEASIBLITY STUDY OF TECHNICAL ECONOMIC AND ENVIROMENTAL NATURAL GAS ENGINES FOR COGENERATION IN THE FISHING SECTOR	22nd International Congress of Mechanical Engineering (COBEM 2013)	ALENCAR, R. ; SANTOS, CARLOS A.C. ; CEZAR, K. L. ; Cordeiro, M. C. L ; CALDAS, A. M. A.		
trabalhoCompletoEmCongresso	2013		MAPEAMENTO DOS GRUPOS DE PESQUISA DA UFS: ANÁLISE DO POTENCIAL DE INOVAÇÃO	CONEST - Congresso de Estatística	AMORIM, A. A. ; JESUS, M. F. N. ; RUSSO, S.L.		
trabalhoCompletoEmCongresso	2013		Estudo da Cinética de Secagem, Extração, Caracterização e Estabilidade Térmica do Óleo das Sementes de Maracujá do Mato (Passiflora Cincinnata Mast.)	IV SIMTEC	ANDRADE, J. K. S. ; SILVA, G. F. ; BARRETTO, L. C. O ; SANTOS, J. A. B.		
trabalhoCompletoEmCongresso	2013		DESENVOLVIMENTO DE TÉCNICAS DE MEDIÇÃO DE VAZÃO NÃO INTRUSIVA PARA SISTEMA DE REFRIGERAÇÃO POR ABSORÇÃO COM PAR ÁGUA-BROMETO DE LÍTIO	CONGRESSO IBEROAMERICANO DE ENGENHARIA MECÂNICA	CALDAS, A. M. A. ; SANTOS, C. A. C.		
trabalhoCompletoEmCongresso	2013		ANALISE ENERGETICA E EXERGETICA NO SISTEMA DE GERACAO DE ALTO DESEMPENHO COM O GRUPO MOTOR DE COMBUSTAO INTERNA USANDO GAS NATURAL	22nd International Congress of Mechanical Engineering (COBEM 2013)	CAVALCANTE, A. W. A. ; SANTOS, CARLOS A.C. ; ANDRADE, J. H. ; ROCHA, M. A.		
trabalhoCompletoEmCongresso	2013		CONTROLE DE VAZÃO PID PARA SISTEMA DE REFRIGERAÇÃO POR ABSORÇÃO COM PAR ÁGUA BROMETO DE LITIO	CONGRESSO IBEROAMERICANO DE ENGENHARIA MECÂNICA	CEZAR, K. L. ; SANTOS, C. A. C.		
trabalhoCompletoEmCongresso	2013		PID FLOW CONTROL FOR ABSORPTION REFRIGERATION SYSTEMS WITH PAIR WATER - LITHIUM BROMIDE	22nd International Congress of Mechanical Engineering (COBEM 2013)	CEZAR, K. L. ; SANTOS, CARLOS A.C. ; Cordeiro, M. C. L ; FERNANDES, T. A. ; CALDAS, A. M. A. ; ALENCAR, R.		
trabalhoCompletoEmCongresso	2013		AVALIACAO EXPERIMENTAL DA IMPORTANCIA DO CONTROLE DA VAZAO DA TORRE DO CONDENSADOR EM UM PROTOTIPO DE UM SISTEMA DE REFRIGERACAO POR ABSORCAO COM O PAR AGUA-BROMETO DE LITIO DA RECOGAS N/NE	22nd International Congress of Mechanical Engineering (COBEM 2013)	Cordeiro, M. C. L ; SANTOS, CARLOS A.C. ; CEZAR, K. L. ; FERNANDES, T. A. ; CALDAS, A. M. A. ; ALENCAR, R.		
trabalhoCompletoEmCongresso	2013		THERMODYNAMIC STUDY AND EXPERIMENTAL EVALUATION OF THE PROTOTYPE 01 OF A COOLING SYSTEM FOR ABSORPTION USING WATER - LITHIUM BROMIDE PAIR IN RECOGÁS	22nd International Congress of Mechanical Engineering (COBEM 2013)	Cordeiro, M. C. L ; SANTOS, CARLOS A.C. ; FERNANDES, T. A. ; CEZAR, K. L.		
trabalhoCompletoEmCongresso	2013		AVALIAÇÃO DE DIFERENTES CONDIÇÕES OPERACIONAIS PARA A OBTENÇÃO DE CONCENTRADO PROTEICO	IV Simpósio Internacional de Inovação Tecnológica	COSTA, D. G. ; LIMA, L. A. L. C. ; NUNES, T. P. ; OLIVEIRA JÚNIOR, A. M.		
trabalhoCompletoEmCongresso	2013		A PROBABILIDADE DE APRENDER	Encontro Nacional de Educação Matemática	DIAS, C. T. ; SANTOS, E. G. H. ; SILVA, M. L. O. ; SANTOS, N. B. ; RUSSO, S.L.		
trabalhoCompletoEmCongresso	2013		Detecção de Outliers Usando Gráficos de Controle em Medidas de Perfilagem	CONEST - Congresso de Estatística	EVANGELISTA, D. F. M. ; SANTOS, D. G. dos ; RUSSO, S.L.		
trabalhoCompletoEmCongresso	2013		ANALISE DA CONVECÇÃO FORÇADA NO ESCOAMENTO BIDIMENSIONAL LAMINAR EM DUTOS RETANGULARES VIA GITT COM VARIÁVEIS PRIMITIVAS	CONGRESSO IBEROAMERICANO DE ENGENHARIA MECÂNICA	FERNANDES, T. A. ; SANTOS, C. A. C.		
trabalhoCompletoEmCongresso	2013		ANALISE DA CONVECCAO FORCADA LAMINAR EM DUTOS RETANGULARES VIA GITT PARA UM CAMPO SIMULTANEO DE VELOCIDADE, PRESSAO E TEMPERATURA	22nd International Congress of Mechanical Engineering (COBEM 2013)	FERNANDES, T. A. ; SANTOS, C. A. C. ; LOPES, M. M. ; Cordeiro, M. C. L ; CEZAR, K. L. ; CALDAS, A. M. A.		
trabalhoCompletoEmCongresso	2013		ANALYSIS OF FORCED CONVECTION IN TWO-DIMENSIONAL LAMINAR FLOW IN RECTANGULAR DUCTS BY GITT PRIMITIVE WITH VARIABLE	22nd International Congress of Mechanical Engineering (COBEM 2013)	FERNANDES, T. A. ; SANTOS, CARLOS A.C. ; CEZAR, K. L. ; Cordeiro, M. C. L		
trabalhoCompletoEmCongresso	2013		Comportamento do fluxo de embarque do aeroporto de Santa Maria através dos modelos de intervenção	CONEST - Congresso de Estatística	GUIMARAES, D. C. ; JESUS, J. S. ; RUSSO, S.L.		
trabalhoCompletoEmCongresso	2013		ANÁLISE DA PRODUÇÃO DE COCO NO ESTADO DE SERGIPE FRENTE AO CRESCIMENTO DA CULTURA NO NORDESTE E NO BRASIL	IV Simpósio Internacional de Inovação Tecnológica	JESUS JUNIOR, L. A. ; TOMASSI, A. C. ; RUSSO, S. L. ; OLIVEIRA JÚNIOR, A. M. ; MARTINS, C. R.		
trabalhoCompletoEmCongresso	2013		AVALIAÇÃO DA OBTENÇÃO DE CONCENTRADO PROTEICO POR VIA FERMENTATIVA PARTIR DE MORINGA OLEÍFERA LAM	IV Simpósio Internacional de Inovação Tecnológica	LIMA, L. A. L. C. ; COSTA, D. G. ; NUNES, T. P. ; OLIVEIRA JÚNIOR, A. M.		
trabalhoCompletoEmCongresso	2013		Estudos Prospectivos da Perfilagem em Poços de Petróleo	III Congresso Brasiileiro de Prospecção	MEDEIROS FILHO, A. R. ; PIRES, E. A. ; SILVA, R. ; RUSSO, S. L.		
trabalhoCompletoEmCongresso	2013		Produção e Caracterização de conserva de Tomate Cereja Orgânico (Lycopersion esculentum var. cerasiforme) Seco	III Congresso Brasileiro de Processamento de Frutas e Hortaliças	Moura, C.P.B. ; CONSTANT, P. B. L. ; SANTOS, J. A. B.		
trabalhoCompletoEmCongresso	2013		Avaliação e construção de indicadores de desempenho das instituições de ensino superior (IES) federais do estado da Bahia	XV Congresso Latino-Iberoamericano de Gestão de Tecnologia	MOURA, E. N. ; QUINTELLA, C. M. ; SUZART, V. P. ; JESUS, P. C. ; EMBIRUÇU, M.		
trabalhoCompletoEmCongresso	2013		Estudo Comparativo da Compoisção e Atividade Antioxidante da Polpa de Cajá (Spondias mombin L.) In natura e Desidratada por Liofilização	III Congresso Brasileiro de Processamento de Frutas e Hortaliças	Olegário, L. S. ; NARAIN, N. ; SANTOS, J. A. B. ; OLIVEIRA, G. B.		
trabalhoCompletoEmCongresso	2013		ESTUDO TERMODINÂMICO E AVALIAÇÃO EXPERIMENTAL DE UMA UNIDADE DE REFRIGERAÇÃO POR ABSORÇÃO H2O/NH3 E IMPLEMENTAÇÃO DA UNIDADE DE COGERAÇÃO COM O USO DE UM RECUPERADOR DE CALOR À ÓLEO MINERAL	CONGRESSO IBEROAMERICANO DE ENGENHARIA MECÂNICA	QUEIROZ, D. F. ; SANTOS, C. A. C.		
trabalhoCompletoEmCongresso	2013		CULTIVARES E TRANSGÊNICAS PARA O BIODIESEL	III Fórum de Biocombustíveis do IFBA	ROCHA, A. M. ; SILVA, M. S. ; FERNANDES, F. M. ; ROCHA, G. S. ; QUINTELLA, C. M. ; TORRES, E. A.		
trabalhoCompletoEmCongresso	2013		NÚMEROS DE ACIDENTES POR TIPOS (COLISÃO LATERAL, COLISÃO TRASEIRA E SAÍDA DE PISTA) DA CIDADE DE ARACAJU NOS ANOS DE 2007 A 2011 POR UM MODELO DE REGRESSÃO	CONEST - Congresso de Estatística	RODRIGUES, C. S. ; SANTOS JUNIOR, E. B. S. ; SANTOS, M. V. V. dos ; SANTOS, S. G. de S. ; RUSSO, S.L.		
trabalhoCompletoEmCongresso	2013	http://dx.doi.org/10.1007/978-94-007-5110-1_16	Atividades inovadoras em biotecnologia no Brasil: uma análise a partir do modelo da hélice tríplice	XV Congresso Latino-Iberoamericano de Gestão de Tecnologia	SANTO, A. A. E. ; QUINTELLA, C. M. ; LIMA, P. L. C. E. ; CARVALHO, G. C.		
trabalhoCompletoEmCongresso	2013		DETERMINAÇÃO DO COEFICIENTE CONVECTIVO DE TRANSFERÊNCIA DE CALOR EXPERIMENTAL EM CUPCAKE DE CHOCOLATE RESFRIADO A TEMPERATURA AMBIENTE	IV Simpósio Internacional de Inovação Tecnológica	SANTOS, E. D. A. ; SILVA, G. F. ; OLIVEIRA JÚNIOR, A. M.		
trabalhoCompletoEmCongresso	2013		Análise do perfil sônico sintético usando gráfico de controle	CONEST - Congresso de Estatística	SANTOS, E. G. H. ; GUIMARAES, D. C. ; SANTANA, D. S de ; RUSSO, S. L.		
trabalhoCompletoEmCongresso	2013		O novo Parque Tecnológico de Sergipe como mecanismo de apoio ao Empreendedorismo	IV SIMTEC - Simpósio Internacional de Inovação Tecnológica	SANTOS, L. ; GOMES, I.M.A. ; OLAVE, Maria Elena Leon		
trabalhoCompletoEmCongresso	2013		Analise Temporal das Decolagens no Aeroporto Santa Maria em Sergipe	CONEST - Congresso de Estatística	SILVA, C. H. dos S. ; RUSSO, S.L.		
trabalhoCompletoEmCongresso	2013		Mapeamento das Tecnologias Patenteadas em Chá Gelado	IV PROSPECTI (Prospecção	SILVA, J. S. ; SANTOS, M. S. ; RUSSO, S. L. ; GOMES, I.M.A. ; SILVA, G. F. ; BRITO, L. B. ; PAIXAO, A. E. A.		
trabalhoCompletoEmCongresso	2013		IDENTIFICAÇÃO DE OUTLIERS MULTIVARIADO POR MEIO DA DISTÂNCIA DE MAHALANOBIS	CONEST - Congresso de Estatística	SILVA, T. B. ; RUSSO, S.L. ; SIMON, V.H. ; BARRETO, I.D.C.		
trabalhoCompletoEmCongresso	2013		CARACTERIZAÇÃO DA PRODUÇÃO DE CULTURAS (FEIJÃO, MILHO, MANDIOCA, MAMONA, SISAL) E CRIAÇÃO POR CABEÇA DE BOVINO, CAPRINO E OVINO) NO TERRITÓRIO DO SISAL ( BAHIA )	IV Simpósio Internacional de Inovação Tecnológica	TOMASSI, A. C. ; JESUS JUNIOR, L. A. ; OLIVEIRA JÚNIOR, A. M. ; MARTINS, C. R.		
resumoExpandidoEmCongresso	2013	CARACTERIZAÇÃO FÍSICO-QUÍMICA DE CABEÇA E CARAPAÇA DE CAMARÃO ROSA (Penaeus paulensis)	XV Encontro de Pós-Graduação, 2013, Pelotas-RS. XV Encontro de Pós-Graduação	LIMA, M. M. ; SANTOS, J. A. B. ; AQUINO, L. C. L. ; NUNES, M. L.		
resumoExpandidoEmCongresso	2013	AVALIAÇÃO FITOSSOCIOLÓGICA DA ZONA RIPÁRIA DO RIACHO TAIOBA NO AGRESTE CENTRAL SERGIPANO	I Simpósio Brasileiro de Recursos Naturais no semiarido- SBRNS, 2013, Iguatu-CE. I Simpósio Brasileiro de Recursos Naturais do Semiarido. Iguatu- CE: Instituto Federal do Ceará	SANTOS, M. J. C.; SANTOS, F.R.		
resumoExpandidoEmCongresso	2013	ANÁLISE DO PERFIL MORFOMÉTRICO ENTRE AS DIMENSÕES DA COPA E ALTURA DA CRAIBEIRA (Tabebuia aurea)	I Simpósio Brasileiro de Recursos Naturais no semiarido- SBRNS, 2013, Iguatu-CE. I Simpósio Brasileiro de Recursos Naturais do Semiarido. Iguatu- CE: Instituto Federal do Ceará	SANTOS, M. J. C.; SANTOS, F.R.		
resumoExpandidoEmCongresso	2013	Caracterização molecular por marcadores ISSR de algumas bromélias do Estado de Sergipe	CONGRESSO BRASILEIRO DE MELHORAMENTO DE PLANTAS, 2013, Uberlândia. Variedade Meelhorada: A força da nossa agricultura. Uberlândia: UFU	VIEIRA, S. D. ; SANTOS, F. ; RESENDE, L. V. ; Pasqual, M. ; SILVA-MANN, R. ; PRATA, A. do N. ; ARRIGONI-BLANK, M. F. ; BLANK, Arie Fitzgerald		
