artigoEmPeriodico	Ana Tereza Ribeiro de Vasconcelos	2017	http://dx.doi.org/10.1016/j.simyco.2017.01.001	Exploring the genomic diversity of black yeasts and relatives (Chaetothyriales, Ascomycota)	STUDIES IN MYCOLOGY	TEIXEIRA, M.M	A1	
artigoEmPeriodico	Ana Tereza Ribeiro de Vasconcelos	2016	http://dx.doi.org/10.1007/s11248-016-9938-4	Impact of long-term cropping of glyphosate-resistant transgenic soybean [Glycine max (L.) Merr.] on soil microbiome	Transgenic Research	BABUJIA, LETÍCIA CARLOS ; SILVA, ADRIANA PEREIRA ; NAKATANI, ANDRÉ SHIGUEYOSHI ; CANTÃO, MAURICIO EGIDIO ; Vasconcelos, Ana Tereza Ribeiro ; VISENTAINER, JESUÍ VERGILIO ; HUNGRIA, Mariangela	A2	
artigoEmPeriodico	Ana Tereza Ribeiro de Vasconcelos	2016	http://dx.doi.org/10.1186/s12866-016-0657-z	Shifts in taxonomic and functional microbial diversity with agriculture: How fragile is the Brazilian Cerrado?	BMC Microbiology (Online)	SOUZA, RENATA CAROLINI ; MENDES, IÊDA CARVALHO ; REIS-JUNIOR, FÁBIO BUENO ; CARVALHO, FABÍOLA MARQUES ; NOGUEIRA, MARCO ANTONIO ; Vasconcelos, Ana Tereza Ribeiro ; VICENTE, VÂNIA APARECIDA ; HUNGRIA, Mariangela	A1	
artigoEmPeriodico	Ana Tereza Ribeiro de Vasconcelos	2016	http://dx.doi.org/10.1111/cmi.12582	Adaptive processes of <i>Staphylococcus aureus</i> isolates during the progression from acute to chronic bone and joint infections in patients	Cellular Microbiology (Print)	TROUILLET-ASSANT, SOPHIE ; LELIÈVRE, LUCIE ; MARTINS-SIMÕES, PATRÍCIA ; GONZAGA, LUIZ ; TASSE, JASON ; VALOUR, FLORENT ; RASIGADE, JEAN-PHILIPPE ; VANDENESCH, FRANÇOIS ; MUNIZ GUEDES, RAFAEL LUCAS ; RIBEIRO DE VASCONCELOS, ANA TEREZA ; CAILLON, JOCELYNE ; LUSTIG, SEBASTIEN ; FERRY, TRISTAN ; JACQUELINE, CÉDRIC ; LOSS DE MORAIS, GUILHERME ; LAURENT, FRÉDÉRIC	Qualis nao identificado	Cellular Microbiology (Print)
artigoEmPeriodico	Ana Tereza Ribeiro de Vasconcelos	2016	http://dx.doi.org/10.3109/19401736.2015.1060450	The complete mitochondrial genome of <i>Crassostrea gasar</i> (Bivalvia: Ostreidae)	Mitochondrial DNA Part A	CAVALEIRO, NATHALIA P. ; SOLÉ-CAVA, ANTONIO M. ; MELO, CLÁUDIO M. R. ; DE ALMEIDA, LUIZ G. ; LAZOSKI, CRISTIANO ; Vasconcelos, Ana Tereza R.	Qualis nao identificado	Mitochondrial DNA Part A
artigoEmPeriodico	Ana Tereza Ribeiro de Vasconcelos	2016	http://dx.doi.org/10.1016/j.scitotenv.2016.03.141	Metagenomic analysis of sediments under seaports influence in the Equatorial Atlantic Ocean	Science of the Total Environment	TAVARES, TALLITA CRUZ LOPES ; NORMANDO, LEONARDO RIBEIRO OLIVEIRA ; DE VASCONCELOS, ANA TEREZA RIBEIRO ; GERBER, ALEXANDRA LEHMKUHL ; AGNEZ-LIMA, LUCYMARA FASSARELLA ; MELO, VÂNIA MARIA MACIEL	A1	
artigoEmPeriodico	Ana Tereza Ribeiro de Vasconcelos	2016	http://dx.doi.org/10.1186/s40793-016-0154-x	Complete genome sequence of an agr-dysfunctional variant of the ST239 lineage of the methicillin-resistant Staphylococcus aureus strain GV69 from Brazil	Standards in Genomic Sciences	BOTELHO, ANA M. N. ; COSTA, MAIANA O. C. ; BELTRAME, CRISTIANA O. ; FERREIRA, FABIENNE A. ; CÔRTES, MARINA F. ; BANDEIRA, PAULA T. ; LIMA, NICHOLAS C. B. ; Souza, Rangel C. ; Almeida, Luiz G. P. ; VASCONCELOS, ANA T. R. ; Nicolás, Marisa F. ; FIGUEIREDO, AGNES M. S.	Qualis nao identificado	Standards in Genomic Sciences
artigoEmPeriodico	Ana Tereza Ribeiro de Vasconcelos	2016	http://dx.doi.org/10.1111/1462-2920.13388	Culture-independent characterization of novel psychrophilic magnetotactic cocci from Antarctic marine sediments	Environmental Microbiology (Print)	ABREU, FERNANDA ; ARAUJO, ANA CAROLINA V. ; LEÃO, PEDRO ; SILVA, KAREN TAVARES ; MARQUES DE CARVALHO, FABÍOLA ; DE LIMA CUNHA, OBERDAN ; ALMEIDA, LUIZ GONZAGA ; GEURINK, COREY ; FARINA, MARCOS ; RODELLI, DANIEL ; JOVANE, LUIGI ; PELLIZARI, VIVIAN H. ; De Vasconcelos, Ana Tereza ; BAZYLINSKI, DENNIS A. ; LINS, ULYSSES	A1	
artigoEmPeriodico	Ana Tereza Ribeiro de Vasconcelos	2016	http://dx.doi.org/10.1371/journal.pntd.0004816	Isolation of Infective Zika Virus from Urine and Saliva of Patients in Brazil	PLoS Neglected Tropical Diseases (Online)	BONALDO, MYRNA C. ; RIBEIRO, IEDA P. ; LIMA, NOEMIA S. ; DOS SANTOS, ALEXANDRE A. C. ; MENEZES, LIDIANE S. R. ; DA CRUZ, STEPHANIE O. D. ; DE MELLO, IASMIM S. ; FURTADO, NATHÁLIA D. ; DE MOURA, ELAINE E. ; DAMASCENO, LUANA ; DA SILVA, KELY A. B. ; DE CASTRO, MARCIA G. ; GERBER, ALEXANDRA L. ; DE ALMEIDA, LUIZ G. P. ; LOURENÇO-DE-OLIVEIRA, RICARDO ; Vasconcelos, Ana Tereza R. ; BRASIL, PATRÍCIA	A1	
artigoEmPeriodico	Ana Tereza Ribeiro de Vasconcelos	2016	http://dx.doi.org/10.1186/s12864-016-2859-z	Genome of Rhizobium leucaenae strains CFN 299T and CPAO 29.8: searching for genes related to a successful symbiotic performance under stressful conditions	BMC Genomics	ORMEÑO-ORRILLO, ERNESTO ; GOMES, DOUGLAS FABIANO ; DEL CERRO, PABLO ; Vasconcelos, Ana Tereza Ribeiro ; CANCHAYA, CARLOS ; ALMEIDA, Luiz Gonzaga Paula ; MERCANTE, FABIO MARTINS ; OLLERO, FRANCISCO JAVIER ; Megías, Manuel ; HUNGRIA, Mariangela	A1	
artigoEmPeriodico	Ana Tereza Ribeiro de Vasconcelos	2016	http://dx.doi.org/10.1186/s12864-016-2644-z	Insights on the virulence of swine respiratory tract mycoplasmas through genome-scale metabolic modeling	BMC Genomics	FERRARINI, MARIANA G. ; SIQUEIRA, FRANCIELE M. ; MUCHA, SCHEILA G. ; PALAMA, TONY L. ; JOBARD, ÉLODIE ; ELENA-HERRMANN, BÉNÉDICTE ; R. VASCONCELOS, ANA T. ; TARDY, FLORENCE ; SCHRANK, IRENE S. ; ZAHA, Arnaldo ; Sagot, Marie-France	A1	
artigoEmPeriodico	Ana Tereza Ribeiro de Vasconcelos	2016	http://dx.doi.org/10.1016/j.bjm.2016.06.011	Comparative metagenome of a stream impacted by the urbanization phenomenon	Brazilian Journal of Microbiology (Impresso)	MEDEIROS, JULLIANE DUTRA ; CANTÃO, MAURÍCIO EGÍDIO ; CESAR, DIONÉIA EVANGELISTA ; NICOLÁS, Marisa Fabiana ; DINIZ, CLÁUDIO GALUPPO ; SILVA, VÂNIA LÚCIA ; VASCONCELOS, ANA TEREZA RIBEIRO DE ; COELHO, CÍNTIA MARQUES	A2	
artigoEmPeriodico	Ana Tereza Ribeiro de Vasconcelos	2016	http://dx.doi.org/10.1093/gbe/evw225	Complete genome sequence of the MRSA isolate HC1335 from ST239 lineage displaying a truncated AgrC histidine kinase receptor	Genome Biology and Evolution	BOTELHO, ANA M. N. ; COSTA, MAIANA O. C. ; BELTRAME, CRISTIANA O. ; FERREIRA, FABIENNE A. ; LIMA, NICHOLAS C. B. ; COSTA, BRUNO S. S. ; DE MORAIS, GUILHERME L. ; Souza, Rangel C. ; Almeida, Luiz G. P. ; VASCONCELOS, ANA T. R. ; Nicolás, Marisa F. ; FIGUEIREDO, AGNES M. S.	Qualis nao identificado	Genome Biology and Evolution
artigoEmPeriodico	Ana Tereza Ribeiro de Vasconcelos	2016	http://dx.doi.org/10.3389/fmicb.2016.01465	Exploratory Investigation of Bacteroides fragilis Transcriptional Response during In vitro Exposure to Subinhibitory Concentration of Metronidazole	Frontiers in Microbiology (Online)	FREITAS, MICHELE C. R. DE ; RESENDE, JULIANA A. ; FERREIRA-MACHADO, ALESSANDRA B. ; SAJI, GUADALUPE D. R. Q. ; VASCONCELOS, ANA T. R. DE ; SILVA, VÂNIA L. DA ; Nicolás, Marisa F. ; DINIZ, CLÁUDIO G.	B2	
artigoEmPeriodico	Ana Tereza Ribeiro de Vasconcelos	2016	http://dx.doi.org/10.1186/s12864-016-3061-z	Mycoplasma non-coding RNA: identification of small RNAs and targets	BMC Genomics	SIQUEIRA, FRANCIELE MABONI ; DE MORAIS, GUILHERME LOSS ; HIGASHI, SUSAN ; BEIER, LAURA SCHERER ; BREYER, GABRIELA MERKER ; DE SÁ GODINHO, CAIO PADOAN ; Sagot, Marie-France ; SCHRANK, IRENE SILVEIRA ; ZAHA, Arnaldo ; DE VASCONCELOS, ANA TEREZA RIBEIRO	A1	
artigoEmPeriodico	Ana Tereza Ribeiro de Vasconcelos	2016	http://dx.doi.org/10.1186/s12864-016-3067-6	Secondary metabolite gene clusters in the entomopathogen fungus Metarhizium anisopliae: genome identification and patterns of expression in a cuticle infection model	BMC Genomics	SBARAINI, NICOLAU ; GUEDES, RAFAEL LUCAS MUNIZ ; ANDREIS, FÁBIO CARRER ; JUNGES, ÂNGELA ; DE MORAIS, GUILHERME LOSS ; VAINSTEIN, MARILENE HENNING ; DE VASCONCELOS, ANA TEREZA RIBEIRO ; SCHRANK, AUGUSTO	A1	
artigoEmPeriodico	Ana Tereza Ribeiro de Vasconcelos	2016	http://dx.doi.org/10.1186/s12864-016-3070-y	The polymyxin B-induced transcriptomic response of a clinical, multidrug-resistant Klebsiella pneumoniae involves multiple regulatory elements and intracellular targets	BMC Genomics	RAMOS, PABLO IVAN PEREIRA ; CUSTÓDIO, MÁRLON GRÉGORI FLORES ; QUISPE SAJI, GUADALUPE DEL ROSARIO ; CARDOSO, THIAGO ; DA SILVA, GISELE LUCCHETTI ; BRAUN, GRAZIELA ; MARTINS, WILLAMES M. B. S. ; GIRARDELLO, RAQUEL ; DE VASCONCELOS, ANA TEREZA RIBEIRO ; FERNÁNDEZ, ELMER ; GALES, ANA CRISTINA ; NICOLÁS, Marisa Fabiana	A1	
artigoEmPeriodico	Ana Tereza Ribeiro de Vasconcelos	2016	http://dx.doi.org/10.1186/s12864-016-3064-9	Combined genomic and structural analyses of a cultured magnetotactic bacterium reveals its niche adaptation to a dynamic environment	BMC Genomics	ARAUJO, ANA CAROLINA VIEIRA ; MORILLO, VIVIANA ; CYPRIANO, JEFFERSON ; TEIXEIRA, LIA CARDOSO ROCHA SARAIVA ; LEÃO, PEDRO ; LYRA, SIDCLEY ; ALMEIDA, LUIZ GONZAGA DE ; BAZYLINSKI, DENNIS A. ; VASCONCELLOS, ANA TEREZA RIBEIRO DE ; ABREU, FERNANDA ; LINS, ULYSSES	A1	
artigoEmPeriodico	Ana Tereza Ribeiro de Vasconcelos	2016	http://dx.doi.org/10.3389/fmicb.2016.01946	Intraclonal Genome Stability of the Metallo-β-lactamase SPM-1-producing Pseudomonas aeruginosa ST277, an Endemic Clone Disseminated in Brazilian Hospitals	Frontiers in Microbiology (Online)	NASCIMENTO, ANA P. B. ; ORTIZ, MAURO F. ; MARTINS, WILLAMES M. B. S. ; MORAIS, GUILHERME L. ; FEHLBERG, LORENA C. C. ; Almeida, Luiz G. P. ; CIAPINA, LUCIANE P. ; GALES, ANA C. ; VASCONCELOS, ANA T. R.	B2	
artigoEmPeriodico	Ana Tereza Ribeiro de Vasconcelos	2016	http://dx.doi.org/10.1186/s12859-016-1343-8	Mirnacle: machine learning with SMOTE and random forest for improving selectivity in pre-miRNA ab initio prediction	BMC Bioinformatics	MARQUES, YURI BENTO ; DE PAIVA OLIVEIRA, ALCIONE ; RIBEIRO VASCONCELOS, ANA TEREZA ; CERQUEIRA, FABIO RIBEIRO	A1	
artigoEmPeriodico	Ana Tereza Ribeiro de Vasconcelos	2015	http://dx.doi.org/10.1016/j.apsoil.2014.10.010	Metagenomic analysis reveals microbial functional redundancies and specificities in a soil under different tillage and crop-management regimes	Applied Soil Ecology (Print)	SOUZA, RENATA CAROLINI ; HUNGRIA, Mariangela ; CANTÃO, MAURÍCIO EGÍDIO ; Vasconcelos, Ana Tereza Ribeiro ; NOGUEIRA, MARCO ANTONIO ; VICENTE, VÂNIA APARECIDA	A2	
artigoEmPeriodico	Ana Tereza Ribeiro de Vasconcelos	2015	http://dx.doi.org/10.1093/mmy/myu069	Peroxide sensing and signaling in the Sporothrix schenckii complex: an in silico analysis to uncover putative mechanisms regulating the Hog1 and AP-1 like signaling pathways	Medical Mycology (Oxford. Print)	ORTEGA, I. ; SOARES FELIPE, M. S. ; VASCONCELOS, A. T. R. ; LOPES BEZERRA, L. M. ; DA SILVA DANTAS, A.	A2	
artigoEmPeriodico	Ana Tereza Ribeiro de Vasconcelos	2015	http://dx.doi.org/10.1128/genomea.01585-14	Draft Genome Sequences of Six Actinobacillus pleuropneumoniae Serotype 8 Brazilian Clinical Isolates: Insight into New Applications	Genome Announcements	PEREIRA, MONALESSA FÁBIA ; ROSSI, CIRO CÉSAR ; DE CARVALHO, FABÍOLA MARQUES ; DE ALMEIDA, LUIZ GONZAGA PAULA ; SOUZA, Rangel Celso ; DE VASCONCELOS, ANA TEREZA RIBEIRO ; BAZZOLLI, DENISE MARA SOARES	Qualis nao identificado	Genome Announcements
artigoEmPeriodico	Ana Tereza Ribeiro de Vasconcelos	2015	http://dx.doi.org/10.1093/database/bav033	BioSurfDB: knowledge and algorithms to support biosurfactants and biodegradation studies	DATABASE-OXFORD	OLIVEIRA, J. S. ; ARAUJO, W. ; LOPES SALES, A. I. ; BRITO GUERRA, A. D. ; SILVA ARAUJO, S. C. D. ; DE VASCONCELOS, A. T. R. ; AGNEZ-LIMA, L. F. ; FREITAS, A. T.	Qualis nao identificado	DATABASE-OXFORD
artigoEmPeriodico	Ana Tereza Ribeiro de Vasconcelos	2015	http://dx.doi.org/10.1186/s13071-015-0854-x	Biochemical and phylogenetic analyses of phosphatidylinositol production in Angomonas deanei, an endosymbiont-harboring trypanosomatid	Parasites & Vectors	DE AZEVEDO-MARTINS, ALLAN C ; ALVES, JOÃO MP ; GARCIA DE MELLO, FERNANDO ; Vasconcelos, Ana Tereza R ; de Souza, Wanderley ; EINICKER-LAMAS, MARCELO ; MOTTA, MARIA CRISTINA M	A2	
artigoEmPeriodico	Ana Tereza Ribeiro de Vasconcelos	2015	http://dx.doi.org/10.1128/aac.00158-15	Characterization of BKC-1 class A carbapenemase from <i>Klebsiella pneumoniae</i> clinical isolates in Brazil	Antimicrobial Agents and Chemotherapy (Print)	NICOLETTI, ADRIANA GIANNINI ; MARCONDES, MARCELO F. M. ; MARTINS, WILLAMES B. ; Almeida, Luiz G. P. ; Nicolás, Marisa F. ; VASCONCELOS, ANA T. R. ; OLIVEIRA, VITOR ; GALES, ANA CRISTINA	A1	
artigoEmPeriodico	Ana Tereza Ribeiro de Vasconcelos	2015	http://dx.doi.org/10.1186/s12864-015-1680-4	Chromosomal copy number variation reveals differential levels of genomic plasticity in distinct Trypanosoma cruzi strains	BMC Genomics	REIS-CUNHA, JOÃO LUÍS ; RODRIGUES-LUIZ, GABRIELA F. ; VALDIVIA, HUGO O. ; BAPTISTA, RODRIGO P. ; MENDES, TIAGO A. O. ; DE MORAIS, GUILHERME LOSS ; GUEDES, RAFAEL ; MACEDO, ANDREA M. ; BERN, CARYN ; GILMAN, ROBERT H. ; LOPEZ, CARLOS TALAVERA ; ANDERSSON, BJÖRN ; Vasconcelos, Ana Tereza ; BARTHOLOMEU, DANIELLA C.	A1	
artigoEmPeriodico	Ana Tereza Ribeiro de Vasconcelos	2015	http://dx.doi.org/10.1590/1519-6984.18014	Heterologous induction of a predicted promoter sequence for paraquat-inducible genes of Chromobacterium violaceum in response to paraquat compound	Brazilian Journal of Biology (Impresso)	GABRIEL, JE. ; GUERRA-SLOMPO, EP. ; CARVALHO, FAL. ; MADEIRA, HMF. ; VASCONCELOS, ATR.	A2	
artigoEmPeriodico	Ana Tereza Ribeiro de Vasconcelos	2015	http://dx.doi.org/10.4238/2015.august.21.20	Superoxide radical-generating compounds activate a predicted promoter site for paraquat-inducible genes of the Chromobacterium violaceum bacterium in a dose-dependent manner	Genetics and Molecular Research	GABRIEL, J.E. ; GUERRA-SLOMPO, E.P. ; DE SOUZA, E.M. ; DE CARVALHO, F.A.L. ; MADEIRA, H.M.F. ; DE VASCONCELOS, A.T.R.	A2	
artigoEmPeriodico	Ana Tereza Ribeiro de Vasconcelos	2015	http://dx.doi.org/10.1016/j.diagmicrobio.2015.08.006	The changing epidemiology of Acinetobacter spp. producing OXA carbapenemases causing bloodstream infections in Brazil: A BrasNet report	Diagnostic Microbiology and Infectious Disease	Vasconcelos, Ana Tereza R.; Vasconcelos, Ana Tereza R	A2	
artigoEmPeriodico	Ana Tereza Ribeiro de Vasconcelos	2015	http://dx.doi.org/10.3109/19401736.2015.1115855	The assembly and annotation of the complete Rufous-bellied thrush mitochondrial genome	Mitochondrial DNA	GOMES DE SÁ, PABLO ; VERAS, ADONNEY ; FONTANA, CARLA SUERTEGARAY ; ALEIXO, ALEXANDRE ; BURLAMAQUI, TIBÉRIO ; MELLO, CLAUDIO VIANNA ; DE VASCONCELOS, ANA TEREZA RIBEIRO ; PROSDOCIMI, FRANCISCO ; RAMOS, ROMMEL ; SCHNEIDER, MARIA ; SILVA, ARTUR	B2	
artigoEmPeriodico	Ana Tereza Ribeiro de Vasconcelos	2015	http://dx.doi.org/10.1128/genomeA.01482-15	Genome Sequence of Strain CNPSo 1112 , Isolated from a Root Nodule of	Genome Announcements	DELAMUTA, JAKELINE RENATA MARÇON ; GOMES, DOUGLAS FABIANO ; RIBEIRO, RENAN AUGUSTO ; CHUEIRE, LIGIA MARIA OLIVEIRA ; SOUZA, RENATA CAROLINI ; ALMEIDA, Luiz Gonzaga Paula ; Vasconcelos, Ana Tereza Ribeiro ; HUNGRIA, Mariangela	Qualis nao identificado	Genome Announcements
artigoEmPeriodico	Ana Tereza Ribeiro de Vasconcelos	2015	http://dx.doi.org/10.1128/genomeA.01481-15	Genome Sequence of Strain SEMIA 690 , a Nitrogen-Fixing Symbiont of	Genome Announcements	HELENE, LUISA CAROLINE FERRAZ ; GOMES, DOUGLAS FABIANO ; DELAMUTA, JAKELINE RENATA MARÇON ; RIBEIRO, RENAN AUGUSTO ; SOUZA, RENATA CAROLINI ; ALMEIDA, Luiz Gonzaga Paula ; Vasconcelos, Ana Tereza Ribeiro ; HUNGRIA, Mariangela	Qualis nao identificado	Genome Announcements
artigoEmPeriodico	Ana Tereza Ribeiro de Vasconcelos	2014	http://dx.doi.org/10.1128/genomea.01163-13	Draft Genome Sequence of the D-Xylose-Fermenting Yeast Spathaspora arborariae UFMG-HM19.1AT	Genome Announcements	LOBO, F. P. ; GONCALVES, D. L. ; ALVES, S. L. ; Gerber, A. L. ; DE VASCONCELOS, A. T. R. ; BASSO, L. C. ; Franco, G. R. ; SOARES, M. A. ; CADETE, R. M. ; ROSA, C. A. ; STAMBUK, B. U.	Qualis nao identificado	Genome Announcements
artigoEmPeriodico	Ana Tereza Ribeiro de Vasconcelos	2014	http://dx.doi.org/10.1186/1471-2164-15-54	Comparative analysis of the complete genome of KPC-2-producing Klebsiella pneumoniae Kp13 reveals remarkable genome plasticity and a wide repertoire of virulence and resistance mechanisms	BMC Genomics	RAMOS, PABLO IVAN ; PICÃO, RENATA C ; ALMEIDA, LUIZ GONZAGA ; LIMA, NICHOLAS COSTA ; GIRARDELLO, RAQUEL ; VIVAN, ANA CAROLINA ; XAVIER, DANILO E ; Barcellos, Fernando G ; PELISSON, MARSILENI ; VESPERO, ELIANA C ; MÉDIGUE, CLAUDINE ; Vasconcelos, Ana Tereza ; GALES, ANA C ; Nicolás, Marisa F	A1	
artigoEmPeriodico	Ana Tereza Ribeiro de Vasconcelos	2014	http://dx.doi.org/10.1128/genomeA.01114-13	Trypanosoma cruzi Clone Dm28c Draft Genome Sequence	Genome Announcements	GRISARD, E. C. ; TEIXEIRA, S. M. R. ; DE ALMEIDA, L. G. P. ; STOCO, P. H. ; Gerber, A. L. ; TALAVERA-LOPEZ, C. ; LIMA, O. C. ; ANDERSSON, B. ; DE VASCONCELOS, A. T. R.	Qualis nao identificado	Genome Announcements
artigoEmPeriodico	Ana Tereza Ribeiro de Vasconcelos	2014	http://dx.doi.org/10.3389/fmicb.2014.00072	Isolation, cultivation and genomic analysis of magnetosome biomineralization genes of a new genus of South-seeking magnetotactic cocci within the Alphaproteobacteria	Frontiers in Microbiology (Online)	MORILLO, VIVIANA ; ABREU, FERNANDA ; ARAUJO, ANA C. ; DE ALMEIDA, LUIZ G. P. ; ENRICH-PRAST, ALEX ; FARINA, MARCOS ; DE VASCONCELOS, ANA T. R. ; BAZYLINSKI, DENNIS A. ; LINS, ULYSSES	B2	
artigoEmPeriodico	Ana Tereza Ribeiro de Vasconcelos	2014	http://dx.doi.org/10.1186/1471-2164-15-236	De novo transcriptome analysis of Hevea brasiliensis tissues by RNA-seq and screening for molecular markers	BMC Genomics	SALGADO, LEONARDO RIPPEL ; KOOP, DANIELA MARTINS ; PINHEIRO, DANIEL GUARIZ ; RIVALLAN, RONAN ; LE GUEN, VINCENT ; NICOLÁS, Marisa Fabiana ; DE ALMEIDA, LUIZ GONZAGA ; ROCHA, VIVIANI RIBEIRO ; MAGALHÃES, MILENA ; GERBER, ALEXANDRA LEHMKUHL ; FIGUEIRA, ANTONIO ; CASCARDO, JÚLIO CÉZAR ; DE VASCONCELOS, ANATEREZA RIBEIRO ; SILVA, WILSON ARAÚJO ; COUTINHO, LUIZ LEHMANN ; GARCIA, DOMINIQUE	A1	
artigoEmPeriodico	Ana Tereza Ribeiro de Vasconcelos	2014	http://dx.doi.org/10.1002/mbo3.169	Taxonomic and functional profiles of soil samples from Atlantic forest and Caatinga biomes in northeastern Brazil	MicrobiologyOpen	PACCHIONI, RALFO G. ; CARVALHO, FABÍOLA M. ; THOMPSON, CLAUDIA E. ; FAUSTINO, ANDRÉ L. F. ; NICOLINI, FERNANDA ; PEREIRA, TATIANA S. ; SILVA, RITA C. B. ; CANTÃO, MAURICIO E. ; GERBER, ALEXANDRA ; VASCONCELOS, ANA T. R. ; AGNEZ-LIMA, LUCYMARA F.	Qualis nao identificado	MicrobiologyOpen
artigoEmPeriodico	Ana Tereza Ribeiro de Vasconcelos	2014	http://dx.doi.org/10.1371/journal.pntd.0002855	Transcriptional and Proteomic Responses to Carbon Starvation in Paracoccidioides	PLoS Neglected Tropical Diseases (Online)	LIMA, PATRÍCIA DE SOUSA ; CASALETTI, LUCIANA ; BAILÃO, ALEXANDRE MELO ; VASCONCELOS, ANA TEREZA RIBEIRO DE ; FERNANDES, GABRIEL DA ROCHA ; SOARES, CÉLIA MARIA DE ALMEIDA	A1	
artigoEmPeriodico	Ana Tereza Ribeiro de Vasconcelos	2014	http://dx.doi.org/10.1128/genomea.00385-14	Draft Genome Sequence of Mycobacterium tuberculosis Clinical Strain G-12-005	Genome Announcements	BERLAND, J.-L. ; DE CARVALHO, F. M. ; DE ALMEIDA, L. G. P. ; BABLISHVILI, N. ; GAUTHIER, M. ; PARANHOS-BACCALA, G. ; DE VASCONCELOS, A. T. R.	Qualis nao identificado	Genome Announcements
artigoEmPeriodico	Ana Tereza Ribeiro de Vasconcelos	2014	http://dx.doi.org/10.1186/1471-2164-15-420	Comparative genomics of Bradyrhizobium japonicum CPAC 15 and Bradyrhizobium diazoefficiens CPAC 7: elite model strains for understanding symbiotic performance with soybean	BMC Genomics	SIQUEIRA, ARTHUR FERNANDES ; ORMEÑO-ORRILLO, ERNESTO ; SOUZA, Rangel Celso ; RODRIGUES, ELISETE PAINS ; ALMEIDA, LUIZ GONZAGA ; BARCELLOS, FERNANDO GOMES ; BATISTA, JESIANE STEFÂNIA ; NAKATANI, ANDRE SHIGUEYOSHI ; MARTÍNEZ-ROMERO, ESPERANZA ; Vasconcelos, Ana Tereza ; HUNGRIA, Mariangela	A1	
artigoEmPeriodico	Ana Tereza Ribeiro de Vasconcelos	2014	http://dx.doi.org/10.1186/1471-2164-15-535	The complete genome of Burkholderia phenoliruptrix strain BR3459a, a symbiont of Mimosa flocculosa: highlighting the coexistence of symbiotic and pathogenic genes	BMC Genomics	ZULETA, LUIZ FERNANDO ; CUNHA, CLAÚDIO DE ; DE CARVALHO, FABÍOLA MARQUES ; CIAPINA, LUCIANE PRIOLI ; SOUZA, Rangel Celso ; MERCANTE, FÁBIO MARTINS ; DE FARIA, SERGIO MIANA ; BALDANI, JOSÉ IVO ; STRALIOTTO, ROSANGELA ; HUNGRIA, Mariangela ; De Vasconcelos, Ana Tereza	A1	
artigoEmPeriodico	Ana Tereza Ribeiro de Vasconcelos	2014	http://dx.doi.org/10.1017/S0031182014001139	Mitochondrial respiration and genomic analysis provide insight into the influence of the symbiotic bacterium on host trypanosomatid oxygen consumption	Parasitology (London. Print)	AZEVEDO-MARTINS, A. C. ; MACHADO, A. C. L. ; KLEIN, C. C. ; CIAPINA, L. ; GONZAGA, L. ; VASCONCELOS, A. T. R. ; SAGOT, M. F. ; DE SOUZA, W. ; EINICKER-LAMAS, M. ; GALINA, A. ; MOTTA, M. C. M.	A2	
artigoEmPeriodico	Ana Tereza Ribeiro de Vasconcelos	2014	http://dx.doi.org/10.1371/journal.pntd.0003176	Genome of the Avirulent Human-Infective Trypanosome-Trypanosoma rangeli	PLoS Neglected Tropical Diseases (Online)	STOCO, PATRÍCIA HERMES WAGNER, GLAUBER TALAVERA-LOPEZ, CARLOS GERBER, ALEXANDRA ZAHA, Arnaldo THOMPSON, CLAUDIA ELIZABETH BARTHOLOMEU, DANIELLA CASTANHEIRA LÜCKEMEYER, DÉBORA DENARDIN BAHIA, DIANA LORETO, ELGION PRESTES, ELISA BEATRIZ LIMA, FÁBIO MITSUO RODRIGUES-LUIZ, GABRIELA VALLEJO, GUSTAVO ADOLFO FILHO, JOSÉ FRANCO DA SILVEIRA SCHENKMAN, SÉRGIO MONTEIRO, KARINA MARIANTE TYLER, KEVIN MORRIS ALMEIDA, LUIZ GONZAGA PAULA DE ORTIZ, MAURO FREITAS CHIURILLO, MIGUEL ANGEL MORAES, MILENE HÖEHR DE CUNHA, OBERDAN DE LIMA MENDONÇA-NETO, RONDON SILVA, ROSANE , et al.TEIXEIRA, SANTUZA MARIA RIBEIRO MURTA, SILVANE MARIA FONSECA SINCERO, THAIS CRISTINE MARQUES MENDES, TIAGO ANTONIO DE OLIVEIRA URMENYI, TURÁN PETER SILVA, VIVIANE GRAZIELLE DAROCHA, WANDERSON DUARTE ANDERSSON, BJÖRN ROMANHA, ÁLVARO JOSÉ STEINDEL, MÁRIO VASCONCELOS, ANA TEREZA RIBEIRO DE GRISARD, EDMUNDO CARLOS ; Genome of the Avirulent Human-Infective Trypanosome-Trypanosoma rangeli	A1	
artigoEmPeriodico	Ana Tereza Ribeiro de Vasconcelos	2014	http://dx.doi.org/10.1371/journal.pone.0107864	Genomic Analyses and Transcriptional Profiles of the Glycoside Hydrolase Family 18 Genes of the Entomopathogenic Fungus Metarhizium anisopliae	Plos One	JUNGES, ÂNGELA ; BOLDO, JULIANO TOMAZZONI ; SOUZA, BÁRBARA KUNZLER ; GUEDES, RAFAEL LUCAS MUNIZ ; SBARAINI, NICOLAU ; KMETZSCH, LÍVIA ; THOMPSON, CLAUDIA ELIZABETH ; STAATS, CHARLEY CHRISTIAN ; DE ALMEIDA, LUIS GONZAGA PAULA ; DE VASCONCELOS, ANA TEREZA RIBEIRO ; VAINSTEIN, MARILENE HENNING ; SCHRANK, AUGUSTO	A1	
artigoEmPeriodico	Ana Tereza Ribeiro de Vasconcelos	2014	http://dx.doi.org/10.1186/1471-2164-15-822	Comparative genome analysis of entomopathogenic fungi reveals a complex set of secreted proteins	BMC Genomics	STAATS, CHARLEY CHRISTIAN ; JUNGES, ÂNGELA ; GUEDES, RAFAEL LUCAS ; THOMPSON, CLAUDIA ELIZABETH ; DE MORAIS, GUILHERME LOSS ; BOLDO, JULIANO TOMAZZONI ; DE ALMEIDA, LUIZ GONZAGA ; ANDREIS, FÁBIO CARRER ; GERBER, ALEXANDRA LEHMKUHL ; SBARAINI, NICOLAU ; DA PAIXÃO, RANA LOUISE ; BROETTO, LEONARDO ; LANDELL, MELISSA ; SANTI, LUCÉLIA ; DA SILVA, WALTER ORLANDO ; SILVEIRA, CAROLINA PEREIRA ; SERRANO, THAIANE RISPOLI ; DE OLIVEIRA, EDER SILVA ; KMETZSCH, LÍVIA ; VAINSTEIN, MARILENE HENNING ; De Vasconcelos, Ana Tereza ; SCHRANK, AUGUSTO	A1	
artigoEmPeriodico	Ana Tereza Ribeiro de Vasconcelos	2014	http://dx.doi.org/10.1371/journal.pone.0110327	Unravelling the Transcriptome Profile of the Swine Respiratory Tract Mycoplasmas	Plos One	SIQUEIRA, FRANCIELE MABONI ; GERBER, ALEXANDRA LEHMKUHL ; GUEDES, RAFAEL LUCAS MUNIZ ; ALMEIDA, LUIZ GONZAGA ; SCHRANK, IRENE SILVEIRA ; Vasconcelos, Ana Tereza Ribeiro ; ZAHA, Arnaldo	A1	
artigoEmPeriodico	Ana Tereza Ribeiro de Vasconcelos	2014	http://dx.doi.org/10.1186/1471-2164-15-943	Comparative genomics of the major fungal agents of human and animal Sporotrichosis: Sporothrix schenckii and Sporothrix brasiliensis	BMC Genomics	TEIXEIRA, MARCUS M DE ALMEIDA, LUIZ GP KUBITSCHEK-BARREIRA, PAULA ALVES, FERNANDA L KIOSHIMA, ÉRIKA S ABADIO, ANA KR FERNANDES, LARISSA DERENGOWSKI, LORENA S FERREIRA, KAREN S Souza, Rangel C RUIZ, JERONIMO C DE ANDRADE, NATHALIA C PAES, HUGO C NICOLA, ANDRÉ M ALBUQUERQUE, PATRÍCIA GERBER, ALEXANDRA L MARTINS, VICENTE P PECONICK, LUISA DF NETO, ALAN VIGGIANO CHAUCANEZ, CLAUDIA B SILVA, PATRÍCIA A CUNHA, OBERDAN L DE OLIVEIRA, FABIANA FM DOS SANTOS, TAYNÁ C BARROS, AMANDA LN , et al.SOARES, MARCO A DE OLIVEIRA, LUCIANA M MARINI, MARJORIE M VILLALOBOS-DUNO, HÉCTOR CUNHA, MARCEL ML DE HOOG, SYBREN DA SILVEIRA, JOSÉ F HENRISSAT, BERNARD NIÑO-VEGA, GUSTAVO A CISALPINO, PATRÍCIA S MORA-MONTES, HÉCTOR M ALMEIDA, SANDRO R STAJICH, JASON E LOPES-BEZERRA, LEILA M Vasconcelos, Ana TR FELIPE, MARIA SS ; Comparative genomics of the major fungal agents of human and animal Sporotrichosis: Sporothrix schenckii and Sporothrix brasiliensis	A1	
artigoEmPeriodico	Ana Tereza Ribeiro de Vasconcelos	2014	http://dx.doi.org/10.1128/ec.00153-14	'Asexual propagation of a virulent clone complex in human and feline outbreak of sporotrichosis'	Eukaryotic Cell	TEIXEIRA, M. D. M. ; RODRIGUES, A. M. ; TSUI, C. K. M. ; DE ALMEIDA, L. G. P. ; VAN DIEPENINGEN, A. D. ; GERRITS VAN DEN ENDE, B. ; FERNANDES, G. F. ; KANO, R. ; HAMELIN, R. C. ; LOPES-BEZERRA, L. M. ; RIBEIRO VASCONCELOS, A. T. ; DE HOOG, S. ; DE CAMARGO, Z. P. ; FELIPE, M. S. S.	Qualis nao identificado	Eukaryotic Cell
artigoEmPeriodico	Ana Tereza Ribeiro de Vasconcelos	2013	http://dx.doi.org/10.1186/1756-0500-6-25	Empirical assessment of sequencing errors for high throughput pyrosequencing data	BMC Research Notes	DA FONSECA, PAULO GS ; PAIVA, JORGE AP ; Almeida, Luiz GP ; Vasconcelos, Ana TR ; Freitas, Ana T	B1	
artigoEmPeriodico	Ana Tereza Ribeiro de Vasconcelos	2013	http://dx.doi.org/10.1111/1462-2920.12097	Monophyletic Origin of Magnetotaxis and the First Magnetosomes	Environmental Microbiology (Print)	LEFÈVRE, CHRISTOPHER T. ; TRUBITSYN, DENIS ; ABREU, FERNANDA ; KOLINKO, SEBASTIAN ; DE ALMEIDA, LUIZ GONZAGA PAULA ; DE VASCONCELOS, ANA TEREZA R. ; LINS, ULYSSES ; SCHÜLER, DIRK ; GINET, NICOLAS ; PIGNOL, DAVID ; BAZYLINSKI, DENNIS A.	A1	
artigoEmPeriodico	Ana Tereza Ribeiro de Vasconcelos	2013	http://dx.doi.org/10.1371/journal.pone.0060209	Predicting the Proteins of Angomonas deanei, Strigomonas culicis and Their Respective Endosymbionts Reveals New Aspects of the Trypanosomatidae Family	Plos One	MOTTA, M	A1	
artigoEmPeriodico	Ana Tereza Ribeiro de Vasconcelos	2013	http://dx.doi.org/10.1186/1471-2164-14-175	New insights on the biology of swine respiratory tract mycoplasmas from a comparative genome analysis	BMC Genomics	SIQUEIRA, F. M. ; THOMPSON, C. E. ; VIRGINIO, V. G. ; GONCHOROSKI, T. ; REOLON, L. ; Almeida, Luiz G. P. ; FONSECA, M. M. ; SOUZA, Rangel Celso ; PROSDOCIMI, F. ; SCHRANK, I. S. ; Bunselmeyer-Ferreira, H. ; Vasconcelos, Ana TR ; ZAHA, Arnaldo	A1	
artigoEmPeriodico	Ana Tereza Ribeiro de Vasconcelos	2013	http://dx.doi.org/10.1093/nar/gkt484	The Genome of Anopheles darlingi, the main neotropical malaria vector	Nucleic Acids Research (Online)	MARINOTTI, O	A1	Nucleic Acids Research
artigoEmPeriodico	Ana Tereza Ribeiro de Vasconcelos	2013	http://dx.doi.org/10.1016/j.apsoil.2013.05.021	Soil metagenomics reveals differences under conventional and no-tillage with crop rotation or succession	Applied Soil Ecology (Print)	SOUZA, RENATA CAROLINI ; CANTÃO, MAURICIO EGÍDIO ; Vasconcelos, Ana Tereza Ribeiro ; NOGUEIRA, MARCO ANTONIO ; HUNGRIA, Mariangela	A2	
artigoEmPeriodico	Ana Tereza Ribeiro de Vasconcelos	2013	http://dx.doi.org/10.1128/genomeA.00576-13	Complete Genome Sequence of a Variant of the Methicillin-Resistant Staphylococcus aureus ST239 Lineage, Strain BMB9393, Displaying Superior Ability To Accumulate ica-Independent Biofilm	Genome Announcements	COSTA, M. O. C. ; BELTRAME, C. O. ; FERREIRA, F. A. ; BOTELHO, A. M. N. ; LIMA, N. C. B. ; SOUZA, R. C. ; DE ALMEIDA, L. G. P. ; VASCONCELOS, A. T. R. ; Nicolas, M. F. ; FIGUEIREDO, A. M. S.	Qualis nao identificado	Genome Announcements
artigoEmPeriodico	Ana Tereza Ribeiro de Vasconcelos	2013	http://dx.doi.org/10.1111/1462-2920.12128	Comparative Genomic Analysis of Magnetotactic Bacteria from the <i>Deltaproteobacteria</i> Provides New Insights into Magnetite and Greigite Magnetosome Genes Required for Magnetotaxis	Environmental Microbiology (Print)	LEFÈVRE, CHRISTOPHER T. ; TRUBITSYN, DENIS ; ABREU, FERNANDA ; KOLINKO, SEBASTIAN ; JOGLER, CHRISTIAN ; DE ALMEIDA, LUIZ GONZAGA PAULA ; DE VASCONCELOS, ANA TEREZA R. ; KUBE, MICHAEL ; REINHARDT, RICHARD ; LINS, ULYSSES ; PIGNOL, DAVID ; SCHÜLER, DIRK ; BAZYLINSKI, DENNIS A. ; GINET, NICOLAS	A1	
artigoEmPeriodico	Ana Tereza Ribeiro de Vasconcelos	2013	http://dx.doi.org/10.1186/1471-2148-13-190	Endosymbiosis in trypanosomatids: the genomic cooperation between bacterium and host in the synthesis of essential amino acids is heavily influenced by multiple horizontal gene transfers	BMC Evolutionary Biology (Online)	ALVES, JOÃO MP ; KLEIN, CECILIA C ; DA SILVA, FLÁVIA MAIA ; COSTA-MARTINS, ANDRÉ G ; SERRANO, MYRNA G ; BUCK, GREGORY A ; Vasconcelos, Ana TR ; Sagot, Marie-France ; TEIXEIRA, MARTA MG ; MOTTA, MARIA CRISTINA ; CAMARGO, ERNEY P	A1	
artigoEmPeriodico	Ana Tereza Ribeiro de Vasconcelos	2013	http://dx.doi.org/10.1186/2191-0855-3-65	A potential source for cellulolytic enzyme discovery and environmental aspects revealed through metagenomics of Brazilian mangroves	AMB Express	THOMPSON, CLAUDIA ELIZABETH ; BEYS-DA-SILVA, WALTER ORLANDO ; SANTI, LUCÉLIA ; BERGER, MARKUS ; VAINSTEIN, MARILENE HENNING ; GUIMARÃES, JORGE ALMEIDA ; Vasconcelos, Ana Tereza	Qualis nao identificado	AMB Express
artigoEmPeriodico	Ana Tereza Ribeiro de Vasconcelos	2013	http://dx.doi.org/10.1017/s0031182013001455	New insights on the Golgi complex of Tritrichomonas foetus	Parasitology (London. Print)	DE ANDRADE ROSA, IVONE ; CARUSO, MARJOLLY BRIGIDO ; RODRIGUES, SILAS PESSINI ; GERALDO, REINALDO BARROS ; KIST, LUIZA WILGES ; BOGO, MAURICIO REIS ; GONZAGA, LUIZ ; DE VASCONCELOS, ANA TEREZA R ; MORGADO-DÍAZ, JOSE ANDRES ; ZINGALI, RUSSOLINA BENEDETA ; BENCHIMOL, MARLENE	A2	
artigoEmPeriodico	Ana Tereza Ribeiro de Vasconcelos	2013	http://dx.doi.org/10.1186/1471-2164-14-s6-s3	ITGA6 gene silencing by RNA interference modulates the expression of a large number of cell migration-related genes in human thymic epithelial cells	BMC Genomics	FERREIRA GOLBERT, DAIANE CRISTINA ; Correa-de-Santana, Eliane ; RIBEIRO-ALVES, MARCELO ; DE VASCONCELOS, ANA TEREZA RIBEIRO ; Savino, Wilson	A1	
artigoEmPeriodico	Ana Tereza Ribeiro de Vasconcelos	2013	http://dx.doi.org/10.1371/journal.pone.0079786	Biosynthesis of Vitamins and Cofactors in Bacterium-Harbouring Trypanosomatids Depends on the Symbiotic Association as Revealed by Genomic Analyses	Plos One	KLEIN, CECILIA C. ; ALVES, JOÃO M. P. ; SERRANO, MYRNA G. ; BUCK, GREGORY A. ; Vasconcelos, Ana Tereza R. ; Sagot, Marie-France ; TEIXEIRA, MARTA M. G. ; CAMARGO, ERNEY P. ; MOTTA, MARIA CRISTINA M.	A1	
artigoEmPeriodico	Ana Tereza Ribeiro de Vasconcelos	2013	http://dx.doi.org/10.1093/nar/gkt901	Laminin-database v.2.0: an update on laminins in health and neuromuscular disorders	Nucleic Acids Research	Golbert, D. C. F. ; SANTANA-VAN-VLIET, E. ; MUNDSTEIN, A. S. ; CALFO, V. ; SAVINO, W. ; DE VASCONCELOS, A. T. R.	A1	
artigoEmPeriodico	Ana Tereza Ribeiro de Vasconcelos	2013	http://dx.doi.org/10.1038/ismej.2013.203	Deciphering unusual uncultured magnetotactic multicellular prokaryotes through genomics	The ISME Journal (Print)	ABREU, FERNANDA ; MORILLO, VIVIANA ; NASCIMENTO, FABRÍCIA F ; WERNECK, CLARISSA ; CANTÃO, MAURICIO EGIDIO ; CIAPINA, LUCIANE PRIOLI ; DE ALMEIDA, LUIZ GONZAGA PAULA ; LEFÈVRE, CHRISTOPHER T ; BAZYLINSKI, DENNIS A ; DE VASCONCELOS, ANA TEREZA RIBEIRO ; LINS, ULYSSES	A1	
artigoEmPeriodico	Ana Tereza Ribeiro de Vasconcelos	2013		Performance Evaluation of Quicksort with GPU Dynamic Parallelism for Gene-Expression Quantile Normalization	Performance Evaluation of Quicksort with GPU Dynamic Parallelism for Gene-Expression Quantile Normalization	SOUTO, R. P. ; OSTHOFF, C. ; AUGUSTO, D. ; OSWALDO TRELLES SALAZAR ; RIBEIRO VASCONCELOS, A. T.	A2	Performance Evaluation
trabalhoCompletoEmCongresso	Ana Tereza Ribeiro de Vasconcelos	2016		Integrating Scientific Workflows with Scientific Gateways: A Bioinformatics Experiment in the Brazilian National High-Performance Computing Network	BRESCI - X Brazilian e-Science Workshop	MONDELLI, M. L. B. ; GALHEIGO, M. M. ; MEDEIROS, V. ; BASTOS, B. F. ; Gomes, A. T. A. ; MATTOSO, M. ; DE VASCONCELOS, A. T. R.		
trabalhoCompletoEmCongresso	Ana Tereza Ribeiro de Vasconcelos	2016		HPSW-Prof: A Provenance-Based Framework for Profiling High Performance Scientific Workflows	31st Brazilian Symposium on Databases (SBBD)	MONDELLI, M. L. B. ; TONELLI, M. ; GAUTHEROT, K. A. C. O. ; Luiz Manoel Rocha Gadelha Júnior ; DE VASCONCELOS, A. T. R.		
trabalhoCompletoEmCongresso	Ana Tereza Ribeiro de Vasconcelos	2016		Otimização de um algoritmo paralelo para contabilização da repetição de k-mers	2ª Escola Regional de Alto Desempenho do Rio de Janeiro	VILLASBOAS, F. G. ; OSTHOFF, C. ; OSWALDO TRELLES SALAZAR ; GAUTHEROT, K. A. C. O. ; DE VASCONCELOS, A.T.R.		
trabalhoCompletoEmCongresso	Ana Tereza Ribeiro de Vasconcelos	2015		Desenvolvimento de um algoritmo paralelo paracontabilização da repetição de k-mers	3ª Conferência Ibero Americana Computação Aplicada	VILLASBOAS, F. G. ; OSTHOFF, C. ; OSWALDO TRELLES SALAZAR ; DE VASCONCELOS, A.T.R.		
trabalhoCompletoEmCongresso	Ana Tereza Ribeiro de Vasconcelos	2013		Applying GPU Dynamic Parallelism to High-Performance Normalization of Gene Expressions	4th Workshop on Applications for Multi-Core Architectures- WAMCA/SBAC-PAD	SOUTO, R. P. ; OSTHOFF, C. ; RIBEIRO VASCONCELOS, A. T. ; AUGUSTO, D. ; Dias, P.L.S. ; RODRIGUEZ, A. ; OSWALDO TRELLES SALAZAR		
