0.15
0.15
0.15
0.15
0.15
1.0
0.15
0.15
0.15
1.0
0.15
0.15
0.815498
0.15
1.369
0.815498
0.15
0.15
0.15
0.15
0.15
1.0
1.0
0.15
1.0
0.15
0.15
0.815498
0.15
1.369
0.15
0.15
0.15
0.15
1.0
0.15
0.15
0.15
0.15
0.15
0.15
0.15
0.15
0.15
0.15
0.15
0.15
0.15
0.15
0.15
0.815498
0.15
