ID_Lattes|MATRICULA|NOME|CH|mail|LP_1|PROGRAMA_1|CATEG_1|Periodo_Inicio_1|Periodo_Fim_1|Resp_prog|Resp_LP1
K4701814H6|99999|TASSIO DRESCH RECH|40|UNIPLAC-SC@UNIPLAC-SC.br|UNIPLAC-SC|UNIPLAC-SC|P|2013|2016|UNIPLAC-SC|UNIPLAC-SC
K4787211P9|99999|PEDRO BOFF|40|UNIPLAC-SC@UNIPLAC-SC.br|UNIPLAC-SC|UNIPLAC-SC|P|2013|2016||
K4214982A5|99999|NATALIA VERONEZ DA CUNHA|40|UNIPLAC-SC@UNIPLAC-SC.br|UNIPLAC-SC|UNIPLAC-SC|P|2013|2016||
K4706087E0|99999|MARINA PATRICIO DE ARRUDA|40|UNIPLAC-SC@UNIPLAC-SC.br|UNIPLAC-SC|UNIPLAC-SC|P|2013|2016||
K4261545H2|99999|MARIA SUELI HEBERLE MAFRA|40|UNIPLAC-SC@UNIPLAC-SC.br|UNIPLAC-SC|UNIPLAC-SC|P|2013|2016||
K4584256A5|99999|MARIA CONCEICAO DE OLIVEIRA|40|UNIPLAC-SC@UNIPLAC-SC.br|UNIPLAC-SC|UNIPLAC-SC|P|2013|2016||
NOK|99999|LUCIA CECCATTO DE LIMA|40|UNIPLAC-SC@UNIPLAC-SC.br|UNIPLAC-SC|UNIPLAC-SC|P|2013|2016||
NOK|99999|LILIA APARECIDA CASAGRANDE DE OLIVEIRA|40|UNIPLAC-SC@UNIPLAC-SC.br|UNIPLAC-SC|UNIPLAC-SC|P|2013|2016||
K4248372J5|99999|LENITA AGOSTINETTO|40|UNIPLAC-SC@UNIPLAC-SC.br|UNIPLAC-SC|UNIPLAC-SC|P|2013|2016||
K4744106H7|99999|JULIANA CRISTINA LESSMANN|40|UNIPLAC-SC@UNIPLAC-SC.br|UNIPLAC-SC|UNIPLAC-SC|P|2013|2016||
K4278124A5|99999|CAROLINA AMALIA BARCELLOS SILVA|40|UNIPLAC-SC@UNIPLAC-SC.br|UNIPLAC-SC|UNIPLAC-SC|P|2013|2016||
K4460325Y4|99999|BRUNA FERNANDA DA SILVA|40|UNIPLAC-SC@UNIPLAC-SC.br|UNIPLAC-SC|UNIPLAC-SC|P|2013|2016||
K4773824P5|99999|ANELISE VIAPIANA MASIERO|40|UNIPLAC-SC@UNIPLAC-SC.br|UNIPLAC-SC|UNIPLAC-SC|P|2013|2016||
K4770808J5|99999|ANA EMILIA SIEGLOCH|40|UNIPLAC-SC@UNIPLAC-SC.br|UNIPLAC-SC|UNIPLAC-SC|P|2013|2016||
K4778586P5|99999|ALVARO MENIN|40|UNIPLAC-SC@UNIPLAC-SC.br|UNIPLAC-SC|UNIPLAC-SC|P|2013|2016||
