strict graph grafo2 {
	graph [bb="0,0,2039,81",
		id=grafo2,
		overlap=False
	];
	node [fontsize=8,
		label="\N",
		shape=rectangle,
		style=filled
	];
	0	 [URL="http://lattes.cnpq.br/3569271948805982",
		color="#17272B",
		fontcolor="#FFFFFF",
		height=0.23611,
		label="Mirco Ragni [0]",
		pos="34,72.5",
		width=0.94444];
	1	 [URL="http://lattes.cnpq.br/8080697890419252",
		color="#17272B",
		fontcolor="#FFFFFF",
		height=0.23611,
		label="Germano Pinto Guedes [0]",
		pos="137,72.5",
		width=1.4167];
	2	 [URL="http://lattes.cnpq.br/3206145669430720",
		color="#17272B",
		fontcolor="#FFFFFF",
		height=0.23611,
		label="Paulo C. da Rocha Poppe [2]",
		pos="261,72.5",
		width=1.5139];
	10	 [URL="http://lattes.cnpq.br/1644931272174401",
		color="#17272B",
		fontcolor="#FFFFFF",
		height=0.23611,
		label="Iranderly Fernandes de Fernandes [2]",
		pos="261,8.5",
		width=1.8889];
	2 -- 10	 [fontsize=8,
		label=2.0,
		lp="266.5,40.5",
		pos="261,63.898 261,51.998 261,29.102 261,17.165"];
	3	 [URL="http://lattes.cnpq.br/5036651780388149",
		color="#17272B",
		fontcolor="#FFFFFF",
		height=0.23611,
		label="João B. da Rocha Junior [0]",
		pos="387,72.5",
		width=1.4722];
	4	 [URL="http://lattes.cnpq.br/6032273849847285",
		color="#17272B",
		fontcolor="#FFFFFF",
		height=0.23611,
		label="Michele Fúlvia Angelo [0]",
		pos="509,72.5",
		width=1.4167];
	5	 [URL="http://lattes.cnpq.br/2772680929789725",
		color="#17272B",
		fontcolor="#FFFFFF",
		height=0.23611,
		label="Gracinete Bastos de Souza [0]",
		pos="635,72.5",
		width=1.5694];
	6	 [URL="http://lattes.cnpq.br/6148546666142551",
		color="#17272B",
		fontcolor="#FFFFFF",
		height=0.23611,
		label="Roberto Almeida Bittencourt [0]",
		pos="770,72.5",
		width=1.6806];
	7	 [URL="http://lattes.cnpq.br/2755740550497444",
		color="#17272B",
		fontcolor="#FFFFFF",
		height=0.23611,
		label="Joao Bosco Gertrudes [0]",
		pos="898,72.5",
		width=1.3611];
	8	 [URL="http://lattes.cnpq.br/5306570350415091",
		color="#17272B",
		fontcolor="#FFFFFF",
		height=0.23611,
		label="Edgar S. Nunes Junior [0]",
		pos="1015,72.5",
		width=1.3889];
	9	 [URL="http://lattes.cnpq.br/7112745645895347",
		color="#17272B",
		fontcolor="#FFFFFF",
		height=0.23611,
		label="Eduardo Brescansin de Amôres [0]",
		pos="1148,72.5",
		width=1.7917];
	11	 [URL="http://lattes.cnpq.br/8821536792042504",
		color="#17272B",
		fontcolor="#FFFFFF",
		height=0.23611,
		label="Angelo Amâncio Duarte [0]",
		pos="1284,72.5",
		width=1.4722];
	12	 [URL="http://lattes.cnpq.br/0704248561279452",
		color="#17272B",
		fontcolor="#FFFFFF",
		height=0.23611,
		label="Angelo Conrado Loula [0]",
		pos="1406,72.5",
		width=1.4167];
	13	 [URL="http://lattes.cnpq.br/3697401408315559",
		color="#17272B",
		fontcolor="#FFFFFF",
		height=0.23611,
		label="Carlos A. de Freitas Rodrigues [0]",
		pos="1539,72.5",
		width=1.7639];
	14	 [URL="http://lattes.cnpq.br/5222182427171497",
		color="#17272B",
		fontcolor="#FFFFFF",
		height=0.23611,
		label="Artur T. Lopo de Queiroz [0]",
		pos="1676,72.5",
		width=1.5278];
	15	 [URL="http://lattes.cnpq.br/7696000869833399",
		color="#17272B",
		fontcolor="#FFFFFF",
		height=0.23611,
		label="Antônio D. Conceição de Jesus [0]",
		pos="1813,72.5",
		width=1.7778];
	16	 [URL="http://lattes.cnpq.br/3398684577876218",
		color="#17272B",
		fontcolor="#FFFFFF",
		height=0.23611,
		label="Daniel A. S. Gouveia Dias-da-Costa [0]",
		pos="1967,72.5",
		width=2];
}
