artigoEmPeriodico	2013	http://dx.doi.org/10.1088/2041-8205/762/1/l13	CONSTRAINTS ON THE ORIGIN OF COSMIC RAYS ABOVE 10 <sup>18</sup> eV FROM LARGE-SCALE ANISOTROPY SEARCHES IN DATA OF THE PIERRE AUGER OBSERVATORY	The Astrophysical Journal. Letters	Abreu, P	A1	THE ASTROPHYSICAL JOURNAL
artigoEmPeriodico	2013	http://dx.doi.org/10.1155/2013/708680	Ultrahigh Energy Neutrinos at the Pierre Auger Observatory	Advances in High Energy Physics	Abreu, P	Qualis nao identificado	Advances in High Energy Physics
artigoEmPeriodico	2013	http://dx.doi.org/10.1016/j.astropartphys.2013.09.004	Identifying clouds over the Pierre Auger Observatory using infrared satellite data	Astroparticle Physics (Print)	Abreu, P	A2	
artigoEmPeriodico	2013	http://dx.doi.org/10.1111/jvh.12051	The presence of resistance mutations to protease and polymerase inhibitors in Hepatitis C virus sequences from the databank	Journal of Viral Hepatitis (Print)	ALVES, R. ; Queiroz, A. T. L. ; PESSOA, M. G. ; DA SILVA, E. F. ; MAZO, D. F. C. ; Carrilho, F. J. ; CARVALHO-FILHO, R. J. ; DE CARVALHO, I. M. V. G.	Qualis nao identificado	Journal of Viral Hepatitis (Print)
artigoEmPeriodico	2013		Experiences in Project Development in the UEFS Computing Engineering Course Using Project-Based Learning	IEEE Multidisciplinary Engineering Education Magazine	ANGELO, M. F.; BERTONI, F. C. ; PIRES, M. G.	B4	
artigoEmPeriodico	2013		Bom Fim: Exposição dos Recursos Naturais e Culturais no Distrito Bonfim de Feira	Extensão em Foco (Curitiba)	BARBOSA, L. M. ; SILVA, A. S. ; BASTOS, G. ; GRILO, D. C. ; MELO, L. F.	B5	
artigoEmPeriodico	2013		Desenvolvimento de uma ferramenta para a realização de traçados cefalométricos	Revista Brasileira de Física Médica (Online)	BASTOS, I. L. O. ; ANGELO, M. F.	B3	
artigoEmPeriodico	2013	http://dx.doi.org/10.1088/1748-0221/8/04/p04009	Techniques for measuring aerosol attenuation using the Central Laser Facility at the Pierre Auger Observatory	Journal of Instrumentation	COLLABORATION, THE PIERRE AUGER	A1	
artigoEmPeriodico	2013	http://dx.doi.org/10.1051/0004-6361/201219846	The long bar as seen by the VVV Survey: II. Star counts	Astronomy & Astrophysics (Berlin. Print)	E. B. AMORES, NULL; M. LOPEZ-CORREDOIRA, NULL ; C. GONZALEZ-FERNANDEZ, NULL ; A. MOITINHO, NULL ; D. MINNITI, NULL ; S. GUROVICH, NULL	A2	
artigoEmPeriodico	2013	http://dx.doi.org/10.1051/0004-6361/201219721	Broad-band photometry and long-slit spectroscopy of the peculiar ring galaxy FM 287-14	Astronomy & Astrophysics (Berlin. Print)	FAUNDEZ-ABANS, M. L. ; da Rocha-Poppe, P. C. ; Fernandes-Martin, V. A. ; de Oliveira-Abans, M. ; FERNANDES, I. F. ; Wenderoth, E. ; RODRÍGUEZ-ARDILA, A.	A2	
artigoEmPeriodico	2013	http://dx.doi.org/10.1051/0004-6361/201321149	FM-047-02: a collisional pair of galaxies with a ring	Astronomy & Astrophysics (Berlin. Print)	FAÚNDEZ-ABANS, M. ; DE OLIVEIRA-ABANS, M. ; Krabbe, A. C. ; da Rocha-Poppe, P. C. ; Fernandes-Martin, V. A. ; FERNANDES, I. F.	A2	
artigoEmPeriodico	2013	http://dx.doi.org/10.1111/j.1365-2966.2012.21942.x	Imagery and long-slit spectroscopy of the polar ring galaxy AM 2020-504	Monthly Notices of the Royal Astronomical Society (Print)	FREITAS-LEMES, P. ; RODRIGUES, I. ; FAUNDEZ-ABANS, M. ; DORS, O. L. ; FERNANDES, I. F.	A1	
artigoEmPeriodico	2013	http://dx.doi.org/10.1088/1475-7516/2013/02/026	Interpretation of the depths of maximum of extensive air showers measured by the Pierre Auger Observatory	Journal of Cosmology and Astroparticle Physics	G. P. GUEDES; C. Bonifazi	Qualis nao identificado	Journal of Cosmology and Astroparticle Physics
artigoEmPeriodico	2013	http://dx.doi.org/10.1140/epjd/e2013-40371-3	Alternative hyperspherical adiabatic decoupling scheme for tetratomic molecules: quantum two-dimensional study of the ammonia umbrella motion	The European Physical Journal. D, Atomic, Molecular and Optical Physics (Print)	GUIMARÃES, MARCILIO N. ; Ragni, Mirco ; Bitencourt, Ana Carla P. ; Prudente, Frederico V.	Qualis nao identificado	The European Physical Journal. D, Atomic, Molecular and Optical Physics (Print)
artigoEmPeriodico	2013		Propagação de Ondas Eletromagnéticas por um Sistema Aleatório de Multicamadas	Sitientibus Série Ciências Físicas	JESUS, A. D. C.; Coutinho	Qualis nao identificado	Sitientibus Série Ciências Físicas
artigoEmPeriodico	2013	http://dx.doi.org/10.1186/1752-153x-7-48	Structure-based drug design studies of UDP-N-acetylglucosamine pyrophosphosrylase, a key enzyme for the control of witches' broom disease	Chemistry Central Journal	JUNIOR, MANOELITO C ; de Assis, Sandra Aparecida ; GO'ES-NETO, ARISTO'TELES ; DUARTE, ÂNGELO AMÂNCIO ; ALVES, RICARDO JOSÉ ; JUNIOR, MOACYR COMAR ; Taranto, Alex Gutterres	Qualis nao identificado	Chemistry Central Journal
artigoEmPeriodico	2013	http://dx.doi.org/10.4236/epe.2013.54b276	Energization of a Half-Wavelength Transmission Line - Pre-Operational Transients Studies	Energy and Power Engineering	MACHADO JR, CAMILO ; MAIA, MARCELO ; CARVALHO JR, EDEN ; C. TAVARES, MARIA ; B. GERTRUDES, JOÃO ; C. GOMES, ELSON ; FREITAS, WALMIR ; A. PAZ, MARCOS ; A. MOREIRA, FERNANDO ; A. FLORIANO, CARLOS ; G. MACHADO, VANDERLEI ; M. MENDES, ANIELA	B4	
artigoEmPeriodico	2013	http://dx.doi.org/10.1186/1475-2875-12-69	Networking the host immune response in Plasmodium vivax malaria	Malaria Journal (Online)	MENDONÇA, VITOR RR ; Queiroz, Artur TL ; LOPES, FABRÍCIO M ; ANDRADE, BRUNO B ; BARRAL-NETTO, MANOEL	A1	
artigoEmPeriodico	2013	http://dx.doi.org/10.1088/1475-7516/2013/05/009	Bounds on the density of sources of ultra-high energy cosmic rays from the Pierre Auger Observatory	Journal of Cosmology and Astroparticle Physics	The Pierre Auger collaboration	Qualis nao identificado	Journal of Cosmology and Astroparticle Physics
trabalhoCompletoEmCongresso	2013		Desenvolvimento de uma applet para a realização de traçados cefalométricos	XVIII Congresso Brasileiro de Física Médica - VI SIIM ? Simpósio de Instrumentação e Imagens Médicas	BASTOS, I. L. O. ; ANGELO, M. F.		
trabalhoCompletoEmCongresso	2013		Aprendizagem de Programação Através de Ambientes Lúdicos em um Curso de Engenharia de Computação: Uma Primeira Incursão	WEI 2013 - XXI Workshop sobre Educação em Computação	BITTENCOURT, R. A.; ROCHA, A. S. ; SANTANA, B. L. ; SANTANA, C. S. ; CARNEIRO, D. A. ; BORGES, G. A. ; CHALEGRE, H. S. ; SILVA, J. F. J. ; SANTOS, J. M. J. ; SILVA, L. A. ; ANDRADE, P. H. M. O.		
trabalhoCompletoEmCongresso	2013		Uma Experiência Integrada de Programação Orientada a Objetos, Estruturas de Dados e Projeto de Sistemas com PBL	WEI 2013 - XXI Workshop sobre Educação em Computação	BITTENCOURT, R. A.; RODRIGUES, C. A. ; CRUZ, D. S. S.		
trabalhoCompletoEmCongresso	2013		Computational Modeling for a Creature Editor in the Educational Game Calangos	XII Simpósio Brasileiro de Jogos e Entretenimento Digital (SBGames 2013)	CALMON, J. H. ; LOULA, ANGELO ; CASTRO, L.N. ; ROCHA, P. ; EL-HANI, C.N.		
trabalhoCompletoEmCongresso	2013		Circuit-Breaker TRV on a No-load AC Half-Wavelength Transmission Line	IPST2013 - International Conference on Power Systems Transients	GERTRUDES, J. B.; TAVARES, M. C. D. ; GOMES, E. C.		
trabalhoCompletoEmCongresso	2013		A Mixed Hybrid Recommender System for Given Names	European Conference on Machine Learning and Principles and Practice of Knowledge Discovery in Databases (ECMLPKDD 2013)	GLAUBER, R. ; LOULA, A. ; ROCHA JR, J. B.		
trabalhoCompletoEmCongresso	2013		A Genetic-Evolutionary Model to Simulate Population Dynamics in the Calangos Game	2013 IEEE Congress on Evolutionary Computation	IZIDORO, V. ; CASTRO, L.N. ; LOULA, A.		
trabalhoCompletoEmCongresso	2013		Studying sign processes in the emergence of communication	CogSci 2013 - The 35th annual meeting of the Cognitive Science Society	LOULA, A.; GUDWIN, R. ; QUEIROZ, J		
trabalhoCompletoEmCongresso	2013		Electromagnetic Transients Studies Related to Energization of a Half-wavelength Transmission Line	International Conference on Power Systems Transients IPST 2013	MACHADO, C. ; MAIA, M. J. A. ; CARVALHO JUNIOR, E. L. ; MACHADO, V. G. ; MENDES, A. M. P. ; FLORIANO, C. A. F. ; TAVARES, M. C. D. ; FREITAS, W. ; GOMES, E. C. ; GERTRUDES, J. B. ; PAZ, M. A. ; MOREIRA, F.		
trabalhoCompletoEmCongresso	2013		Ensaio da Manobra de Energização de um Tronco Teste de um Pouco Mais de Meio Comprimento de Onda	XXII SNPTEE - Seminário Nacional de Produção e Transmissão de Energia	MACHADO, C. ; MAIA, M. J. A. ; CARVALHO JUNIOR, E. L. ; MACHADO, V. G. ; MENDES, A. M. P. ; FLORIANO, C. A. F. ; TAVARES, M. C. D. ; PAZ, M. A. ; FREITAS, W. ; GERTRUDES, J. B. ; COSTA, E. ; MOREIRA, F. A.		
trabalhoCompletoEmCongresso	2013		Learning Software Evolution: Curriculum, Approaches and an Experience Report	FEES 2013 - Fórum de Educação em Engenharia de Software	NASCIMENTO, D. M. C. ; CHAVEZ, C. F. G. ; BITTENCOURT, R. A.		
trabalhoCompletoEmCongresso	2013		Using Open Source Projects in Software Engineering Education: A Systematic Mapping Study	FIE 2013 - 43rd Annual Frontiers In Education Conference	NASCIMENTO, D. M. C. ; COX, K. K. ; ALMEIDA, T. ; SAMPAIO, W. ; BITTENCOURT, R. A. ; SOUZA, R. R. G. ; CHAVEZ, C. F. G.		
trabalhoCompletoEmCongresso	2013		Utilização do Scratch como Ferramenta de Auxílio à Aprendizagem de Programação	COBENGE 2013 - XLI Congresso Brasileiro de Educação em Engenharia	ROCHA, A. S. ; SILVA, J. F. J. ; CARNEIRO, D. A. ; SANTOS, J. M. J. ; SANTANA, B. L. ; BITTENCOURT, R. A.		
trabalhoCompletoEmCongresso	2013		Quantificação e análise espacial dos focos de calor no Parque Nacional da Chapada Diamantina - BA	XVI Simpósio Brasileiro de Sensoriamento Remoto	SILVA, T. B. ; FRANCA-ROCHA, W. J. S. ; ANGELO, M. F.		
trabalhoCompletoEmCongresso	2013		Patterns for Extracting High Level Information from Bug Reports	1st International Workshop on Data Analysis Patterns in Software Engineering	SOUZA, R. R. G. ; CHAVEZ, C. F. G. ; BITTENCOURT, R. A.		
trabalhoCompletoEmCongresso	2013		Patterns for Cleaning Up Bug Data	1st International Workshop on Data Analysis Patterns in Software Engineering	SOUZA, R. R. G. ; CHAVEZ, C. F. G. ; BITTENCOURT, R. A.		
resumoExpandidoEmCongresso	2013	MOBILIDADE DO CAMPO - ESTUDO DAS ESTRADAS VICINAIS DO DISTRITO DE BONFIM DE FEIRA ? FEIRA DE SANTANA (BA)	Seminário de Iniciação Científica, 2013, Feira de Santana, Bahia. XVII Seminário de Iniciação Científica	CONCEICAO, M. O. A. ; ANDRADE, N. A. ; BASTOS, G.		
resumoExpandidoEmCongresso	2013	Desenvolvimento de Traçados Cefalométricos Adicionais e Funcionalidades Gráficas na Busca pela Otimização do Programa ODONTORADIOSIS	XVII Seminário de Iniciação Científica (SEMIC), 2013, Feira de Santana. Anais do XVII Seminário de Iniciação Científica (SEMIC). Feira de Santana: Universidade Estadual de Feira de Santana	PEREIRA NETTO, E. O. ; ANGELO, M. F.		
resumoExpandidoEmCongresso	2013	Validação dos Resultados da Ferramenta Odontoradiosis para a Realização de Traçados Cefalométricos das Análises de Jaraback e Ricketts	XVII Seminário de Iniciação Científica (SEMIC), 2013, Feira de Santana. Anais do XVII Seminário de Iniciação Científica (SEMIC). Feira de Santana: Universidade Estadual de Feira de Santana	PEREIRA, T. F. C. ; ANGELO, M. F.		
resumoExpandidoEmCongresso	2013	Detecção Semiautomática de Pontos Cefalométricos com Base no Contorno Anatômico	XVII Seminário de Iniciação Científica (SEMIC), 2013, Feira de Santana. Anais do XVII Seminário de Iniciação Científica (SEMIC). Feira de Santana: Universidade Estadual de Feira de Santana	SANTANA, F. S. ; ANGELO, M. F.		
resumoExpandidoEmCongresso	2013	Avaliação da Recuperação Arquitetural de Visões Modulares Através de Técnicas de Agrupamento	XI WTICG-BASE - XI Workshop de Trabalhos de Iniciação Científica e Graduação Bahia-Alagoas-Sergipe, 2013, Aracaju. Anais da XIII ERBASE - XIII Escola Regional de Computação Bahia-Alagoas-Sergipe	SILVA, D. E. U. ; BITTENCOURT, R. A.		
resumoExpandidoEmCongresso	2013	Validação dos Resultados da Ferramenta ODONTORADIOSIS para a Realização de Traçados Cefalométricos das Análises de McNamara e Tweed	XVII Seminário de Iniciação Científica (SEMIC), 2013, Feira de Santana. Anais do XVII Seminário de Iniciação Científica (SEMIC). Feira de Santana: Universidade Estadual de Feira de Santana	SOUZA, D. V. ; ANGELO, M. F.		
