3569271948805982
8080697890419252
3206145669430720
5036651780388149
6032273849847285
2772680929789725
6148546666142551
2755740550497444
5306570350415091
7112745645895347
1644931272174401
8821536792042504
0704248561279452
3697401408315559
5222182427171497
7696000869833399
3398684577876218
