artigoEmPeriodico	2013	http://dx.doi.org/10.6061/clinics/2013(06)15	Non-flat audiograms in sensorineural hearing loss and speech perception	Clinics (USP. Impresso)	ANDRADE, KC ; MENEZES, PL ; CARNAUBA, AT ; RODRIGUES, RG ; LEAL, MC ; PEREIRA, LD	A2	
artigoEmPeriodico	2013		TWO-DIMENSIONAL COMPUTATIONAL MODELING OF THE SOIL THERMAL BEHAVIOR DUE TO THE INCIDENCE OF SOLAR RADIATION	Engenharia Térmica	BRUM, R. S. ; ISOLDI, L. A. ; DOS SANTOS, E. D. ; VAZ, J. ; ROCHA, L. A. O.	B2	
artigoEmPeriodico	2013	http://dx.doi.org/10.1016/j.enbuild.2013.05.032	A New Computational Modeling to Predict the Behavior of Earth-Air Heat Exchangers	Energy and Buildings	BRUM, R. S. ; Vaz, Joaquim ; Rocha, L.A.O. ; DOS SANTOS, E. D. ; ISOLDI, L. A.	A1	
artigoEmPeriodico	2013	http://dx.doi.org/10.4025/actascitechnol.v36i1.17818	<b>Analytical modeling and numerical optimization of the biosurfactants production in solid-state fermentation by <i>Aspergillus fumigatus</i></b> - doi: 10.4025/actascitechnol.v36i1.17818	Acta Scientiarum. Technology (Impresso)	CASTIGLIONI, Gabriel ; STANESCU, George ; ROCHA, L. A. O. ; COSTA, J. A. V.	B1	
artigoEmPeriodico	2013	http://dx.doi.org/10.1088/0266-5611/29/1/015003	On piecewise constant level-set (PCLS) methods for the identification of discontinuous parameters in ill-posed problems	Inverse Problems (Print)	CEZARO, A. ou De Cezaro, A. ; A. Leitao ; Tai, X-C	Qualis nao identificado	Inverse Problems (Print)
artigoEmPeriodico	2013		Constructal Design Aplicado a Placas com Furos Elípticos sob Flambagem	Vetor (FURG)	CORREIA, A. L. G. ; Da SILVEIRA, T. ; DA SILVA, C. C. C. ; ROCHA, L. A. O. ; REAL, M. V. ; DOS SANTOS, E. D. ; ISOLDI, L. A.	B5	
artigoEmPeriodico	2013		CONSTRUCTAL DESIGN APLICADO A PLACAS COM FUROS ELÍPTICOS SOB FLAMBAGEM	Vetor (FURG)	CORREIA, A. L. G. ; SILVEIRA, T. ; SILVA, C. C. C. ; ROCHA, L. A. O. ; REAL, M. V. ; SANTOS, E. D. ; ISOLDI, L. A.	B5	
artigoEmPeriodico	2013	http://dx.doi.org/10.1155/2013/123643	On a Level-Set Method for Ill-Posed Problems with Piecewise Nonconstant Coefficients	Journal of Applied Mathematics (Internet)	De Cezaro, A	Qualis nao identificado	Journal of Applied Mathematics (Internet)
artigoEmPeriodico	2013	http://dx.doi.org/10.1093/imamat/hxt037	The tangential cone condition for the iterative calibration of local volatility surfaces	IMA Journal of Applied Mathematics	De Cezaro, A.; ZUBELLI, J. P.	B1	
artigoEmPeriodico	2013	http://dx.doi.org/10.1260/1750-9548.7.2.125	Resin transfer molding process: a numerical and experimental investigation	The International Journal of Multiphysics	DE OLIVEIRA, IRAN RODRIGUES ; AMICO, SANDRO CAMPOS ; SOUZA, JEFERSON ÁVILA ; DE LIMA, ANTONIO GILSON BARBOSA	Qualis nao identificado	The International Journal of Multiphysics
artigoEmPeriodico	2013		Análise Teórica da Influência de Perfis sobre a Potência de uma Turbina Wells Empregada em Dispositivos de Conversão de Energia das Ondas	Vetor (FURG)	DIAS, G. C. ; SANTOS, S. M. ; Dos Santos, E. D. ; ROCHA, L. A. O. ; Olinto, C. R.	B5	
artigoEmPeriodico	2013	http://dx.doi.org/10.1016/j.ijheatmasstransfer.2013.05.010	WSGG correlations based on HITEMP2010 for computation of thermal radiation in non-isothermal, non-homogeneous H2O/CO2 mixtures	International Journal of Heat and Mass Transfer	DORIGON, L. ; DUCIAK, G. ; BRITTES, R. ; CASSOL, F. ; GALARÇA, M. M. ; França, F.H.R.	A1	
artigoEmPeriodico	2013		Numerical Study of Forced Convection Lid-driven Cavity Flows using Large Eddy Simulation (LES)	Journal of Energy and Power Engineering	Dos Santos, E. D.; PETRY, A. P. ; ROCHA, L. A. O. ; FRANCA, F. H. R.	B4	Energy and Power Engineering
artigoEmPeriodico	2013		Controlling a system for underwater visual inspection	Marine Systems & Ocean Technology	DREWS JR., PAULO ; KUHN, V. N. ; GOMES, S. C. P.	Qualis nao identificado	Marine Systems & Ocean Technology
artigoEmPeriodico	2013	http://dx.doi.org/10.1016/j.compind.2013.01.002	A model-based approach for data integration to improve maintenance management by mixed reality	Computers in Industry	ESPÍNDOLA, D. ; DUARTE, N. ; BOTELHO, S. S. C. ; pereira, c. e.	A2	
artigoEmPeriodico	2013		Proposta de uma Arquitetura Híbrida para Massively Multiplayer Online Games	Revista Jr de Iniciação Científica em Ciências Exatas e Engenharia (ICCEEg)	FELSKE, M. S. ; ADAMATTI, D. F.	C	
artigoEmPeriodico	2013		Simulação das Circulações Locais no Rio Grande do Sul: Formação e Interação das Brisas no Interior e Região Costeira do Estado	Ciência e Natura	Gambetá-Leite, M. R. S. ; Krusche, N	B2	
artigoEmPeriodico	2013	http://dx.doi.org/10.1017/s0263574713000507	Active control of flexible one-link manipulators using wavelet networks	Robotica (Cambridge. Print)	GOMES, S. C. P.; Gervini, V. I. ; HEMERLY, E. M.	Qualis nao identificado	Robotica (Cambridge. Print)
artigoEmPeriodico	2013		A Solution of Nonlinear Equation for the Gravity Wave Spectra From Adomian Decomposition Method: A First Aproach	Revista Brasileira de Meteorologia (Impresso)	GOULART, A. G. O.; MOREIRA, D. M. ; PIMENTEL, Luiz Claudio Gomes ; Guerreiro, J. S. P.	A2	
artigoEmPeriodico	2013		Análise Numérica do Comportamento Mecânico sob Flexão de Placas Finas de Material Compósito Laminado Reforçado por Fibras	Vetor (FURG)	Helbig, D. ; REAL, M. V. ; ROCHA, L. A. O. ; Dos Santos, E. D. ; ISOLDI, L. A.	B5	
artigoEmPeriodico	2013		Análise numérica do comportamento mecânico sob flexão de placas finas de material compósito laminado reforçado por fibras	Vetor (FURG)	HELBIG, D. ; REAL, M. V. ; ROCHA, L. A. O. ; SANTOS, E. D. ; ISOLDI, L. A.	B5	
artigoEmPeriodico	2013		Numerical analysis of the hydropneumatic chamber shape influence in an oscillating water column (OWC) wave energy converter (WEC)	Marine Systems & Ocean Technology	ISOLDI, L. A. ; GRIMMLER, J. A. M. ; LOPES, N. da R. ; GOMES, M. N. ; SOUZA, J. A. ; Souza, J. A. ; SANTOS, E. D. dos ; ROCHA, L. A. O.	Qualis nao identificado	Marine Systems & Ocean Technology
artigoEmPeriodico	2013		NUMERICAL ANALYSIS AND GEOMETRIC OPTIMIZATION OF PERFORATED THIN PLATES SUBJECTED TO TENSION OR BUCKLING	Marine Systems & Ocean Technology	ISOLDI, L. A. ; REAL, M. V. ; CORREIA, A. L. G. ; SANTOS, E. D. ; ROCHA, L. A. O.	Qualis nao identificado	Marine Systems & Ocean Technology
artigoEmPeriodico	2013		Numerical Analysis and Geometric Optimization of Perforated Thin Plates Subjected to Tension or Buckling.	Marine Systems & Ocean Technology	Isoldi, L. A. ; Real, Mauro ; Vaz, Joaquim ; Correia, Anderson Luis ; dos Santos, E. D. ; Rocha, L.A.O.	Qualis nao identificado	Marine Systems & Ocean Technology
artigoEmPeriodico	2013	http://dx.doi.org/10.1134/S1810232813040048	Constructal design of T-shaped cavity for several convective fluxes imposed at the cavity surfaces	J ENG THERMOPHYS-RUS	Lorenzini, G. ; Biserni, C. ; Link, F. B. ; ISOLDI, L. A. ; Santos, E. D. ; ROCHA, L. A. O.	Qualis nao identificado	J ENG THERMOPHYS-RUS
artigoEmPeriodico	2013	http://dx.doi.org/10.1115/1.4023214	GEOMETRIC OPTIMIZATION OF C-SHAPED CAVITIES ACCORDING TO BEJAN?S THEORY: GENERAL REVIEW AND COMPARATIVE STUDY.	Journal of Electronic Packaging	LORENZINI, G. ; BISERNI, C. ; ROCHA, L. A. O.	B1	
artigoEmPeriodico	2013	http://dx.doi.org/10.1016/j.ijthermalsci.2013.04.021	CONSTRUCTAL DESIGN OF NON-UNIFORM X-SHAPED CONDUCTIVE PATHWAYS FOR COOLING	International Journal of Thermal Sciences	LORENZINI, G. ; BISERNI, C. ; ROCHA, L. A. O.	B1	Journal of Thermal Science
artigoEmPeriodico	2013	http://dx.doi.org/10.1016/j.ijheatmasstransfer.2012.11.040	Constructal design of X-shaped conductive pathways for cooling a heat-generating body	International Journal of Heat and Mass Transfer	LORENZINI, G. ; Biserni, Cesare ; Rocha, L.A.O.	A1	
artigoEmPeriodico	2013		Um Modelo de Ferramenta Computacional Aplicada ao Processo de Aprendizagem Especial: As Tecnologias Assistivas	Revista de Informática Aplicada	LUZ JUNIOR, D. M. ; GUIMARAES, M. ; BARWALDT, R. ; ADAMATTI, D. F. ; FELIPE, C. I. M.	Qualis nao identificado	Revista de Informática Aplicada
artigoEmPeriodico	2013		Using Artificial Neural Networks in NPC Decision-Making Process	International Journal of Computer and Informtation Technology	MADSEN, C. ; ADAMATTI, D. F.	Qualis nao identificado	International Journal of Computer and Informtation Technology
artigoEmPeriodico	2013		A model employing integral transform method to simulate pollutant dispersion in atmosphere	Revista Brasileira de Meteorologia (Impresso)	Moreira, D.M. ; GOULART, A. G. O. ; Moraes, Marcelo R.	A2	
artigoEmPeriodico	2013	http://dx.doi.org/10.1109/tasc.2013.2241380	Temperature and Pressure Drop Model for Gaseous Helium Cooled Superconducting DC Cables	IEEE Transactions on Applied Superconductivity (Print)	Ordonez, Juan C. ; Souza, Jeferson A. ; SHAH, DARSHIT R. ; Vargas, José V. C. ; Hovsapian, Rob	B1	
artigoEmPeriodico	2013	http://dx.doi.org/10.1590/s1983-41952013000200004	Análise numérica de vigas de concreto armado reforçadas por compósitos formados por fibras de alta resistência e argamassa de cimento	Revista IBRACON de Estruturas e Materiais	PALIGA, C. M. ; REAL, M. V. ; CAMPOS FILHO, Américo	B2	
artigoEmPeriodico	2013		Método simplificado para a determinação da capacidade resistente de vigas de concreto armado reforçadas com polímero reforçado com fibras de carbono	Vetor (FURG)	Pinheiro, L.C.L. ; REAL, M. V.	B5	
artigoEmPeriodico	2013		Ambientes tecnológicos lúdicos de autoria (ATLA): desenvolvendo espaços de criação e experimentação para o aprendizado	Teoria e Prática da Educação	PINTO, Ivete ; C. Botelho, Silvia S.	Qualis nao identificado	Teoria e Prática da Educação
artigoEmPeriodico	2013	http://dx.doi.org/10.7198/S2318-34032013001041	MODELO HEURÍSTICO PARA O PROBLEMA DE P-MEDIANAS APLICADO EM SERVIÇOS DE SANEAMENTO	ANAIS DO SIMPÓSIO INTERNACIONAL DE INOVAÇÃO TECNOLÓGICA - SIMTEC	PUREZA, S.A.O. ; PEREIRA, E.C. ; MACHADO, C.M.S.	Qualis nao identificado	ANAIS DO SIMPÓSIO INTERNACIONAL DE INOVAÇÃO TECNOLÓGICA - SIMTEC
artigoEmPeriodico	2013		Elastic and Elasto-Plastic Buckling Analysis of Perforated Steel Plates	Vetor (FURG)	REAL, M. V. ; ISOLDI, L. A. ; DAMAS, A. P. ; HELBIG, D.	B5	
artigoEmPeriodico	2013		Elastic and elasto-plastic buckling analysis of perforated plates	Vetor (FURG)	REAL, M. V.; ISOLDI, L. A. ; DAMAS, A.P. ; HELBIG, D.	B5	
artigoEmPeriodico	2013	http://dx.doi.org/10.1002/met.1284	Large-eddy simulation of the planetary boundary layer under baroclinic conditions during daytime and sunset turbulence	Meteorological Applications (Print)	RIZZA, Umberto ; MIGLIETTA, MARIO M. ; ACEVEDO, Otávio C. ; ANABOR, VAGNER ; DEGRAZIA, Gervasio Annes ; DEGRAZIA, GERVASIO A. ; GOULART, A. G. O. ; ZIMMERMAN, HANS R.	B1	
artigoEmPeriodico	2013	http://dx.doi.org/10.2478/s13531-013-0105-x	Constructal design applied to the elastic buckling of thin plates with holes	Central European Journal of Engineering	ROCHA, LUIZ A. O. ; ISOLDI, LIÉRCIO A. ; VASCONCELLOS REAL, MAURO ; SANTOS, ELIZALDO DOMINGUES ; CORREIA, ANDERSON L. G. ; LORENZINI, GIULIO ; BISERNI, CESARE	Qualis nao identificado	Central European Journal of Engineering
artigoEmPeriodico	2013	http://dx.doi.org/10.1590/s2238-10312013000300006	Simulated annealing aplicado ao problema de alocação de berços	Journal of Transport Literature	Rodrigues, M. H. P. ; MACHADO, C.M.S. ; LIMA, M. L. P.	B2	
artigoEmPeriodico	2013		Estimation of the Boundary Layer Height in the Southern Region of Brazil	American Journal of Environmental Engineering	SARAIVA, L. B. ; KRUSCHE, N.	Qualis nao identificado	American Journal of Environmental Engineering
artigoEmPeriodico	2013	http://dx.doi.org/10.4028/www.scientific.net/ddf.334-335.193	Resin Transfer Molding Process: A Numerical Investigation	Defect and Diffusion Forum	SOUZA, J. A.; OLIVEIRA, I. R. ; AMICO, S. C. ; Amico, S.C. ; LUZ, F. F. ; BARCELLA, R. A. ; LIMA, A. G. B.	Qualis nao identificado	Defect and Diffusion Forum
artigoEmPeriodico	2013		Modeling the wind influence in an oil spill along the Southern Brazilian Shelf	Engenharia Térmica	STRINGARI, C. E. ; Marques, Wilian C. ; MELLO, L. F. ; Eidt R. T.	B2	
artigoEmPeriodico	2013		Modeling an Oil Spill along the Southern Brazilian Shelf: Forcing Characterization and Its Influence on the Oil Fate	International Journal of Geosciences	STRINGARI, C. E. ; W. Marques ; EIDT, R. T. ; MELLO, L. F.	B5	
artigoEmPeriodico	2013	http://dx.doi.org/10.1016/j.energy.2013.08.062	Numerical simulation of an oscillating water column device using a code based on Navier-Stokes equations	Energy (Oxford)	TEIXEIRA, PAULO R.F.; DAVYT, DJAVAN P. ; DIDIER, ERIC ; RAMALHAIS, RUBÉN	A1	
artigoEmPeriodico	2013		EXERGAMES: UM DESAFIO À EDUCAÇÃO FÍSICA NA ERA DA TECNOLOGIA	Revista Educação & Tecnologia	VAGHETTI, C. A. O. ; ESPEROTTO, R. ; PENNA, R. ; CASTRO, R. ; Botelho, Silvia S. C.	B3	Educação & Tecnologia
trabalhoCompletoEmCongresso	2013		A Criação de Multiplicadores para a Inclusão Digital e seus Desafios	31º Seminário de Extensão Universitária	ADAMATTI, D. F.; CARVALHO, J. T. ; HAX, V. A. ; SILVA, D. ; FELIX, D. ; FLORES, E. ; LINDENAU, G. ; DJALO, M. ; GUEDES, R. C. ; LEAL, T.		
trabalhoCompletoEmCongresso	2013		Structural Transitivity of Trust in Academic Social Networks Using Agent-Based Simulation	Eleventh European Workshop on Multi-Agent Systems	ADAMATTI, D. F.; CASTELFRANCHI, C. ; FALCONE, R.		
trabalhoCompletoEmCongresso	2013		Applicability of the Gaussian distribution heat source model to the thermal simulation of welding process	COBEM 2013	Araújo D.B. ; TEIXEIRA, P. R. F. ; Cunda L.A.B.		
trabalhoCompletoEmCongresso	2013		Engenharia de Software Aplicada no Desenvolvimento de uma Plataforma para Simulaçao de Processos Dinamicos	XXV CONGRESSO REGIONAL DE INICIAÇÃO CIENTÍFICA E TECNOLÓGICA EM ENGENHARIA	BARBAT, M. M. ; WERHLI, A. V. ; ADAMATTI, D. F.		
trabalhoCompletoEmCongresso	2013		Sustentabilidade Tecnológica em Cadeia Produtiva Avícola de Corte, Através da Tecnologia RFID	31º Seminário de Extensão Universitária	BARWALDT, R. ; ADAMATTI, D. F. ; BITTENCOURT, F. ; BARWALDT, G. ; ROZANTE, M.		
trabalhoCompletoEmCongresso	2013		UNDERWATER SIMULATOR FOR ROBOTICS APPLICATIONS IN HIGH DEPTHS	IEEE Oceans	Botelho, Silvia S. C.; BICHET, M. A.		
trabalhoCompletoEmCongresso	2013		Modelagem em Programação Linear para Resolução de Jogos Fuzzy	II Workshop- Escola de Informática Teórica- WEIT	BRIAO, S. L. ; DIMURO, G. P. ; MACHADO, C.M.S.		
trabalhoCompletoEmCongresso	2013		Numerical Simulation and Constructal Theory Applied for Geometric Optimization of Thin Perforated Plates Subject to Elastic Buckling	Iberian Latin American Congress on Computational Methods in Engineering (CILAMCE)	CORREIA, A. L. G. ; Helbig, D. ; REAL, M. V. ; Dos Santos, E. D. ; ISOLDI, L. A. ; ROCHA, L. A. O.		
trabalhoCompletoEmCongresso	2013		Coupling of Fluinco mesh-based and SPH mesh-free numerical codes for the modelling of wave overtopping over a porous breakwater	6th SCACR - International Short Course/Conference on Applied Costal Research	Didier, E. ; Neves D. ; Teixeira, P. R. F. ; Neves, M. G. ; Soares, H. ; Viegas, M. T.		
trabalhoCompletoEmCongresso	2013		Um SMA para Simulação de Políticas Normativas da Horta Urbana San Jerónimo, Sevilha, Espanha	VII Workshop-Escola de Sistemas de Agentes	DONANCIO, H. ; SANTOS, I. ; DIMURO, G. ; ADAMATTI, D. F. ; DIMURO, G. P. ; JEREZ, E. M.		
trabalhoCompletoEmCongresso	2013		NUMERICAL INVESTIGATION OF TURBULENT INTERNAL FLOW WITH COMBINED CONVECTIVE AND RADIATIVE HEAT TRANSFER IN A PARTICIPANT MEDIUM	International Congress of Mechanical Engineering (COBEM)	DOS SANTOS, E. D. ; ISOLDI, L. A. ; PETRY, A. P. ; FRANÇA, F. H. R.		
trabalhoCompletoEmCongresso	2013		Constructal Design of a Rectangular Fin Intruded into Forced Convcective Lid-Driven Cavity Flows	Constructal Law Conference (CLC)	SANTOS, E. D. dos ; ISOLDI, L. A. ; Souza, J. A. ; GOULART, M. M. ; RODRIGUES, M. K. ; SEIBT, F. M. ; SOUZA, R. V. ; ROCHA, L. A. O.		
trabalhoCompletoEmCongresso	2013		Human Computer Interface (HCI) for Intelligent Maintenance Systems (IMS): The role of Human Factors	8th World Congress on Engineering Asset Management 3rd International Conference on Utility Management Safety	DUARTE FILHO, N. ; Botelho, Silvia S. C. ; BICHET, M. A. ; PENNA, R. ; SCHROEDER, Greyce Nogueira ; NAGEL, R. ; ESPINDOLA, Danúbia Bueno ; Carlos Eduardo ; HELLINGRATH, B. ; CORDES, A.		
trabalhoCompletoEmCongresso	2013		Open Issues for Interfaces on Spare Parts Supply Chain Systems: A Content Generation Methodology	8th World Congress on Engineering Asset Management 3rd International Conference on Utility Management Safety	ESPINDOLA, Danúbia Bueno ; PEREIRA, CARLOS ; C. Botelho, Silvia S. ; DUARTE FILHO, Nelson Lopes ; HENRIQUES, Renato Ventura Bayan		
trabalhoCompletoEmCongresso	2013		Interface Móvel de Visualização Avançada aplicada a Sistemas da Indústria Naval	NAVCOMP - Simpósio em Computação e Automação para Indústria Naval	ESPINDOLA, Danúbia Bueno ; WEIS, A. ; SILVA, B. ; Botelho, Silvia S. C. ; pereira, c. e.		
trabalhoCompletoEmCongresso	2013		Ferramentas para Avaliação de Alternativas de Expansão dos Portos Brasileiros	NAVTEC - Conferência Internacional em Tecnologias Naval e Offshore: Energia e Sustentabilidade	FERNANDES, E. H. L.; CUCHIARA, Débora ; Moller, Osmar O. ; GONÇALVES, Glauber Acunha ; MARQUES, W. C. ; CUEVO, D. ; ALMEIDA, A.		
trabalhoCompletoEmCongresso	2013		Simulação das Circulações Locais no Rio Grande do Sul: Formação e Interação das Brisas no Interior e Região Costeira : uma comparação entre a brisa marítima/terrrestre em Rio Grande, Brasil e Punta del Este, Uruguai	XV Congreso Latinoamericano de Ciencias del Mar	Gambetá-Leite, M. R. S. ; KRUSCHE, N.		
trabalhoCompletoEmCongresso	2013		Estudo da influência de diferentes núcleos nas propriedades mecânicas de estruturas sanduíche utilizando ensaios de resistência a tensão nas faces e ao cisalhamento do núcleo	12º Congresso Brasileiro de Polímeros	GARAY, A. C. ; KERCHE, E. F. ; Souza, J. A. ; Amico, Sandro C.		
trabalhoCompletoEmCongresso	2013		TWO-DIMENSIONAL GEOMETRIC OPTIMIZATION OF AN OSCILLATING WATER COLUMN CONVERTER OF REAL SCALE	TWO-DIMENSIONAL GEOMETRIC OPTIMIZATION OF AN OSCILLATING WATER COLUMN CONVERTER OF REAL SCALE	GOMES, M. das N. ; DOS SANTOS, E. D. ; ISOLDI, L. A. ; ROCHA, L. A. O.		
trabalhoCompletoEmCongresso	2013		Modelagem computacional e otimização geométrica 2D com constructal design de um dispositivo do tipo coluna de água oscilante em escala real - Comparação onshore e offshore	Iberian Latin American Congress on Computational Methods in Engineering (CILAMCE)	GOMES, M. das N. ; WAESS, K. R. ; ISOLDI, L. A. ; DOS SANTOS, E. D. ; ROCHA, L. A. O.		
trabalhoCompletoEmCongresso	2013		DINÂMICA DE CABOS UMBILICAIS COM VEÍCULOS SUBAQUÁTICOS DO TIPO ROV	XI Simpósio Brasileiro de Automação Inteligente	GOMES, S. C. P.; Rocha, I. B. P.		
trabalhoCompletoEmCongresso	2013		MODELAGEM DINÂMICA CONTROLE COM ESTRUTURA VARIÁVEL APLICADO A UM ATUADOR ROBÓTICO	XI Simpósio Brasileiro de Automação Inteligente	GOMES, S. S. ; GOMES, S. C. P.		
trabalhoCompletoEmCongresso	2013		Performance Evaluation of BRISK Algorithm on Mobile Devices	8th International Joint Conference on Computer Vision	GULARTE, A. ; THOMASI, C. D. ; DE BEM, R. A. ; ADAMATTI, D. F.		
trabalhoCompletoEmCongresso	2013		Underwater SLAM: An Overview	First Brazilian Workshop on Service Robotics (BRASERO 2013)	GUTH, F. ; SILVEIRA, L. ; DREWS, P. ; Botelho, Silvia S. C.		
trabalhoCompletoEmCongresso	2013		Constructal Design of Perforated Steel Plates Subject to Linear Elastic And Nonlinear Elasto-Plastic Buckling	Iberian Latin American Congress on Computational Methods in Engineering (CILAMCE)	Helbig, D. ; REAL, M. V. ; CORREIA, A. L. G. ; Dos Santos, E. D. ; ISOLDI, L. A. ; ROCHA, L. A. O.		
trabalhoCompletoEmCongresso	2013		Constructal Design of Earth-Air Heat Exchangers	Constructal Law Conference (CLC)	Isoldi, L.A. ; BRUM, R. S. ; RODRIGUES, M. K. ; RAMALHO, J. V. ; Vaz, J ; SOUZA, JEFERSON ÁVILA ; SANTOS, E. D. ; ROCHA, L. A. O.		
trabalhoCompletoEmCongresso	2013		. CONSTRUCTAL DESIGN APPLIED TO THE LIGHT RESIN TRANSFER MOLDING (LRTM) MANUFACTURING PROCESS	22nd International Congress of Mechanical Engineering (COBEM 2013)	Isoldi, Liércio A. ; Souza, J. A. ; dos SANTOS, E. D. ; MARCHESINI, R. ; PORTO, J. da S. ; LETZOW, M. ; ROCHA, L. A. O. ; AMICO, S. C.		
trabalhoCompletoEmCongresso	2013		Harvesting the Currents Power on the Southern Brazilian Shelf	XXth TELEMAC-MASCARET User Conference	KIRINUS, E. P. ; STRINGARI, C. E. ; MARQUES, W. C. ; MATZENAUER, H. B.		
trabalhoCompletoEmCongresso	2013		Análise não-linear de vigas de concreto armado e protendido através do método dos elementos finitos	55º Congresso Brasileiro do Concreto - IBRACON	KUNZLER, P. S. ; REAL, M. V. ; CAMPOS FILHO, Américo		
trabalhoCompletoEmCongresso	2013		CONSTRUCTAL DESIGN OF NON-UNIFORM X-SHAPED CAVITY	International Congress of Mechanical Engineering (COBEM)	GARCIA, F. L. ; DOS SANTOS, E. D. ; ISOLDI, L. A. ; ROCHA, L. A. O.		
trabalhoCompletoEmCongresso	2013		Educational Robotics: Introduction to Algorithms in the early years through the Topobo	Simpósio Internacional de Informática Educativa	M, Santin ; SILVA, J. A. ; Botelho, Silvia S. C.		
trabalhoCompletoEmCongresso	2013		NUMERICAL STUDY OF RESIN DISTRIBUTION IN TWO DIFFERENT ARRANGEMENTS OF VASCULAR CHANNELS BY MEANS OF CONSTRUCTAL DESIGN	International Congress of Mechanical Engineering (COBEM)	MACHADO, R. N. ; ISOLDI, L. A. ; Dos Santos, E. D. ; ROCHA, L. A. O.		
trabalhoCompletoEmCongresso	2013		Concreto não conforme: análise da influência do local do ensaio nos resultados de resistência à compressão de um mesmo lote	55º Congresso Brasileiro do Concreto - IBRACON	MAGALHÃES, F. C. ; CHIES, J. A. ; SILVA, B. V. ; REAL, M. V. ; SILVA FILHO, L. C. P.		
trabalhoCompletoEmCongresso	2013		Resolution refinement technique in a Smoothed Particle Hydrodyanamics numerical flume for coastal engineering applications	V International Conference on Computational Methods in Marine Engineering - MARINE 2013	Neves D. ; Didier, E. ; TEIXEIRA, P. R. F. ; Neves, M. G.		
trabalhoCompletoEmCongresso	2013		Análise do Feedback em Software Gerador de Atividades Online	2º Seminário Nacional de Inclusão Digital	OLIVEIRA, L. R. V. ; ADAMATTI, D. F.		
trabalhoCompletoEmCongresso	2013		Modelo Heurístico para o Problema de P-Medianas Aplicado em Serviços de Saneamento	IV Simpósio Internacional de Inovação Tecnológica	OLIVEIRA, S. ; PEREIRA, E. C. ; MACHADO, C.M.S.		
trabalhoCompletoEmCongresso	2013		DYNAMIC MODELING OF CABLES WITH UNDERWATER APPLICATIONS	XXII International Congress of Mechanical Engineering	PEREIRA, Adriana Elisa Ladeira ; GOMES, S. C. P. ; BORTOLI, A. L.		
trabalhoCompletoEmCongresso	2013		Modelo trilinear para análise de vigas de concreto armado reforçadas com polímero reforçado com fibras de carbono	55º Congresso Brasileiro do Concreto - IBRACON	Pinheiro, L.C.L. ; REAL, M. V.		
trabalhoCompletoEmCongresso	2013		Mobilidade Urbana em Rio Grande - RS: uma visão interdisciplinar	Simpósio Internacional sobre Interdisciplinaridade no Ensino	QUADROS, C. ; FREITAS, C. R. ; SILVA, M. ; ANTIQUEIRA, L. ; PUREZA, S. ; HERNANDES, F. ; GAUTERIO, E. ; SILVEIRA, J. ; Emmendorfer, Leonardo Ramos		
trabalhoCompletoEmCongresso	2013		Analysis of Reinforced Concrete Structures in the Light of the Constructal Law	Constructal Law Conference CLC 2013	Real, M. de V. ; ISOLDI, L. A. ; DOS SANTOS, E. D. ; RACKOW, P. B. ; Rocha, L.A.O.		
trabalhoCompletoEmCongresso	2013		Constructal Design of Turbulent Forced Convective Flows over a Pair of Circular cylinders	Constructal Law Conference (CLC)	ROCHA, L. A. O. ; GOMES, M. N. ; PORTE, A. F. ; GALARÇA, M. M. ; ACUNHA JUNIOR, I. C. ; DA SILVA, F. M. V. ; ISOLDI, L. A. ; SANTOS, E. D.		
trabalhoCompletoEmCongresso	2013		Sistemas Multiagentes em Modelagem por Redes de Petri: Um Estudo de Caso	II Workshop em Sistemas e Processos Industriais	ROSA, A. M. ; SPEROTTO, F. A. ; ADAMATTI, D. F.		
trabalhoCompletoEmCongresso	2013		Integrando Artefatos CartAgO para Simulação da Produção e Gestão Social de um Ecossistema Urbano: o caso da Horta San Jerónimo em Sevilla - Espanha	VII Workshop-Escola de Sistemas de Agentes	SANTOS, F. C. P. ; DONANCIO, H. ; RODRIGUES, T. ; DIMURO, G. ; ADAMATTI, D. F. ; DIMURO, G. P. ; JEREZ, E. M.		
trabalhoCompletoEmCongresso	2013		Análise numérica do conversor de energia das ondas tipo placa submersa	XXXIV Iberian Latin American Congress on Computational Methods in Engineering	Seibt F.M. ; Souza, J.A. ; dos Santos, Elizaldo Domingues ; TEIXEIRA, PAULO R.F. ; Isoldi, L.A.		
trabalhoCompletoEmCongresso	2013		Análise Numérica da Eficiência do Conversor de Energia das Ondas Tipo Placa Submersa	Iberian Latin American Congress on Computational Methods in Engineering (CILAMCE)	SEIBT, F. M. ; Isoldi, L.A. ; TEIXEIRA, P. R. de F. ; dos SANTOS, E. D. ; Souza, Jeferson A.		
trabalhoCompletoEmCongresso	2013		BIOLOGICAL INSPIRED SYSTEM FOR LOCALIZATION AND MAPPING IN UNDERWATER ENVIRONMENTS	IEEE Oceans	SILVEIRA, L. ; Botelho, Silvia S. C. ; DREWS, P. ; GUTH, F. ; FISCHER, D.		
trabalhoCompletoEmCongresso	2013		3D Robotic Mapping: A Biologic Approach	International Conference in Autonomous Robots	SILVEIRA, L. ; GUTH, F. ; C. Botelho, Silvia S. ; DREWS, P. ; FISCHER, D.		
trabalhoCompletoEmCongresso	2013		Robot Mapping in 3D: A Bioinspired SLAM System	XIV Workshop of Physical Agents (WAF)	SILVEIRA, L. ; GUTH, F. ; DREWS, P. ; Botelho, Silvia S. C.		
trabalhoCompletoEmCongresso	2013		3D Representation Models Construction through a Volume Geometric Decomposition Method	International Conference on Computer Vision Theory and Applications	SIMAS, G. ; BEM, R. ; BOTELHO, S. S. C.		
trabalhoCompletoEmCongresso	2013		3D Representation Models Construction through a Volume Geometric Decomposition Method	International Conference on Computer Vision Theory and Applications	SIMAS, G. ; BEM, R. ; Botelho, Silvia S. C.		
trabalhoCompletoEmCongresso	2013		A 3D Motion Tracking Method Based on Nonparametric Belief Propagation	IEEE International Conference on Robotics and Automation	SIMAS, G. ; BEM, R. ; Botelho, Silvia S. C.		
trabalhoCompletoEmCongresso	2013		NUMERICAL SIMULATION OF AN OWC DEVICE	22nd International Congress of Mechanical Engineering (COBEM 2013)	Souza, J. A. ; Dos Santos, E. D. ; ISOLDI, L. A.		
trabalhoCompletoEmCongresso	2013		Application of TELEMAC System at the Southern Brazilian Shelf: Case Study of Tramandaí Beach Oil Spill	XXth TELEMAC-MASCARET User Conference	STRINGARI, C. E. ; MACHADO, M. I. C. S. ; KIRINUS, E. P. ; MARQUES, W. C.		
trabalhoCompletoEmCongresso	2013		Análise numérica da vibração induzida por vórtices a baixos números de Reynolds em um cilindro sob base elástica	Congreso de Métodos Numéricos en ingeniería - CMN 2013	TEIXEIRA, P. R. F.; Gonçalves R.A. ; Didier, E.		
trabalhoCompletoEmCongresso	2013		Usando Exergame como ambiente virtual de aprendizagem para o tênis de mesa: uma abordagem baseada na motivação intrínseca	SBGames ? Simpósio Brasileiro de Games e Entretenimento Digital - Joint Conference com ICEC 2013	VAGHETTI, C. A. O. ; VIEIRA, K. ; MAZZA, S. ; C. Botelho, S. Silvia		
trabalhoCompletoEmCongresso	2013		A Utilização das TIC no Ensino de Geografia sob a Percepção Construtivista	2º Seminário Nacional de Inclusão Digital	VARGAS, C. B. ; ADAMATTI, D. F.		
trabalhoCompletoEmCongresso	2013		O uso de controladores fuzzy na reconstrução de construtos: um estudo exploratório	XXXIII Encontro Nacional de Engenharia de Produção	VITICOSKI, R. L. ; AGREDA, L. M. ; MATTOS, V. L. D.		
trabalhoCompletoEmCongresso	2013		Multi-Agent-Based Simulation of Mycobacterium tuberculosis growth	14th International Workshop on Multi-Agent-Based Simulation	WERLANG, P. ; FAGUNDES, M. Q. ; ADAMATTI, D. F. ; MACHADO, K. S. ; GROLL, A. V. ; SILVA, P. E. A. ; WERHLI, A. V.		
resumoExpandidoEmCongresso	2013	Estudo preliminar sobre a influência de forçantes externas na trajetória de navios	X Simpósio sobre Ondas, Marés, Engenharia Oceânica e Oceanografia por Satélite, 2013, 2013, Arraial do Cabo. Anais do IX Simpósio sobre Ondas, Marés, Engenharia Oceânica e Oceanografia por Satélite, 2013	ARMUDI, A. ; MARQUES, W. C. ; BRAVO, L. S. ; Guimarães, P. V. ; Fernandes, E. H.		
resumoExpandidoEmCongresso	2013	Estudo preliminar sobre a influência das ondas na dinâmica de navios	NAVTEC - II Conferência Internacional em Tecnologias Naval e Offshore: Energia e Sustentabilidade Sustentabilidade, 2013, Rio Grande. NAVTEC - II Conferência Internacional em Tecnologias Naval e Offshore: Energia e Sustentabilidade. Rio Grande	ARMUDI, A. ; SANTOS, J. C. F. ; MARQUES, W. C. ; FERNANDES, E. H. L.		
resumoExpandidoEmCongresso	2013	Influência da variabilidade temporal da descarga fluvial na hidrodinâmica da Lagoa dos Patos, RS, Brasil	X Simpósio sobre Ondas, Marés, Engenharia Oceânica e Oceanografia por Satélite, 2013, 2013, Arraial do Cabo. Anais do IX Simpósio sobre Ondas, Marés, Engenharia Oceânica e Oceanografia por Satélite, 2013	Barros, G. P. ; MARQUES, W. C.		
resumoExpandidoEmCongresso	2013	NetLogo como Ferramenta para Estudos em Sistemas Multiagentes	2º Seminário Nacional de Inclusão Digital, 2013, Passo Fundo / RS. SENID 2013. Passo Fundo / RS: UPF	BASTOS, N. ; ADAMATTI, D. F.		
resumoExpandidoEmCongresso	2013	Simulação baseada em agentes para um sistema de apoio à decisão na dispersão de poluentes	VII Workshop-Escola de Sistemas de Agentes, seus Ambientes e apliCações, 2013, São Paulo / SP. WESAAC 2013. São Paulo / SP: EDUSP	BASTOS, N. ; ADAMATTI, D. F.		
resumoExpandidoEmCongresso	2013	Um experimento sobre dispersão de poluentes para a cidade de Rio Grande/RS utilizando o simulador SUMO	IV Simpósio de Tecnologia da Informação do Noroeste do RS, 2013, Cruz Alta / RS. STIN 2013. Cruz Alta / RS: UNICRUZ	BORN, M. B. ; ADAMATTI, D. F.		
resumoExpandidoEmCongresso	2013	SIGNUN - Tradutor e Player de Libras	2º SEminário Nacional de Inclusão Digital, 2013, Passo Fundo / RS. SENID 2013. Passo Fundo / RS: UPF	CASSALES, V. ; FELIPE, C. I. M. ; ADAMATTI, D. F. ; SIEDERSBERGER, D. ; RODRIGUES, F. ; DORNELES, L. Q. ; HECKLER, I. R.		
resumoExpandidoEmCongresso	2013	Simulação e Análise da Malária Utilizando Sistemas Multiagentes	VII Workshop-Escola de Sistemas de Agentes, seus Ambientes e apliCações, 2013, São Paulo / SP. WESAAC 2013. São Paulo / SP: EDUSP	COSTA, L. M. ; ADAMATTI, D. F.		
resumoExpandidoEmCongresso	2013	Ferramentas para avaliação de alternativas de expansão dos Portos Brasileiros	NAVTEC - II Conferência Internacional em Tecnologias Naval e Offshore: Energia e Sustentabilidade Sustentabilidade, 2013, Rio Grande. NAVTEC - II Conferência Internacional em Tecnologias Naval e Offshore: Energia e Sustentabilidade	FERNANDES, E. H. ; CUCHIARA, D. ; ACUNHA, G. ; MARQUES, W. C. ; Möller Jr., O. O. ; CUEVA, D. ; ALMEIDA JR., A.		
resumoExpandidoEmCongresso	2013	SCIENTIFIC TOOLS FOR SUSTAINABLE PORT DEVELOPMENT: PORT F RIO GRANDE, BRAZIL	22nd Biennal Conference of the Coastal and Estuarine Research Federation, 2013, San Diego. CERF 2013	FERNANDES, E. H. L.; CUCCHIARA, Débora ; CUEVO, D. ; ALMEIDA, A. ; GONÇALVES, Glauber Acunha ; MARQUES, W. C. ; MOLLER JR, Osmar Olinto		
resumoExpandidoEmCongresso	2013	Um Estudo sobre as Funções de Variáveis Complexas Utilizando o ?Software wxMaxima'	12a Mostra de Produção Universitária, 2013, Rio Grande. Anais da MPU. Rio Grande: Editora da FURG	Ferreira, J. A. ; Garcia, L. G ; Rodriguez, Barbara D. do Amaral ; POFFAL, C. A. ; Sperotto, F. A.		
resumoExpandidoEmCongresso	2013	Tecnologia Assistiva: Proposta de Aplicativo Móvel com Intuito de Aumentar a Comunicação de Pessoas com Deficiência e/ou Necessidades Específicas	CBCA 2013, 2013, Gramado / RS. V Congresso de Comunicação Alternativa. Gramado / RS: UFRGS	GELATTI, G. J. ; BARWALDT, R. ; ADAMATTI, D. F. ; FELIPE, C. I. M. ; LOBATO, L. C.		
resumoExpandidoEmCongresso	2013	Análise numérica de um dispositivo coluna de água oscilante considerando uma restrição física na chaminé de saída	Conferência Internacional em Tecnologias Naval e Offshore: Energia e Sustentabilidade (NAVTEC), 2013, Rio Grande. Anais do NAVTEC 2013. Rio Grande: FURG	GOMES, M. das N. ; ROCHA, L. A. O. ; ISOLDI, L. A. ; DOS SANTOS, E. D. ; SEIBT, F. M.		
resumoExpandidoEmCongresso	2013	Modelagem de Alocação de Recursos Utilizando DCOP: Revisão dos Algoritmos Existentes	VII Workshop-Escola de Sistemas de Agentes, seus Ambientes e apliCações, 2013, São Paulo / SP. WESAAC 2013. São Paulo / SP: EDUSP	GULARTE, A. ; ADAMATTI, D. F.		
resumoExpandidoEmCongresso	2013	Proposta de Alocação de Redes Virtuais Baseada em DCOP	Workshop-Escola de Informática Teórica, 2013, Rio Grande / RS. WEIT 2013. Rio Grande / RS: EFURG	GULARTE, A. ; MENDIZABAL, O. M. ; BARBOSA, R. M. ; ADAMATTI, D. F.		
resumoExpandidoEmCongresso	2013	Análise Numérica do Comportamento Mecânico sob Flexão de Placas Finas de Material Compósito Laminado Reforçado por Fibras	Conferência Internacional em Tecnologias Naval e Offshore: Energia e Sustentabilidade (NAVTEC-2013), 2013, Rio Grande. Anais da NAVTEC 2013. Rio Grande: FURG	HELBIG, D. ; DA SILVA, C. C. C. ; REAL, M. V. ; VAZ, J. ; ROCHA, L. A. O. ; DOS SANTOS, E. D. ; ISOLDI, L. A.		
resumoExpandidoEmCongresso	2013	Sítio de conversores de energia das correntes marinhas e seus efeitos nas correntes costeiras	NAVTEC - II Conferência Internacional em Tecnologias Naval e Offshore: Energia e Sustentabilidade Sustentabilidade, 2013, Rio Grande. NAVTEC - II Conferência Internacional em Tecnologias Naval e Offshore: Energia e Sustentabilidade. Rio Grande	KIRINUS, E. P. ; STRINGARI, C. E. ; MARQUES, W. C.		
resumoExpandidoEmCongresso	2013	Simulation of land use impacts in the climate of southern Brazil	International Conference on Regional Climate - CORDEX 2013, 2013, Bruxelas, Bélgica. International Conference on Regional Climate - CORDEX 2013. Paris, França: website created by WCRP-Support Unit (Paris) - IPSL	KRUSCHE, N.; DA ROCHA, R. P. ; YNOUE, R. Y. ; Ambrizzi, T ; MORALES, C. A. ; BOTELHO, S. S. C. ; Duarte Filho, N.		
resumoExpandidoEmCongresso	2013	Variações geomorfológicas do Pontal Sul do Estuário da Laguna dos Patos RS- Brasil	3 Mostra de Produção Científica, 2013, Rio Grande. 3 Mostra de Produção Científica	LISBOA, P. V. ; FERNANDES, E. H. L. ; ESPINOZA, J. ; ALBUQUERQUE, M. G.		
resumoExpandidoEmCongresso	2013	Constructal Design Aplicado ao Processo de Fabricação Light Resin Transfer Molding (LRTM)	Mostra de Produção Universitária (MPU), 2013, Rio Grande. Anais da 12ª MPU. Rio Grande: FURG	MARCHESINI, R. ; SOUZA, J. A. ; DOS SANTOS, E. D. ; ISOLDI, L. A.		
resumoExpandidoEmCongresso	2013	Simulating Consumers Energy Profiles through Multiagent Systems	VII Workshop-Escola de Sistemas de Agentes, seus Ambientes e Aplicações, 2013, São Paulo. WESAAC	MOTA, F. ; ROSA, V. ; Dimuro, G ; Botelho, Silvia S. C.		
resumoExpandidoEmCongresso	2013	Análise de estruturas portuárias através do método dos elementos finitos	12ª Mostra da Produção Universitaria, 2013, Rio Grande. Anais. Rio Grande: FURG	NUNES, M. L. ; REAL, M. V.		
resumoExpandidoEmCongresso	2013	Estimativas de Vazão da lagoa Mirim e a Contribuição dos Afluente Cebollati, Taçuari e Piratini, Pap013528	XX Simpósio Brasileiro de Recurso Hídricos, 2013, Bento Gonçalves - RS. XX Simpósio Brasileiro de Recurso Hídricos	OLIVEIRA, H. A. ; MOLLER JR, Osmar Olinto ; FERNANDES, E. H. L. ; COLLARES, G. L.		
resumoExpandidoEmCongresso	2013	Um método de agrupamento de dados por transferência'	XII Mostra da Produção Universitária - XV Encontro de Pós-Graduação, 2013, Rio Grande. Anais da XII Mostra da Produção Universitária	PEREIRA, I. A. ; MACHADO, K. S. ; BORGES, E. N. ; Emmendorfer, Leonardo		
resumoExpandidoEmCongresso	2013	Linear and Nonlinear Buckling Analysis of Perforated Steel Plates	Conferência Internacional em Tecnologias Naval e Offshore: Energia e Sustentabilidade (NAVTEC-2013), 2013, Rio Grande. Anais da NAVTEC 2013. Rio Grande: FURG	REAL, M. V. ; Isoldi, Liércio A. ; DAMAS, A. P.		
resumoExpandidoEmCongresso	2013	Teleconnection Patterns related to Dry Years in the Extreme South of Brazil	UNCCD 2nd Scientific Conference, 2013	Reboita, MS ; Krusche, N		
resumoExpandidoEmCongresso	2013	Investigação Numérica de um Tubo Vortex com Diferentes Comprimentos	Mostra de Produção Universitária (MPU), 2013, Rio Grande. Anais da 12ª MPU. Rio Grande: FURG	RODRIGUES, P. M. ; ISOLDI, L. A. ; MARQUES, C. H. ; Rocha, L.A.O. ; DOS SANTOS, E. D. ; SOUZA, J. A.		
resumoExpandidoEmCongresso	2013	Estudo Numérico de um Dispositivo Tipo Placa Submersa Atuando como Quebra-mar e Conversor de Energia das Ondas	Mostra de Produção Universitária (MPU), 2013, Rio Grande. Anais da 12ª MPU. Rio Grande: FURG	SEIBT, F. M. ; DOS SANTOS, E. D. ; Teixeira, P. R. F. ; ISOLDI, L. A.		
resumoExpandidoEmCongresso	2013	Simulação Numérica Aplicada ao Estudo de Conversores de Energia das Ondas do Mar em Energia Elétrica	Conferência Internacional em Tecnologias Naval e Offshore: Energia e Sustentabilidade (NAVTEC), 2013, Rio Grande. Anais do NAVTEC 2013. Rio Grande: FURG	SEIBT, F. M. ; LETZOW, M. ; GOMES, M. N. ; Souza, Jeferson A. ; ROCHA, L. A. O. ; dos SANTOS, E. D. ; Isoldi, Liércio A.		
resumoExpandidoEmCongresso	2013	O potencial energético do gradiente térmico na Plataforma Continental do Sul do Brasil	X Simpósio sobre Ondas, Marés, Engenharia Oceânica e Oceanografia por Satélite, 2013, 2013, Arraial do Cabo. Anais do IX Simpósio sobre Ondas, Marés, Engenharia Oceânica e Oceanografia por Satélite, 2013	SOUZA, R. V. ; MARQUES, W. C.		
resumoExpandidoEmCongresso	2013	The influence of winds and coastal currents on the oil spill event: Case Study of Tramandaí Beach, 26th January 2012	NAVTEC - II Conferência Internacional em Tecnologias Naval e Offshore: Energia e Sustentabilidade Sustentabilidade, 2013, Rio Grande. NAVTEC - II Conferência Internacional em Tecnologias Naval e Offshore: Energia e Sustentabilidade. Rio Grande	STRINGARI, C. E. ; MARQUES, W. C. ; MELLO, L. F.		
resumoExpandidoEmCongresso	2013	Modelagem Computacional do Princípio de Funcionamento de um Conversor de Energia das Ondas do Mar em Energia Elétrica do Tipo Seawave Slot-Cone Generator (SSG)	Mostra de Produção Universitária (MPU), 2013, Rio Grande. Anais da 12ª MPU. Rio Grande: FURG	VASCONCELLOS, L. S. ; RUBIN, L. M. ; GOULARTE, M. ; DOS SANTOS, E. D. ; ISOLDI, L. A.		
