ID_Lattes|MATRICULA|NOME|CH|mail|LP_1|PROGRAMA_1|CATEG_1|Periodo_Inicio_1|Periodo_Fim_1|Resp_prog|Resp_LP1
K4799601T0|99999|HELIO GOMES DE CARVALHO|40|UTFPR@UTFPR.br|UTFPR|UTFPR|P|2013|2016|UTFPR|UTFPR
K4782492P8|99999|GILSON LEANDRO QUELUZ|40|UTFPR@UTFPR.br|UTFPR|UTFPR|P|2013|2016||
K8615772T6|99999|GERALDO AUGUSTO PINTO|40|UTFPR@UTFPR.br|UTFPR|UTFPR|P|2013|2016||
K4707344P5|99999|FRANCIS KANASHIRO MENEGHETTI|40|UTFPR@UTFPR.br|UTFPR|UTFPR|P|2013|2016||
K4790242U8|99999|FAIMARA DO ROCIO STRAUHS|40|UTFPR@UTFPR.br|UTFPR|UTFPR|P|2013|2016||
K4797831P0|99999|ELOY FASSI CASAGRANDE JUNIOR|40|UTFPR@UTFPR.br|UTFPR|UTFPR|P|2013|2016||
NOK|99999|EDUARDO LEITE KRUGER|40|UTFPR@UTFPR.br|UTFPR|UTFPR|P|2013|2016||
K4768322Z7|99999|DOMINGOS LEITE LIMA FILHO|40|UTFPR@UTFPR.br|UTFPR|UTFPR|P|2013|2016||
K4452109T8|99999|VALDIR FERNANDES|40|UTFPR@UTFPR.br|UTFPR|UTFPR|P|2013|2016||
K4705367J6|99999|RONALDO DE OLIVEIRA CORREA|40|UTFPR@UTFPR.br|UTFPR|UTFPR|P|2013|2016||
K4798335D1|99999|NILSON MARCOS DIAS GARCIA|40|UTFPR@UTFPR.br|UTFPR|UTFPR|P|2013|2016||
K4771761H5|99999|SARASPATHY NAIDOO TERROSO GAMA DE MENDONCA|40|UTFPR@UTFPR.br|UTFPR|UTFPR|P|2013|2016||
K4738257A6|99999|PAULO LOPES DE MENEZES|40|UTFPR@UTFPR.br|UTFPR|UTFPR|P|2013|2016||
K4779158H2|99999|PAULO CESAR TONIN|40|UTFPR@UTFPR.br|UTFPR|UTFPR|P|2013|2016||
K4792126P7|99999|JOSE AIRTON AZEVEDO DOS SANTOS|40|UTFPR@UTFPR.br|UTFPR|UTFPR|P|2013|2016||
K4770806Y5|99999|FABIANA COSTA DE ARAUJO SCHUTZ|40|UTFPR@UTFPR.br|UTFPR|UTFPR|P|2013|2016||
K4735162D0|99999|EVERTON COIMBRA DE ARAUJO|40|UTFPR@UTFPR.br|UTFPR|UTFPR|P|2013|2016||
K4790518Y2|99999|CARLOS APARECIDO FERNANDES|40|UTFPR@UTFPR.br|UTFPR|UTFPR|P|2013|2016||
K4705027A3|99999|AUGUSTO VAGHETTI LUCHESE|40|UTFPR@UTFPR.br|UTFPR|UTFPR|P|2013|2016||
K4592604H6|99999|CLAUDIO LEONES BAZZI|40|UTFPR@UTFPR.br|UTFPR|UTFPR|P|2013|2016||
K4297973T6|99999|GLAUCIA CRISTINA MOREIRA|40|UTFPR@UTFPR.br|UTFPR|UTFPR|P|2013|2016||
K4773019Z5|99999|PEDRO LUIZ DE PAULA FILHO|40|UTFPR@UTFPR.br|UTFPR|UTFPR|P|2013|2016||
NOK|99999|SILVANA LIGIA VINCENZI BORTOLOTTI|40|UTFPR@UTFPR.br|UTFPR|UTFPR|P|2013|2016||
K4759549D0|99999|DANIEL RODRIGUES BLANCO|40|UTFPR@UTFPR.br|UTFPR|UTFPR|P|2013|2016||
K4728988U2|99999|CARLA ADRIANA PIZARRO SCHMIDT|40|UTFPR@UTFPR.br|UTFPR|UTFPR|P|2013|2016||
K4723425E7|99999|NESTOR CORTEZ SAAVEDRA FILHO|40|UTFPR@UTFPR.br|UTFPR|UTFPR|P|2013|2016||
K4767389H6|99999|DECIO ESTEVAO DO NASCIMENTO|40|UTFPR@UTFPR.br|UTFPR|UTFPR|P|2013|2016||
K4798849Z9|99999|DARIO EDUARDO AMARAL DERGINT|40|UTFPR@UTFPR.br|UTFPR|UTFPR|P|2013|2016||
K4777954H6|99999|CHRISTIAN LUIZ DA SILVA|40|UTFPR@UTFPR.br|UTFPR|UTFPR|P|2013|2016||
K4783350D1|99999|CELSO JOAO FERRETTI|40|UTFPR@UTFPR.br|UTFPR|UTFPR|P|2013|2016||
K4773784A6|99999|NANCI STANCKI DA LUZ|40|UTFPR@UTFPR.br|UTFPR|UTFPR|P|2013|2016||
NOK|99999|MÁRIO LOPES AMORIM|40|UTFPR@UTFPR.br|UTFPR|UTFPR|P|2013|2016||
K4700258H0|99999|MARINES RIBEIRO DOS SANTOS|40|UTFPR@UTFPR.br|UTFPR|UTFPR|P|2013|2016||
K4788033U8|99999|MARILIA GOMES DE CARVALHO|40|UTFPR@UTFPR.br|UTFPR|UTFPR|P|2013|2016||
K4775789A6|99999|MARILIA ABRAHAO AMARAL|40|UTFPR@UTFPR.br|UTFPR|UTFPR|P|2013|2016||
K4706842J7|99999|MARILENE ZAZULA BEATRIZ|40|UTFPR@UTFPR.br|UTFPR|UTFPR|P|2013|2016||
K4728117T4|99999|MARILDA LOPES PINHEIRO|40|UTFPR@UTFPR.br|UTFPR|UTFPR|P|2013|2016||
K4788155Z2|99999|MACLOVIA CORREA DA SILVA|40|UTFPR@UTFPR.br|UTFPR|UTFPR|P|2013|2016||
K4723105D5|99999|LUIZ ERNESTO MERKLE|40|UTFPR@UTFPR.br|UTFPR|UTFPR|P|2013|2016||
K4728092D6|99999|LUCIANA MARTHA SILVEIRA|40|UTFPR@UTFPR.br|UTFPR|UTFPR|P|2013|2016||
K4777342E1|99999|LINDAMIR SALETE CASAGRANDE|40|UTFPR@UTFPR.br|UTFPR|UTFPR|P|2013|2016||
K4777549Y2|99999|LEONELO DELL ANHOL ALMEIDA|40|UTFPR@UTFPR.br|UTFPR|UTFPR|P|2013|2016||
K4723029J0|99999|ANGELA MARIA RUBEL FANINI|40|UTFPR@UTFPR.br|UTFPR|UTFPR|P|2013|2016||
K4793072E0|99999|HERIVELTO MOREIRA|40|UTFPR@UTFPR.br|UTFPR|UTFPR|P|2013|2016||
