strict graph grafo2 {
	graph [bb="0,0,1214.5,273",
		id=grafo2,
		overlap=False
	];
	node [fontsize=8,
		label="\N",
		shape=rectangle,
		style=filled
	];
	0	 [URL="http://lattes.cnpq.br/0812422122265124",
		color="#17272B",
		fontcolor="#FFFFFF",
		height=0.23611,
		label="Regina C. Baptista Belluzzo [0]",
		pos="59,264.5",
		width=1.6389];
	1	 [URL="http://lattes.cnpq.br/1621055168002551",
		color="#17272B",
		fontcolor="#FFFFFF",
		height=0.23611,
		label="Maria da G. Mello Ferracioli [0]",
		pos="196,264.5",
		width=1.6667];
	2	 [URL="http://lattes.cnpq.br/5849711278501873",
		color="#17272B",
		fontcolor="#FFFFFF",
		height=0.23611,
		label="Juliano Maurício de Carvalho [7]",
		pos="232,200.5",
		width=1.7083];
	10	 [URL="http://lattes.cnpq.br/9910965797411044",
		color="#17272B",
		fontcolor="#FFFFFF",
		height=0.23611,
		label="Francisco Rolfsen Belda [4]",
		pos="221,136.5",
		width=1.4722];
	2 -- 10	 [fontsize=8,
		label=1.0,
		lp="226.5,168.5",
		pos="227.66,191.57 225.17,186.55 222.29,179.84 221,173.5 219.04,163.82 219.5,152.38 220.14,145.03"];
	13	 [URL="http://lattes.cnpq.br/3036916968393237",
		color="#17272B",
		fontcolor="#FFFFFF",
		height=0.23611,
		label="Juarez T. de Paula Xavier [5]",
		pos="432,136.5",
		width=1.5278];
	2 -- 13	 [fontsize=8,
		label=2.0,
		lp="260.5,168.5",
		pos="234.7,191.76 238.06,183.34 244.66,170.19 255,163.5 260.17,160.16 326.79,150.99 376.78,144.49"];
	16	 [URL="http://lattes.cnpq.br/5884461869811166",
		color="#17272B",
		fontcolor="#FFFFFF",
		height=0.23611,
		label="Antonio Francisco Magnoni [12]",
		pos="562,8.5",
		width=1.6944];
	2 -- 16	 [fontsize=8,
		label=4.0,
		lp="184.5,104.5",
		pos="212.81,191.82 186.25,179.95 143.22,155.59 159,127.5 185.76,79.848 212.92,82.923 264,63.5 342.63,33.603 439.38,19.983 500.88,13.973"];
	17	 [URL="http://lattes.cnpq.br/1882712230914196",
		color="#17272B",
		fontcolor="#FFFFFF",
		height=0.23611,
		label="Antonio Carlos Sementille [6]",
		pos="432,72.5",
		width=1.5694];
	10 -- 17	 [fontsize=8,
		label=1.0,
		lp="337.5,104.5",
		pos="242.99,127.94 265.3,120.37 300.88,108.58 332,99.5 354.9,92.815 381,86.059 400.79,81.109"];
	12	 [URL="http://lattes.cnpq.br/3280707979820725",
		color="#17272B",
		fontcolor="#FFFFFF",
		height=0.23611,
		label="Denis Porto Renó [6]",
		pos="315,72.5",
		width=1.1806];
	10 -- 12	 [fontsize=8,
		label=1.0,
		lp="253.5,104.5",
		pos="225,127.89 229.58,119.84 237.79,107.24 248,99.5 259.04,91.132 273.1,85.133 285.49,81.021"];
	13 -- 17	 [fontsize=8,
		label=1.0,
		lp="437.5,104.5",
		pos="432,127.9 432,116 432,93.102 432,81.165"];
	12 -- 16	 [fontsize=8,
		label=4.0,
		lp="458.5,40.5",
		pos="345.29,63.898 392.82,51.966 484.4,28.978 531.85,17.068"];
	3	 [URL="http://lattes.cnpq.br/1233049484488761",
		color="#17272B",
		fontcolor="#FFFFFF",
		height=0.23611,
		label="Joao Fernando Marar [6]",
		pos="322,264.5",
		width=1.3333];
	3 -- 10	 [fontsize=8,
		label=1.0,
		lp="156.5,200.5",
		pos="279.53,255.98 234.05,246.96 166.32,230.4 151,209.5 131.93,183.49 176.98,157.47 203.43,145.04"];
	3 -- 17	 [fontsize=8,
		label=6.0,
		lp="328.5,168.5",
		pos="320.78,255.94 317.65,233.99 311.43,169.17 339,127.5 354.76,103.68 384.9,89.042 406.6,81.121"];
	6	 [URL="http://lattes.cnpq.br/1126886933267406",
		color="#17272B",
		fontcolor="#FFFFFF",
		height=0.23611,
		label="Marcos Américo [9]",
		pos="432,200.5",
		width=1.1389];
	3 -- 6	 [fontsize=8,
		label=1.0,
		lp="388.5,232.5",
		pos="335.49,255.9 356.6,244 397.22,221.1 418.4,209.16"];
	6 -- 10	 [fontsize=8,
		label=2.0,
		lp="294.5,168.5",
		pos="390.78,195.4 361.74,191.7 322.26,185.02 289,173.5 278.02,169.7 250.55,154.43 234.08,145.04"];
	6 -- 13	 [fontsize=8,
		label=1.0,
		lp="437.5,168.5",
		pos="432,191.9 432,180 432,157.1 432,145.16"];
	6 -- 16	 [fontsize=8,
		label=4.0,
		lp="563.5,104.5",
		pos="473.47,197.24 491.6,194.14 511.72,187.47 525,173.5 568.23,128.02 564.95,43.255 562.78,17.272"];
	6 -- 17	 [fontsize=8,
		label=1.0,
		lp="518.5,136.5",
		pos="473.36,195.18 486.95,191.57 500.69,185.08 509,173.5 534.3,138.26 474.4,97.709 445.96,81.146"];
	6 -- 12	 [fontsize=8,
		label=5.0,
		lp="362.5,136.5",
		pos="418.22,191.98 402.08,182.68 375.23,165.57 357,145.5 338.51,125.15 324.33,95.345 318.25,81.331"];
	18	 [URL="http://lattes.cnpq.br/8962021573218552",
		color="#17272B",
		fontcolor="#FFFFFF",
		height=0.23611,
		label="Vania C. P. Nogueira Valente [3]",
		pos="697,136.5",
		width=1.7083];
	6 -- 18	 [fontsize=8,
		label=1.0,
		lp="602.5,168.5",
		pos="471.59,191.96 496.71,187.03 529.85,180.28 559,173.5 597.71,164.5 642.12,152.63 669.87,145.03"];
	4	 [URL="http://lattes.cnpq.br/1650529446656955",
		color="#17272B",
		fontcolor="#FFFFFF",
		height=0.23611,
		label="Luiz E. Martins Morgado [0]",
		pos="879,264.5",
		width=1.5278];
	5	 [URL="http://lattes.cnpq.br/2302756561160804",
		color="#17272B",
		fontcolor="#FFFFFF",
		height=0.23611,
		label="Maria Cristina Gobbi [4]",
		pos="567,200.5",
		width=1.3333];
	5 -- 13	 [fontsize=8,
		label=1.0,
		lp="512.5,168.5",
		pos="550.45,191.9 524.54,180 474.68,157.1 448.69,145.16"];
	5 -- 16	 [fontsize=8,
		label=3.0,
		lp="595.5,104.5",
		pos="577.92,191.94 583.58,187.35 589.92,180.93 593,173.5 594.7,169.39 593.29,167.93 593,163.5 589.21,106.24 593.67,90.1 576,35.5 573.92,\
29.062 570.26,22.35 567.21,17.359"];
	7	 [URL="http://lattes.cnpq.br/8417343618934636",
		color="#17272B",
		fontcolor="#FFFFFF",
		height=0.23611,
		label="Leticia Passos Affini [1]",
		pos="682,72.5",
		width=1.3056];
	7 -- 16	 [fontsize=8,
		label=1.0,
		lp="643.5,40.5",
		pos="670.08,63.899 657.96,56.3 638.5,44.483 621,35.5 607.75,28.703 592.35,21.951 580.6,17.031"];
	8	 [URL="http://lattes.cnpq.br/9638407992652406",
		color="#17272B",
		fontcolor="#FFFFFF",
		height=0.23611,
		label="João Pedro Albino [4]",
		pos="762,264.5",
		width=1.2083];
	8 -- 18	 [fontsize=8,
		label=1.0,
		lp="694.5,200.5",
		pos="743.69,255.92 726.03,247.49 700.35,232.02 689,209.5 678.24,188.16 687.86,158.84 693.53,145.13"];
	9	 [URL="http://lattes.cnpq.br/7838983448809586",
		color="#17272B",
		fontcolor="#FFFFFF",
		height=0.23611,
		label="Humberto Ferasoli Filho [5]",
		pos="762,200.5",
		width=1.4861];
	8 -- 9	 [fontsize=8,
		label=3.0,
		lp="767.5,232.5",
		pos="762,255.9 762,244 762,221.1 762,209.16"];
	14	 [URL="http://lattes.cnpq.br/3751287338655685",
		color="#17272B",
		fontcolor="#FFFFFF",
		height=0.23611,
		label="Jose Luis Bizelli [2]",
		pos="840,136.5",
		width=1.125];
	8 -- 14	 [fontsize=8,
		label=1.0,
		lp="836.5,200.5",
		pos="774.85,255.89 789.14,246.73 811.82,229.99 824,209.5 836.43,188.59 839.23,159.06 839.84,145.22"];
	9 -- 18	 [fontsize=8,
		label=2.0,
		lp="738.5,168.5",
		pos="754.03,191.9 741.55,180 717.55,157.1 705.04,145.16"];
	9 -- 14	 [fontsize=8,
		label=1.0,
		lp="810.5,168.5",
		pos="771.56,191.9 786.53,180 815.34,157.1 830.36,145.16"];
	11	 [URL="http://lattes.cnpq.br/0237724129941236",
		color="#17272B",
		fontcolor="#FFFFFF",
		height=0.23611,
		label="Francisco N. Machado Filho [0]",
		pos="1012,264.5",
		width=1.6528];
	15	 [URL="http://lattes.cnpq.br/3759662136447410",
		color="#17272B",
		fontcolor="#FFFFFF",
		height=0.23611,
		label="Célia M. R. Godoy dos Santos [0]",
		pos="1152,264.5",
		width=1.7361];
}
