ID_Lattes|MATRICULA|NOME|CH|mail|LP_1|PROGRAMA_1|CATEG_1|Periodo_Inicio_1|Periodo_Fim_1|Resp_prog|Resp_LP1
K4483896J2|99999|MIRCO RAGNI|40|UEFS@UEFS.br|UEFS|UEFS|P|2013|2016|UEFS|UEFS
K4723610E0|99999|GERMANO PINTO GUEDES|40|UEFS@UEFS.br|UEFS|UEFS|P|2013|2016||
K4785605P7|99999|PAULO CESAR DA ROCHA POPPE|40|UEFS@UEFS.br|UEFS|UEFS|P|2013|2016||
K4314004E6|99999|JOAO BATISTA DA ROCHA JUNIOR|40|UEFS@UEFS.br|UEFS|UEFS|P|2013|2016||
K4778081D3|99999|MICHELE FULVIA ANGELO|40|UEFS@UEFS.br|UEFS|UEFS|P|2013|2016||
K4798641E4|99999|GRACINETE BASTOS DE SOUZA|40|UEFS@UEFS.br|UEFS|UEFS|P|2013|2016||
K4791059H8|99999|ROBERTO ALMEIDA BITTECOURT|40|UEFS@UEFS.br|UEFS|UEFS|P|2013|2016||
K4702164E2|99999|JOAO BOSCO GERTRUDES|40|UEFS@UEFS.br|UEFS|UEFS|P|2013|2016||
K4240128U0|99999|EDGAR SILVA JUNIOR|40|UEFS@UEFS.br|UEFS|UEFS|P|2013|2016||
K4792971A9|99999|EDUARDO BRESCANSIN DE AMORES|40|UEFS@UEFS.br|UEFS|UEFS|P|2013|2016||
K4796385Z3|99999|IRANDERLY FERNANDES DE FERNANDES|40|UEFS@UEFS.br|UEFS|UEFS|P|2013|2016||
K4708787U2|99999|LILIAN MIRANDA BASTOS PACHECO|40|UEFS@UEFS.br|UEFS|UEFS|P|2013|2016||
K4709922J9|99999|IVONEIDE DE FRANCA COSTA|40|UEFS@UEFS.br|UEFS|UEFS|P|2013|2016||
K4731689T6|99999|HUMBERTO LUIZ LIMA DE OLIVEIRA|40|UEFS@UEFS.br|UEFS|UEFS|P|2013|2016||
K4705621A1|99999|GLAUCIA MARIA COSTA TRINCHAO SOUSA|40|UEFS@UEFS.br|UEFS|UEFS|P|2013|2016||
K4758113J6|99999|MIGUEL ALMIR LIMA DE ARAUJO|40|UEFS@UEFS.br|UEFS|UEFS|P|2013|2016||
K4799165A4|99999|FRANCISCO ANTONIO ZORZO|40|UEFS@UEFS.br|UEFS|UEFS|P|2013|2016||
K4762287A7|99999|RUBENS EDSON ALVES PEREIRA|40|UEFS@UEFS.br|UEFS|UEFS|P|2013|2016||
K4775753J6|99999|RAIMUNDO CLAUDIO SILVA XAVIER|40|UEFS@UEFS.br|UEFS|UEFS|P|2013|2016||
K4707065A9|99999|PRISCILA PAIXAO LOPES|40|UEFS@UEFS.br|UEFS|UEFS|P|2013|2016||
K4760762Y4|99999|ELENISE CRISTINA PIRES DE ANDRADE|40|UEFS@UEFS.br|UEFS|UEFS|P|2013|2016||
K4461300T0|99999|EDSON DIAS FERREIRA|40|UEFS@UEFS.br|UEFS|UEFS|P|2013|2016||
K4738240T0|99999|CLAUDIO CLEDSON NOVAES|40|UEFS@UEFS.br|UEFS|UEFS|P|2013|2016||
K4774894Y8|99999|ANTONIO WILSON SILVA DE SOZA|40|UEFS@UEFS.br|UEFS|UEFS|P|2013|2016||
K4776697U4|99999|ANA RITA SULZ DE ALMEIDA CAMPOS|40|UEFS@UEFS.br|UEFS|UEFS|P|2013|2016||
K4353059J6|99999|MARISE DE SANTANA|40|UEFS@UEFS.br|UEFS|UEFS|P|2013|2016||
K4700132Y6|99999|LYSIE DOS REIS OLIVEIRA|40|UEFS@UEFS.br|UEFS|UEFS|P|2013|2016||
K4787918E6|99999|LUIZ ANTONIO VIDAL DE NEGREIROS GOMES|40|UEFS@UEFS.br|UEFS|UEFS|P|2013|2016||
K4177001P2|99999|LILIAN QUELLE SANTOS DE QUEIROZ|40|UEFS@UEFS.br|UEFS|UEFS|P|2013|2016||
K4798593U8|99999|LUIS VITOR CASTRO JUNIOR|40|UEFS@UEFS.br|UEFS|UEFS|P|2013|2016||
K4776765U7|99999|ANGELO AMANCIO DUARTE|40|UEFS@UEFS.br|UEFS|UEFS|P|2013|2016||
K4771825E4|99999|ANGELO CONRADO LOULA|40|UEFS@UEFS.br|UEFS|UEFS|P|2013|2016||
K8158787D6|99999|CARLOS ALBERTO RODRIGUES|40|UEFS@UEFS.br|UEFS|UEFS|P|2013|2016||
K4746010P5|99999|ARTUR TRANCOSO LOPO DE QUEIROZ|40|UEFS@UEFS.br|UEFS|UEFS|P|2013|2016||
K4727954H3|99999|ANTONIO DELSON CONCEICAO DE JESUS|40|UEFS@UEFS.br|UEFS|UEFS|P|2013|2016||
K4301194J6|99999|DANIEL GOUVEIA COSTA|40|UEFS@UEFS.br|UEFS|UEFS|P|2013|2016||
