strict digraph grafo3 {
	graph [bb="0,0,1398,145",
		id=grafo3,
		overlap=False
	];
	node [fontsize=8,
		label="\N",
		shape=rectangle,
		style=filled
	];
	0	 [URL="http://lattes.cnpq.br/6901822630062638",
		color="#17272B",
		fontcolor="#FFFFFF",
		height=0.23611,
		label="Willian Barros Silva [0]",
		pos="47,136.5",
		width=1.3056];
	1	 [URL="http://lattes.cnpq.br/9647533579414452",
		color="#17272B",
		fontcolor="#FFFFFF",
		height=0.23611,
		label="Julián Bravo Castillero [0]",
		pos="163,136.5",
		width=1.4167];
	2	 [URL="http://lattes.cnpq.br/4338284890563991",
		color="#17272B",
		fontcolor="#FFFFFF",
		height=0.23611,
		label="Jonas da Costa Carvalho [2]",
		pos="286,136.5",
		width=1.4861];
	6	 [URL="http://lattes.cnpq.br/3894096111082082",
		color="#17272B",
		fontcolor="#FFFFFF",
		height=0.23611,
		label="Daniela Buske [9]",
		pos="228,72.5",
		width=1.0417];
	2 -> 6	 [arrowhead=normal,
		arrowsize=0.75,
		fontsize=8,
		label=0.5,
		lp="241.5,104.5",
		penwidth=2.0,
		pos="e,227.89,81.17 261.9,127.99 252.52,123.93 242.5,117.96 236,109.5 231.46,103.59 229.39,95.606 228.49,88.661"];
	12	 [URL="http://lattes.cnpq.br/2408574220216968",
		color="#17272B",
		fontcolor="#FFFFFF",
		height=0.23611,
		label="Régis Sperotto de Quadros [9]",
		pos="286,8.5",
		width=1.5833];
	2 -> 12	 [arrowhead=normal,
		arrowsize=0.75,
		fontsize=8,
		label=0.5,
		lp="291.5,72.5",
		penwidth=2.0,
		pos="e,286,17.125 286,128 286,107.82 286,52.112 286,24.883"];
	6 -> 2	 [arrowhead=normal,
		arrowsize=0.75,
		fontsize=8,
		label=0.11,
		lp="268.5,104.5",
		penwidth=0.83,
		pos="e,278.89,127.9 235.17,81.165 244.77,91.424 261.94,109.78 273.64,122.29"];
	6 -> 12	 [arrowhead=normal,
		arrowsize=0.75,
		fontsize=8,
		label=0.89,
		lp="241.5,40.5",
		penwidth=3.17,
		pos="e,259.64,17.068 227.37,63.843 227.12,55.98 227.9,43.757 234,35.5 238.72,29.106 245.46,24.186 252.53,20.437"];
	12 -> 2	 [arrowhead=normal,
		arrowsize=0.75,
		fontsize=8,
		label=0.11,
		lp="314.5,72.5",
		penwidth=0.83,
		pos="e,291.43,127.71 291.43,17.294 294.56,22.26 298.23,28.969 300,35.5 308.61,67.242 308.61,77.758 300,109.5 298.92,113.48 297.14,117.53 \
295.2,121.2"];
	12 -> 6	 [arrowhead=normal,
		arrowsize=0.75,
		fontsize=8,
		label=0.89,
		lp="268.5,40.5",
		penwidth=3.17,
		pos="e,235.11,63.898 278.83,17.165 269.23,27.424 252.06,45.775 240.36,58.286"];
	3	 [URL="http://lattes.cnpq.br/6799036574745985",
		color="#17272B",
		fontcolor="#FFFFFF",
		height=0.23611,
		label="Glênio Aguiar Gonçalves [0]",
		pos="413,136.5",
		width=1.5278];
	4	 [URL="http://lattes.cnpq.br/9865056179221557",
		color="#17272B",
		fontcolor="#FFFFFF",
		height=0.23611,
		label="Fabrício Pereira Härter [0]",
		pos="537,136.5",
		width=1.4167];
	5	 [URL="http://lattes.cnpq.br/8476129194599888",
		color="#17272B",
		fontcolor="#FFFFFF",
		height=0.23611,
		label="Fabio Silva Botelho [0]",
		pos="652,136.5",
		width=1.2778];
	7	 [URL="http://lattes.cnpq.br/6672178100422350",
		color="#17272B",
		fontcolor="#FFFFFF",
		height=0.23611,
		label="Claudio Zen Petersen [0]",
		pos="765,136.5",
		width=1.3472];
	8	 [URL="http://lattes.cnpq.br/1533620251940629",
		color="#17272B",
		fontcolor="#FFFFFF",
		height=0.23611,
		label="Camila Pinto da Costa [0]",
		pos="882,136.5",
		width=1.3889];
	9	 [URL="http://lattes.cnpq.br/6548055244465358",
		color="#17272B",
		fontcolor="#FFFFFF",
		height=0.23611,
		label="Welton Alves de Menezes [0]",
		pos="1006,136.5",
		width=1.5556];
	10	 [URL="http://lattes.cnpq.br/0545330428695112",
		color="#17272B",
		fontcolor="#FFFFFF",
		height=0.23611,
		label="Valdecir Bottega [1]",
		pos="1121,136.5",
		width=1.1389];
	15	 [URL="http://lattes.cnpq.br/7898168715320830",
		color="#17272B",
		fontcolor="#FFFFFF",
		height=0.23611,
		label="Alexandre Molter [2]",
		pos="1121,72.5",
		width=1.1806];
	10 -> 15	 [arrowhead=normal,
		arrowsize=0.75,
		fontsize=8,
		label=1.0,
		lp="1110.5,104.5",
		penwidth=3.5,
		pos="e,1114,81.264 1114.7,127.85 1111.1,122.93 1106.9,116.23 1105,109.5 1102.9,102.06 1105.8,94.165 1109.6,87.672"];
	15 -> 10	 [arrowhead=normal,
		arrowsize=0.75,
		fontsize=8,
		label=0.5,
		lp="1126.5,104.5",
		penwidth=2.0,
		pos="e,1121,127.9 1121,81.165 1121,90.864 1121,107.8 1121,120.19"];
	11	 [URL="http://lattes.cnpq.br/7781627333249561",
		color="#17272B",
		fontcolor="#FFFFFF",
		height=0.23611,
		label="Rejane Pergher [1]",
		pos="1121,8.5",
		width=1.0694];
	15 -> 11	 [arrowhead=normal,
		arrowsize=0.75,
		fontsize=8,
		label=0.5,
		lp="1111.5,40.5",
		penwidth=2.0,
		pos="e,1114.7,17.017 1115.1,63.786 1111.7,58.85 1107.8,52.145 1106,45.5 1104,38.007 1106.8,30.011 1110.5,23.463"];
	11 -> 15	 [arrowhead=normal,
		arrowsize=0.75,
		fontsize=8,
		label=1.0,
		lp="1126.5,40.5",
		penwidth=3.5,
		pos="e,1121,63.898 1121,17.165 1121,26.864 1121,43.797 1121,56.189"];
	13	 [URL="http://lattes.cnpq.br/2600285500812676",
		color="#17272B",
		fontcolor="#FFFFFF",
		height=0.23611,
		label="Leslie D. Pérez Fernández [0]",
		pos="1236,136.5",
		width=1.5556];
	14	 [URL="http://lattes.cnpq.br/1154019717568830",
		color="#17272B",
		fontcolor="#FFFFFF",
		height=0.23611,
		label="Andrei Bourchtein [0]",
		pos="1354,136.5",
		width=1.2222];
}
