strict digraph grafo3 {
	graph [bb="0,0,2459,145",
		id=grafo3,
		overlap=False
	];
	node [fontsize=8,
		label="\N",
		shape=rectangle,
		style=filled
	];
	0	 [URL="http://lattes.cnpq.br/6280703103205032",
		color="#17272B",
		fontcolor="#FFFFFF",
		height=0.23611,
		label="Elidia Maria Guerra [3]",
		pos="50,136.5",
		width=1.2778];
	2	 [URL="http://lattes.cnpq.br/6247805873454988",
		color="#17272B",
		fontcolor="#FFFFFF",
		height=0.23611,
		label="Dane Tadeu Cestarolli [3]",
		pos="50,72.5",
		width=1.3889];
	0 -> 2	 [arrowhead=normal,
		arrowsize=0.75,
		fontsize=8,
		label=1.0,
		lp="39.5,104.5",
		penwidth=3.5,
		pos="e,43.038,81.264 43.716,127.85 40.1,122.93 35.905,116.23 34,109.5 31.893,102.06 34.771,94.165 38.64,87.672"];
	2 -> 0	 [arrowhead=normal,
		arrowsize=0.75,
		fontsize=8,
		label=1.0,
		lp="55.5,104.5",
		penwidth=3.5,
		pos="e,50,127.9 50,81.165 50,90.864 50,107.8 50,120.19"];
	1	 [URL="http://lattes.cnpq.br/1882302261569108",
		color="#17272B",
		fontcolor="#FFFFFF",
		height=0.23611,
		label="Daniela Leite Fabrino [0]",
		pos="163,136.5",
		width=1.3611];
	3	 [URL="http://lattes.cnpq.br/5561482457720983",
		color="#17272B",
		fontcolor="#FFFFFF",
		height=0.23611,
		label="Renata C. Zanetti Lofrano [0]",
		pos="286,136.5",
		width=1.5556];
	4	 [URL="http://lattes.cnpq.br/9089252583772519",
		color="#17272B",
		fontcolor="#FFFFFF",
		height=0.23611,
		label="Ana M. D. C. de Miranda Oliveira [0]",
		pos="429,136.5",
		width=1.9167];
	5	 [URL="http://lattes.cnpq.br/9892291082782946",
		color="#17272B",
		fontcolor="#FFFFFF",
		height=0.23611,
		label="Ana C. Bernardes Silva [0]",
		pos="568,136.5",
		width=1.4306];
	6	 [URL="http://lattes.cnpq.br/4448350387455509",
		color="#17272B",
		fontcolor="#FFFFFF",
		height=0.23611,
		label="Andre L. Barroso de Magalhaes [0]",
		pos="703,136.5",
		width=1.8056];
	7	 [URL="http://lattes.cnpq.br/4505221784644374",
		color="#17272B",
		fontcolor="#FFFFFF",
		height=0.23611,
		label="Telde Natel Custódio [0]",
		pos="834,136.5",
		width=1.3333];
	8	 [URL="http://lattes.cnpq.br/5854072268825877",
		color="#17272B",
		fontcolor="#FFFFFF",
		height=0.23611,
		label="Bruno Meireles Xavier [2]",
		pos="951,136.5",
		width=1.4167];
	19	 [URL="http://lattes.cnpq.br/5009735328331739",
		color="#17272B",
		fontcolor="#FFFFFF",
		height=0.23611,
		label="Juliano Lemos Bicas [2]",
		pos="890,72.5",
		width=1.3056];
	8 -> 19	 [arrowhead=normal,
		arrowsize=0.75,
		fontsize=8,
		label=0.75,
		lp="909.5,104.5",
		penwidth=2.75,
		pos="e,890.88,81.202 928.54,127.89 919.22,123.74 908.97,117.73 902,109.5 897.04,103.64 894.11,95.668 892.39,88.712"];
	22	 [URL="http://lattes.cnpq.br/1123705010561141",
		color="#17272B",
		fontcolor="#FFFFFF",
		height=0.23611,
		label="Ênio N. de Oliveira Júnior [1]",
		pos="957,8.5",
		width=1.5556];
	8 -> 22	 [arrowhead=normal,
		arrowsize=0.75,
		fontsize=8,
		label=0.25,
		lp="961.5,72.5",
		penwidth=1.25,
		pos="e,956.64,17.125 951.36,128 952.32,107.82 954.97,52.112 956.27,24.883"];
	19 -> 8	 [arrowhead=normal,
		arrowsize=0.75,
		fontsize=8,
		label=0.75,
		lp="934.5,104.5",
		penwidth=2.75,
		pos="e,944.07,127.96 898.13,81.138 903.54,86.267 910.77,93.212 917,99.5 924.32,106.89 932.31,115.33 938.71,122.19"];
	19 -> 22	 [arrowhead=normal,
		arrowsize=0.75,
		fontsize=8,
		label=0.25,
		lp="912.5,40.5",
		penwidth=1.25,
		pos="e,933.47,17.081 891.55,63.747 893.5,55.805 897.52,43.518 905,35.5 910.91,29.173 918.69,24.167 926.43,20.308"];
	22 -> 8	 [arrowhead=normal,
		arrowsize=0.75,
		fontsize=8,
		label=0.5,
		lp="979.5,72.5",
		penwidth=2.0,
		pos="e,956.33,127.6 961.18,17.008 963.82,22.083 967.09,29.016 969,35.5 974.81,55.181 975.51,61.132 973,81.5 971.43,94.231 970.81,97.607 \
966,109.5 964.43,113.39 962.36,117.4 960.27,121.07"];
	22 -> 19	 [arrowhead=normal,
		arrowsize=0.75,
		fontsize=8,
		label=0.5,
		lp="936.5,40.5",
		penwidth=2.0,
		pos="e,899.04,63.897 949.47,17.077 942.08,24.453 930.43,35.921 920,45.5 915.15,49.958 909.73,54.713 904.85,58.922"];
	9	 [URL="http://lattes.cnpq.br/7204534064025448",
		color="#17272B",
		fontcolor="#FFFFFF",
		height=0.23611,
		label="Boutros Sarrouh [0]",
		pos="1060,136.5",
		width=1.1111];
	10	 [URL="http://lattes.cnpq.br/1697965677198993",
		color="#17272B",
		fontcolor="#FFFFFF",
		height=0.23611,
		label="Antonio Helvecio Totola [0]",
		pos="1172,136.5",
		width=1.5];
	11	 [URL="http://lattes.cnpq.br/1288764472574843",
		color="#17272B",
		fontcolor="#FFFFFF",
		height=0.23611,
		label="Silvana de Queiroz Silva [0]",
		pos="1298,136.5",
		width=1.5];
	12	 [URL="http://lattes.cnpq.br/8339793010218033",
		color="#17272B",
		fontcolor="#FFFFFF",
		height=0.23611,
		label="Sandra de Cassia Dias [0]",
		pos="1420,136.5",
		width=1.375];
	13	 [URL="http://lattes.cnpq.br/6615103620821876",
		color="#17272B",
		fontcolor="#FFFFFF",
		height=0.23611,
		label="Rogério Antonio Picoli [0]",
		pos="1539,136.5",
		width=1.4167];
	14	 [URL="http://lattes.cnpq.br/1409264122407992",
		color="#17272B",
		fontcolor="#FFFFFF",
		height=0.23611,
		label="André Aguiar Mendes [0]",
		pos="1658,136.5",
		width=1.375];
	15	 [URL="http://lattes.cnpq.br/0381402687491195",
		color="#17272B",
		fontcolor="#FFFFFF",
		height=0.23611,
		label="Marcelo P. de Arruda Ribeiro [0]",
		pos="1787,136.5",
		width=1.7083];
	16	 [URL="http://lattes.cnpq.br/9739061759678313",
		color="#17272B",
		fontcolor="#FFFFFF",
		height=0.23611,
		label="Marcelo Batista da Silva [0]",
		pos="1920,136.5",
		width=1.4861];
	17	 [URL="http://lattes.cnpq.br/7999741482353508",
		color="#17272B",
		fontcolor="#FFFFFF",
		height=0.23611,
		label="Marcel Otavio Cerri [0]",
		pos="2038,136.5",
		width=1.2917];
	18	 [URL="http://lattes.cnpq.br/4199377950118224",
		color="#17272B",
		fontcolor="#FFFFFF",
		height=0.23611,
		label="Luiz G. Martins da Silva [0]",
		pos="2156,136.5",
		width=1.4861];
	20	 [URL="http://lattes.cnpq.br/3756997395982734",
		color="#17272B",
		fontcolor="#FFFFFF",
		height=0.23611,
		label="José Carlos de Magalhães [0]",
		pos="2283,136.5",
		width=1.5417];
	21	 [URL="http://lattes.cnpq.br/7513217329977595",
		color="#17272B",
		fontcolor="#FFFFFF",
		height=0.23611,
		label="Heraldo Nunes Pitanga [0]",
		pos="2408,136.5",
		width=1.4167];
}
