strict graph grafo1 {
	graph [bb="0,0,3538,125",
		id=grafo1,
		overlap=False
	];
	node [fontsize=8,
		label="\N",
		shape=rectangle,
		style=filled
	];
	0	 [URL="http://lattes.cnpq.br/4785631459929035",
		color="#17272B",
		fontcolor="#FFFFFF",
		height=0.23611,
		label="Alexandre Reily Rocha [2]",
		pos="124,116.5",
		width=1.4306];
	35	 [URL="http://lattes.cnpq.br/6880602655569729",
		color="#17272B",
		fontcolor="#FFFFFF",
		height=0.23611,
		label="Herculano da Silva Martinho [2]",
		pos="187,62.5",
		width=1.6806];
	0 -- 35	 [pos="133.3,107.83 145.21,97.996 165.74,81.051 177.67,71.204"];
	36	 [URL="http://lattes.cnpq.br/5205312713550726",
		color="#17272B",
		fontcolor="#FFFFFF",
		height=0.23611,
		label="Gustavo Martini Dalpian [1]",
		pos="54,62.5",
		width=1.5];
	0 -- 36	 [pos="113.67,107.83 100.44,97.996 77.626,81.051 64.371,71.204"];
	1	 [URL="http://lattes.cnpq.br/5554521673242197",
		color="#17272B",
		fontcolor="#FFFFFF",
		height=0.23611,
		label="Antonio A. Ranha Neves [0]",
		pos="369,116.5",
		width=1.5];
	2	 [URL="http://lattes.cnpq.br/7323208655095786",
		color="#17272B",
		fontcolor="#FFFFFF",
		height=0.23611,
		label="André Sarto Polo [0]",
		pos="483,116.5",
		width=1.1528];
	3	 [URL="http://lattes.cnpq.br/6882548794489901",
		color="#17272B",
		fontcolor="#FFFFFF",
		height=0.23611,
		label="Alexandre J. de Castro Lanfredi [0]",
		pos="608,116.5",
		width=1.8056];
	4	 [URL="http://lattes.cnpq.br/3163615920051354",
		color="#17272B",
		fontcolor="#FFFFFF",
		height=0.23611,
		label="Humberto Naoyuki Yoshimura [0]",
		pos="755,116.5",
		width=1.7639];
	5	 [URL="http://lattes.cnpq.br/0446643015157093",
		color="#17272B",
		fontcolor="#FFFFFF",
		height=0.23611,
		label="Wendel Alves de Andrade [0]",
		pos="893,116.5",
		width=1.5556];
	6	 [URL="http://lattes.cnpq.br/6863147508230737",
		color="#17272B",
		fontcolor="#FFFFFF",
		height=0.23611,
		label="Sydney Ferreira Santos [2]",
		pos="1018,116.5",
		width=1.4167];
	10	 [URL="http://lattes.cnpq.br/2954830416817871",
		color="#17272B",
		fontcolor="#FFFFFF",
		height=0.23611,
		label="Renato Altobelli Antunes [2]",
		pos="1124,62.5",
		width=1.5278];
	6 -- 10	 [pos="1033.6,107.83 1053.8,97.939 1088.6,80.856 1108.6,71.035"];
	12	 [URL="http://lattes.cnpq.br/7562128593261814",
		color="#17272B",
		fontcolor="#FFFFFF",
		height=0.23611,
		label="Everaldo Carlos Venancio [1]",
		pos="995,62.5",
		width=1.5556];
	6 -- 12	 [pos="1014.6,107.83 1010.3,97.996 1002.8,81.051 998.41,71.204"];
	14	 [URL="http://lattes.cnpq.br/5457685717818972",
		color="#17272B",
		fontcolor="#FFFFFF",
		height=0.23611,
		label="Demetrio Jackson dos Santos [2]",
		pos="1190,8.5",
		width=1.6944];
	10 -- 14	 [pos="1133.7,53.827 1146.2,43.996 1167.7,27.051 1180.2,17.204"];
	7	 [URL="http://lattes.cnpq.br/9632409046763256",
		color="#17272B",
		fontcolor="#FFFFFF",
		height=0.23611,
		label="Sandra Andrea Cruz [1]",
		pos="1432,116.5",
		width=1.2917];
	23	 [URL="http://lattes.cnpq.br/0896060959622431",
		color="#17272B",
		fontcolor="#FFFFFF",
		height=0.23611,
		label="Carlos Henrique Scuracchio [2]",
		pos="1462,62.5",
		width=1.6389];
	7 -- 23	 [pos="1436.4,107.83 1442.1,97.996 1451.9,81.051 1457.6,71.204"];
	30	 [URL="http://lattes.cnpq.br/7434834118689893",
		color="#17272B",
		fontcolor="#FFFFFF",
		height=0.23611,
		label="Jose F. Queiruga Rey [1]",
		pos="1464,8.5",
		width=1.3472];
	23 -- 30	 [pos="1462.3,53.827 1462.7,43.996 1463.3,27.051 1463.7,17.204"];
	8	 [URL="http://lattes.cnpq.br/3581140143386171",
		color="#17272B",
		fontcolor="#FFFFFF",
		height=0.23611,
		label="Roosevelt Droppa Junior [1]",
		pos="1185,116.5",
		width=1.5];
	8 -- 10	 [pos="1176,107.83 1164.5,97.996 1144.6,81.051 1133,71.204"];
	8 -- 14	 [pos="1185.6,107.72 1186.3,98.926 1187.4,84.194 1188,71.5 1189,51.924 1189.6,28.846 1189.8,17.14"];
	9	 [URL="http://lattes.cnpq.br/1687762820299841",
		color="#17272B",
		fontcolor="#FFFFFF",
		height=0.23611,
		label="Ronei Miotto [0]",
		pos="1655,116.5",
		width=0.98611];
	11	 [URL="http://lattes.cnpq.br/1112267139974300",
		color="#17272B",
		fontcolor="#FFFFFF",
		height=0.23611,
		label="Gerson Luiz Mantovani [1]",
		pos="1549,116.5",
		width=1.4444];
	11 -- 23	 [pos="1536.2,107.83 1519.6,97.939 1491,80.856 1474.6,71.035"];
	11 -- 30	 [pos="1548.3,107.9 1546.9,95.414 1542.5,70.295 1530,53.5 1517.5,36.711 1496.6,24.347 1481.6,17.073"];
	13	 [URL="http://lattes.cnpq.br/0103007276004318",
		color="#17272B",
		fontcolor="#FFFFFF",
		height=0.23611,
		label="Derval d. Santos Rosa [2]",
		pos="1317,62.5",
		width=1.375];
	13 -- 14	 [pos="1298.5,53.939 1274.5,44.08 1232.6,26.934 1208.5,17.07"];
	34	 [URL="http://lattes.cnpq.br/9295156379317498",
		color="#17272B",
		fontcolor="#FFFFFF",
		height=0.23611,
		label="Iseli Lourenço Nantes-Cardoso [1]",
		pos="1333,8.5",
		width=1.7778];
	13 -- 34	 [pos="1319.4,53.827 1322.4,43.996 1327.6,27.051 1330.6,17.204"];
	15	 [URL="http://lattes.cnpq.br/7462836318959519",
		color="#17272B",
		fontcolor="#FFFFFF",
		height=0.23611,
		label="Danilo Justino Carastan [0]",
		pos="1761,116.5",
		width=1.4444];
	16	 [URL="http://lattes.cnpq.br/8785084711227475",
		color="#17272B",
		fontcolor="#FFFFFF",
		height=0.23611,
		label="Daniel Zanetti de Florio [0]",
		pos="1884,116.5",
		width=1.4583];
	17	 [URL="http://lattes.cnpq.br/5319016786437596",
		color="#17272B",
		fontcolor="#FFFFFF",
		height=0.23611,
		label="Mariselma Ferreira [0]",
		pos="1999,116.5",
		width=1.2361];
	18	 [URL="http://lattes.cnpq.br/8355996722722760",
		color="#17272B",
		fontcolor="#FFFFFF",
		height=0.23611,
		label="Frank Nelson Crespilho [0]",
		pos="2114,116.5",
		width=1.4444];
	19	 [URL="http://lattes.cnpq.br/6331616929001470",
		color="#17272B",
		fontcolor="#FFFFFF",
		height=0.23611,
		label="Flávio Leandro de Souza [0]",
		pos="2238,116.5",
		width=1.5];
	20	 [URL="http://lattes.cnpq.br/5022093326416720",
		color="#17272B",
		fontcolor="#FFFFFF",
		height=0.23611,
		label="Fabio Furlan Ferreira [4]",
		pos="249,116.5",
		width=1.3333];
	20 -- 35	 [pos="239.85,107.83 228.13,97.996 207.93,81.051 196.19,71.204"];
	25	 [URL="http://lattes.cnpq.br/4753625269613971",
		color="#17272B",
		fontcolor="#FFFFFF",
		height=0.23611,
		label="Marcos de Abreu Avila [3]",
		pos="317,62.5",
		width=1.4306];
	20 -- 25	 [pos="259.03,107.83 271.89,97.996 294.05,81.051 306.93,71.204"];
	21	 [URL="http://lattes.cnpq.br/5040223382381229",
		color="#17272B",
		fontcolor="#FFFFFF",
		height=0.23611,
		label="Cedric Rocha Leão [0]",
		pos="2355,116.5",
		width=1.25];
	22	 [URL="http://lattes.cnpq.br/0020325122211962",
		color="#17272B",
		fontcolor="#FFFFFF",
		height=0.23611,
		label="Carlos Triveño Rios [0]",
		pos="2465,116.5",
		width=1.2917];
	24	 [URL="http://lattes.cnpq.br/3979196299911690",
		color="#17272B",
		fontcolor="#FFFFFF",
		height=0.23611,
		label="Caetano Rodrigues Miranda [0]",
		pos="2589,116.5",
		width=1.6389];
	26	 [URL="http://lattes.cnpq.br/3238555337515281",
		color="#17272B",
		fontcolor="#FFFFFF",
		height=0.23611,
		label="Márcio T. do Nascimento Varella [0]",
		pos="2734,116.5",
		width=1.8889];
	27	 [URL="http://lattes.cnpq.br/6104324016617272",
		color="#17272B",
		fontcolor="#FFFFFF",
		height=0.23611,
		label="Márcia Tsuyama Escote [0]",
		pos="2873,116.5",
		width=1.4583];
	28	 [URL="http://lattes.cnpq.br/4153684635603288",
		color="#17272B",
		fontcolor="#FFFFFF",
		height=0.23611,
		label="Márcia A. da Silva Spinacé [0]",
		pos="3002,116.5",
		width=1.6111];
	29	 [URL="http://lattes.cnpq.br/3881871836797116",
		color="#17272B",
		fontcolor="#FFFFFF",
		height=0.23611,
		label="Juliana Marchi [0]",
		pos="3116,116.5",
		width=1.0556];
	31	 [URL="http://lattes.cnpq.br/4433454379646222",
		color="#17272B",
		fontcolor="#FFFFFF",
		height=0.23611,
		label="José A. M. Felippe de Souza [0]",
		pos="3232,116.5",
		width=1.6667];
	32	 [URL="http://lattes.cnpq.br/5753425860064151",
		color="#17272B",
		fontcolor="#FFFFFF",
		height=0.23611,
		label="Jorge Diego Marconi [0]",
		pos="3358,116.5",
		width=1.3333];
	33	 [URL="http://lattes.cnpq.br/1641169433303169",
		color="#17272B",
		fontcolor="#FFFFFF",
		height=0.23611,
		label="Jeverson T. Arantes Junior [0]",
		pos="3481,116.5",
		width=1.5833];
}
