4243831360094351
7350855617953437
7915992576677613
6762748327087735
6529450420703012
5196604770480188
5294929829300325
8582867831317500
8909403197418807
8649222099176162
7860759306517929
1531166561984714
1854353569383030
9082478597898534
1739274521132416
5454355390796951
5371538137350595
4626655391830745
0015186661164915
6050255704006552
3916542418374036
5183458350445779
1291453676215259
0705292304279277
5871785614989556
3388952821853005
3593793991674607
2208463258386199
1639254609444403
9377733223931098
6858139747014559
5373845785326215
7289677837998356
7554159681556285
3238555337515281
2523605297828575
0508713382174593
1055343902833848
0103007276004318
2675744413836932
5201316589713005
6994764509865929
0854005020452320
8833989058164529
0028388859892202
9836341783308236
9304609113385972
6224467810866606
6885001509490830
2391232448626563
5268607684223281
5649236321441309
7451110632352114
8041247174362203
4641435644243916
3253980429514948
3986190995983234
2913544384537886
5437155397665518
9558827285667507
5209978120430790
1862814827590632
5130806039129225
7987385835577071
6217898418202518
8491007298512691
7819625868685627
1756087697111874
8751983091735781
8673145005347777
7037264712041215
1348923796352211
7073843431813000
4428377384377272
7064579792237750
9671509103246537
4550717883781091
3774693235183519
2865005710881126
2714004273523549
5662281567883957
6070789351479864
9205662588542783
5330038857795179
0291695624884565
3881871836797116
0446998005940293
4787678071396324
0564899246574184
9737974992361596
7424727996189469
6560563332731046
6651874052252669
2805349172281345
0176020585396338
2418539772024741
6118964288188754
4859954582615304
2616990331025034
4102950501068809
7096228449228489
4232295256587190
5209245987326574
1696467778255755
1547063504714494
4732665099065998
6118325967319836
2996035802901172
5260675744157348
5681812218970006
5039062012454322
5598462131877008
8670771875723248
6066495991200962
0728190546310172
6691760006846658
3521857808929106
0241177338066307
1781353673140920
3572745339763778
9378359544434910
3611500572749235
5019902459459848
5395425435052583
4289995849705434
1299197011818751
6327967913995631
4277872426640959
9182991057631636
6221087878705919
3684972673732496
5742286307682505
6216285487700105
1940417937431931
8106067351019340
0655974454201730
1099152007574921
9918299069511517
1649467428144868
6593247187880200
7323208655095786
3478230611350302
6863147508230737
7091012096477506
8323137368043289
2426906242843765
1071652512968498
8591713065074932
5627515114856147
6778876983012103
5217786436716762
8202238208943023
7870852011089143
8591752492566665
5797651638794751
2833950143696339
1835846543912999
4413837518094256
2870346084954354
8198392523716590
3466685007300907
3985461147408303
9951340320329190
1170276374555216
7447943300478765
3595605534544460
0752183574031970
8106394597196826
2875982871728408
9021473205267343
9051601878117806
4364184845561025
7909537302983812
7086202036381439
9319751453660997
7920967179001570
3555866846290014
9454672552048719
3509629617058395
7617205350746681
4727357182510680
3987757350912170
3296934538404596
5443002033733395
8017245351442017
3659970962186474
8481776828705621
2771978291870396
6933946966901528
6368730022418127
7831568807365858
1687762820299841
6216349050353010
0432617620213212
2302113997318269
5658216544966023
3954111384472888
4618692344699913
9104907557893841
2999886323545027
6881918452685357
9897736008702462
1053606835648173
0675154995601211
5407635801294866
5140929223623600
2334562175051297
7275057980870698
5623828846627003
5726938221738098
8760319034685284
5768000922241088
4899328531043872
9395293976039381
3063061710566545
3028205116451785
9864369359939335
2423378571102463
7918334997036414
4096112790755154
2553175029700642
7077529747552333
4926704761829005
8956655445142608
0552622512284808
2215850099967524
7148278938710201
8428074335454256
8958475141592976
8256644098407834
5986773627490795
5491429306264177
3581140143386171
7096818514312382
1159480346990821
1508800998903956
2147653489461264
6680958852946859
6475585105456744
9514086435206553
2354701440336545
2847670130629401
4957262830051547
4780812729455750
6617613204029225
9231627080617037
8580546356183594
0761834487934695
3562894103432242
7584819233121446
0629601747594563
6730038579709679
5466500131592834
3232810398898497
9349526082011394
8006395717703055
8392547704796029
7081512949222824
7723027354150918
1505400360366643
8777492109806507
8149828175426579
8239947113834183
4519297314540105
5697512659235207
0593058472942217
4932806609721890
0211313736505966
0215194879225814
8747599940360430
0149880043332164
9147539833524962
6692600880643211
4421076651144162
4715497489782023
6405536092368290
3487794339449147
3613965385810622
8978509213666235
8274055663106537
2794888963106382
6801067322823031
0904943607857196
2296017109644348
5753425860064151
4881530489438346
4512891114205294
4724455372300363
5231748695144342
7213202241459154
3229363142239559
2628249883235299
0633724538336340
7504304432625443
5520934607731408
0122947337651561
7929949468269206
5613215868340943
3328930215186456
1313843948155733
3679502590339850
3814399624794416
5564439620370589
1832524881473343
6971366224543718
6456996985661237
8945700151271808
9562213378846769
9091469371359653
7284064411101724
4085082810044510
3585791211031750
9727228558481925
7434834118689893
7326108796439173
1506540378905829
9906894972452817
8769948935492458
8659496864305621
2672374430694029
3371681684015977
0804033148885336
6900410067408108
1052128832737083
2324000022741197
5726055117451807
2765002073525880
5052583113565041
8355996722722760
3732798376337198
4409120770460899
4785631459929035
7441669258580942
8750521904008311
6880602655569729
5230074566247388
5162297431633790
6601088095929807
7431203384675092
2963224163668301
9621913357002187
8136241989748310
4060936725520021
2894306023783490
9352141379363877
6067173982945625
0431255933614473
5373038582397407
6449963699520709
1071485256064917
9089012178502354
8679123716738439
6313025478276088
4534156518922584
6112766977459529
1901271310079230
6909674590429318
4449440198423893
2145128017434581
1494752369721677
1091025573756924
3084687587967112
5678275815622673
5669726117269568
1634530034456286
2376950056914711
3318871716111536
5782960082159732
2467159617627119
4571096227964493
1924221940804109
1537148240901704
5588755574505816
6457212988647931
7872374095859576
1264274348751877
4581537476491370
9190928016507366
3714279426791251
7800589206457326
5594585359874582
7493036748750254
9090250082082210
4440915444772203
8789709341894458
5584298681870865
1646330666237131
1264392056208305
1392206843733548
8472122310617187
9442521738160422
0654750186618555
4173759561785422
3863502194118131
4614576838768498
0708743458131456
8885012919924529
6466841023506131
8884242130676339
3383784569908106
1353862414532005
5066314956831269
2520672693238515
6429330945776054
5877893211730670
0902146100549755
6074950494830485
7364712287663994
7901645012860724
7615867204448572
5242385733123523
0066221022421420
3638720979420835
7797886762703247
4356687330594016
2105659300846054
4017962897410400
8358755068997419
4285930042137211
0541197114012424
4398479442855330
2512066286388977
2176215981291453
0772247437925302
0404514080471282
6824932478646371
1809254923092721
2901960119086675
7175631659428994
8568326430413988
2215905569987646
0338272222410503
6946710235903698
5542552498627352
8929162910172931
4097109625083499
1705430650855494
5267602639505727
6179886547787519
8091857216878149
7998391975397420
1632874187184798
7455660237808982
6083354919054179
2648985692429248
0284791309350193
2791913950833163
9564602899734170
2100003283641635
3377672443841993
6730560415456688
8694953794000451
0781577612002688
5526383460332378
5620407914151409
7253976562217776
2122863342403909
9797910208314248
8138694168957825
0020325122211962
2965930777269053
0616474769970457
1038061895538870
5837032243650002
5803081159552781
2498487966132931
1860720396685193
3598507725109908
9138028556380501
1619501956914384
3074997830683878
3721098466592914
0903572930540157
2435345571121041
5363949257736410
5207456836481494
6556569447850440
5094974411402019
4575080333650988
8804184187812039
2821390945259229
5449448657729439
5777699053894782
0022988322449627
5554964340566491
1034449975741992
1197999264384464
2364193454044115
1192737490168244
3255144676315422
7481402628291219
5440773107691592
3370447627202382
7054325450463114
3437534000525313
6786344319040698
8822510289335682
5418436948246550
2781448111507728
4900640894192147
8877675145336750
0124031990478790
2495800931137053
7238705990675855
6181356156897657
8290306918235235
8888000021446258
2054552041766094
4750838304742762
9896234291728264
7703389453400339
2984755646100603
5802743461244907
3049721573449880
1061777670375926
8862660046981466
2358213174437796
5930614700886481
7788233303686071
3171388111086631
6610204920945219
3744329382300316
1257408925707371
8334812135002435
9691181918031689
0862453564702743
7395238045498900
5247434607858490
6355960264165879
4153799961859268
3039323603413286
3511295954790110
8588601153028294
4119056886162771
7686768230673663
8647243878678518
1916731099027447
0787531693777747
6439597455529212
5913168257681981
8085209779362242
0246614895218572
5261342237805398
8699399019345962
6483740944205857
4496249071363237
9484386953883251
7287108960864123
8570196176038807
2785132886395609
4212703554284544
8802160032701439
7179107650142147
8276650236213537
9999089384519443
8223080391992394
6963447973536648
0632420278919812
1090929882948654
7442345559189112
2382173278824502
5975973286504763
2608553679746002
4804972347320546
8910557213253128
7716968611856757
3711767234462812
3068024292581677
6266559761245923
6171528075390233
5779992004590831
5313696806283523
9723706383506920
1631503504699783
2371481582874569
6675251190520162
1621497061797699
3364422958367794
2537615511338424
6735185857453979
1886281098171035
0233886929802200
7206895216163370
2790944621433543
5747495909080595
6593457386037361
2537447559620205
7297015036966308
5674887772256354
5124184585629468
8881766337219074
9491184334552297
2329377592782536
3929578675139228
9135346053526486
7511492642565571
4714185516263478
7318932323721353
1494809578346372
9769266691967919
9323182504691135
2649423643904707
2019448857205643
6903159047810933
4870907540258696
3557016735468859
7933690327810611
6174540740364735
6847161282456895
7529136398316627
9349231264931956
1387043320265189
5319016786437596
4421009566436244
9116604783066746
9392382398207867
2528679879816545
2710128386370280
0176086215811077
1395174383927437
7726663681253204
6896378940408028
1907480048954526
4782795282547798
2064008042657628
8421197442978273
4546972768548955
8138291653359760
4436725970358140
3713117552801226
7726303450743986
2885913546753507
3854915023148124
4251462060780948
3472170529023843
9966339550356719
4982057700245265
9770622597949866
9797420148146484
8937993281827484
9849354538615385
0525604957800788
1691114842151172
9610279472332283
4715295596991983
2790158217446989
4899728455368301
6005194561707106
2373407116594350
9834487067429661
5863492087652245
9572410339084315
3595196074265255
8089333823109715
2892508536771045
0865729476536040
3873543905673805
3098046248175229
9046491102790442
0534715381177389
5965449149325811
6929176234141449
9299087606155728
5894529481339325
2413371318191631
8700802735273808
7552747227876113
5870541356734813
1016869974988190
1982300219137583
4726416813710040
2016980574229654
1027030500014584
3945505800678282
9603645163141609
8579014003521159
6296457426763915
1476417303065197
1142693679792189
0237766457528833
9880781580619028
0751163307734256
5206890995895203
0050912081432821
1112267139974300
6105650574889790
1641169433303169
8882959656170754
9811809283298163
8956458007749112
4326102798287137
1744380097974373
1311501835612173
2178305101977911
4122846561281170
6794425522533128
8752172626755069
1862328080660655
0813613873065388
0640284351629598
6248532093883975
8423008843307105
5117137067043245
2305581567093057
3290169692187702
1550246266734380
8953242974199369
9359685360664787
2812138285118897
4544776309480054
1066462335621573
7219666098308630
7369376873984839
1444230896818008
5264190927259610
6120421680422459
8391413167385647
8109533360196619
2827325360244042
3085986187491645
8537174715205717
1807399214239200
2293438711927064
4805585223096573
9004110995267896
5816717964576561
5554521673242197
4106601328814440
3294500170015005
3578111419189259
5304461218985295
0764162939581973
4361220072322558
7107334055877180
3221769185531991
1260242253711471
9640089497766267
6649842199324940
0391213663313830
3500088234156539
9004703309176474
6331616929001470
4199993656100402
0992237765811523
2252435023297581
3595973943923733
3690765974803849
4169430692444705
5524127671001980
4956036819075890
0175488653163588
5091149098462301
4098722171532052
9848311210578810
1038437165007849
6882548794489901
3637694075598143
1241086430897870
9773431959774087
6021243490040179
0571678709945880
2916835390692971
1550538156004957
3167101952781896
1604588310531133
0772872573503574
1761809068985561
9825490593405223
2311772094130419
5942068988379022
1195670255754221
4176744174982679
1495307371508861
7030557198086205
1619822351741819
2988437176012972
0504518670644642
2058347369890530
9447755981910182
5321313558714462
4271669335170532
2149160558805754
4530797537597342
9992926049401125
2779525668838132
2979168483371927
9554636745216452
1693185688173220
9710589741627606
4302929361402243
0742447443530425
4730199135710693
2616860754160547
2763012929585328
9560808034434422
8419762828336661
5434801461459301
3573363486614904
7889760541773334
4753625269613971
4786154799567952
3979196299911690
8492938071491133
4217969976229920
2631107236461952
9093845577896778
1455400309660081
5050955206618507
2985086752327431
1681746201551274
5094554509846019
6443348814893849
6177692858000498
8194466311190528
5956138396484014
6012628866857551
0617581919813737
4616514929413214
3097235883337708
7459621484008651
4441006693149034
6838427591753592
9081444478279311
9494586865600107
9890322878300982
1791346525091775
2299690498863346
0309287112277751
9673823301591250
8716990559512126
7827570515504020
6678412027279043
5551728896460909
7673506883822108
5820606948533146
0823643293913690
3130983226794827
1962005420159398
1858039210980655
0172060197674480
3330393778639640
6371655865302362
2233385550447285
9333015140693096
7998615537688819
8194698455004359
7781662528229225
0496028111714954
7993900569181366
2185386961445949
7087360072774314
0438695263897215
1145425960313431
1184349463710551
5636357242156694
0706356412303657
6801270542810402
4210289862552350
1655344003395482
3026771014535770
2453255846842174
9363716967990672
3235411510513631
2008125431826046
4203163620990779
5646835909398399
1282503033237607
3128499030641448
1240692926327687
7069264281185562
5212895634431690
4252598478300375
5871422181537055
5321287056170351
1581361845585655
4153843335145713
3477269475651042
6369347655269508
6178334422878322
5686042294791126
9321714843105572
8950374278706165
2367374753024603
4153684635603288
9361477493709726
7690248628577122
2353653345296619
4503603092517892
0310688911589001
3879069267767616
6220335074951151
4467885414840881
6869198419648078
0477045906733254
4175509016219914
2041535919729069
6720957728292578
6284168579617066
8184319039525154
9565631619989766
5004049383694261
0847092755379350
2110438005688143
3681963742721018
7781104426401421
1310992536910889
6484772993502600
6333256547674137
2611597065632795
7079186289716593
2278867979291401
2938011667744143
7487721151936850
3366643243484790
1312983845888585
8378701346846058
2110127065416697
3986705513183210
3481010154202559
9514297710569236
7517624632977697
4519016123693631
8715885877497181
9614326778899937
1929867739425527
9326172558842154
3965917731454202
4841291525885693
9077453144711106
6104324016617272
5019620288988253
7177652613641172
6111056976383347
7583083166999903
5487910983639077
2903779406611135
4866505784545892
7388174990363675
6048395588990624
8194881694399083
5764983862728793
6293015574156664
5340762022245394
1101648973314844
1379541222918147
1690074472297033
4092089637806512
7002729236648752
5058340988632278
4091442267325340
7445031966618983
5272328652916372
3356458194022334
1957725310574749
3750795197430721
1219151993615863
7707689065994575
3387286646051492
5374456076284948
2213149288358246
1542898640396915
0100412920480661
6164624893473124
5358286408119219
2413764590089763
3814895410100282
4245724348444881
5205312713550726
6344176043377171
5852367984234501
3163615920051354
6931629047998243
7480418100713613
8323178878206962
3892893860696339
7419111297510097
7345295932741797
9842624943144778
3878018175950604
9484871854546287
1659602627065645
9617015881658827
5847787136001573
5490031389817518
7425073948369069
2026175884338340
1155499095721468
5022093326416720
3534768558295783
4227272401483420
7089912868928593
0721743417678801
1811422602590270
0587886921016313
0231481696323662
1765001992629979
7940183627771947
7985233368970536
1740684933633184
8056347635021792
2021830350525161
5040223382381229
9994825674706965
3422005740278886
2234463053019457
5185996667559560
2270048993269517
5292233426713160
5768545676097494
5839043594908917
2091351741982251
0741255176354772
8440256586036661
4019009359628022
6233368947471368
4368167535524803
4272327807964360
4087679623914604
4425673254987941
4305183655347536
9637951128805835
5914574036336024
0237905234427383
3691843056925531
9541021984469800
4169321429650165
4102814554251277
4948050747831114
2411774392945534
9228866341343391
0896060959622431
7174742745591377
7462836318959519
0332061570052918
5370355111008263
6067867622712912
8023297225898285
0363088869461060
7273256521807410
3305990157323493
9180662299851060
2253789402595225
4959270301217109
1171357784951108
3841717646904035
3207639579144628
7565203547830128
0050660217833225
2792016882986736
4640581642359843
3038443901915648
8365058467087133
8826324490183064
4430532090643829
3822862822187780
0253893659766034
0520855315887551
0616238673458322
8767566945588514
4694847711359239
8018437774723623
6124506187131052
7945633680536076
9404633085647065
1595902438130772
5729578492178529
1413628932546891
7669192089135837
2954830416817871
7562128593261814
8142791891146137
6830993024983648
3000945612440374
8785084711227475
3138220618862309
4218279548869478
2698229628494630
0640664730866958
2079402733857229
6191239140886028
4110446245460928
1675316349828133
9654600803511314
6090955414709764
1025598529469393
1859358120408738
8268160558600256
3373368008089057
1774347692577676
6939680718918399
7541422056269063
7188722905382529
5215925389298891
6686846929208143
6577740242933962
0798902414843328
1417657874331629
2482076525999383
0548477441275437
4325387629877003
2615524841845182
0117665735282078
7364478567235458
0792866470704558
9295156379317498
4035574249612354
5248622466343519
9685965969782429
9154416405180743
3966844339074299
9753003195009054
1360004695124740
1881105728474547
1769466876552778
8002416434515081
7228007694720934
1465526203054126
7309009684665618
3663321874503690
9632409046763256
5110201839173694
7404209173085482
5457685717818972
6643707507672891
2989299529277747
6898859938989272
3023418094507244
3865613954489625
2895460509544216
7974132474583385
8141853466183136
7592090152400440
8303849011697171
0763948174052925
4460337492470773
8231376961140463
6239847042825909
8021936143479726
2227182535740701
5511739536852420
0865315341741765
6822173410965132
8032982697208394
3512192325092806
8605141883488358
7608165870637529
8037625739372633
1735583118262240
7013983512685503
6515399745840330
2956517508015770
2651493097530178
5743404268947726
5639188741700654
5544954180089673
1439516161210110
7171386978447730
3336529728610160
2316510054809495
6915464796477340
8997181435090477
7873717900825592
1126996081864263
0906659945545135
8442820131690691
1142588285072902
