strict digraph grafo3 {
	graph [bb="0,0,1589.5,465",
		id=grafo3,
		overlap=False
	];
	node [fontsize=8,
		label="\N",
		shape=rectangle,
		style=filled
	];
	0	 [URL="http://lattes.cnpq.br/8539341671152883",
		color="#17272B",
		fontcolor="#FFFFFF",
		height=0.23611,
		label="Anna A. Figueirêdo de Almeida [1]",
		pos="190,456.5",
		width=1.8194];
	19	 [URL="http://lattes.cnpq.br/0764511052669622",
		color="#17272B",
		fontcolor="#FFFFFF",
		height=0.23611,
		label="Ulisses Umbelino dos Anjos [5]",
		pos="201,392.5",
		width=1.6528];
	0 -> 19	 [arrowhead=normal,
		arrowsize=0.75,
		fontsize=8,
		label=1.0,
		lp="192.5,424.5",
		penwidth=3.5,
		pos="e,195.49,401.27 187.95,447.94 186.29,440.57 184.58,429.11 187,419.5 188.01,415.5 189.76,411.45 191.7,407.77"];
	19 -> 0	 [arrowhead=normal,
		arrowsize=0.75,
		fontsize=8,
		label=0.2,
		lp="205.5,424.5",
		penwidth=1.1,
		pos="e,192.82,447.87 200.84,401.01 200.58,408.34 199.88,419.77 198,429.5 197.3,433.15 196.27,437 195.19,440.6"];
	15	 [URL="http://lattes.cnpq.br/3915051035089861",
		color="#17272B",
		fontcolor="#FFFFFF",
		height=0.23611,
		label="Rodrigo P. de Toledo Vianna [4]",
		pos="183,72.5",
		width=1.6944];
	19 -> 15	 [arrowhead=normal,
		arrowsize=0.75,
		fontsize=8,
		label=0.3,
		lp="222.5,232.5",
		penwidth=1.4,
		pos="e,190.55,81.174 204.39,383.64 209.09,372.03 217,349.51 217,329.5 217,329.5 217,329.5 217,135.5 217,117.06 205.3,98.919 195.62,87.071"];
	4	 [URL="http://lattes.cnpq.br/2328238717105962",
		color="#17272B",
		fontcolor="#FFFFFF",
		height=0.23611,
		label="Hemílio F. Campos Coêlho [1]",
		pos="183,8.5",
		width=1.6111];
	19 -> 4	 [arrowhead=normal,
		arrowsize=0.75,
		fontsize=8,
		label=0.1,
		lp="5.5,200.5",
		penwidth=0.8,
		pos="e,129.58,17.026 141.51,384.8 82.239,376.42 0,359.4 0,329.5 0,329.5 0,329.5 0,71.5 0,45.149 68.926,27.79 122.18,18.311"];
	8	 [URL="http://lattes.cnpq.br/7564660473747042",
		color="#17272B",
		fontcolor="#FFFFFF",
		height=0.23611,
		label="Kátia S. Q. Silva Ribeiro [2]",
		pos="135,328.5",
		width=1.5];
	19 -> 8	 [arrowhead=normal,
		arrowsize=0.75,
		fontsize=8,
		label=0.2,
		lp="179.5,360.5",
		penwidth=1.1,
		pos="e,143.35,337.21 192.87,383.75 185.19,376.45 173.34,365.2 163,355.5 158.48,351.26 153.52,346.64 149.05,342.5"];
	16	 [URL="http://lattes.cnpq.br/5580004940091667",
		color="#17272B",
		fontcolor="#FFFFFF",
		height=0.23611,
		label="Eufrásio de A. Lima Neto [2]",
		pos="301,328.5",
		width=1.5417];
	19 -> 16	 [arrowhead=normal,
		arrowsize=0.75,
		fontsize=8,
		label=0.2,
		lp="260.5,360.5",
		penwidth=1.1,
		pos="e,286.75,337.2 212.01,383.81 222.82,376.35 239.83,364.82 255,355.5 263.02,350.57 272,345.42 279.88,341.01"];
	15 -> 19	 [arrowhead=normal,
		arrowsize=0.75,
		fontsize=8,
		label=0.38,
		lp="46.5,232.5",
		penwidth=1.64,
		pos="e,158.86,383.96 121.93,76.56 82.684,82.211 39,97.122 39,135.5 39,329.5 39,329.5 39,329.5 39,353.87 103.75,372.21 151.37,382.4"];
	15 -> 4	 [arrowhead=normal,
		arrowsize=0.75,
		fontsize=8,
		label=0.13,
		lp="171.5,40.5",
		penwidth=0.89,
		pos="e,174.75,17.164 175.17,63.602 170.97,58.803 166.22,52.303 164,45.5 161.47,37.741 165.09,29.655 169.82,23.117"];
	1	 [URL="http://lattes.cnpq.br/7925449690046513",
		color="#17272B",
		fontcolor="#FFFFFF",
		height=0.23611,
		label="Ronei Marcos de Moraes [5]",
		pos="309,136.5",
		width=1.5];
	15 -> 1	 [arrowhead=normal,
		arrowsize=0.75,
		fontsize=8,
		label=0.5,
		lp="283.5,104.5",
		penwidth=2.0,
		pos="e,300.93,127.94 213.98,81.085 228.97,85.399 246.93,91.545 262,99.5 273.99,105.83 286.11,115.2 295.04,122.8"];
	4 -> 19	 [arrowhead=normal,
		arrowsize=0.75,
		fontsize=8,
		label=0.5,
		lp="419.5,200.5",
		penwidth=2.0,
		pos="e,241.06,383.95 241.29,13.611 309.72,20.077 414,35.79 414,71.5 414,329.5 414,329.5 414,329.5 414,346.62 311.29,369.86 248.51,382.47"];
	4 -> 15	 [arrowhead=normal,
		arrowsize=0.75,
		fontsize=8,
		label=0.5,
		lp="188.5,40.5",
		penwidth=2.0,
		pos="e,183,63.898 183,17.165 183,26.864 183,43.797 183,56.189"];
	8 -> 19	 [arrowhead=normal,
		arrowsize=0.75,
		fontsize=8,
		label=0.5,
		lp="157.5,360.5",
		penwidth=2.0,
		pos="e,179.98,383.93 137.07,337.22 139.52,345.14 144.27,357.4 152,365.5 157.91,371.69 165.61,376.71 173.16,380.63"];
	14	 [URL="http://lattes.cnpq.br/6866270928240455",
		color="#17272B",
		fontcolor="#FFFFFF",
		height=0.23611,
		label="Joao Agnaldo do Nascimento [1]",
		pos="128,264.5",
		width=1.6944];
	8 -> 14	 [arrowhead=normal,
		arrowsize=0.75,
		fontsize=8,
		label=0.5,
		lp="137.5,296.5",
		penwidth=2.0,
		pos="e,128.87,273.16 134.14,319.9 133.05,310.23 131.14,293.3 129.74,280.89"];
	16 -> 19	 [arrowhead=normal,
		arrowsize=0.75,
		fontsize=8,
		label=0.5,
		lp="286.5,360.5",
		penwidth=2.0,
		pos="e,230.44,383.98 296.16,337.1 290.69,345.16 281.09,357.75 270,365.5 260.27,372.3 248.55,377.58 237.54,381.56"];
	18	 [URL="http://lattes.cnpq.br/3186920393443928",
		color="#17272B",
		fontcolor="#FFFFFF",
		height=0.23611,
		label="Ana M. Gondim Valença [3]",
		pos="320,264.5",
		width=1.5139];
	16 -> 18	 [arrowhead=normal,
		arrowsize=0.75,
		fontsize=8,
		label=0.5,
		lp="297.5,296.5",
		penwidth=2.0,
		pos="e,307.97,273.1 296.26,319.81 292.31,312.36 287.93,300.83 292,291.5 294.21,286.43 297.95,281.91 301.98,278.12"];
	1 -> 15	 [arrowhead=normal,
		arrowsize=0.75,
		fontsize=8,
		label=0.4,
		lp="256.5,104.5",
		penwidth=1.7,
		pos="e,196.67,81.076 291.35,127.95 279.78,122.91 264.39,116.04 251,109.5 234.9,101.64 217,92.13 203.6,84.86"];
	5	 [URL="http://lattes.cnpq.br/8338527087554463",
		color="#17272B",
		fontcolor="#FFFFFF",
		height=0.23611,
		label="Jordana de Almeida Nogueira [1]",
		pos="324,72.5",
		width=1.7222];
	1 -> 5	 [arrowhead=normal,
		arrowsize=0.75,
		fontsize=8,
		label=0.2,
		lp="323.5,104.5",
		penwidth=1.1,
		pos="e,322.15,81.165 310.84,127.9 313.2,118.14 317.35,100.98 320.36,88.534"];
	13	 [URL="http://lattes.cnpq.br/0240551533292579",
		color="#17272B",
		fontcolor="#FFFFFF",
		height=0.23611,
		label="Liliane d. Santos Machado [4]",
		pos="310,200.5",
		width=1.5833];
	1 -> 13	 [arrowhead=normal,
		arrowsize=0.75,
		fontsize=8,
		label=0.4,
		lp="315.5,168.5",
		penwidth=1.7,
		pos="e,309.88,191.9 309.12,145.16 309.28,154.86 309.55,171.8 309.75,184.19"];
	14 -> 8	 [arrowhead=normal,
		arrowsize=0.75,
		fontsize=8,
		label=1.0,
		lp="122.5,296.5",
		penwidth=3.5,
		pos="e,127.94,319.98 122.88,273.23 118.71,280.53 113.96,291.77 117,301.5 118.35,305.82 120.7,310.06 123.26,313.82"];
	18 -> 16	 [arrowhead=normal,
		arrowsize=0.75,
		fontsize=8,
		label=0.33,
		lp="319.5,296.5",
		penwidth=1.49,
		pos="e,303.33,319.9 317.65,273.16 314.65,282.96 309.39,300.12 305.58,312.55"];
	18 -> 13	 [arrowhead=normal,
		arrowsize=0.75,
		fontsize=8,
		label=0.67,
		lp="303.5,232.5",
		penwidth=2.51,
		pos="e,303.52,209.23 310.15,255.99 304.86,251.32 298.86,244.82 296,237.5 293.2,230.34 295.71,222.38 299.34,215.77"];
	5 -> 1	 [arrowhead=normal,
		arrowsize=0.75,
		fontsize=8,
		label=1.0,
		lp="337.5,104.5",
		penwidth=3.5,
		pos="e,317.64,127.75 327.43,81.138 330.27,88.56 333.34,100.06 330,109.5 328.41,113.99 325.69,118.27 322.72,122.01"];
	13 -> 1	 [arrowhead=normal,
		arrowsize=0.75,
		fontsize=8,
		label=0.5,
		lp="300.5,168.5",
		penwidth=2.0,
		pos="e,303.02,145.06 304.1,191.79 300.71,186.85 296.78,180.14 295,173.5 293.01,166.08 295.61,158.09 299.08,151.53"];
	13 -> 18	 [arrowhead=normal,
		arrowsize=0.75,
		fontsize=8,
		label=0.5,
		lp="321.5,232.5",
		penwidth=2.0,
		pos="e,318.77,255.9 311.24,209.16 312.8,218.86 315.53,235.8 317.53,248.19"];
	2	 [URL="http://lattes.cnpq.br/9931973391211710",
		color="#17272B",
		fontcolor="#FFFFFF",
		height=0.23611,
		label="Ana T. M. Cavalcanti da Silva [1]",
		pos="338,456.5",
		width=1.7361];
	10	 [URL="http://lattes.cnpq.br/0616539963047807",
		color="#17272B",
		fontcolor="#FFFFFF",
		height=0.23611,
		label="Neir Antunes Paes [1]",
		pos="330,392.5",
		width=1.2083];
	2 -> 10	 [arrowhead=normal,
		arrowsize=0.75,
		fontsize=8,
		label=1.0,
		lp="323.5,424.5",
		penwidth=3.5,
		pos="e,324.42,401.23 329.76,447.68 325.35,442.9 320.35,436.4 318,429.5 315.62,422.51 317.63,414.73 320.64,408.2"];
	10 -> 2	 [arrowhead=normal,
		arrowsize=0.75,
		fontsize=8,
		label=1.0,
		lp="340.5,424.5",
		penwidth=3.5,
		pos="e,337.02,447.9 330.99,401.16 332.24,410.86 334.43,427.8 336.02,440.19"];
	3	 [URL="http://lattes.cnpq.br/4055146648812877",
		color="#17272B",
		fontcolor="#FFFFFF",
		height=0.23611,
		label="Tatiene Correia de Souza [0]",
		pos="473,456.5",
		width=1.5139];
	6	 [URL="http://lattes.cnpq.br/6526050617910624",
		color="#17272B",
		fontcolor="#FFFFFF",
		height=0.23611,
		label="Jozemar Pereira dos Santos [0]",
		pos="604,456.5",
		width=1.6111];
	7	 [URL="http://lattes.cnpq.br/6515725808648467",
		color="#17272B",
		fontcolor="#FFFFFF",
		height=0.23611,
		label="Caliandra M. B. Luna Lima [0]",
		pos="739,456.5",
		width=1.625];
	9	 [URL="http://lattes.cnpq.br/1760765397044137",
		color="#17272B",
		fontcolor="#FFFFFF",
		height=0.23611,
		label="Josemberg Moura de Andrade [0]",
		pos="878,456.5",
		width=1.7222];
	11	 [URL="http://lattes.cnpq.br/2198188215129698",
		color="#17272B",
		fontcolor="#FFFFFF",
		height=0.23611,
		label="Tarciana Liberal Pereira [0]",
		pos="1011,456.5",
		width=1.4722];
	12	 [URL="http://lattes.cnpq.br/4561729191450640",
		color="#17272B",
		fontcolor="#FFFFFF",
		height=0.23611,
		label="Cesar Cavalcanti da Silva [0]",
		pos="1137,456.5",
		width=1.5278];
	17	 [URL="http://lattes.cnpq.br/8680871640499952",
		color="#17272B",
		fontcolor="#FFFFFF",
		height=0.23611,
		label="Luiz M. de A. Lima Filho [0]",
		pos="1266,456.5",
		width=1.5417];
	20	 [URL="http://lattes.cnpq.br/5348717261204017",
		color="#17272B",
		fontcolor="#FFFFFF",
		height=0.23611,
		label="Flávia E. L. de Lima Ferreira [0]",
		pos="1400,456.5",
		width=1.6806];
	21	 [URL="http://lattes.cnpq.br/6080000618358423",
		color="#17272B",
		fontcolor="#FFFFFF",
		height=0.23611,
		label="Sergio Ribeiro dos Santos [0]",
		pos="1534,456.5",
		width=1.5417];
}
