strict graph grafo2 {
	graph [bb="0,0,1954.5,145",
		id=grafo2,
		overlap=False
	];
	node [fontsize=8,
		label="\N",
		shape=rectangle,
		style=filled
	];
	0	 [URL="http://lattes.cnpq.br/0373331085707465",
		color="#17272B",
		fontcolor="#FFFFFF",
		height=0.23611,
		label="Fernando Fagundes Ferreira [0]",
		pos="59,136.5",
		width=1.6389];
	1	 [URL="http://lattes.cnpq.br/1539584880795958",
		color="#17272B",
		fontcolor="#FFFFFF",
		height=0.23611,
		label="Candido F. X. de Mendonça Neto [0]",
		pos="204,136.5",
		width=1.8889];
	2	 [URL="http://lattes.cnpq.br/2038805993153668",
		color="#17272B",
		fontcolor="#FFFFFF",
		height=0.23611,
		label="Fernando de Souza Coelho [0]",
		pos="347,136.5",
		width=1.5833];
	3	 [URL="http://lattes.cnpq.br/1758254967187398",
		color="#17272B",
		fontcolor="#FFFFFF",
		height=0.23611,
		label="Paulo A. de Almeida Sinisgalli [0]",
		pos="486,136.5",
		width=1.7639];
	4	 [URL="http://lattes.cnpq.br/9979732565759430",
		color="#17272B",
		fontcolor="#FFFFFF",
		height=0.23611,
		label="Masayuki Oka Hase [0]",
		pos="614,136.5",
		width=1.2917];
	5	 [URL="http://lattes.cnpq.br/8792749813872106",
		color="#17272B",
		fontcolor="#FFFFFF",
		height=0.23611,
		label="José R. Gonçalves de Mendonça [0]",
		pos="745,136.5",
		width=1.8333];
	6	 [URL="http://lattes.cnpq.br/4218896753382242",
		color="#17272B",
		fontcolor="#FFFFFF",
		height=0.23611,
		label="Francisco J. S. Mendizabal Alvarez [0]",
		pos="900,136.5",
		width=1.9722];
	7	 [URL="http://lattes.cnpq.br/4889413058276292",
		color="#17272B",
		fontcolor="#FFFFFF",
		height=0.23611,
		label="Flávia Mori Sarti [1]",
		pos="1031,136.5",
		width=1.1528];
	10	 [URL="http://lattes.cnpq.br/7325616838190292",
		color="#17272B",
		fontcolor="#FFFFFF",
		height=0.23611,
		label="Cristina Adams [3]",
		pos="981,72.5",
		width=1.0833];
	7 -- 10	 [fontsize=8,
		label=1.0,
		lp="1013.5,104.5",
		pos="1024.9,127.9 1015.3,116 996.81,93.102 987.18,81.165"];
	12	 [URL="http://lattes.cnpq.br/4710295079878737",
		color="#17272B",
		fontcolor="#FFFFFF",
		height=0.23611,
		label="Carla Morsello [3]",
		pos="1031,8.5",
		width=1.0556];
	7 -- 12	 [fontsize=8,
		label=1.0,
		lp="1036.5,72.5",
		pos="1031,128 1031,105.64 1031,39.637 1031,17.125"];
	10 -- 12	 [fontsize=8,
		label=3.0,
		lp="1013.5,40.5",
		pos="987.13,63.898 996.73,51.998 1015.2,29.102 1024.8,17.165"];
	8	 [URL="http://lattes.cnpq.br/1068554491963326",
		color="#17272B",
		fontcolor="#FFFFFF",
		height=0.23611,
		label="Esteban Fernandez Tuesta [0]",
		pos="1147,136.5",
		width=1.5556];
	9	 [URL="http://lattes.cnpq.br/4198814149144165",
		color="#17272B",
		fontcolor="#FFFFFF",
		height=0.23611,
		label="Diego A. Falceta Gonçalves [0]",
		pos="1280,136.5",
		width=1.6389];
	11	 [URL="http://lattes.cnpq.br/0730842074191192",
		color="#17272B",
		fontcolor="#FFFFFF",
		height=0.23611,
		label="Carlos de Brito Pereira [0]",
		pos="1408,136.5",
		width=1.4028];
	13	 [URL="http://lattes.cnpq.br/8618151183586924",
		color="#17272B",
		fontcolor="#FFFFFF",
		height=0.23611,
		label="Camilo Rodrigues Neto [0]",
		pos="1529,136.5",
		width=1.4444];
	14	 [URL="http://lattes.cnpq.br/2318177531681999",
		color="#17272B",
		fontcolor="#FFFFFF",
		height=0.23611,
		label="André C. Rocha Martins [0]",
		pos="1652,136.5",
		width=1.4722];
	15	 [URL="http://lattes.cnpq.br/0827495526048435",
		color="#17272B",
		fontcolor="#FFFFFF",
		height=0.23611,
		label="Ana A. Benedito Silva [0]",
		pos="1773,136.5",
		width=1.3889];
	16	 [URL="http://lattes.cnpq.br/0101577359803272",
		color="#17272B",
		fontcolor="#FFFFFF",
		height=0.23611,
		label="Alexandre Ferreira Ramos [0]",
		pos="1898,136.5",
		width=1.5694];
}
