
PB0:2013,3;2014,1;2015,2;2016,1;2017,1;
PB2:2017,1;
PB4:2013,5;2014,5;2015,2;2016,4;
PB5:2013,2;2014,2;
PB6:2013,1;2015,6;
PB8:2013,1;2014,1;
PB9:2016,1;
PT4:2014,1;2015,1;2016,5;
OA2:2014,1;2015,1;
OA5:2016,2;2017,1;
OC2:2016,1;
OC4:2013,1;2015,1;
Pm:2013,1;2014,1;2015,2;2016,3;
Pj:2010,1;2012,1;2013,2;2014,3;2015,1;2016,8;
PB:2013,12;2014,9;2015,10;2016,6;2017,2;
PT:2014,1;2015,1;2016,5;
OA:2014,1;2015,1;2016,2;2017,1;
OC:2013,1;2015,1;2016,1;
Ep:2013,5;2014,4;2015,1;
Eo:2015,1;2016,1;