0.0 0.0 0.0 0.0 0.589285714286 0.0178571428571 0.0178571428571 0.0 0.0 0.0 0.0 0.0 0.0 0.0 0.160714285714 0.142857142857 0.0 0.0714285714286 0.0 0.0 
0.0 0.0 0.0 0.0 0.0 0.0 0.0 0.0 0.0 0.0 0.0 0.0 0.0 0.0 0.0 0.0 0.0 0.0 0.0 0.0 
0.0 0.0 0.0 0.0 0.0 0.0185185185185 0.212962962963 0.0 0.111111111111 0.555555555556 0.0 0.0277777777778 0.0 0.0462962962963 0.0 0.0 0.0277777777778 0.0 0.0 0.0 
0.0 0.0 0.0 0.0 0.0 0.0 0.0 0.0 0.0 0.0 0.0 0.0 0.0 0.5 0.0 0.0 0.0 0.0 0.0 0.5 
0.485294117647 0.0 0.0 0.0 0.0 0.308823529412 0.0735294117647 0.0 0.0 0.0 0.0 0.0 0.0 0.0 0.0147058823529 0.0 0.0 0.0 0.0 0.117647058824 
0.0208333333333 0.0 0.0277777777778 0.0 0.4375 0.0 0.340277777778 0.0 0.0 0.0 0.0 0.0 0.0 0.0277777777778 0.0208333333333 0.0 0.0 0.0 0.0 0.125 
0.0131578947368 0.0 0.201754385965 0.0 0.0657894736842 0.214912280702 0.0 0.0 0.0 0.0526315789474 0.0 0.0 0.0 0.0438596491228 0.0657894736842 0.0 0.0 0.157894736842 0.0 0.184210526316 
0.0 0.0 0.0 0.0 0.0 0.0 0.0 0.0 0.0 0.0 0.0 0.0 0.0 0.0 0.0 0.0 0.0 0.0 0.0 0.0 
0.0 0.0 0.666666666667 0.0 0.0 0.0 0.0 0.0 0.0 0.166666666667 0.0 0.0 0.0 0.0 0.0 0.0 0.166666666667 0.0 0.0 0.0 
0.0 0.0 0.769230769231 0.0 0.0 0.0 0.0769230769231 0.0 0.0384615384615 0.0 0.0 0.0384615384615 0.0 0.0 0.0 0.0 0.0769230769231 0.0 0.0 0.0 
0.0 0.0 0.0 0.0 0.0 0.0 0.0 0.0 0.0 0.0 0.0 0.0 0.0 0.0 0.0 0.0 0.0 0.0 0.0 0.0 
0.0 0.0 0.5 0.0 0.0 0.0 0.0 0.0 0.0 0.5 0.0 0.0 0.0 0.0 0.0 0.0 0.0 0.0 0.0 0.0 
0.0 0.0 0.0 0.0 0.0 0.0 0.0 0.0 0.0 0.0 0.0 0.0 0.0 0.0 0.0 0.0 0.0 0.0 0.0 0.0 
0.0 0.0 0.277777777778 0.333333333333 0.0 0.111111111111 0.277777777778 0.0 0.0 0.0 0.0 0.0 0.0 0.0 0.0 0.0 0.0 0.0 0.0 0.0 
0.5625 0.0 0.0 0.0 0.0625 0.0625 0.3125 0.0 0.0 0.0 0.0 0.0 0.0 0.0 0.0 0.0 0.0 0.0 0.0 0.0 
1.0 0.0 0.0 0.0 0.0 0.0 0.0 0.0 0.0 0.0 0.0 0.0 0.0 0.0 0.0 0.0 0.0 0.0 0.0 0.0 
0.0 0.0 0.25 0.0 0.0 0.0 0.0 0.0 0.25 0.5 0.0 0.0 0.0 0.0 0.0 0.0 0.0 0.0 0.0 0.0 
0.2 0.0 0.0 0.0 0.0 0.0 0.6 0.0 0.0 0.0 0.0 0.0 0.0 0.0 0.0 0.0 0.0 0.0 0.0 0.2 
0.0 0.0 0.0 0.0 0.0 0.0 0.0 0.0 0.0 0.0 0.0 0.0 0.0 0.0 0.0 0.0 0.0 0.0 0.0 0.0 
0.0 0.0 0.0 0.111111111111 0.222222222222 0.166666666667 0.388888888889 0.0 0.0 0.0 0.0 0.0 0.0 0.0 0.0 0.0 0.0 0.111111111111 0.0 0.0 
