
PB0:2014,51;
PB1:2014,1;
PB2:2014,4;
PB3:*itens sem ano,3;
PB4:2014,35;
PB5:2014,5;
PB6:2014,48;
PB7:2014,1;
PB8:2014,13;
PT3:2014,1;
PT4:2014,46;
PT5:2014,17;
OA1:2014,1;2015,8;2016,9;2017,6;
OA2:2015,5;2016,6;2017,17;
OA5:2016,16;2017,4;
OC1:2014,2;
OC2:2014,15;
OC4:2014,3;
OC5:2014,27;
OC6:2014,7;
Pm:2014,8;
Pj:2008,1;2009,1;2011,1;2012,4;2013,9;2014,7;
PB:*itens sem ano,3;2014,158;
PT:2014,64;
OA:2014,1;2015,13;2016,31;2017,27;
OC:2014,54;
Ep:2014,30;
Eo:2014,1;