strict graph grafo1 {
	graph [bb="0,0,1866.5,233",
		id=grafo1,
		overlap=False
	];
	node [fontsize=8,
		label="\N",
		shape=rectangle,
		style=filled
	];
	0	 [URL="http://lattes.cnpq.br/3306639576480361",
		color="#17272B",
		fontcolor="#FFFFFF",
		height=0.23611,
		label="Luis A. Martinez Riascos [1]",
		pos="55,224.5",
		width=1.5278];
	7	 [URL="http://lattes.cnpq.br/1495307371508861",
		color="#17272B",
		fontcolor="#FFFFFF",
		height=0.23611,
		label="Jesus F. Andrade Romero [7]",
		pos="55,170.5",
		width=1.5278];
	0 -- 7	 [pos="55,215.83 55,206 55,189.05 55,179.2"];
	9	 [URL="http://lattes.cnpq.br/5360039693866307",
		color="#17272B",
		fontcolor="#FFFFFF",
		height=0.23611,
		label="Igor Fuser [1]",
		pos="55,116.5",
		width=0.84722];
	7 -- 9	 [pos="55,161.83 55,152 55,135.05 55,125.2"];
	1	 [URL="http://lattes.cnpq.br/5891290481492220",
		color="#17272B",
		fontcolor="#FFFFFF",
		height=0.23611,
		label="Paulo H. de Mello Sant'Ana [0]",
		pos="655,224.5",
		width=1.625];
	2	 [URL="http://lattes.cnpq.br/5742286307682505",
		color="#17272B",
		fontcolor="#FFFFFF",
		height=0.23611,
		label="Patricia T. Leite Asano [9]",
		pos="312,224.5",
		width=1.4167];
	2 -- 7	 [pos="274.9,215.99 226.11,206.12 140.87,188.87 92.084,179"];
	4	 [URL="http://lattes.cnpq.br/5356631364526373",
		color="#17272B",
		fontcolor="#FFFFFF",
		height=0.23611,
		label="Julio Carlos Teixeira [8]",
		pos="176,170.5",
		width=1.3194];
	2 -- 4	 [pos="292.22,215.94 266.44,206.08 221.6,188.93 195.8,179.07"];
	5	 [URL="http://lattes.cnpq.br/5566869997738091",
		color="#17272B",
		fontcolor="#FFFFFF",
		height=0.23611,
		label="José Rubens Maiorino [12]",
		pos="977,170.5",
		width=1.4306];
	2 -- 5	 [pos="363.08,217.86 371.4,217.02 379.94,216.2 388,215.5 622.33,195.19 681.95,202.8 916,179.5 919.08,179.19 922.25,178.85 925.44,178.49"];
	8	 [URL="http://lattes.cnpq.br/3350119903495479",
		color="#17272B",
		fontcolor="#FFFFFF",
		height=0.23611,
		label="Ivan R. Santana Casella [15]",
		pos="296,170.5",
		width=1.5];
	2 -- 8	 [pos="309.64,215.83 306.61,206 301.4,189.05 298.37,179.2"];
	12	 [URL="http://lattes.cnpq.br/5883532047220320",
		color="#17272B",
		fontcolor="#FFFFFF",
		height=0.23611,
		label="Graziella Colato Antonio [7]",
		pos="847,116.5",
		width=1.5139];
	2 -- 12	 [pos="363.25,217.17 438.95,207.67 576.97,189.76 626,179.5 699.33,164.15 784.14,137.91 824.03,125.05"];
	33	 [URL="http://lattes.cnpq.br/7819421851048499",
		color="#17272B",
		fontcolor="#FFFFFF",
		height=0.23611,
		label="Ricardo de Sousa Moretti [5]",
		pos="423,170.5",
		width=1.5278];
	2 -- 33	 [pos="328.38,215.83 349.49,205.94 385.95,188.86 406.92,179.04"];
	23	 [URL="http://lattes.cnpq.br/2488515249747169",
		color="#17272B",
		fontcolor="#FFFFFF",
		height=0.23611,
		label="Ahda P. Grilo Pavani [11]",
		pos="204,62.5",
		width=1.3889];
	4 -- 23	 [pos="176.06,161.7 176.32,149.79 177.57,126.45 183,107.5 186.82,94.155 194.36,79.851 199.29,71.293"];
	25	 [URL="http://lattes.cnpq.br/3761082063391085",
		color="#17272B",
		fontcolor="#FFFFFF",
		height=0.23611,
		label="Sinclair Mallet Guy Guerra [2]",
		pos="374,116.5",
		width=1.6111];
	4 -- 25	 [pos="204.79,161.94 242.33,152.08 307.62,134.93 345.17,125.07"];
	34	 [URL="http://lattes.cnpq.br/1277989540271729",
		color="#17272B",
		fontcolor="#FFFFFF",
		height=0.23611,
		label="Ricardo Caneloi dos Santos [5]",
		pos="165,8.5",
		width=1.6111];
	4 -- 34	 [pos="171.41,161.96 160.78,143.57 136.04,94.858 145,53.5 147.91,40.051 155.3,25.776 160.24,17.253"];
	5 -- 12	 [pos="958.1,161.94 933.45,152.08 890.58,134.93 865.93,125.07"];
	6	 [URL="http://lattes.cnpq.br/5209245987326574",
		color="#17272B",
		fontcolor="#FFFFFF",
		height=0.23611,
		label="Joao M. Losada Moreira [12]",
		pos="1051,116.5",
		width=1.5278];
	5 -- 6	 [pos="987.92,161.83 1001.9,152 1026,135.05 1040,125.2"];
	17	 [URL="http://lattes.cnpq.br/0193783578688625",
		color="#17272B",
		fontcolor="#FFFFFF",
		height=0.23611,
		label="Antonio Garrido Gallego [2]",
		pos="1178,116.5",
		width=1.5];
	5 -- 17	 [pos="1006.2,161.94 1044.3,152.08 1110.6,134.93 1148.7,125.07"];
	35	 [URL="http://lattes.cnpq.br/5144761239802060",
		color="#17272B",
		fontcolor="#FFFFFF",
		height=0.23611,
		label="Pedro Carajilescov [3]",
		pos="1009,62.5",
		width=1.2222];
	5 -- 35	 [pos="977.5,161.69 978.43,149.76 980.91,126.39 987,107.5 991.3,94.169 999.12,79.861 1004.2,71.298"];
	22	 [URL="http://lattes.cnpq.br/6603067354811112",
		color="#17272B",
		fontcolor="#FFFFFF",
		height=0.23611,
		label="Alfeu J. Sguarezi Filho [16]",
		pos="245,116.5",
		width=1.4722];
	8 -- 22	 [pos="288.47,161.83 278.83,152 262.21,135.05 252.56,125.2"];
	21	 [URL="http://lattes.cnpq.br/3367851356455715",
		color="#17272B",
		fontcolor="#FFFFFF",
		height=0.23611,
		label="Ana M. Pereira Neto [4]",
		pos="873,62.5",
		width=1.3056];
	12 -- 21	 [pos="850.84,107.83 855.75,97.996 864.22,81.051 869.15,71.204"];
	23 -- 34	 [pos="198.25,53.827 190.87,43.996 178.16,27.051 170.78,17.204"];
	32	 [URL="http://lattes.cnpq.br/6198722804410996",
		color="#17272B",
		fontcolor="#FFFFFF",
		height=0.23611,
		label="Roseli Frederigi Benassi [5]",
		pos="564,62.5",
		width=1.4722];
	25 -- 32	 [pos="401.63,107.94 437.65,98.08 500.3,80.934 536.34,71.07"];
	6 -- 35	 [pos="1044.8,107.83 1036.9,97.996 1023.2,81.051 1015.2,71.204"];
	26	 [URL="http://lattes.cnpq.br/2146827739602504",
		color="#17272B",
		fontcolor="#FFFFFF",
		height=0.23611,
		label="Silvia A. Nebra de Pérez [18]",
		pos="1251,62.5",
		width=1.5417];
	17 -- 26	 [pos="1188.8,107.83 1202.6,97.996 1226.4,81.051 1240.2,71.204"];
	29	 [URL="http://lattes.cnpq.br/4511646102728382",
		color="#17272B",
		fontcolor="#FFFFFF",
		height=0.23611,
		label="Reynaldo Palacios Bereche [18]",
		pos="1251,8.5",
		width=1.6528];
	17 -- 29	 [pos="1177.1,107.98 1176,95.629 1175.4,70.688 1186,53.5 1196.6,36.212 1216.9,24.142 1232,17.074"];
	22 -- 23	 [pos="238.95,107.83 231.2,97.996 217.84,81.051 210.07,71.204"];
	26 -- 29	 [pos="1251,53.827 1251,43.996 1251,27.051 1251,17.204"];
	3	 [URL="http://lattes.cnpq.br/1843587196655459",
		color="#17272B",
		fontcolor="#FFFFFF",
		height=0.23611,
		label="Marat Rafikov [0]",
		pos="960,224.5",
		width=1.0278];
	10	 [URL="http://lattes.cnpq.br/8304507282532636",
		color="#17272B",
		fontcolor="#FFFFFF",
		height=0.23611,
		label="Herlander da M. Fernandes Lima [2]",
		pos="517,116.5",
		width=1.8611];
	10 -- 32	 [pos="523.94,107.83 532.82,97.996 548.14,81.051 557.04,71.204"];
	11	 [URL="http://lattes.cnpq.br/3966520672292193",
		color="#17272B",
		fontcolor="#FFFFFF",
		height=0.23611,
		label="Juliana T. de C. Leite Toneli [8]",
		pos="847,170.5",
		width=1.6667];
	11 -- 12	 [pos="847,161.83 847,152 847,135.05 847,125.2"];
	11 -- 21	 [pos="866.3,161.96 881.24,154.98 900.87,143.01 910,125.5 920.43,105.49 897.9,82.969 883.6,71.359"];
	13	 [URL="http://lattes.cnpq.br/5816066197029925",
		color="#17272B",
		fontcolor="#FFFFFF",
		height=0.23611,
		label="Gilberto Martins [0]",
		pos="1152,224.5",
		width=1.125];
	14	 [URL="http://lattes.cnpq.br/5365980970949716",
		color="#17272B",
		fontcolor="#FFFFFF",
		height=0.23611,
		label="Francisco de Assis Comarú [5]",
		pos="455,224.5",
		width=1.6111];
	14 -- 33	 [pos="450.28,215.83 444.23,206 433.8,189.05 427.74,179.2"];
	19	 [URL="http://lattes.cnpq.br/0149421197228356",
		color="#17272B",
		fontcolor="#FFFFFF",
		height=0.23611,
		label="Federico B. Morante Trigoso [2]",
		pos="557,170.5",
		width=1.6806];
	14 -- 19	 [pos="470.05,215.83 489.45,205.94 522.96,188.86 542.22,179.04"];
	19 -- 25	 [pos="530.39,161.94 495.69,152.08 435.35,134.93 400.64,125.07"];
	19 -- 32	 [pos="566.15,161.85 574.96,153.84 587.69,140.37 593,125.5 600.19,105.36 582.93,82.887 572.05,71.322"];
	15	 [URL="http://lattes.cnpq.br/0036766179644104",
		color="#17272B",
		fontcolor="#FFFFFF",
		height=0.23611,
		label="Claudio L. de Camargo Penteado [2]",
		pos="707,116.5",
		width=1.8611];
	15 -- 32	 [pos="686.21,107.94 659.09,98.08 611.94,80.934 584.82,71.07"];
	16	 [URL="http://lattes.cnpq.br/8302799021512210",
		color="#17272B",
		fontcolor="#FFFFFF",
		height=0.23611,
		label="Arilson da Silva Favareto [0]",
		pos="1314,224.5",
		width=1.5278];
	18	 [URL="http://lattes.cnpq.br/8247613218944551",
		color="#17272B",
		fontcolor="#FFFFFF",
		height=0.23611,
		label="Fernando Gasi [7]",
		pos="1449,224.5",
		width=1.0417];
	20	 [URL="http://lattes.cnpq.br/1987040329676323",
		color="#17272B",
		fontcolor="#FFFFFF",
		height=0.23611,
		label="Douglas Alves Cassiano [9]",
		pos="1409,170.5",
		width=1.4722];
	18 -- 20	 [pos="1443.1,215.83 1435.5,206 1422.5,189.05 1414.9,179.2"];
	27	 [URL="http://lattes.cnpq.br/7066276230059704",
		color="#17272B",
		fontcolor="#FFFFFF",
		height=0.23611,
		label="Sérgio Ricardo Lourenço [9]",
		pos="1450,116.5",
		width=1.5139];
	18 -- 27	 [pos="1454.2,215.82 1459.7,207.36 1467.8,193.13 1471,179.5 1475.8,159.37 1463.1,136.53 1455.4,125"];
	20 -- 27	 [pos="1415,161.83 1422.8,152 1436.2,135.05 1443.9,125.2"];
	24	 [URL="http://lattes.cnpq.br/3109765375187879",
		color="#17272B",
		fontcolor="#FFFFFF",
		height=0.23611,
		label="Adriano Viana Ensinas [10]",
		pos="1324,116.5",
		width=1.4722];
	24 -- 26	 [pos="1313.2,107.83 1299.4,97.996 1275.6,81.051 1261.8,71.204"];
	24 -- 29	 [pos="1324.7,107.98 1325.6,95.625 1325.7,70.68 1315,53.5 1304.3,36.325 1284.2,24.17 1269.3,17.05"];
	28	 [URL="http://lattes.cnpq.br/2457201378390160",
		color="#17272B",
		fontcolor="#FFFFFF",
		height=0.23611,
		label="Marcelo Modesto da Silva [0]",
		pos="1561,224.5",
		width=1.5556];
	30	 [URL="http://lattes.cnpq.br/7694775159640361",
		color="#17272B",
		fontcolor="#FFFFFF",
		height=0.23611,
		label="Sergio H. Ferreira de Oliveira [0]",
		pos="1697,224.5",
		width=1.7222];
	31	 [URL="http://lattes.cnpq.br/8679123716738439",
		color="#17272B",
		fontcolor="#FFFFFF",
		height=0.23611,
		label="Sergio Brochsztain [0]",
		pos="1822,224.5",
		width=1.2361];
}
