artigoEmPeriodico	2016		Genetic algorithm applied to Study of the Economic Viability of Alcohol Production from Cassava Root from 2002 to 2013	Journal of Cleaner Production	Benvenga, M. A. C. ; LIBRANTZ, A. F. H. ; SANTANA, J. C. C. ; E. Tambourgi	A1	
artigoEmPeriodico	2016		Improving Process Management in a Water Treatment Plant Using Control Modelling	IFIP Advances in Information and Communication Technology	DIAS, C. G. ; SANTOS, F. C. R. ; LIBRANTZ, A. F. H. ; SOUSA, C. M. ; SILVA, L. C.	B2	
artigoEmPeriodico	2016		AHP modelling and sensitivity analysis for evaluating the criticality of software programs	IFIP Advances in Information and Communication Technology	LIBRANTZ, A. F. H.; DIAS, C. G. ; SANTOS, F. C. R. ; CUNHA, A. C. A. ; COSTA, I. ; SPINOLA, M. M.	B2	
artigoEmPeriodico	2015		Framework Computacional para a programação da produção de gabaritos de montagem com restrição de adjacência	Espacios (Caracas)	V. O. Pereira ; LIBRANTZ, A. F. H.	B3	
artigoEmPeriodico	2014		Simulación de eventos discretos de la cadena logística de exportación de commodities	Ingeniare. Revista Chilena de Ingeniería (En línea)	Guerrero M. A. ; LIBRANTZ, ANDRÉ FELIPE HENRIQUES	B3	
artigoEmPeriodico	2014		Artificial intelligence based system to improve the inspection of plastic mould surfaces	JOURNAL OF INTELLIGENT MANUFACTURING	LIBRANTZ, A. F. H.; ARAÚJO, S. A. ; ALVES, W. A. L. ; BELAN, P. A. ; MESQUITA, R. A. ; SELVATICCI, A. H. P.	Qualis nao identificado	JOURNAL OF INTELLIGENT MANUFACTURING
artigoEmPeriodico	2014		Logistic Operator Selection with Capacity of Storage and Transport Frozen Product Using Multicriteria Decision	IFIP Advances in Information and Communication Technology	OLIVEIRA, G. C. ; LIBRANTZ, A. F. H. ; SOUSA, W. C.	B2	
artigoEmPeriodico	2013	http://dx.doi.org/10.1504/IJCAT.2013.053420	A comparative study of statistical methods for characterisation of materials surfaces by means of texture analysis	International Journal of Computer Applications in Technology	ARAÚJO, S. A. ; ALVES, W. A. L. ; LIBRANTZ, A. F. H. ; BELAN, P. A.	B3	INTERNATIONAL JOURNAL OF COMPUTER APPLICATIONS IN TECHNOLOGY
artigoEmPeriodico	2013	http://dx.doi.org/10.5120/13761-1601	An Expert System for Improving Sieve Calibration Process	International Journal of Computer Applications	FELIPE H. LIBRANTZ, ANDRÉ; ALVES DE ARAÚJO, SIDNEI ; ADRIANOBELAN, PETERSON	B3	
artigoEmPeriodico	2013	http://dx.doi.org/10.4025/actascitechnol.v35i4.17468	<b>Improvement of the supply chain for the sugar cane exportation process employing discrete events simulation techniques</b> - doi: 10.4025/actascitechnol.v35i4.17468	Acta Scientiarum. Technology (Online)	GUERRERO HERNANDEZ, MARIA ALEJANDRA ; HENRIQUES LIBRANTZ, ANDRÉ FELIPE	A2	
artigoEmPeriodico	2013		Computational Simulation of High-Concentration Erbium Media for Lasers Development	Applied Mechanics and Materials	PEREIRA JUNIOR, N. B. ; LIBRANTZ, A. F. H. ; ALVES, W. A. L. ; DEANA, A. M.	B2	
trabalhoCompletoEmCongresso	2016		Improving Process Management in a Water Treatment Plant Using Control Modelling	Advances in Production Management Systems (APMS)	DIAS, C. G. ; SANTOS, F. C. R. ; LIBRANTZ, A. F. H. ; SOUSA, C. M. ; SILVA, L. C.		
trabalhoCompletoEmCongresso	2016		AHP modelling and sensitivity analysis for evaluating the criticality of software programs	Advances in Production Management Systems (APMS)	LIBRANTZ, A. F. H.; SANTOS, F. C. R. ; DIAS, C. G. ; CUNHA, A. C. A. ; COSTA, I. ; SPINOLA, M. M.		
trabalhoCompletoEmCongresso	2015		Otimização do processo de hidrólise de amido de mandioca usando algoritmo híbrido SAG	XX Simpósio Nacional de Bioprocessos - SINAFERM	Benvenga, M. A. C. ; D. D. Ehrhardt ; TAMBOURGI, E. B. ; SANTANA, J. C. C. ; LIBRANTZ, A. F. H.		
trabalhoCompletoEmCongresso	2015		Seleção de Operador Logístico para transporte de produtos resfriados utilizando AHP para tomada de decisão de multicritério	XXXV Encontro Nacional de Engenharia de Produção ( ENEGEP)	OLIVEIRA, G. C. ; CESAR, J. ; LIBRANTZ, A. F. H.		
trabalhoCompletoEmCongresso	2014		APLICAÇÃO DO ALGORITMO HÍBRIDO GASA NA OTIMIZAÇÃO DO PROCESSO DE HIDRÓLISE DO AMIDO DE MANDIOCA PARA PRODUÇÃO DE ÁLCOOL	ENEGEP	BENVENGA, M. A. ; FELIPE H. LIBRANTZ, ANDRÉ ; SANTANA, J. C. C. ; TAMBOURGI, E. B.		
trabalhoCompletoEmCongresso	2014		Corte em chapas metálicas com itens irregulares usando algoritmos genéticos e processamento de imagens digitais	XXXV Ibero-Latin American Congress on Computational Methods in Engineering - CILAMCE	GAVA, M. C. V. ; ALVES DE ARAÚJO, SIDNEI ; LIBRANTZ, A. F. H.		
trabalhoCompletoEmCongresso	2014		Logistic Operator Selection with Capacity of Storage and Transport Frozen Product Using Multicriteria Decision	Advances in Production Management Systems (APMS)	OLIVEIRA, G. C. ; LIBRANTZ, A. F. H. ; SOUSA, W. C.		
trabalhoCompletoEmCongresso	2014		LÓGICA FUZZY E MODELAGEM MATEMÁTICA APLICADAS AO CONTROLE DA DOSAGEM DE CLORO VISANDO REDUÇÃO DE INSUMOS	XXXIV Encontro Nacional de Engenharia de Produção (ENEGEP)	SANTOS, F. C. R. ; LIBRANTZ, A. F. H. ; BERTO JUNIOR, C. A.		
trabalhoCompletoEmCongresso	2013		OTIMIZAÇÃO DO PROCESSO DE HIDRÓLISE DO AMIDO DE MANDIOCA POR MEIO DA TÉCNICA METAHEURÍSTICA BUSCA TABU PARA PRODUÇÃO DE ÁLCOOL	SIMPEP	Benvenga, M. A. C. ; FELIPE H. LIBRANTZ, ANDRÉ		
trabalhoCompletoEmCongresso	2013		Aplicação do Simulated Annealing na Otimização do Processo de Hidrólise do Amido para produção de álcool	XXXIII Encontro Nacional de Engenharia de Produção (ENEGEP)	Benvenga, M. A. C. ; FELIPE H. LIBRANTZ, ANDRÉ ; Santana, J. C. C. ; TAMBOURGI, E. B.		
trabalhoCompletoEmCongresso	2013		Reduction of the inventory in a packaging industry using discrete events simulation	7th International Conference on Industrial Engineering and Industrial Management	Guerrero M. A. ; LIBRANTZ, ANDRÉ FELIPE HENRIQUES		
trabalhoCompletoEmCongresso	2013		REDES NEURAIS ARTIFICIAIS APLICADAS EM SISTEMAS AUTOMATIZADOS DE DOSAGEM DE COAGULANTE: ESTUDO DE CASO SABESP ? ETA ALTO COTIA	XX SIMPEP	SANTOS, F. C. R. ; HENRIQUES LIBRANTZ, ANDRÉ FELIPE ; DIAS, C. G.		
