ID_Lattes|MATRICULA|NOME|CH|mail|LP_1|PROGRAMA_1|CATEG_1|Periodo_Inicio_1|Periodo_Fim_1|Resp_prog|Resp_LP1
K4761248U7|99999|MIRIA ALVES RAMOS DE ALCANTARA|40|UCSAL@UCSAL.br|UCSAL|UCSAL|P|2013|2016|UCSAL|UCSAL
K4783973Y8|99999|MARY GARCIA CASTRO|40|UCSAL@UCSAL.br|UCSAL|UCSAL|P|2013|2016||
K4790922U6|99999|MARIA AUXILIADORA DA SILVA CAMPOS DESSEN|40|UCSAL@UCSAL.br|UCSAL|UCSAL|P|2013|2016||
K4763523A0|99999|MARIA CRISTINA GOMES DA CONCEICAO|40|UCSAL@UCSAL.br|UCSAL|UCSAL|P|2013|2016||
K4790264P9|99999|JOSE EUCLIMAR XAVIER DE MENEZES|40|UCSAL@UCSAL.br|UCSAL|UCSAL|P|2013|2016||
K4789411A6|99999|GIANCARLO PETRINI|40|UCSAL@UCSAL.br|UCSAL|UCSAL|P|2013|2016||
K4785861P2|99999|ELAINE PEDREIRA RABINOVICH|40|UCSAL@UCSAL.br|UCSAL|UCSAL|P|2013|2016||
K4772468E6|99999|EDILTON MEIRELES DE OLIVEIRA SANTOS|40|UCSAL@UCSAL.br|UCSAL|UCSAL|P|2013|2016||
K4796007D0|99999|CAMILO DE LELIS COLANI BARBOSA|40|UCSAL@UCSAL.br|UCSAL|UCSAL|P|2013|2016||
K4780268A4|99999|ANA CECILIA DE SOUSA BITTENCOURT BASTOS|40|UCSAL@UCSAL.br|UCSAL|UCSAL|P|2013|2016||
K4713585T5|99999|DIRLEY DA CUNHA JUNIOR|40|UCSAL@UCSAL.br|UCSAL|UCSAL|P|2013|2016||
K4416933U4|99999|JULIE SARAH LOURAU ALVES DA SILVA|40|UCSAL@UCSAL.br|UCSAL|UCSAL|P|2013|2016||
K4783973Y8|99999|MARY GARCIA CASTRO|40|UCSAL@UCSAL.br|UCSAL|UCSAL|P|2013|2016||
K4763218D9|99999|MARIA DE FATIMA PESSOA LEPIKSON|40|UCSAL@UCSAL.br|UCSAL|UCSAL|P|2013|2016||
K4233712T1|99999|MICHEL PERREAULT|40|UCSAL@UCSAL.br|UCSAL|UCSAL|P|2013|2016||
K4798376U4|99999|MARI APARECIDA BORTOLI|40|UCSAL@UCSAL.br|UCSAL|UCSAL|P|2013|2016||
K4706025U9|99999|MARCIA ESTEVES DE CALAZANS|40|UCSAL@UCSAL.br|UCSAL|UCSAL|P|2013|2016||
K4783414J1|99999|KATIA SIQUEIRA DE FREITAS|40|UCSAL@UCSAL.br|UCSAL|UCSAL|P|2013|2016||
K4745436A5|99999|ANTONIO ADONIAS AGUIAR BASTOS|40|UCSAL@UCSAL.br|UCSAL|UCSAL|P|2013|2016||
K4265311P5|99999|ANTONIO CARLOS DA SILVA|40|UCSAL@UCSAL.br|UCSAL|UCSAL|P|2013|2016||
K4787426Z4|99999|INAIA MARIA MOREIRA DE CARVALHO|40|UCSAL@UCSAL.br|UCSAL|UCSAL|P|2013|2016||
K4761289J4|99999|ANGELA MARIA CARVALHO BORGES|40|UCSAL@UCSAL.br|UCSAL|UCSAL|P|2013|2016||
K4759317Z1|99999|ANDRE ALVES PORTELLA|40|UCSAL@UCSAL.br|UCSAL|UCSAL|P|2013|2016||
K4780528H6|99999|ANA MARIA FERNANDES PITTA|40|UCSAL@UCSAL.br|UCSAL|UCSAL|P|2013|2016||
K4786365A5|99999|ISABEL MARIA SAMPAIO OLIVEIRA LIMA|40|UCSAL@UCSAL.br|UCSAL|UCSAL|P|2013|2016||
K4786365A5|99999|ISABEL MARIA SAMPAIO OLIVEIRA LIMA|40|UCSAL@UCSAL.br|UCSAL|UCSAL|P|2013|2016||
K4792160H3|99999|VANESSA RIBEIRO SIMON CAVALCANTI|40|UCSAL@UCSAL.br|UCSAL|UCSAL|P|2013|2016||
K4787804A9|99999|ANETE BRITO LEAL IVO|40|UCSAL@UCSAL.br|UCSAL|UCSAL|P|2013|2016||
K4791081H2|99999|LUCIA VAZ DE CAMPOS MOREIRA|40|UCSAL@UCSAL.br|UCSAL|UCSAL|P|2013|2016||
K4797924Y2|99999|LIVIA ALESSANDRA FIALHO DA COSTA|40|UCSAL@UCSAL.br|UCSAL|UCSAL|P|2013|2016||
K4756712Y5|99999|KATIA NUNES SA|40|UCSAL@UCSAL.br|UCSAL|UCSAL|P|2013|2016||
