artigoEmPeriodico	2013		Avaliação de desempenho no Inmetro: uma contribuição do Apoio Multicritério à Decisão.	Revista de Administração do Gestor	Berzins, L. ; GOMES, C. F. S. ; Rangel, Luis Alberto Duncan	C	
artigoEmPeriodico	2013		Avaliação de desempenho no Inmetro: uma contribuição do Apoio Multicritério à Decisão	Revista de Administração do Gestor	Berzins, Lorena Jacobson ; GOMES, L. F. A. M. ; RANGEL, L. A. D.	C	
artigoEmPeriodico	2013	http://dx.doi.org/10.1021/jp308542d	Quantitative Characterization of Hexagonal Packings in Nanoporous Alumina Arrays: A Case Study	Journal of Physical Chemistry. C. (Online)	BORBA, JOSÉ R. ; BRITO, CAROLINA ; MIGOWSKI, PEDRO ; VALE, TIBERIO B. ; STARIOLO, DANIEL A. ; TEIXEIRA, SÉRGIO R. ; FEIL, ADRIANO F.	B1	
artigoEmPeriodico	2013		Uncertainty Quantification for Tracer Transport in Heterogeneous Porous Media Using Two-stage MCMC Method and Auto-regressive Instrumental Distribution	International Review of Chemical Engineering (Testo Stampato)	Borges, M. R. ; Jordem Pereira, T. ; Amaral Souto, H.P.	B3	
artigoEmPeriodico	2013		USO DO GRÁFICO DE CONTROLE PARA MINIMIZAR ERROS DE PREVISÃO EM SÉRIES DE ENERGIA ELÉTRICA	Engevista (UFF)	CHRISTO, E. S.; FERREIRA, M.B.	B2	
artigoEmPeriodico	2013	http://dx.doi.org/10.1016/j.jsv.2012.10.031	Useful intensity: A technique to identify radiating regions on arbitrarily shaped surfaces	Journal of Sound and Vibration	CORRÊA JUNIOR, C.A.; TENENBAUM, R.A.	A1	
artigoEmPeriodico	2013	http://dx.doi.org/10.1016/j.jmrt.2013.01.001	A novel iron enrichment isothermal kinetic model proposal for galvanneal coatings	Journal of Materials Research and Technology	DE OLIVEIRA, AUGUSTO CÉSAR LACERDA ; Rios, Paulo Rangel	Qualis nao identificado	Journal of Materials Research and Technology
artigoEmPeriodico	2013		Multicriteria analysis with unknown preferences: An application of the SMAA-2 method	Investigación Operativa	GOMES, C. F. S. ; SANT'ANNA, Annibal Parracho ; Rangel, Luis Alberto Duncan	B5	
artigoEmPeriodico	2013		Behavioral multi-criteria decision analysis: the TODIM method with criteria interactions	Annals of Operation Research	GOMES, L. F. A. M. ; MACHADO, M. A. ; Rangel, Luis Alberto Duncan	A2	
artigoEmPeriodico	2013	http://dx.doi.org/10.1016/j.procs.2013.05.042	Criteria Interactions in Multiple Criteria Decision Aiding: A Choquet Formulation for the TODIM Method	Procedia Computer Science	GOMES, L. F. A. M. ; MACHADO, Maria Augusta Soares ; DA COSTA, FRANCISCO FERREIRA ; RANGEL, L. A. D.	C	
artigoEmPeriodico	2013	http://dx.doi.org/10.1007/s10479-013-1454-9	Erratum to: Behavioral multi-criteria decision analysis: the TODIM method with criteria interactions	Annals of Operation Research	GOMES, L. F. A. M. ; MACHADO, Maria Augusta Soares ; GONZALEZ, XAVIER IGNACIO ; RANGEL, L. A. D.	A2	
artigoEmPeriodico	2013	http://dx.doi.org/10.1007/s10479-013-1345-0	Behavioral multi-criteria decision analysis: the TODIM method with criteria interactions	Annals of Operation Research	GOMES, L. F. A. M. ; MACHADO, Maria Augusta Soares ; González, X.I. ; RANGEL, L. A. D.	A2	
artigoEmPeriodico	2013		Criteria Interactions in Multiple Criteria Decision Aiding: A Choquet Formulation for the TODIM Method	Procedia Computer Science	GOMES, L. F. A. M. ; Rangel, Luis Alberto Duncan ; Machado, M.A.S. ; COSTA, F. F.	C	
artigoEmPeriodico	2013		Multicriteria analysis with unknown preferences: An application of the SMAA-2 method	Investigación Operativa	GOMES, L. F. A. M. ; SANT'ANNA, Annibal Parracho ; RANGEL, L. A. D.	B5	
artigoEmPeriodico	2013	http://dx.doi.org/10.1007/s11661-012-1506-9	Microstructural Analysis of the Martensite Volume Fraction	Metallurgical and Materials Transactions. A, Physical Metallurgy and Materials Science	GUIMARÃES, J. R. C. ; RIOS, P. R.	Qualis nao identificado	Metallurgical and Materials Transactions. A, Physical Metallurgy and Materials Science
artigoEmPeriodico	2013	http://dx.doi.org/10.1007/s11661-012-1490-0	Modeling Lath Martensite Transformation Curve	Metallurgical and Materials Transactions. A, Physical Metallurgy and Materials Science	GUIMARÃES, J.R.C. ; Rios, P.R.	Qualis nao identificado	Metallurgical and Materials Transactions. A, Physical Metallurgy and Materials Science
artigoEmPeriodico	2013	http://dx.doi.org/10.1063/1.4829936	Combined short scale roughness and surface dielectric function gradient effects on the determination of tip-sample force in atomic force microscopy	Applied Physics Letters	GUSSO, ANDRE'	A1	
artigoEmPeriodico	2013	http://dx.doi.org/10.1088/1751-8113/46/11/115004	Pressure exerted by a grafted polymer on the limiting line of a semi-infinite square lattice	Journal of Physics. A, Mathematical and Theoretical (Print)	JENSEN, IWAN ; DANTAS, WELLINGTON G ; MARQUES, CARLOS M ; STILCK, Jürgen F	A2	
artigoEmPeriodico	2013	http://dx.doi.org/10.7198/S2318-34032013001062	O USO DE RECURSOS TECNOLÓGICOS COMO APOIO AO PROCESSO DE ENSINO-APRENDIZAGEM	ANAIS DO SIMPÓSIO INTERNACIONAL DE INOVAÇÃO TECNOLÓGICA - SIMTEC	OLIVEIRA, K.A. ; CORRÊA, R.A.P.	Qualis nao identificado	ANAIS DO SIMPÓSIO INTERNACIONAL DE INOVAÇÃO TECNOLÓGICA - SIMTEC
artigoEmPeriodico	2013	http://dx.doi.org/10.1590/s1516-14392013005000111	Computer simulation of simultaneous evolution of individual texture components During recrystallization of an IF steel	Materials Research (São Carlos. Impresso)	OLIVEIRA, SIMONE CARREIRO DE ; ASSIS, W. L. S. ; Villa, Elena ; RIOS, P. R. ; Rios, Paulo Rangel	B1	
artigoEmPeriodico	2013	http://dx.doi.org/10.4028/www.scientific.net/MSF.753.137	On the Generalisation of JMAK's Theory	Materials Science Forum (Online)	Rios, Paulo R.; Villa, Elena	B2	
artigoEmPeriodico	2013	http://dx.doi.org/10.1142/S0219891613500124	RIEMANN SOLUTIONS FOR VERTICAL FLOW OF THREE PHASES IN POROUS MEDIA: SIMPLE CASES	Journal of Hyperbolic Differential Equations	Rodriguez-Bermudez, P.; Dan Marchesin	Qualis nao identificado	Journal of Hyperbolic Differential Equations
artigoEmPeriodico	2013		Um método baseado em combinação de soluções com co-associação para o problema de agrupamento automático	REVISTA BRASILEIRA DE ESTATÍSTICA	SEMAAN, G. S.; BRITO, J. A. M. ; OCHI, L. S. ; Torres, Claudio	B2	
artigoEmPeriodico	2013		Um Método Baseado em Combinação de Soluções com Coassociação para o Problema de Agrupamento Automático	Revista Brasileira de Estatística	SEMAAN, G. S.; TORRES, C. ; BRITO, J. A. M. ; OCHI, L. S.	B2	
artigoEmPeriodico	2013	http://dx.doi.org/10.1016/j.actamat.2013.06.027	Grain growth inhibition by connected porosity in sintered niobium	Acta Materialia (Oxford)	ZILNYK, K.D. ; LEITE, G.S. ; SANDIM, H.R.Z. ; Rios, P.R.	A1	
trabalhoCompletoEmCongresso	2013		Um Algoritmo GRASP Aplicado ao Problema dos k-Medoids	Simpósio Brasileiro de Pesquisa Operacional	BRITO, J. A. M. ; SEMAAN, G. S.		
trabalhoCompletoEmCongresso	2013		ESTUDO SOBRE FONTES DE ENERGIA ATRAVÉS DA AVALIAÇÃO DO CICLO DE VIDA ENERGÉTICO NO ESTADO DO RIO DE JANEIRO	I Congresso Fluminense de Engenharia	CHRISTO, E. S.; COSTA, K. A. ; PEREIRA, R. ; ROSA, C. O. C. S.		
trabalhoCompletoEmCongresso	2013	http://dx.doi.org/10.1109/BRICS-CCI-CBIC.2013.121	Use of Statistical Control for Improved Demand Forecasting	2013 BRICS Congress on Computational Intelligence 11th Brazilian Congress on Computational Intelligence (BRICSCCI CBIC)	CHRISTO, E.S.; FERREIRA, M.B. ; ALONSO, K.C.		
trabalhoCompletoEmCongresso	2013		UMA NOVA MODELAGEM NUMÉRICA PARA OBTENÇÃO DA INTENSIDADE ACÚSTICA ÚTIL: UM MÉTODO PARA IDENTIFICAÇÃO DE REGIÕES RADIANTES EM SUPERFÍCIES COM GEOMETRIAS ARBITRÁRIAS	XVI Encontro de Modelagem Computacional / IV Encontro Ciência e Tecnologia de Materiais / III Encontro Regional de Matemática Aplicada e Computacional	CORRÊA JUNIOR, C. A.; TENENBAUM, R. A. ; FERREIRA, V. L. D.		
trabalhoCompletoEmCongresso	2013		CHANGE IN THE BOUNDARY ELEMENT METHOD TO OBTAIN THE USEFUL INTENSITY	XVI Encontro de Modelagem Computacional / IV Encontro Ciência e Tecnologia de Materiais / III Encontro Regional de Matemática Aplicada e Computacional	CORRÊA JUNIOR, C. A.; CORREA, R. A. P. ; TENENBAUM, R. A. ; FERREIRA, V. L. D.		
trabalhoCompletoEmCongresso	2013		Calculating the Residual Life of Welded Joints using the Notch Stress Intensity Factor?	12 conferencia sobre Tecnologia de Equipamentos	DURAN, J. A. R. ; C, B. L. ; HERNÁNDEZ, C. T.		
trabalhoCompletoEmCongresso	2013		Série e Transformada de Fourier na Análise Cristalográfica por Difração de Raio-X	7º Congresso Brasileiro de Engenharia de Fabricação	FEITEIRA, J. F. S.; FONSECA, G. S. ; Campos, M. F.		
trabalhoCompletoEmCongresso	2013		MODELING PROCESS FOR A SYSTEM OF IDENTITY MANAGEMENT AND ACCESS FOR THE REQUIREMENTS OF INFORMATION SECURITY	World Congress on Systems Engineering and Information Technology	FERREIRA, M.B. ; COSTA, K. A. ; MEZA, L. A. ; CHRISTO, E.S.		
trabalhoCompletoEmCongresso	2013		APLICAÇÃO DO ALGORITMO DE CAMINHO MÍNIMO EM PROBLEMA DE LOCALIZAÇÃO	IV ENFEPRO - Encontro Fluminense de Engenharia de Produção	GARCIA, A. E. N. ; Rangel, Luis Alberto Duncan		
trabalhoCompletoEmCongresso	2013		Criteria interactions in multiple criteria decision aiding: A Choquet formulation for the TODIM method	First International Conference on Information Technology and Quantitative Management	GOMES, C. F. S. ; MACHADO, M. A. ; RANGEL, L. A. D.		
trabalhoCompletoEmCongresso	2013		Criteria interactions in multiple criteria decision aiding: A Choquet formulation for the TODIM method	First International Conference on Information Technology and Quantitative Management	GOMES, L. F. A. M. ; MACHADO, M. A. ; Rangel, Luis Alberto Duncan		
trabalhoCompletoEmCongresso	2013		Modelling interactions between criteria in MCDA: A comparative analysis of the bipolar Choquet integral and an ELECTRE method	XLV Simpósio Brasileiro de Pesquisa Operacional	Gomes, Luiz Flavio Autran Monteiro ; Machado, M.A.S. ; Rangel, Luis Alberto Duncan		
trabalhoCompletoEmCongresso	2013		Avaliação dos Estados Nordestinos para Abertura de um Centro de Distribuição	IV ENFEPRO - Encontro Fluminense de Engenharia de Produção	GONCALVES, C. L. ; Rangel, Luis Alberto Duncan		
trabalhoCompletoEmCongresso	2013		EVALUACIÓN DEL DESEMPEÑO AMBIENTAL EN CENTRALES ELÉCTRICAS CUBANAS: UTILIZACIÓN DEL BALANCED SCORECARD Y DEL ANALYTIC NETWORK PROCESS	Simpósio Brasileiro de Pesquisa Operacional	GONZALEZ, F. M. ; AVILA, L. G. ; HERNÁNDEZ, C. T.		
trabalhoCompletoEmCongresso	2013		REVERSE LOGISTICS AND CORPORATE PERFORMANCE: CASES STUDIES IN BRAZILIAN COMPANIES	22nd International Conference on Production Research ? ICPR 22	HERNÁNDEZ, C. T.; MARINS, F. A. S. ; CASTRO, R.C ; Duran, J A ; SALOMON, V. A. P.		
trabalhoCompletoEmCongresso	2013		Rede Neural Aplicada à Cinética de Recristalização de Um Aço If Após Laminação a Frio	7º Congresso Brasileiro de Engenharia de Fabricação	Inacio, G. A ; Reis, E. ; CARVALHO, P. R. ; ASSIS, A. ; FEITEIRA, J. F. S. ; FONSECA, G. S.		
trabalhoCompletoEmCongresso	2013		Quantificação de Incertezas para o Problema de Transporte de um Traçador em Meios Porosos Heterogêneos Empregando o Método Markov Chain Monte Carlo a Dois Estágios	XVI Encontro de Modelagem Computacional	Jordem Pereira, T.; Amaral Souto, H.P. ; Pereira, F.		
trabalhoCompletoEmCongresso	2013		'USO DE MÉTODOS DE ANÁLISE E SOLUÇÃO DE PROBLEMAS (MASP) NA REDUÇÃO DE DEFEITOS NOS PROCESSOS DE SOLDAGEM	XX Simpósio de Engenharia de Produção	LIMA, V. F. ; CHRISTO, E. S.		
trabalhoCompletoEmCongresso	2013		Stabilized hybrid-mixed finite element method for miscible displacements	XXXIV Iberian Latin-American Congress on Computational Methods in Engineering (CILAMCE 2013)	Núñez, Y.R.,; FARIA, C. O. ; LOULA, A. F. D. ; MALTA, S. M. C.		
trabalhoCompletoEmCongresso	2013		Damage Identification in Plates via Flexibility Matrix from Noisy Data using the Particle Swarm Optimization Method	XV International Symposium on Dynamic Problems of Mechanics	PORTELLA CORRÊA, R. A.; Stutz, L.T. ; Tenenbaum,R.A.		
trabalhoCompletoEmCongresso	2013		Identificação de danos em uma viga engastada: análise em relação à posição e intensidade do dano na estrutura	XVI Encontro de Modelagem Computaciona	PORTELLA CORRÊA, R. A.; Stutz, L.T. ; Tenenbaum,R.A.		
trabalhoCompletoEmCongresso	2013		Avaliação de alternativas pelo método TODIM considerando diferentes valores do fator de atenuação de perdas	XLV Simpósio Brasileiro de Pesquisa Operacional	RANGEL, L. A. D.; Gomes, Luiz Flavio Autran Monteiro ; RANGEL, SILVANA VALITUTTO DUNCAN		
trabalhoCompletoEmCongresso	2013		Comparing two evaluations of residential properties: Multicriteria decision making versus fuzzy expert systems	SPOLM 2013 - XVI Simpósio de Pesquisa Operacional Logística da Marinha	RANGEL, L. A. D.; Gomes, Luiz Flavio Autran Monteiro ; SALOMON, V. A. P		
trabalhoCompletoEmCongresso	2013		Multicriteria evaluation of alternatives with TODIM by using different values of the loss attenuation factor	XLV Brazilian Symposium of Operations Research	Rangel, Luis Alberto Duncan; GOMES, L. F. A. M. ; RANGEL, SILVANA VALITUTTO DUNCAN		
trabalhoCompletoEmCongresso	2013		Desenvolvimento de Algoritmo em Problemas de Corte com uma Dimensão	IV ENFEPRO - Encontro Fluminense de Engenharia de Produção	SANTOS, L. ; Rangel, Luis Alberto Duncan ; NEVES, T. A.		
trabalhoCompletoEmCongresso	2013		Metaheurística Híbrida para a Solução do Problema de Particionamento de Grafos com Restrições de Capacidade e de Conexidade	X Congreso Chileno de Investigación Operativa	SANTOS, N. M. ; SEMAAN, G. S. ; BRITO, J. A. M. ; OCHI, L. S.		
trabalhoCompletoEmCongresso	2013		Um Método Sistemático de Particionamento de Grafos Aplicado ao Problema de Agrupamento Automático	X Congreso Chileno de Investigación Operativa	SEMAAN, G. S.; MONTENEGRO, F. M. T. ; BRITO, J. A. M. ; OCHI, L. S.		
trabalhoCompletoEmCongresso	2013		AVALIAÇÃO DE FORNECEDORES ATRAVÉS DO MÉTODO ELECTRE TRI	IV ENFEPRO - Encontro Fluminense de Engenharia de Produção	SIMOES, R. G. ; RANGEL, L. A. D.		
trabalhoCompletoEmCongresso	0		Introdução à Linguagem Matlab. 2007. (Curso de curta duração ministrado/Extensão)		FEITEIRA, J. F. S.; Diomar Lobão		
resumoExpandidoEmCongresso	2013	The Convergence Rate of Iterative Procedures for Elliptic Problems in Heterogeneous Media	9th International Conference on Diffusion in Solids and Liquids - DSL - 2013, 2013, Madri. Anais do 9th DSL2013. Madrid-Espanha: Ironix Conferences	Francisco, A. S. ; Amaral Souto, H.P. ; Pereira, T. J.		
