2126584242026703
2721383036978223
1870389730408675
2980425786626151
0577264623261591
6723362340874632
6646150187847665
6193456439313050
1889835702709496
2653251442521015
5057429709988793
9591256136167135
5988455539579567
7782263696313205
6418711808050575
4962820320879891
4448540530244733
0576253490550915
1316388357541014
0472856771871140
0240551533292579
3165736954373606
7180641812440086
9950879952262717
1581389831292219
7878437620254155
1562357566810393
6078619143736511
1512717941866097
2930421117873633
2605062132611045
6878718102770367
4022950700003347
4911535975540985
7315592936477868
2665316828133413
7444988892131455
5059730666564752
5240953716240752
4054756781423727
7599769001608407
9442205438741869
1868960602254610
0302011461580302
2349565177200719
8670475877813913
0140603292412192
