
PB0:2013,2;2014,1;2016,2;
PB4:2013,1;2016,9;
PB6:2014,2;2015,2;2016,1;
PT2:2015,1;
PT4:2015,3;2016,8;
PT5:2015,2;2016,1;
OA1:2015,1;2016,1;
OA2:2015,1;2016,1;2017,2;
OA5:2016,1;
OC2:2015,1;
OC4:2015,3;
OC5:2013,2;2015,1;
Pj:2008,1;2013,2;2014,1;2016,2;
PB:2013,3;2014,3;2015,2;2016,12;
PT:2015,6;2016,9;
OA:2015,2;2016,3;2017,2;
OC:2013,2;2015,5;
Ep:2015,1;2016,4;