0.0 0.0 0.0 0.0147058823529 0.463235294118 0.046568627451 0.0392156862745 0.0 0.00735294117647 0.0220588235294 0.0 0.0 0.0 0.00735294117647 0.183823529412 0.147058823529 0.0 0.0588235294118 0.0 0.00980392156863 
0.0 0.0 0.0 0.0 0.0 0.0 0.0 0.0 0.0 0.0 0.0 0.0 0.0 0.0 0.0 0.0 0.0 0.0 0.0 0.0 
0.0 0.0 0.0 0.0379746835443 0.0 0.0042194092827 0.105485232068 0.0 0.128691983122 0.603375527426 0.0126582278481 0.0189873417722 0.0 0.0168776371308 0.0 0.0 0.0464135021097 0.0 0.0 0.0253164556962 
0.0416666666667 0.0 0.25 0.0 0.0 0.0 0.125 0.0 0.0 0.0833333333333 0.0 0.0 0.0 0.166666666667 0.0833333333333 0.0 0.0 0.0 0.0 0.25 
0.28125 0.0 0.0 0.0 0.0 0.477678571429 0.174107142857 0.0 0.0 0.00892857142857 0.0 0.0 0.0 0.0 0.00446428571429 0.0178571428571 0.0 0.0 0.0 0.0357142857143 
0.0293209876543 0.0 0.00617283950617 0.0 0.49537037037 0.0 0.276234567901 0.0 0.0 0.0 0.0 0.0 0.0 0.00617283950617 0.00462962962963 0.0185185185185 0.0 0.0 0.0 0.163580246914 
0.0246913580247 0.0 0.154320987654 0.0277777777778 0.180555555556 0.276234567901 0.0 0.0 0.0138888888889 0.0324074074074 0.0 0.0 0.0 0.0293209876543 0.0231481481481 0.0185185185185 0.0 0.0740740740741 0.0 0.145061728395 
0.0 0.0 0.0 0.0 0.0 0.0 0.0 0.0 0.0 0.0 0.0 0.0 0.0 0.0 0.0 0.0 0.0 0.0 0.0 0.0 
0.00862068965517 0.0 0.350574712644 0.0 0.0 0.0 0.0258620689655 0.0 0.0 0.324712643678 0.0 0.0 0.0 0.00862068965517 0.0 0.0 0.281609195402 0.0 0.0 0.0 
0.0113636363636 0.0 0.722222222222 0.0151515151515 0.00757575757576 0.0 0.0265151515152 0.0 0.142676767677 0.0 0.0 0.0378787878788 0.0 0.00378787878788 0.0 0.0 0.0328282828283 0.0 0.0 0.0 
0.0 0.0 1.0 0.0 0.0 0.0 0.0 0.0 0.0 0.0 0.0 0.0 0.0 0.0 0.0 0.0 0.0 0.0 0.0 0.0 
0.0 0.0 0.3 0.0 0.0 0.0 0.0 0.0 0.0 0.5 0.0 0.0 0.0 0.0 0.0 0.0 0.2 0.0 0.0 0.0 
0.0 0.0 0.0 0.0 0.0 0.0 0.0 0.0 0.0 0.0 0.0 0.0 0.0 0.0 0.0 0.0 0.0 0.0 0.0 0.0 
0.0416666666667 0.0 0.222222222222 0.333333333333 0.0 0.0555555555556 0.263888888889 0.0 0.0416666666667 0.0416666666667 0.0 0.0 0.0 0.0 0.0 0.0 0.0 0.0 0.0 0.0 
0.694444444444 0.0 0.0 0.111111111111 0.0277777777778 0.0277777777778 0.138888888889 0.0 0.0 0.0 0.0 0.0 0.0 0.0 0.0 0.0 0.0 0.0 0.0 0.0 
0.625 0.0 0.0 0.0 0.125 0.125 0.125 0.0 0.0 0.0 0.0 0.0 0.0 0.0 0.0 0.0 0.0 0.0 0.0 0.0 
0.0 0.0 0.244444444444 0.0 0.0 0.0 0.0 0.0 0.544444444444 0.144444444444 0.0 0.0666666666667 0.0 0.0 0.0 0.0 0.0 0.0 0.0 0.0 
0.25 0.0 0.0 0.0 0.0 0.0 0.5 0.0 0.0 0.0 0.0 0.0 0.0 0.0 0.0 0.0 0.0 0.0 0.0 0.25 
0.0 0.0 0.0 0.0 0.0 0.0 0.0 0.0 0.0 0.0 0.0 0.0 0.0 0.0 0.0 0.0 0.0 0.0 0.0 0.0 
0.0128205128205 0.0 0.0769230769231 0.115384615385 0.0769230769231 0.339743589744 0.301282051282 0.0 0.0 0.0 0.0 0.0 0.0 0.0 0.0 0.0 0.0 0.0769230769231 0.0 0.0 
