
PB0:2013,1;2015,3;
PB3:2015,2;
PB4:2013,1;2014,1;2015,1;2016,1;
PB6:2014,1;
PB8:2013,1;
OA1:2013,2;2014,1;
OC2:2013,1;2015,1;
Pj:2009,1;
PB:2013,3;2014,2;2015,6;2016,1;
OA:2013,2;2014,1;
OC:2013,1;2015,1;
Ep:2013,1;
Eo:2013,2;