ID_Lattes|MATRICULA|NOME|CH|mail|LP_1|PROGRAMA_1|CATEG_1|Periodo_Inicio_1|Periodo_Fim_1|Resp_prog|Resp_LP1
K4728792T8|99999|PAULO EDUARDO MACIEL DE ALMEIDA|40|CEFET_MG@CEFET_MG.br|CEFET_MG|CEFET_MG|P|2013|2016|CEFET_MG|CEFET_MG
K4782533Z8|99999|JOSE LUIZ ACEBAL FERNANDES|40|CEFET_MG@CEFET_MG.br|CEFET_MG|CEFET_MG|P|2013|2016||
K4793954E6|99999|MARCONE JAMILSON FREITAS SOUZA|40|CEFET_MG@CEFET_MG.br|CEFET_MG|CEFET_MG|P|2013|2016||
K4353146Y2|99999|LEONARDO DOS SANTOS LIMA|40|CEFET_MG@CEFET_MG.br|CEFET_MG|CEFET_MG|P|2013|2016||
K4795606H9|99999|JOSE GERALDO PEIXOTO DE FARIA|40|CEFET_MG@CEFET_MG.br|CEFET_MG|CEFET_MG|P|2013|2016||
K4781105T7|99999|HENRIQUE ELIAS BORGES|40|CEFET_MG@CEFET_MG.br|CEFET_MG|CEFET_MG|P|2013|2016||
K4787746A6|99999|GRAY FARIAS MOITA|40|CEFET_MG@CEFET_MG.br|CEFET_MG|CEFET_MG|P|2013|2016||
K4785447A8|99999|GIANCARLO QUEIROZ PELLEGRINO|40|CEFET_MG@CEFET_MG.br|CEFET_MG|CEFET_MG|P|2013|2016||
K4767468T7|99999|FLAVIO LUIS CARDEAL PADUA|40|CEFET_MG@CEFET_MG.br|CEFET_MG|CEFET_MG|P|2013|2016||
K4787274A6|99999|FERNANDO ANTONIO CAMPOS GOMIDE|40|CEFET_MG@CEFET_MG.br|CEFET_MG|CEFET_MG|P|2013|2016||
K4744698Z1|99999|ELIZABETH FIALHO WANNER|40|CEFET_MG@CEFET_MG.br|CEFET_MG|CEFET_MG|P|2013|2016||
K4782120Z2|99999|CRISTINA DUARTE MURTA|40|CEFET_MG@CEFET_MG.br|CEFET_MG|CEFET_MG|P|2013|2016||
K4710327P5|99999|BRENO RODRIGUES LAMAGHERE GALVAO|40|CEFET_MG@CEFET_MG.br|CEFET_MG|CEFET_MG|P|2013|2016||
K4728402J4|99999|ARTHUR RODRIGO BOSCO DE MAGALHAES|40|CEFET_MG@CEFET_MG.br|CEFET_MG|CEFET_MG|P|2013|2016||
K4796417D9|99999|ALLBENS ATMAN PICARDI FARIA|40|CEFET_MG@CEFET_MG.br|CEFET_MG|CEFET_MG|P|2013|2016||
K4769387J5|99999|ADRIANO CESAR MACHADO PEREIRA|40|CEFET_MG@CEFET_MG.br|CEFET_MG|CEFET_MG|P|2013|2016||
K4764674U9|99999|THIAGO GOMES DE MATTOS|40|CEFET_MG@CEFET_MG.br|CEFET_MG|CEFET_MG|P|2013|2016||
K4705602U7|99999|ROGERIO MARTINS GOMES|40|CEFET_MG@CEFET_MG.br|CEFET_MG|CEFET_MG|P|2013|2016||
K4765683U6|99999|RODRIGO TOMAS NOGUEIRA CARDOSO|40|CEFET_MG@CEFET_MG.br|CEFET_MG|CEFET_MG|P|2013|2016||
K8728725A6|99999|VINICIUS FERNANDES DOS SANTOS|40|CEFET_MG@CEFET_MG.br|CEFET_MG|CEFET_MG|P|2013|2016||
K4284443A5|99999|THIAGO DE SOUZA RODRIGUES|40|CEFET_MG@CEFET_MG.br|CEFET_MG|CEFET_MG|P|2013|2016||
K4460760A2|99999|SERGIO RICARDO DE SOUZA|40|CEFET_MG@CEFET_MG.br|CEFET_MG|CEFET_MG|P|2013|2016||
