
PB0:2015,19;
PB2:2015,1;
PB3:*itens sem ano,3;
PB4:*itens sem ano,1;2015,16;
PB5:2015,2;
PB6:*itens sem ano,1;2015,3;
PB8:2015,6;
PT4:2015,11;
PT5:*itens sem ano,1;2015,2;
OA0:2010,1;2015,1;
OA1:2016,4;
OA2:2011,1;2012,1;2013,7;2014,1;2015,9;2016,9;2017,13;
OA4:2015,2;2016,12;2017,5;
OA5:2011,1;2012,1;2014,1;2015,1;2016,12;2017,6;
OA6:2016,1;2017,1;
OC0:2015,1;
OC2:2015,10;
OC3:2015,7;
OC4:2015,17;
OC5:2015,17;
OC6:2015,2;
Pm:2015,4;
Pj:2003,3;2004,1;2008,3;2009,2;2010,1;2011,3;2012,16;2013,8;2014,11;2015,9;
PB:*itens sem ano,5;2015,47;
PT:*itens sem ano,1;2015,13;
OA:2010,1;2011,2;2012,2;2013,7;2014,2;2015,13;2016,38;2017,25;
OC:2015,54;
Ep:2015,9;