strict digraph grafo3 {
	graph [bb="0,0,2389.5,401",
		id=grafo3,
		overlap=False
	];
	node [fontsize=8,
		label="\N",
		shape=rectangle,
		style=filled
	];
	0	 [URL="http://lattes.cnpq.br/1888940152771113",
		color="#17272B",
		fontcolor="#FFFFFF",
		height=0.23611,
		label="Lidia M. Pepe de Moraes [8]",
		pos="409.5,392.5",
		width=1.5139];
	7	 [URL="http://lattes.cnpq.br/6464993141431276",
		color="#17272B",
		fontcolor="#FFFFFF",
		height=0.23611,
		label="João R. Moreira de Almeida [2]",
		pos="343.5,328.5",
		width=1.6528];
	0 -> 7	 [arrowhead=normal,
		arrowsize=0.75,
		fontsize=8,
		label=0.06,
		lp="367,360.5",
		penwidth=0.68,
		pos="e,345.32,337.23 387.72,383.99 378.08,379.78 367.21,373.7 359.5,365.5 354.04,359.7 350.24,351.73 347.72,344.76"];
	20	 [URL="http://lattes.cnpq.br/8228010543041248",
		color="#17272B",
		fontcolor="#FFFFFF",
		height=0.23611,
		label="Fernando A. Gonçalves Torres [11]",
		pos="330.5,136.5",
		width=1.8056];
	0 -> 20	 [arrowhead=normal,
		arrowsize=0.75,
		fontsize=8,
		label=0.94,
		lp="439,264.5",
		penwidth=3.32,
		pos="e,369.26,145.03 414.17,383.79 420.62,372.36 431.5,350.06 431.5,329.5 431.5,329.5 431.5,329.5 431.5,199.5 431.5,171.67 403.3,155.94 \
376.7,147.29"];
	7 -> 0	 [arrowhead=normal,
		arrowsize=0.75,
		fontsize=8,
		label=0.25,
		lp="392,360.5",
		penwidth=1.25,
		pos="e,402.48,383.83 353.21,337.22 359.43,342.27 367.6,349.09 374.5,355.5 382.22,362.68 390.46,371.11 397.01,378.01"];
	7 -> 20	 [arrowhead=normal,
		arrowsize=0.75,
		fontsize=8,
		label=0.25,
		lp="345,232.5",
		penwidth=1.25,
		pos="e,331.02,145.07 342.97,319.82 341.02,291.29 334.17,191.12 331.54,152.68"];
	15	 [URL="http://lattes.cnpq.br/1214716137780644",
		color="#17272B",
		fontcolor="#FFFFFF",
		height=0.23611,
		label="Nádia Skorupa Parachin [4]",
		pos="198.5,264.5",
		width=1.4722];
	7 -> 15	 [arrowhead=normal,
		arrowsize=0.75,
		fontsize=8,
		label=0.5,
		lp="277,296.5",
		penwidth=2.0,
		pos="e,212.55,273.01 320.55,319.94 306.28,315.07 287.64,308.37 271.5,301.5 253.67,293.91 234,284.13 219.58,276.67"];
	20 -> 0	 [arrowhead=normal,
		arrowsize=0.75,
		fontsize=8,
		label=0.68,
		lp="490,264.5",
		penwidth=2.54,
		pos="e,430.61,383.97 395.84,139.58 437.04,144.8 482.5,159.6 482.5,199.5 482.5,329.5 482.5,329.5 482.5,329.5 482.5,354.04 458.23,370.89 \
437.68,380.77"];
	20 -> 7	 [arrowhead=normal,
		arrowsize=0.75,
		fontsize=8,
		label=0.05,
		lp="373,232.5",
		penwidth=0.65,
		pos="e,348.19,319.61 336.84,145.2 340.55,150.13 345,156.84 347.5,163.5 369.11,221.01 369.15,241.6 355.5,301.5 354.63,305.3 353.17,309.21 \
351.56,312.81"];
	20 -> 15	 [arrowhead=normal,
		arrowsize=0.75,
		fontsize=8,
		label=0.09,
		lp="201,200.5",
		penwidth=0.77,
		pos="e,195.18,255.98 272.32,145.03 243.51,152.02 211.2,165.51 193.5,191.5 181.97,208.44 187.21,233.11 192.5,248.73"];
	16	 [URL="http://lattes.cnpq.br/1190292525097613",
		color="#17272B",
		fontcolor="#FFFFFF",
		height=0.23611,
		label="Maria S. Soares Felipe [3]",
		pos="268.5,200.5",
		width=1.4028];
	20 -> 16	 [arrowhead=normal,
		arrowsize=0.75,
		fontsize=8,
		label=0.18,
		lp="311,168.5",
		penwidth=1.04,
		pos="e,276.1,191.9 322.84,145.16 312.58,155.42 294.22,173.78 281.71,186.29"];
	15 -> 7	 [arrowhead=normal,
		arrowsize=0.75,
		fontsize=8,
		label=0.25,
		lp="310,296.5",
		penwidth=1.25,
		pos="e,332.23,319.76 229.06,273.11 245.27,277.6 265.33,283.9 282.5,291.5 297.73,298.24 313.91,307.92 325.78,315.55"];
	15 -> 20	 [arrowhead=normal,
		arrowsize=0.75,
		fontsize=8,
		label=0.25,
		lp="155,200.5",
		penwidth=1.25,
		pos="e,265.16,143.42 187.15,255.97 174.48,246.78 154.8,229.9 147.5,209.5 139.79,187.98 150.69,174.9 170.5,163.5 185.41,154.92 222.57,\
148.61 257.33,144.35"];
	15 -> 16	 [arrowhead=normal,
		arrowsize=0.75,
		fontsize=8,
		label=0.25,
		lp="258,232.5",
		penwidth=1.25,
		pos="e,263.81,209.03 213.77,255.78 222.16,251.13 232.46,244.72 240.5,237.5 247.66,231.07 254.33,222.63 259.36,215.55"];
	10	 [URL="http://lattes.cnpq.br/6040333497171664",
		color="#17272B",
		fontcolor="#FFFFFF",
		height=0.23611,
		label="Grace Ferreira Ghesti [3]",
		pos="48.5,200.5",
		width=1.3472];
	15 -> 10	 [arrowhead=normal,
		arrowsize=0.75,
		fontsize=8,
		label=0.25,
		lp="76,232.5",
		penwidth=1.25,
		pos="e,50.623,209.13 145.34,262.97 120.02,260.35 90.53,253.58 68.5,237.5 61.46,232.36 56.59,223.95 53.419,216.55"];
	16 -> 20	 [arrowhead=normal,
		arrowsize=0.75,
		fontsize=8,
		label=0.67,
		lp="285,168.5",
		penwidth=2.51,
		pos="e,304.54,145 268.6,191.79 269.08,183.88 270.94,171.62 277.5,163.5 282.78,156.97 290.11,151.96 297.63,148.16"];
	16 -> 15	 [arrowhead=normal,
		arrowsize=0.75,
		fontsize=8,
		label=0.33,
		lp="229,232.5",
		penwidth=1.49,
		pos="e,201.98,255.83 250.17,209.01 240.86,213.44 229.79,219.71 221.5,227.5 215.07,233.54 209.65,241.74 205.69,248.79"];
	10 -> 15	 [arrowhead=normal,
		arrowsize=0.75,
		fontsize=8,
		label=0.33,
		lp="112,232.5",
		penwidth=1.49,
		pos="e,161.45,255.98 58.295,209.11 69.081,217.16 87.197,229.76 104.5,237.5 120.04,244.45 137.87,249.95 153.8,254.07"];
	27	 [URL="http://lattes.cnpq.br/7612104033806948",
		color="#17272B",
		fontcolor="#FFFFFF",
		height=0.23611,
		label="Sarah Silva Brum [2]",
		pos="48.5,136.5",
		width=1.1806];
	10 -> 27	 [arrowhead=normal,
		arrowsize=0.75,
		fontsize=8,
		label=0.67,
		lp="38,168.5",
		penwidth=2.51,
		pos="e,41.443,145.02 40.676,191.8 34.457,184.71 27.291,173.77 30.5,163.5 31.85,159.18 34.2,154.94 36.764,151.18"];
	1	 [URL="http://lattes.cnpq.br/1705430650855494",
		color="#17272B",
		fontcolor="#FFFFFF",
		height=0.23611,
		label="Leonardo Giordano Paterno [1]",
		pos="561.5,392.5",
		width=1.625];
	2	 [URL="http://lattes.cnpq.br/1412260545035778",
		color="#17272B",
		fontcolor="#FFFFFF",
		height=0.23611,
		label="Jurandir Rodrigues de Souza [1]",
		pos="570.5,328.5",
		width=1.6667];
	1 -> 2	 [arrowhead=normal,
		arrowsize=0.75,
		fontsize=8,
		label=1.0,
		lp="554,360.5",
		penwidth=3.5,
		pos="e,561.45,337.17 555.47,383.77 550.54,376.47 544.93,365.23 548.5,355.5 550.17,350.95 553.02,346.64 556.14,342.9"];
	2 -> 1	 [arrowhead=normal,
		arrowsize=0.75,
		fontsize=8,
		label=1.0,
		lp="573,360.5",
		penwidth=3.5,
		pos="e,562.6,383.9 569.39,337.16 567.98,346.86 565.52,363.8 563.72,376.19"];
	3	 [URL="http://lattes.cnpq.br/5311560340084408",
		color="#17272B",
		fontcolor="#FFFFFF",
		height=0.23611,
		label="Juliana Petrocchi Rodrigues [1]",
		pos="704.5,392.5",
		width=1.6389];
	28	 [URL="http://lattes.cnpq.br/8997745775645416",
		color="#17272B",
		fontcolor="#FFFFFF",
		height=0.23611,
		label="Paulo A. Ziani Suarez [4]",
		pos="710.5,328.5",
		width=1.3611];
	3 -> 28	 [arrowhead=normal,
		arrowsize=0.75,
		fontsize=8,
		label=1.0,
		lp="687,360.5",
		penwidth=3.5,
		pos="e,698.05,337 694.24,383.88 686.11,376.84 676.84,365.93 681.5,355.5 683.85,350.24 687.85,345.6 692.14,341.75"];
	28 -> 3	 [arrowhead=normal,
		arrowsize=0.75,
		fontsize=8,
		label=0.25,
		lp="716,360.5",
		penwidth=1.25,
		pos="e,705.24,383.9 709.76,337.16 708.82,346.86 707.18,363.8 705.98,376.19"];
	6	 [URL="http://lattes.cnpq.br/8243497871129180",
		color="#17272B",
		fontcolor="#FFFFFF",
		height=0.23611,
		label="Joel Camargo Rubim [3]",
		pos="649.5,264.5",
		width=1.3333];
	28 -> 6	 [arrowhead=normal,
		arrowsize=0.75,
		fontsize=8,
		label=0.25,
		lp="665,296.5",
		penwidth=1.25,
		pos="e,649.35,273.2 684.15,319.97 674.46,315.96 664.22,310.04 657.5,301.5 652.89,295.64 650.82,287.66 649.93,280.71"];
	18	 [URL="http://lattes.cnpq.br/6449987900688958",
		color="#17272B",
		fontcolor="#FFFFFF",
		height=0.23611,
		label="Marcos Juliano Prauchner [2]",
		pos="771.5,264.5",
		width=1.5417];
	28 -> 18	 [arrowhead=normal,
		arrowsize=0.75,
		fontsize=8,
		label=0.5,
		lp="735,296.5",
		penwidth=2.0,
		pos="e,754.89,273.13 713.14,319.89 716.15,312.06 721.69,299.87 729.5,291.5 734.74,285.88 741.46,281.01 747.98,277.06"];
	6 -> 28	 [arrowhead=normal,
		arrowsize=0.75,
		fontsize=8,
		label=0.33,
		lp="692,296.5",
		penwidth=1.49,
		pos="e,703.02,319.9 657.04,273.16 667.13,283.42 685.19,301.78 697.5,314.29"];
	8	 [URL="http://lattes.cnpq.br/1505814835374901",
		color="#17272B",
		fontcolor="#FFFFFF",
		height=0.23611,
		label="Jez W. Batista Braga [6]",
		pos="649.5,200.5",
		width=1.3194];
	6 -> 8	 [arrowhead=normal,
		arrowsize=0.75,
		fontsize=8,
		label=0.67,
		lp="639,232.5",
		penwidth=2.51,
		pos="e,642.44,209.02 641.68,255.8 635.46,248.71 628.29,237.77 631.5,227.5 632.85,223.18 635.2,218.94 637.76,215.18"];
	18 -> 28	 [arrowhead=normal,
		arrowsize=0.75,
		fontsize=8,
		label=1.0,
		lp="758,296.5",
		penwidth=3.5,
		pos="e,721.45,319.92 766.41,273.1 761.13,280.7 752.43,292.51 743.5,301.5 738.62,306.41 732.83,311.25 727.47,315.4"];
	8 -> 6	 [arrowhead=normal,
		arrowsize=0.75,
		fontsize=8,
		label=0.33,
		lp="657,232.5",
		penwidth=1.49,
		pos="e,649.5,255.9 649.5,209.16 649.5,218.86 649.5,235.8 649.5,248.19"];
	14	 [URL="http://lattes.cnpq.br/7421096523152034",
		color="#17272B",
		fontcolor="#FFFFFF",
		height=0.23611,
		label="Adriano Otávio Maldaner [7]",
		pos="649.5,136.5",
		width=1.5278];
	8 -> 14	 [arrowhead=normal,
		arrowsize=0.75,
		fontsize=8,
		label=0.67,
		lp="639,168.5",
		penwidth=2.51,
		pos="e,642.44,145.02 641.68,191.8 635.46,184.71 628.29,173.77 631.5,163.5 632.85,159.18 635.2,154.94 637.76,151.18"];
	4	 [URL="http://lattes.cnpq.br/7324869293866597",
		color="#17272B",
		fontcolor="#FFFFFF",
		height=0.23611,
		label="José V. Elias Bernardi [0]",
		pos="831.5,392.5",
		width=1.375];
	5	 [URL="http://lattes.cnpq.br/5126547270872842",
		color="#17272B",
		fontcolor="#FFFFFF",
		height=0.23611,
		label="José J. Linares León [0]",
		pos="945.5,392.5",
		width=1.2917];
	14 -> 8	 [arrowhead=normal,
		arrowsize=0.75,
		fontsize=8,
		label=0.57,
		lp="657,168.5",
		penwidth=2.21,
		pos="e,649.5,191.9 649.5,145.16 649.5,154.86 649.5,171.8 649.5,184.19"];
	11	 [URL="http://lattes.cnpq.br/5464023129390042",
		color="#17272B",
		fontcolor="#FFFFFF",
		height=0.23611,
		label="Fernando Fabriz Sodré [4]",
		pos="649.5,72.5",
		width=1.4028];
	14 -> 11	 [arrowhead=normal,
		arrowsize=0.75,
		fontsize=8,
		label=0.43,
		lp="638,104.5",
		penwidth=1.79,
		pos="e,641.25,81.164 641.67,127.6 637.47,122.8 632.72,116.3 630.5,109.5 627.97,101.74 631.59,93.655 636.32,87.117"];
	11 -> 14	 [arrowhead=normal,
		arrowsize=0.75,
		fontsize=8,
		label=0.75,
		lp="657,104.5",
		penwidth=2.75,
		pos="e,649.5,127.9 649.5,81.165 649.5,90.864 649.5,107.8 649.5,120.19"];
	9	 [URL="http://lattes.cnpq.br/6403427750833514",
		color="#17272B",
		fontcolor="#FFFFFF",
		height=0.23611,
		label="Jader Galba Busato [1]",
		pos="649.5,8.5",
		width=1.25];
	11 -> 9	 [arrowhead=normal,
		arrowsize=0.75,
		fontsize=8,
		label=0.25,
		lp="638,40.5",
		penwidth=1.25,
		pos="e,641.25,17.164 641.67,63.602 637.47,58.803 632.72,52.303 630.5,45.5 627.97,37.741 631.59,29.655 636.32,23.117"];
	27 -> 10	 [arrowhead=normal,
		arrowsize=0.75,
		fontsize=8,
		label=1.0,
		lp="54,168.5",
		penwidth=3.5,
		pos="e,48.5,191.9 48.5,145.16 48.5,154.86 48.5,171.8 48.5,184.19"];
	9 -> 11	 [arrowhead=normal,
		arrowsize=0.75,
		fontsize=8,
		label=1.0,
		lp="655,40.5",
		penwidth=3.5,
		pos="e,649.5,63.898 649.5,17.165 649.5,26.864 649.5,43.797 649.5,56.189"];
	12	 [URL="http://lattes.cnpq.br/9861081561303546",
		color="#17272B",
		fontcolor="#FFFFFF",
		height=0.23611,
		label="Alexandre Perez Umpierre [0]",
		pos="1067.5,392.5",
		width=1.5833];
	13	 [URL="http://lattes.cnpq.br/4851548247475082",
		color="#17272B",
		fontcolor="#FFFFFF",
		height=0.23611,
		label="Paulo A. F. Herbert Ribeiro [0]",
		pos="1201.5,392.5",
		width=1.625];
	17	 [URL="http://lattes.cnpq.br/1367227325248750",
		color="#17272B",
		fontcolor="#FFFFFF",
		height=0.23611,
		label="Maria Lucilia dos Santos [0]",
		pos="1332.5,392.5",
		width=1.5];
	19	 [URL="http://lattes.cnpq.br/5077323083768252",
		color="#17272B",
		fontcolor="#FFFFFF",
		height=0.23611,
		label="Marcelo H. Sousa Ferreira [0]",
		pos="1461.5,392.5",
		width=1.5694];
	21	 [URL="http://lattes.cnpq.br/",
		color="#17272B",
		fontcolor="#FFFFFF",
		height=0.23611,
		label="[Nome-nao-identificado] [0]",
		pos="1589.5,392.5",
		width=1.4861];
	22	 [URL="http://lattes.cnpq.br/0115124958520241",
		color="#17272B",
		fontcolor="#FFFFFF",
		height=0.23611,
		label="Valéria Regina Bellotto [0]",
		pos="1713.5,392.5",
		width=1.4444];
	23	 [URL="http://lattes.cnpq.br/4220445584776352",
		color="#17272B",
		fontcolor="#FFFFFF",
		height=0.23611,
		label="Sônia Maria de Freitas [0]",
		pos="1833.5,392.5",
		width=1.3889];
	24	 [URL="http://lattes.cnpq.br/9888455998189405",
		color="#17272B",
		fontcolor="#FFFFFF",
		height=0.23611,
		label="Fabrício M. Souza Silva [0]",
		pos="1954.5,392.5",
		width=1.4722];
	25	 [URL="http://lattes.cnpq.br/7735605194095870",
		color="#17272B",
		fontcolor="#FFFFFF",
		height=0.23611,
		label="Fábio Moreira da Silva [0]",
		pos="2076.5,392.5",
		width=1.4167];
	26	 [URL="http://lattes.cnpq.br/4578658799634346",
		color="#17272B",
		fontcolor="#FFFFFF",
		height=0.23611,
		label="Simone Monteiro e Silva [0]",
		pos="2199.5,392.5",
		width=1.5];
	29	 [URL="http://lattes.cnpq.br/6580089254529584",
		color="#17272B",
		fontcolor="#FFFFFF",
		height=0.23611,
		label="Ângelo H. de Lira Machado [0]",
		pos="2330.5,392.5",
		width=1.6389];
}
