6347400432232688
7027356679555355
7657422977567514
3801901177718984
6855043946282080
2087099684752643
5956779016222823
2933812315339699
5312565962811745
7618571401128973
0342736330192292
0537492315736566
7385995443437070
6509989261742578
5959809258429388
7773124399449504
2704717555047499
2228366161014170
4502104424266743
3091684617912159
3648148709641027
2115137917689655
