strict graph grafo2 {
	graph [bb="0,0,1533.5,145",
		id=grafo2,
		overlap=False
	];
	node [fontsize=8,
		label="\N",
		shape=rectangle,
		style=filled
	];
	0	 [URL="http://lattes.cnpq.br/7877403729431750",
		color="#17272B",
		fontcolor="#FFFFFF",
		height=0.23611,
		label="Saraspathy N. T. Gama de Mendonça [0]",
		pos="74,136.5",
		width=2.0556];
	1	 [URL="http://lattes.cnpq.br/9781159016378038",
		color="#17272B",
		fontcolor="#FFFFFF",
		height=0.23611,
		label="Paulo Lopes de Menezes [0]",
		pos="220,136.5",
		width=1.5];
	2	 [URL="http://lattes.cnpq.br/6557298196355263",
		color="#17272B",
		fontcolor="#FFFFFF",
		height=0.23611,
		label="Paulo César Tonin [1]",
		pos="336,136.5",
		width=1.2083];
	3	 [URL="http://lattes.cnpq.br/1208427854093144",
		color="#17272B",
		fontcolor="#FFFFFF",
		height=0.23611,
		label="José A. Azevedo dos Santos [9]",
		pos="336,72.5",
		width=1.6389];
	2 -- 3	 [fontsize=8,
		label=1.0,
		lp="341.5,104.5",
		pos="336,127.9 336,116 336,93.102 336,81.165"];
	13	 [URL="http://lattes.cnpq.br/6715272307281643",
		color="#17272B",
		fontcolor="#FFFFFF",
		height=0.23611,
		label="Carla A. Pizarro Schmidt [8]",
		pos="336,8.5",
		width=1.5139];
	3 -- 13	 [fontsize=8,
		label=8.0,
		lp="341.5,40.5",
		pos="336,63.898 336,51.998 336,29.102 336,17.165"];
	4	 [URL="http://lattes.cnpq.br/3997654537105134",
		color="#17272B",
		fontcolor="#FFFFFF",
		height=0.23611,
		label="Fabiana C. de Araujo Schutz [0]",
		pos="458,136.5",
		width=1.6667];
	5	 [URL="http://lattes.cnpq.br/7999781322175310",
		color="#17272B",
		fontcolor="#FFFFFF",
		height=0.23611,
		label="Everton Coimbra de Araújo [0]",
		pos="595,136.5",
		width=1.625];
	6	 [URL="http://lattes.cnpq.br/0829902990523071",
		color="#17272B",
		fontcolor="#FFFFFF",
		height=0.23611,
		label="Carlos Aparecido Fernandes [0]",
		pos="731,136.5",
		width=1.6528];
	7	 [URL="http://lattes.cnpq.br/3033591975237656",
		color="#17272B",
		fontcolor="#FFFFFF",
		height=0.23611,
		label="Augusto Vaghetti Luchese [0]",
		pos="865,136.5",
		width=1.5694];
	8	 [URL="http://lattes.cnpq.br/2170981286370303",
		color="#17272B",
		fontcolor="#FFFFFF",
		height=0.23611,
		label="Claudio Leones Bazzi [0]",
		pos="989,136.5",
		width=1.3611];
	9	 [URL="http://lattes.cnpq.br/9438996788230697",
		color="#17272B",
		fontcolor="#FFFFFF",
		height=0.23611,
		label="Glaucia Cristina Moreira [0]",
		pos="1110,136.5",
		width=1.5];
	10	 [URL="http://lattes.cnpq.br/8149364045680042",
		color="#17272B",
		fontcolor="#FFFFFF",
		height=0.23611,
		label="Pedro L. de Paula Filho [0]",
		pos="1234,136.5",
		width=1.4444];
	11	 [URL="http://lattes.cnpq.br/2547403563036811",
		color="#17272B",
		fontcolor="#FFFFFF",
		height=0.23611,
		label="Silvana Ligia Vincenzi [0]",
		pos="1355,136.5",
		width=1.4167];
	12	 [URL="http://lattes.cnpq.br/8998670968329882",
		color="#17272B",
		fontcolor="#FFFFFF",
		height=0.23611,
		label="Daniel Rodrigues Blanco [0]",
		pos="1479,136.5",
		width=1.5139];
}
