1396497553199632
2042671665043024
0255190347838348
2901867166038988
3398873415869349
1990173660969640
2917284128951672
0562517703484129
4115349080755219
0577813888161681
9439858291700830
9103945985907557
9033957482568348
8426984413248108
0330292030066080
0776873072068195
6215504660151635
9849289684304480
6935433850568144
0456468335099635
7827746618416656
7856968264410259
1776271098082718
1472689109850138
5700879026016351
4257440159655920
1756972365624957
0970608748546929
2055149946360688
4038509154863444
1921292302995271
3434650488518586
7766838791106032
7712719010541171
0875764018578208
7535091198670076
6195215666638965
6456209533408278
8609080721745351
1770216488772332
0107471108162891
3796407713375707
9972679804035306
8497263774509119
5298061910591710
8544120185521109
3404963120157104
2705655509697187
5980040290834659
0650394251228023
9843038810827661
0881944734241308
8738880419326166
7076371974874150
6329705241344091
9214503462764328
4920719038608227
0658305594649132
6877649058117092
6842375031074123
9389166627228023
0543966404657861
1263198615801021
1447954471683870
8502411928441865
4093722871814514
1425106496315498
7151033935149782
5748220882915553
3394478364533415
4688807528550419
9045583110386760
4201027001805415
6413917211782026
3341441596395463
4950530398212920
3997386421385499
9921561971404855
9633874854730803
9593940623847768
0217522010967626
4485667581908849
0632045091074618
8886634592087842
8563794592947521
9658960045678784
7400572752663161
5496029509041329
8964946246608547
6160602050654061
7793315334001237
1967806680644977
8152394914731333
4625253408126358
8965964602138476
8640936276577619
1740861882717534
2268382620314191
6872380025164057
7104438207208211
2583233573401291
2552086192905349
8042175776163111
5489617492847754
2926865445767566
9350793734509585
5516785206247176
9309934981626540
1805071718280149
3527033233971864
5608537051624516
9825582909788318
3870716737143119
8701527300251171
3156489267969029
5188124056264512
1335590978899886
6007691005592123
4901705131946545
9420229007650053
6658617666571602
6331835838649652
1424808046858622
0849312393493200
2729979018100977
6372154354444983
0135150083687928
8590684899768285
3129215067425344
9092587237114334
1282453469245564
4903306992284432
0577776964507660
9876544241366863
6633919671327276
6357960802605841
6190254569597745
1789497818458326
1921529260813959
7458287841862567
3949300567787811
0938462047218130
6987375118761399
7122552927617910
9513393836022196
6970760738637214
2969243668455081
2472681535872194
9120842875819006
5058982807436621
6415531537733982
3200475850528094
6642503680426310
4038730280834132
6556541518550206
6604881012021151
5571601389021853
7713687190528505
7156384419903808
2244858140054423
0319343616289472
2470781099632240
1002632563427298
4603035287575568
0365438845525046
5091784860089845
9300936571715992
4855428416881790
2303257575161768
2131331936609504
0477223341155033
5962953290643043
0163735914142185
5831676710708108
3355559305779367
3355338790654065
3785494268339487
8951598251334162
4093653182381054
1161431252605700
1322145791000702
4930720119144043
2484285604076084
0391457167625888
0462309881050224
2190402748769786
1573064853226428
5589837708731892
9952350406483226
7663676652054207
2807107019851322
7802814360038820
4377561436932541
4618341245683445
6465859482633047
2834522198832797
5552068915087618
9314744999783676
8140338562571540
8779620606534106
4061859895008214
2900995280822495
7074442005940198
3047667245248912
3156454754179977
2111322410973385
3099066754531707
0280121582234738
5169383036604693
7090267221490696
3037263625761342
7456965271600813
5329679439190018
9298087698548706
5144730275745518
1059640637829204
6960379064948678
5995697536365655
9917427849559119
4274227175457441
9783292465422902
8966541819528628
1636071356840776
4582408199121884
1113236581294532
6656745974778658
2757376642187399
6673430404078107
4978869867640619
8997745775645416
4128256968382075
8593011064159611
1865314819779825
2845425227551552
8261635264206025
0007579029602432
9853084384672692
6427066688819223
3258022875158002
4079610447393436
2233342290189493
5070120158504459
0656977742590515
9859339865443310
5418644466938790
4244205836006671
5813363553333027
0820925838455951
2537658692552104
2361679033109503
6980582287681329
3030047284254233
2480382178623363
4223020694433271
9347326044048299
6462709058060681
9289080285504453
4155051332618408
3989751696479777
9613846902868406
5385844225960182
9817797793360590
8983932189780223
7612402786774270
6322550654604709
1011595878538456
9400781845930828
6747179168341556
5531528386304692
1831934906332240
4842667830135683
3433596236913764
6078945717558464
4082971128842907
7892919789980668
4475659126060665
4967240163248619
6935994431461983
8308891394810420
7513603588364977
0232526330657129
4525730783312954
1174212378624806
9429302861177476
0850781969436419
3726839467177985
5067896351287890
7979903064399755
7036212483231190
8201805132981288
2163635205612509
1562357566810393
5041497500746910
7559926762884507
7423645629116679
4993914550234923
4716661271375338
0608868504807015
5075100975134195
3397474862940233
5653509413156744
1448696292042915
4853784757913944
9059741175310073
8255133166870232
6311200440642258
7628786577802962
8895634496108399
9693173807382512
7645118086647340
2531761427648020
2600164141206863
4090845129034533
5254054475798355
1902617754712118
2746598608119754
8437205435389898
5502245878304036
7000283790939630
0733049835199641
4433778294761502
2336672015974766
0037657888703116
0793433241113643
7944715856362359
4996941193471597
9190489069187153
2702843581642246
9704117882101298
2562652838103607
4685284987733578
6404705658032178
7603417917591475
3802018064427795
7912489163442448
0535266455387139
4834786671815873
9315438878266044
5263497905547631
4258542953113671
1771237064294375
7356642815963405
6161888127051479
3910966211279217
7532050172035129
0292740764507528
5670185046074838
8276751675885023
9688352609644792
7832536123089184
3207539799524951
3172128751912384
2885796449901486
3249048636003833
6289602045034353
5412055666902423
3371052830388311
0428505205035052
3909162572623711
6477348246248863
7580955452994028
3351139044415340
7413544381333504
3579221899361775
0053970815686244
8564827764187148
9840759640842299
0248157883944506
7127267742043725
5322366029748328
8375636935011568
5231011445821665
5915950393329876
5993919078954534
7957606883987162
1126995918085550
1760765397044137
2555714512247868
9314020351211705
2241131837244615
7517488817484840
6451374618980002
8338908425321389
5194437042919213
1506160387728501
8787284018219335
3613688036724856
8026242985095716
2779640920944038
3527197809276361
3001776751100251
8015162441253273
5267663641642176
2225977664095899
1760182180822152
5183105830068378
9808563385937929
1323670896484540
2188012197903379
6750893169596121
3037018518459819
7310046838140771
2840242812701377
2752203627912781
8544447466461733
4118440069224799
0306751604362704
2192118955006184
8576539259508134
2370112735730975
3487672948013259
1916958542108595
0195183597971377
8441037104511506
5223281405712895
6959796173185352
6291354144339437
9159246847786631
7428353456925450
0557976975338451
3783647198681047
6221848529718470
2252192892939041
0541317894992765
8788845630300277
4442245788430605
5469637266689195
9500245604678806
6793141294347909
9080847546863992
8598484164048317
1918508793868984
7744328862480065
1831259543594098
4556088473868411
1630480887994852
9305540751799709
4811941175823833
4791933287778887
7533983313189933
0919371838404155
9334426018309756
6669992155373315
4168572355970716
4764799865914384
9830590737740134
8540875293894747
8196197998507061
6690972001092140
7878994288171458
5378546902592128
8674107427300722
8594607513297462
6471662266291019
5760364940162939
9881559988241184
8997858562195060
4972625208201361
8112885412528720
9719762930794452
9852315723070987
6822339713125905
0698164500481055
1878932894256747
0843668802633139
9588814902346410
1067339222870668
1860551525548580
7707799028683443
0074701408090260
6055162446637676
4254301081884310
0199552951538079
1001143553081693
2549014594120288
3757140040614972
8524158108923194
7027043761449738
9119430958857362
1371199678541174
5486578243421803
6690275350395550
8964123297688432
9076038747634468
1645859648759641
9199970180870105
3018405852150956
2598066643452464
9696556897063641
5154131366226133
0198101752065928
7187927937042064
3625079127976189
5404516672351731
9495877621904850
4235825596747458
7462213030041799
6038691930130162
3419211808213348
7634477387447702
3341021189473534
2888641121265608
6169626776821393
6985924725130696
2693759912446687
0581226769296441
5356634021552708
5438107871273282
