artigoEmPeriodico	Fabio Andre Machado Porto	2015	http://dx.doi.org/10.1108/IJWIS-08-2014-0028	A semantic integration approach to publish and retrieve ecological data	International Journal of Web Information Systems (Print)	Moura, Ana Maria De Carvalho ; Porto, Fabio ; VIDAL, VANIA ; MAGALHÃES, REGIS PIRES ; MAIA, MACEDO ; Poltosi, Maira ; PALAZZI, DANIELE	B3	
artigoEmPeriodico	Fabio Andre Machado Porto	2015	http://dx.doi.org/10.1109/MCSE.2015.102	Managing Scientific Hypotheses as Data with Support for Predictive Analytics	Computing in Science & Engineering (Print)	GONCALVES, BERNARDO ; Porto, Fabio	Qualis nao identificado	Computing in Science & Engineering (Print)
artigoEmPeriodico	Fabio Andre Machado Porto	2015	http://dx.doi.org/10.4018/jdm.2015040101	Modeling and Implementing Scientific Hypothesis	Journal of Database Management	Porto, Fabio; COSTA, RAMON G. ; MOURA, ANA MARIA DE C. ; GONÇALVES, BERNARDO	Qualis nao identificado	Journal of Database Management
trabalhoCompletoEmCongresso	Fabio Andre Machado Porto	2015		Managing Uncertainty in Spatio-time series	9o Brazilian eScience Workshop	SOUTO, Y. M. ; Moura, A. M. C. ; Porto, Fabio		
trabalhoCompletoEmCongresso	Fabio Andre Machado Porto	2015		Avaliação da Localidade de Dados Intermediários na Execução Paralela de Workflows Big Data	XXX Simpósio Brasileiro de Bancos de Dados	de Oliveira, D. E. M. ; BOERES, C. ; FAUSTI, A. ; PORTO, F		
resumoExpandidoEmCongresso	Fabio Andre Machado Porto	2015	Managing Simulation Data with Multidimensional Arrays	XXX Simpósio Brasileiro de Bancos de Dados, 2015, Petropolis. Proc. of Satellite Events of the 30th Symposium on DataBases. Petropolis: Laboratório Nacional de Computação Científica	LUSTOSA, H. ; PORTO, F ; Costa, R. G. ; BLANCO, P. ; Valduriez, Patrick		
artigoEmPeriodico	Elson Magalhães Toledo	2015	http://dx.doi.org/10.1016/j.jocs.2015.04.005	A new stochastic cellular automata model for traffic flow simulation with drivers’ behavior prediction	Journal of Computational Science	ZAMITH, MARCELO ; LEAL-TOLEDO, REGINA CÉLIA P. ; CLUA, ESTEBAN ; TOLEDO, ELSON M. ; MAGALHÃES, GUILHERME V.P. DE	B1	
artigoEmPeriodico	Carla Osthoff Ferreira de Barros	2015		High Performance Computing	Communications in Computer and Information Science (Print)	Osthoff, C; CABRAL, F. L. ; BRANDAO, D. ; KISCHINHEVSKY, M.	Qualis nao identificado	Communications in Computer and Information Science (Print)
artigoEmPeriodico	Carla Osthoff Ferreira de Barros	2015		Fine-Tuning Xeon Architecture Vectorization and Parallelization of a Numerical Method for Convection-Diffusion Equations	Communications in Computer and Information Science (Print)	Cabral, Frederico Luís ; Osthoff, C ; BRANDÃO, D. N. ; Kischinhevsky, M.	Qualis nao identificado	Communications in Computer and Information Science (Print)
artigoEmPeriodico	Carla Osthoff Ferreira de Barros	2015		Fine-Tuning Xeon Architecture Vectorization and Parallelization of a Numerical Method for Convection-Diffusion Equations	Communications in Computer and Information Science (Print)	Cabral, Frederico Luís ; Osthoff, C ; KISCHINHEVSKY, M. ; Brandão, D.	Qualis nao identificado	Communications in Computer and Information Science (Print)
trabalhoCompletoEmCongresso	Carla Osthoff Ferreira de Barros	2015		MDACCER: Mod. Dist. Assessment of the Closeness Centrality Ranking in Complex Net. for Masivelly Parallel Environment	6th Workshop on Applications for Multi-Core Architectures	CABRAL, F. L. ; Osthoff, C ; NARDES, R. ; NASCIMENTO, D.		
trabalhoCompletoEmCongresso	Carla Osthoff Ferreira de Barros	2015		Desenvolvimento de um algoritmo paralelo para	3ª Conferencia Ibero Americana Computação Aplicada 2015- CIACA	Vliasboas F. ; Osthoff, C ; TRELLES, O. ; VASCONCELOS, A. T.		
trabalhoCompletoEmCongresso	Carla Osthoff Ferreira de Barros	2015		Desenvolvimento de um algoritmo paralelo para contabilização da repetição de K-mers	3ª Conferência Ibero Americana	Vliasboas F. ; Osthoff, C ; VASCONCELOS, A. T. ; TRELLES, O.		
resumoExpandidoEmCongresso	Carla Osthoff Ferreira de Barros	2015	Avaliação de um problema fortemente nas arquiteturas Intel Core i7 e Intel Xeon com e sem HyperThreading e Intel Xeon Phi	I Escola Regional de Alto Desempenho do Rio de Janeiro, 2015, Petrópolis. I Escola Regional de Alto Desempenho do Rio de Janeiro	STANISLAU, R. L. ; Osthoff, C ; SILVA, M. P.		
resumoExpandidoEmCongresso	Carla Osthoff Ferreira de Barros	2015	Estudo de uma versão paralela do processo de clusterização aplicado a montagem e comparação de genomas	I Escola Regional de Alto Desempenho do Rio de Janeiro, 2015, Petrópolis. I Escola Regional de Alto Desempenho do Rio de Janeiro	COELHO, M. ; Osthoff, C ; Vliasboas F.		
trabalhoCompletoEmCongresso	Abimael Fernando Dourado Loula	2015		A New hybrid mixed finite element method to solve acoustic fluid-structure interaction problems	XXXVI CILAMCE	AMAD, A. A. S. ; QUINELATO, T. O. ; IGREJA, I. H. A. ; LOULA, ABIMAEL F.D.		
trabalhoCompletoEmCongresso	Abimael Fernando Dourado Loula	2015		Locking-free hybridized fem for incompressible linear elasticity problem	CNMAC 2015	LOULA, A.F.D.; FARIA, C. O. ; SANTOS, Antonio José Boness dos		
trabalhoCompletoEmCongresso	Abimael Fernando Dourado Loula	2015		Métodos de elementos finitos mistos híbridos para escoamentos de Stokes-Darcy acoplado	Congresso de Métodos Numéricos em Engenharia 2015	IGREJA, I. H. A. ; LOULA, A.F.D. ; FARIA, C. O.		
trabalhoCompletoEmCongresso	Sandra Mara Cardoso Malta	2015		Um Estudo Sobre Métodos Numéricos Aplicados à Simulação de Reservatórios Petrolíferos	XXXVI Iberian Latin American Congress on Computational Methods in Engineering (CILAMCE 2015)	CUNHA, L. H. C. ; Faria, C.O. ; MALTA, S. M. C.		
resumoExpandidoEmCongresso	Sandra Mara Cardoso Malta	2015	Um método de elementos finitos misto dual híbrido estabilizado para problemas elípticos	IX Encontro Nacional de Análise Matemática e Aplicações, 2015, Cascavel. Anais do IX Encontro Nacional de Análise Matemática e Aplicações	Faria, C.O. ; MALTA, S. M. C. ; LOULA, A. F. D.		
artigoEmPeriodico	Bruno Richard Schulze	2015	http://dx.doi.org/10.1002/cpe.3346	An analysis of definition and placement of virtual machines for high performance applications on Clouds	CONCURRENCY AND COMPUTATION-PRACTICE & EXPERIENCE	MC EVOY, GIACOMO ; Mury, Antonio R. ; Schulze, Bruno	A2	
trabalhoCompletoEmCongresso	Bruno Richard Schulze	2015		Um Método de Escalonamento de VMs HPC que Equilibra Desempenho e Consumo Energético em Nuvens	Workshop de Computação em Clouds e Aplicações (WCGA)	FERNANDES, F. J. ; BESERRA, D. W. ; MORENO, E. ; Bruno Schulze ; Gomes Pinto, R C		
trabalhoCompletoEmCongresso	Bruno Richard Schulze	2015		; SCHULZE, B. . Gerenciamento do Motor Gerador de Containers para Nuvens Computacionais	XVI Workshop de Iniciação Científica em Arquitetura de Computadores e Computação de Alto Desempenho (WSCAD-WIC)	SANTOS, A. ; Kloh, Henrique ; Barbosa,		
artigoEmPeriodico	Antonio André Novotny	2015	http://dx.doi.org/10.1088/0266-5611/31/7/075009	A new reconstruction method for the inverse source problem from partial boundary measurements	INVERSE PROBLEMS	CANELAS, ALFREDO ; LAURAIN, ANTOINE ; NOVOTNY, ANTONIO A	Qualis nao identificado	INVERSE PROBLEMS
artigoEmPeriodico	Antonio André Novotny	2015		Topological derivative-based topology optimization of structures subject to multiple load-cases	Latin American Journal of Solids and Structures (Impresso)	C.G. Lopes ; R.B. Santos ; A. A. Novotny	Qualis nao identificado	Latin American Journal of Solids and Structures (Impresso)
artigoEmPeriodico	Antonio André Novotny	2015	http://dx.doi.org/10.1016/j.ijsolstr.2015.01.019	Energy change to insertion of inclusions associated with the Reissner-Mindlin plate bending model	International Journal of Solids and Structures	SALES, V. ; NOVOTNY, A.A. ; MUÑOZ RIVERA, J.E.	A2	
artigoEmPeriodico	Antonio André Novotny	2015	http://dx.doi.org/10.1016/j.mechrescom.2015.01.004	Design of bi-metallic devices based on the topological derivative concept	Mechanics Research Communications	GIUSTI, S.M. ; NOVOTNY, A.A.	A2	
trabalhoCompletoEmCongresso	Antonio André Novotny	2015		Síntese de Mecanismos Flexíveis com Restrição em Tensão Utilizando o Conceito de Derivada Topológica	CILAMCE2015	C.G. Lopes ; A. A. Novotny		
trabalhoCompletoEmCongresso	Antonio André Novotny	2015		Uncertainty Based Topology Optimization Using the Topological Derivative Concept	CILAMCE2015	R.B. Santos ; A.J. Torii ; A.A. Novotny		
trabalhoCompletoEmCongresso	Antonio André Novotny	2015		Análise Assintótica Topológica do Modelo de Flexão de Placas de Reissner-Mindlin	CILAMCE2015	SALES, V. ; A. A. Novotny		
trabalhoCompletoEmCongresso	Antonio André Novotny	2015		Análise de Sensibilidade Topológica no Processo de Fraturamento Hidráulico	CILAMCE2015	XAVIER, M. ; Novotny, A. A.		
trabalhoCompletoEmCongresso	Antonio André Novotny	2015		Um Novo Método de Reconstrução de Obstáculos	CILAMCE2015	ROCHA, S. ; A.A. Novotny		
trabalhoCompletoEmCongresso	Antonio André Novotny	2015		Derivada Topológica de Primeira e Segunda Ordem no Problema de Tomografia por Impedância Elétrica	CILAMCE2015	FERREIRA, A. D. ; A.A. Novotny		
trabalhoCompletoEmCongresso	Antonio André Novotny	2015		Problema de Controle Ótimo por Fontes Concentradas	CILAMCE2015	W. Kneipp ; T.J. Machado ; A.A. Novotny		
artigoEmPeriodico	André da Motta Salles Barreto	2015	http://dx.doi.org/10.1109/TAC.2015.2418411	Classification-Based Approximate Policy Iteration	IEEE Transactions on Automatic Control (Print)	FARAHMAND, A. ; PRECUP, D. ; BARRETO, A. M. S. ; GHAVAMZADEH, M.	A2	
trabalhoCompletoEmCongresso	André da Motta Salles Barreto	2015		An Expectation-Maximization Algorithm to Compute a Stochastic Factorization From Data	International Joint Conference on Artificial Intelligence (IJCAI)	BARRETO, A. M. S.; BEIRIGO, R. L. ; PINEAU, J. ; PRECUP, D.		
artigoEmPeriodico	Ana Tereza Ribeiro de Vasconcelos	2015	http://dx.doi.org/10.1016/j.apsoil.2014.10.010	Metagenomic analysis reveals microbial functional redundancies and specificities in a soil under different tillage and crop-management regimes	Applied Soil Ecology (Print)	SOUZA, RENATA CAROLINI ; HUNGRIA, Mariangela ; CANTÃO, MAURÍCIO EGÍDIO ; Vasconcelos, Ana Tereza Ribeiro ; NOGUEIRA, MARCO ANTONIO ; VICENTE, VÂNIA APARECIDA	A2	
artigoEmPeriodico	Ana Tereza Ribeiro de Vasconcelos	2015	http://dx.doi.org/10.1093/mmy/myu069	Peroxide sensing and signaling in the Sporothrix schenckii complex: an in silico analysis to uncover putative mechanisms regulating the Hog1 and AP-1 like signaling pathways	Medical Mycology (Oxford. Print)	ORTEGA, I. ; SOARES FELIPE, M. S. ; VASCONCELOS, A. T. R. ; LOPES BEZERRA, L. M. ; DA SILVA DANTAS, A.	A2	
artigoEmPeriodico	Ana Tereza Ribeiro de Vasconcelos	2015	http://dx.doi.org/10.1128/genomea.01585-14	Draft Genome Sequences of Six Actinobacillus pleuropneumoniae Serotype 8 Brazilian Clinical Isolates: Insight into New Applications	Genome Announcements	PEREIRA, MONALESSA FÁBIA ; ROSSI, CIRO CÉSAR ; DE CARVALHO, FABÍOLA MARQUES ; DE ALMEIDA, LUIZ GONZAGA PAULA ; SOUZA, Rangel Celso ; DE VASCONCELOS, ANA TEREZA RIBEIRO ; BAZZOLLI, DENISE MARA SOARES	Qualis nao identificado	Genome Announcements
artigoEmPeriodico	Ana Tereza Ribeiro de Vasconcelos	2015	http://dx.doi.org/10.1093/database/bav033	BioSurfDB: knowledge and algorithms to support biosurfactants and biodegradation studies	DATABASE-OXFORD	OLIVEIRA, J. S. ; ARAUJO, W. ; LOPES SALES, A. I. ; BRITO GUERRA, A. D. ; SILVA ARAUJO, S. C. D. ; DE VASCONCELOS, A. T. R. ; AGNEZ-LIMA, L. F. ; FREITAS, A. T.	Qualis nao identificado	DATABASE-OXFORD
artigoEmPeriodico	Ana Tereza Ribeiro de Vasconcelos	2015	http://dx.doi.org/10.1186/s13071-015-0854-x	Biochemical and phylogenetic analyses of phosphatidylinositol production in Angomonas deanei, an endosymbiont-harboring trypanosomatid	Parasites & Vectors	DE AZEVEDO-MARTINS, ALLAN C ; ALVES, JOÃO MP ; GARCIA DE MELLO, FERNANDO ; Vasconcelos, Ana Tereza R ; de Souza, Wanderley ; EINICKER-LAMAS, MARCELO ; MOTTA, MARIA CRISTINA M	A2	
artigoEmPeriodico	Ana Tereza Ribeiro de Vasconcelos	2015	http://dx.doi.org/10.1128/aac.00158-15	Characterization of BKC-1 class A carbapenemase from <i>Klebsiella pneumoniae</i> clinical isolates in Brazil	Antimicrobial Agents and Chemotherapy (Print)	NICOLETTI, ADRIANA GIANNINI ; MARCONDES, MARCELO F. M. ; MARTINS, WILLAMES B. ; Almeida, Luiz G. P. ; Nicolás, Marisa F. ; VASCONCELOS, ANA T. R. ; OLIVEIRA, VITOR ; GALES, ANA CRISTINA	A1	
artigoEmPeriodico	Ana Tereza Ribeiro de Vasconcelos	2015	http://dx.doi.org/10.1186/s12864-015-1680-4	Chromosomal copy number variation reveals differential levels of genomic plasticity in distinct Trypanosoma cruzi strains	BMC Genomics	REIS-CUNHA, JOÃO LUÍS ; RODRIGUES-LUIZ, GABRIELA F. ; VALDIVIA, HUGO O. ; BAPTISTA, RODRIGO P. ; MENDES, TIAGO A. O. ; DE MORAIS, GUILHERME LOSS ; GUEDES, RAFAEL ; MACEDO, ANDREA M. ; BERN, CARYN ; GILMAN, ROBERT H. ; LOPEZ, CARLOS TALAVERA ; ANDERSSON, BJÖRN ; Vasconcelos, Ana Tereza ; BARTHOLOMEU, DANIELLA C.	A1	
artigoEmPeriodico	Ana Tereza Ribeiro de Vasconcelos	2015	http://dx.doi.org/10.1590/1519-6984.18014	Heterologous induction of a predicted promoter sequence for paraquat-inducible genes of Chromobacterium violaceum in response to paraquat compound	Brazilian Journal of Biology (Impresso)	GABRIEL, JE. ; GUERRA-SLOMPO, EP. ; CARVALHO, FAL. ; MADEIRA, HMF. ; VASCONCELOS, ATR.	A2	
artigoEmPeriodico	Ana Tereza Ribeiro de Vasconcelos	2015	http://dx.doi.org/10.4238/2015.august.21.20	Superoxide radical-generating compounds activate a predicted promoter site for paraquat-inducible genes of the Chromobacterium violaceum bacterium in a dose-dependent manner	Genetics and Molecular Research	GABRIEL, J.E. ; GUERRA-SLOMPO, E.P. ; DE SOUZA, E.M. ; DE CARVALHO, F.A.L. ; MADEIRA, H.M.F. ; DE VASCONCELOS, A.T.R.	A2	
artigoEmPeriodico	Ana Tereza Ribeiro de Vasconcelos	2015	http://dx.doi.org/10.1016/j.diagmicrobio.2015.08.006	The changing epidemiology of Acinetobacter spp. producing OXA carbapenemases causing bloodstream infections in Brazil: A BrasNet report	Diagnostic Microbiology and Infectious Disease	Vasconcelos, Ana Tereza R.; Vasconcelos, Ana Tereza R	A2	
artigoEmPeriodico	Ana Tereza Ribeiro de Vasconcelos	2015	http://dx.doi.org/10.3109/19401736.2015.1115855	The assembly and annotation of the complete Rufous-bellied thrush mitochondrial genome	Mitochondrial DNA	GOMES DE SÁ, PABLO ; VERAS, ADONNEY ; FONTANA, CARLA SUERTEGARAY ; ALEIXO, ALEXANDRE ; BURLAMAQUI, TIBÉRIO ; MELLO, CLAUDIO VIANNA ; DE VASCONCELOS, ANA TEREZA RIBEIRO ; PROSDOCIMI, FRANCISCO ; RAMOS, ROMMEL ; SCHNEIDER, MARIA ; SILVA, ARTUR	B2	
artigoEmPeriodico	Ana Tereza Ribeiro de Vasconcelos	2015	http://dx.doi.org/10.1128/genomea.01482-15	Genome Sequence of <i>Bradyrhizobium tropiciagri</i> Strain CNPSo 1112 <sup>T</sup> , Isolated from a Root Nodule of <i>Neonotonia wightii</i>	Genome Announcements	DELAMUTA, JAKELINE RENATA MARÇON ; GOMES, DOUGLAS FABIANO ; RIBEIRO, RENAN AUGUSTO ; CHUEIRE, LIGIA MARIA OLIVEIRA ; SOUZA, RENATA CAROLINI ; ALMEIDA, L. G. ; VASCONCELOS, A. T. R. ; HUNGRIA, Mariangela	Qualis nao identificado	Genome Announcements
artigoEmPeriodico	Ana Tereza Ribeiro de Vasconcelos	2015	http://dx.doi.org/10.1128/genomea.01481-15	Genome Sequence of <i>Bradyrhizobium viridifuturi</i> Strain SEMIA 690 <sup>T</sup> , a Nitrogen-Fixing Symbiont of <i>Centrosema pubescens</i>	Genome Announcements	HELENE, LUISA CAROLINE FERRAZ ; GOMES, DOUGLAS FABIANO ; DELAMUTA, JAKELINE RENATA MARÇON ; RIBEIRO, RENAN AUGUSTO ; SOUZA, RENATA CAROLINI ; ALMEIDA, L. G. ; VASCONCELOS, A. T. R. ; HUNGRIA, Mariangela	Qualis nao identificado	Genome Announcements
trabalhoCompletoEmCongresso	Ana Tereza Ribeiro de Vasconcelos	2015		Desenvolvimento de um algoritmo paralelo paracontabilização da repetição de k-mers	3ª Conferencia Ibero Americana Computação Aplicada 2015- CIACA	VILLASBOAS, F. G. ; OSTHOFF, C. ; OSWALDO TRELLES SALAZAR ; DE VASCONCELOS, A.T.R.		
artigoEmPeriodico	Alexandre Loureiro Madureira	2015	http://dx.doi.org/10.1002/mma.3291	Hierarchical modeling of heterogeneous plates	Mathematical Methods in the Applied Sciences	CARIUS, A. C. ; MADUREIRA, Alexandre L.	B1	
artigoEmPeriodico	Alexandre Loureiro Madureira	2015	http://dx.doi.org/10.1007/s10092-014-0129-5	Abstract multiscale-hybrid-mixed methods	Calcolo	MADUREIRA, Alexandre L	Qualis nao identificado	Calcolo
trabalhoCompletoEmCongresso	João Nisan Correia Guerreiro	2015		Aplicação de uma Programação Genética Gramatical Multiobjetivo na Inferência da Máxima Deformação Longitudinal de Dutos com Amassamento	Congresso Ibero-Latino-Americano de Métodos Computacionais em Engenharia	FREITAS, J. M. ; BERNARDINO, H. S. ; GUERREIRO, J. N. C. ; BARBOSA, H. J. C.		
artigoEmPeriodico	Jaime Edilberto Munoz Rivera	2015	http://dx.doi.org/10.1016/j.ijsolstr.2015.01.019	Energy change to insertion of inclusions associated with the Reissner-Mindlin plate bending model	International Journal of Solids and Structures	SALES, V. ; NOVOTNY, A.A. ; Muñoz Rivera, J.E.	A2	
artigoEmPeriodico	Jaime Edilberto Munoz Rivera	2015	http://dx.doi.org/10.1016/j.jde.2015.01.011	Rates of decay to non homogeneous Timoshenko model with tip body	Journal of Differential Equations (Print)	Muñoz Rivera, Jaime E.; ÁVILA, ANDRÉS I.	A1	
artigoEmPeriodico	Jaime Edilberto Munoz Rivera	2015	http://dx.doi.org/10.1007/s00245-015-9298-0	On a Class of Nonlinear Viscoelastic Kirchhoff Plates: Well-Posedness and General Decay Rates	Applied Mathematics & Optimization	SILVA, M. A. JORGE ; RIVERA, J. E. MUÑOZ ; RACKE, R.	A2	
artigoEmPeriodico	Jaime Edilberto Munoz Rivera	2015	http://dx.doi.org/10.1016/j.jmaa.2015.11.041	The lack of exponential stability of the hybrid Bresse system	Journal of Mathematical Analysis and Applications (Print)	RIFO, SERGIO ; VILLAGRAN, OCTAVIO VERA ; Muñoz Rivera, Jaime E.	A2	
artigoEmPeriodico	Jaime Edilberto Munoz Rivera	2015	http://dx.doi.org/10.1016/j.amc.2015.08.092	About analyticity for the coupled system of linear thermoviscoelastic equations	Applied Mathematics and Computation	Alves, Margareth S. ; RIVERA, JAIME E. MUÑOZ ; Sepúlveda, Mauricio ; VERA, OCTAVIO	A2	
artigoEmPeriodico	Jaime Edilberto Munoz Rivera	2015		Property of growth determined by spectrum of operator associated with the Timoshenko system with weakly dissipation	Differential Equations & Applications	RAPOSO, Carlos Alberto ; Alves, R. R. ; Munoz Rivera, J.E.	Qualis nao identificado	Differential Equations & Applications
trabalhoCompletoEmCongresso	Jauvane Cavalcante de Oliveira	2015		CAVE/Desktop Collaborative Virtual Environment	XII Simpósio Brasileiro de Sistemas Colaborativos	Cruz, L. C. ; OLIVEIRA, J. C.		
artigoEmPeriodico	Helio José Corrêa Barbosa	2015	http://dx.doi.org/10.1111/itor.12153	A study on the use of heuristics to solve a bilevel programming problem	International Transactions in Operational Research	ANGELO, JAQUELINE S. ; Barbosa, Helio J. C.	B1	
artigoEmPeriodico	Helio José Corrêa Barbosa	2015	http://dx.doi.org/10.1016/j.rimni.2015.02.003	Um algoritmo baseado em evolução diferencial para problemas de otimização estrutural multiobjetivo com restrições	Revista Internacional de Métodos Numéricos para Cálculo y Diseño en Ingeniería	VARGAS, D.E.C. ; LEMONGE, A.C.C. ; BARBOSA, H.J.C. ; BERNARDINO, H.S.	B1	
artigoEmPeriodico	Helio José Corrêa Barbosa	2015	http://dx.doi.org/10.4203/ctr.12.2	Derivative-Free Techniques for Multiobjective Structural Optimization: A Review	Computational Technology Reviews	BARBOSA, H.J.C.; BERNARDINO, H.S. ; ANGELO, J.S.	Qualis nao identificado	Computational Technology Reviews
artigoEmPeriodico	Helio José Corrêa Barbosa	2015	http://dx.doi.org/10.1108/EC-07-2014-0158	Variants of an adaptive penalty scheme for steady-state genetic algorithms in engineering optimization	Engineering Computations	LEMONGE, AFONSO C.C ; BARBOSA, HELIO J.C. ; Bernardino, Heder S.	B1	
trabalhoCompletoEmCongresso	Helio José Corrêa Barbosa	2015		A comparative study of techniques for handling integer variables using Differential Evolution	XXXVI Iberian Latin-American Congress on Computational Methods in Engineering	KREISCHER, V. ; KREMPSER, EDUARDO ; BARBOSA, H. J. C.		
trabalhoCompletoEmCongresso	Helio José Corrêa Barbosa	2015		Migration policies to improve exploration in parallel island models for optimization via metaheuristics	XXXVI Iberian Latin-American Congress on Computational Methods in Engineering	MAGALHAES, T. T. ; KREMPSER, EDUARDO ; BARBOSA, H. J. C.		
trabalhoCompletoEmCongresso	Helio José Corrêa Barbosa	2015		Aplicação de uma Programação Genética Gramatical Multiobjetivo na Inferência da Máxima Deformação Longitudinal de Dutos com Amassamento	XXXVI Iberian Latin-American Congress on Computational Methods in Engineering	FREITAS, J. M. ; BERNARDINO, H. S. ; GUERREIRO, J. N. C. ; BARBOSA, H. J. C.		
trabalhoCompletoEmCongresso	Helio José Corrêa Barbosa	2015	http://dx.doi.org/10.1109/cec.2015.7257021	Grammar-based immune programming to assist in the solution of functional equations	2015 IEEE Congress on Evolutionary Computation (CEC)	Bernardino, Heder S. ; BARBOSA, HELIO J.C.		
trabalhoCompletoEmCongresso	Helio José Corrêa Barbosa	2015	http://dx.doi.org/10.1109/cec.2015.7257079	Using grammar-based genetic programming to determine characteristics of multiple infections and environmental factors in the development of allergies and asthma	2015 IEEE Congress on Evolutionary Computation (CEC)	VEIGA, RAFAEL V. ; DE FREITAS, JOAO MARCOS ; Bernardino, Heder S. ; BARBOSA, HELIO J.C. ; ALCANTARA-NEVES, NEUZA M.		
trabalhoCompletoEmCongresso	Helio José Corrêa Barbosa	2015	http://dx.doi.org/10.1109/cec.2015.7257088	Differential evolution to find Stackelberg-Nash equilibrium in bilevel problems with multiple followers	2015 IEEE Congress on Evolutionary Computation (CEC)	ANGELO, JAQUELINE S. ; Barbosa, Helio J. C.		
trabalhoCompletoEmCongresso	Helio José Corrêa Barbosa	2015	http://dx.doi.org/10.1109/cibcb.2015.7300285	Genetic operators based on backbone constraint angles for protein structure prediction	2015 IEEE Conference on Computational Intelligence in Bioinformatics and Computational Biology (CIBCB)	SANTOS, KARINA B. ; CUSTODIO, FABIO L. ; Barbosa, Helio J. C. ; DARDENNE, Laurent E.		
artigoEmPeriodico	Gustavo Alberto Perla Menzala	2015		Long time dynamics of a multimensional nonlinear lattice with memory	Discrete and Continuous Dynamical Systems	PERLA MENZALA G.; OLIVEIRA, J. C. ; PEREIRA, J. M.	B1	
artigoEmPeriodico	Gustavo Alberto Perla Menzala	2015	http://dx.doi.org/10.1002/mma.3630	Uniform stabilization of a quasilinear plate model in hyperbolic thermoelasticity	Mathematical Methods in the Applied Sciences	BURIOL, C. ; MENZALA, G. P.	B1	
artigoEmPeriodico	Laurent Emmanuel Dardenne	2015	http://dx.doi.org/10.1016/j.jmgm.2014.11.002	Structural Modeling and Docking Studies of Ribose 5-Phosphate Isomerase from Leishmania major and Homo sapiens: A Comparative Analysis for Leishmaniasis Treatment	Journal of Molecular Graphics & Modelling	CAPRILES, Priscila Vanessa da Silva Zabala ; BAPTISTA, L. P. ; Guedes, I.A. ; GUIMARAES, A. C. ; CUSTÓDIO, Fábio Lima ; Marcelo Alves-Ferreira ; Dardenne, L.E.	A2	
trabalhoCompletoEmCongresso	Laurent Emmanuel Dardenne	2015	http://dx.doi.org/10.1109/cibcb.2015.7300284	A multiobjective approach for protein structure prediction using a steady-state genetic algorithm with phenotypic crowding	2015 IEEE Conference on Computational Intelligence in Bioinformatics and Computational Biology (CIBCB)	ROCHA, GREGORIO KAPPAUN ; CUSTODIO, FABIO LIMA ; BARBOSA, HELIO JOSE CORREA ; Dardenne, Laurent Emmanuel		
trabalhoCompletoEmCongresso	Laurent Emmanuel Dardenne	2015	http://dx.doi.org/10.1109/cibcb.2015.7300285	Genetic operators based on backbone constraint angles for protein structure prediction	2015 IEEE Conference on Computational Intelligence in Bioinformatics and Computational Biology (CIBCB)	SANTOS, KARINA B. ; CUSTODIO, FABIO L. ; BARBOSA, HELIO J. C. ; DARDENNE, LAURENT E.		
trabalhoCompletoEmCongresso	Laurent Emmanuel Dardenne	2015		Profrager Web Server: Fragment Libraries Generation for Protein Structure Prediction	The 16th International Conference on Bioinformatics Computational Biology - BIOCOMP'15	DOSSANTOS, K. B. ; Trevizani R ; CUSTÓDIO, Fábio Lima ; DARDENNE, L. E.		
trabalhoCompletoEmCongresso	Laurent Emmanuel Dardenne	2015	http://dx.doi.org/10.1109/LA-CCI.2015.7435972	Comparison of differential evolution variants for the molecular ligand-receptor docking problem	2015 Latin America Congress on Computational Intelligence (LACCI)	DE MAGALHAES, CAMILA SILVA ; DIAS, VANESSA ; Dardenne, Laurent Emmanuel		
trabalhoCompletoEmCongresso	Paulo Antonio Andrade Esquef	2015	http://dx.doi.org/10.1109/WIFS.2015.7368585	Improved Edit Detection in Speech via ENF Patterns	7th IEEE International Workshop on Information Forensics and Security (WIFS) 2015	Paulo A. A. Esquef; APOLINARIO JR., J. A. ; BISCAINHO, L. W. P.		
artigoEmPeriodico	Gilson Antonio Giraldi	2015	http://dx.doi.org/10.1142/s0219467815500060	Comparing Ranking Methods for Tensor Components in Multilinear and Concurrent Subspace Analysis with Applications in Face Images	International Journal of Image and Graphics	FILISBINO, T. A. ; GIRALDI, G. A. ; C.E. Thomaz	Qualis nao identificado	International Journal of Image and Graphics
artigoEmPeriodico	Gilson Antonio Giraldi	2015	http://dx.doi.org/10.4018/ijncr.2015040103	Composition of Local Normal Coordinates and Polyhedral Geometry in Riemannian Manifold Learning	International Journal of Natural Computing Research	MIRANDA JUNIOR, G. F. ; C.E. Thomaz ; MILLAN, R. D. ; GIRALDI, GILSON ANTONIO	B3	
artigoEmPeriodico	Gilson Antonio Giraldi	2015	http://dx.doi.org/10.1007/s10044-015-0450-x	Improving a firefly meta-heuristic for multilevel image segmentation using Tsallis entropy	Pattern Analysis and Applications (Print)	RODRIGUES, Paulo Sérgio ; WACHS-LOPES, G. A. ; ERDMANN, H. R. ; RIBEIRO, M. P. ; GIRALDI, G. A.	A2	
artigoEmPeriodico	Gilson Antonio Giraldi	2015	http://dx.doi.org/10.1016/j.gmod.2015.07.001	A New Optimization Approach for Mass-Spring Models Parameterization	Graphical Models (Print)	SILVA, Josildo P. ; GIRALDI, G. A. ; A. Apolinário	Qualis nao identificado	Graphical Models (Print)
artigoEmPeriodico	Gilson Antonio Giraldi	2015	http://dx.doi.org/10.1109/TLA.2015.7332160	Integrating Content-Based Image Retrieval into SBIM System	Revista IEEE América Latina	MEIRELES CARDOSO, DOUGLAS NATAN ; GIRALDI, GILSON ANTONIO ; PEREIRA NEVES, LUIZ ANTONIO	B1	
trabalhoCompletoEmCongresso	Gilson Antonio Giraldi	2015		Statistical and cognitive spatial mapping applied to face analysis	Sibgrapi 2015	Vagner Amaral ; GIRALDI, G.A. ; C.E. Thomaz		
trabalhoCompletoEmCongresso	Gilson Antonio Giraldi	2015		Multi-class discriminant analysis based on SVM ensembles for ranking principal components	Ibero-Latin American Congress on Computational Methods in Engineering (CILAMCE)	FILISBINO, T. A. ; GIRALDI, G.A. ; THOMAZ, C.E. ; Diego Augusto Thomaz Quadrado Leite		
trabalhoCompletoEmCongresso	Gilson Antonio Giraldi	2015		A photo-realistic generator of most expressive and discriminant changes in 2D face images	International Conference on Emerging Security Technologies (EST)	XAVIER, I. R. R. ; PEREIRA, M. V. S. ; ANTONIO GIRALDI, GILSON ; GIBSON, S. J. ; SOLOMON, C. J. ; RUECKERT, D. ; GILLIES, D. F. ; C.E. Thomaz		
trabalhoCompletoEmCongresso	Gilson Antonio Giraldi	2015		Visualizing Morse Flows and Elliptic Umbilic Catastrophes in N-Roll Mill Fluids Simulated by Smoothed Particle Hydrodynamics	Ibero-Latin American Congress on Computational Methods in Engineering - CILAMCE	SILVA, Leandro. T. ; GIRALDI, G.A.		
artigoEmPeriodico	Jack Baczynski	2015	http://dx.doi.org/10.1093/imamci/dnv054	A new approach to risk sensitivity	IMA Journal of Mathematical Control and Information	BACZYNSKI, JACK	B1	
artigoEmPeriodico	Jack Baczynski	2015		Exact Barrier Option Valuation with Deterministic Volatility	TEMA. Tendências em Matemática Aplicada e Computacional	ROSALINO JR., E. ; SILVA, A. J. ; BACZYNSKI, J. ; LEAO, D.	B2	
trabalhoCompletoEmCongresso	Jack Baczynski	2015		A Discrete Monitoring Method for Pricing and Hedging Asian Interest Rate Options - the Brazilian IDI option case	Simpósio Brasileiro de Pesquisa Operacional - XLVII SBPO	SILVA, A. J. ; Baczynski, J. ; VICENTE, J. V. M.		
artigoEmPeriodico	Frederic Gerard Christian Valentin	2015	http://dx.doi.org/10.1137/130938499	On a Multiscale Hybrid-Mixed Method for Advective-Reactive Dominated Problems with Heterogeneous Coefficients	Multiscale Modeling & Simulation (Print)	Paredes, D. ; Harder, Christopher ; VALENTIN, F.	A1	
artigoEmPeriodico	Frederic Gerard Christian Valentin	2015	http://dx.doi.org/10.1093/imanum/drv004	A low-order local projection method for the incompressible Navier-Stokes equations in two- and three-dimensions	IMA JOURNAL OF NUMERICAL ANALYSIS	Araya, Rodolfo ; Poza, Abner H. ; Valentin, Frédéric	B1	
artigoEmPeriodico	Renato Portugal	2015		Spatial Search on Grids with Minimum Memory	Quantum Information & Computation	A. Ambainis ; R. Portugal ; N. Nahimov	Qualis nao identificado	Quantum Information & Computation
artigoEmPeriodico	Renato Portugal	2015	http://dx.doi.org/10.1103/PhysRevA.91.052319	One-dimensional coinless quantum walks	Physical Review. A	Portugal, Renato; BOETTCHER, STEFAN ; FALKNER, STEFAN	A2	
artigoEmPeriodico	Renato Portugal	2015	http://dx.doi.org/10.1103/PhysRevA.91.052330	Relation between random walks and quantum walks	Physical Review. A	BOETTCHER, STEFAN ; FALKNER, STEFAN ; Portugal, Renato	A2	
artigoEmPeriodico	Renato Portugal	2015	http://dx.doi.org/10.1007/s11128-015-1079-9	Quantum walks on a circle with optomechanical systems	Quantum Information Processing (Print)	MOQADAM, JALIL KHATIBI ; Portugal, Renato ; DE OLIVEIRA, MARCOS CESAR	Qualis nao identificado	Quantum Information Processing (Print)
artigoEmPeriodico	Renato Portugal	2015	http://dx.doi.org/10.1007/s11128-015-1042-9	Moments of coinless quantum walks on lattices	Quantum Information Processing (Print)	SANTOS, RAQUELINE AZEVEDO MEDEIROS ; Portugal, Renato ; BOETTCHER, STEFAN	Qualis nao identificado	Quantum Information Processing (Print)
artigoEmPeriodico	Renato Portugal	2015	http://dx.doi.org/10.6062/jcis.2015.06.01.0092	Simulation of Quantum Walks using HPC	Journal of Computational Interdisciplinary Sciences	LARA, P. ; LEÃO, A. ; Portugal, R.	B3	
trabalhoCompletoEmCongresso	Renato Portugal	2015		An Efficient Quantum Algorithm for the Hidden Subgroup Problem over some Non-Abelian Groups	Congresso de Matemática Aplicada e Computacional	D. N. Gonçalves ; R. Portugal ; T.D. Fernandes		
trabalhoCompletoEmCongresso	Renato Portugal	2015		Mean square displacement of the coinless quantum walk on the line	V Workshop-Escola de Computação e Informação Quântica	R. A. M. Santos ; R. Portugal ; S. Boettcher		
trabalhoCompletoEmCongresso	Renato Portugal	2015	http://dx.doi.org/10.1109/FDTC.2015.18	An Efficient One-Bit Model for Differential Fault Analysis on Simon Family	2015 Workshop on Fault Diagnosis and Tolerance in Cryptography (FDTC)	VASQUEZ, JUAN DEL CARMEN GRADOS ; BORGES, FABIO ; Portugal, Renato ; Lara, Pedro		
artigoEmPeriodico	Artur Ziviani	2015	http://dx.doi.org/10.1142/S021952591550023X	Time Centrality in Dynamic Complex Networks	Advances in Complex Systems	COSTA, E. C. ; VIEIRA, A. B. ; WEHMUTH, K. ; ZIVIANI, A. ; SILVA, A. P. C.	A2	
trabalhoCompletoEmCongresso	Artur Ziviani	2015		Using SMS to Transfer Small Data Packets During Periods Of High Workloads on Mobile Data Networks	XXXIII Simpósio Brasileiro de Redes de Computadores e Sistemas Distribuídos - SBRC'2015	CURTO, H. ; MARQUES-NETO, H. T. ; ZIVIANI, A. ; ALMEIDA, J. M. ; CAETANO, J.		
trabalhoCompletoEmCongresso	Artur Ziviani	2015	http://dx.doi.org/10.1109/SBRC.2015.34	MobDatU: Um Novo Modelo de Previsão de Mobilidade Humana para Dados Heterogêneos	XXXIII Simpósio Brasileiro de Redes de Computadores e Sistemas Distribuídos - SBRC'2015	SILVEIRA, L. M. ; ALMEIDA, J. M. ; MARQUES-NETO, H. T. ; ZIVIANI, A.		
trabalhoCompletoEmCongresso	Artur Ziviani	2015	http://dx.doi.org/10.1109/SBRC.2015.24	Equilibrando Energia, Redundância e Desempenho em Redes de Centros de Dados	XXXIII Simpósio Brasileiro de Redes de Computadores e Sistemas Distribuídos - SBRC'2015	ARAUJO, C. ; SAMPAIO, L. ; ZIVIANI, A.		
trabalhoCompletoEmCongresso	Artur Ziviani	2015		On the Interoperability of Bufferbloat Solutions	XXXIII Simpósio Brasileiro de Telecomunicações - SBrT 2015	CARDOZO, T. B. ; VIEIRA, A. B. ; ZIVIANI, A. ; SILVA, A. P. C.		
trabalhoCompletoEmCongresso	Artur Ziviani	2015	http://dx.doi.org/10.1109/DSAA.2015.7344810	A unifying model for representing time-varying graphs	2015 IEEE International Conference on Data Science and Advanced Analytics (DSAA)	WEHMUTH, KLAUS ; Ziviani, Artur ; FLEURY, ERIC		
resumoExpandidoEmCongresso	Artur Ziviani	2015	Social Events in a Time-Varying Mobile Phone Graph	4th Conference on the Analysis of Mobile Phone Datasets -- NetMob 2015, 2015, Cambridge, MA, EUA. Proc. of the 4th Conference on the Analysis of Mobile Phone Datasets -- NetMob 2015	SARRAUTE, C. ; BREA, J. ; BURRONI, J. ; WEHMUTH, K. ; ZIVIANI, A. ; ALVAREZ-HAMELIN, J. I.		
trabalhoCompletoEmCongresso	Roberto Pinto Souto	2015	http://dx.doi.org/10.5540/03.2015.003.01.0457	New developments on reconstruction of high resolution chlorophyll-a vertical profiles	XXXV CNMAC Congresso Nacional de Matemática Aplicada e Computacional	Souto, Roberto P.; DIAS, PEDRO L. SILVA ; Velho, Haroldo F. Campos ; STEPHANY, S. ; KAMPEL, M.		
artigoEmPeriodico	Regina Célia Cerqueira de Almeida	2015	http://dx.doi.org/10.1007/s11831-015-9156-x	Toward Predictive Multiscale Modeling of Vascular Tumor Growth	Archives of Computational Methods in Engineering	Oden, J. Tinsley ; LIMA, ERNESTO A. B. F. ; Almeida, Regina C. ; FENG, YUSHENG ; RYLANDER, MARISSA NICHOLE ; FUENTES, DAVID ; FAGHIHI, DANIAL ; RAHMAN, MOHAMMAD M. ; DEWITT, MATTHEW ; GADDE, MANASA ; ZHOU, J. CLIFF	Qualis nao identificado	Archives of Computational Methods in Engineering
trabalhoCompletoEmCongresso	Regina Célia Cerqueira de Almeida	2015		Predictor-Multicorrector Scheme for the Dynamic Diffusion Method. In: III Congresso de Matemática Aplicada e Computacional	III Congresso de Matemática Aplicada e Computacional - Sudeste	VALLI, A. M. P. ; CATABRIGA, L. ; SANTOS, I. P. ; COUTINHO, A. L. G. ; R.C. ALMEIDA		
trabalhoCompletoEmCongresso	Regina Célia Cerqueira de Almeida	2015		Multiscale dynamic diffusion method to solve advection-diffusion problems. In: Ibero-Latin American Congress on Computational Methods in Engineering	XXXVI Ibero-Latin American Congress on Computational Methods in Engineering	VALLI, A. M. P. ; CATABRIGA, L. ; SANTOS, I. P. ; COUTINHO, A. L. G. ; R.C. ALMEIDA		
resumoExpandidoEmCongresso	Regina Célia Cerqueira de Almeida	2015	Sensitivity analysis of a tumor growth model	SOLABIMA Congresso Latino Americano de Biomatemática, 2015, Botucatu. Proceedings of Congresso Latino Americano de Biomatemática	RESENDE, A. C. M. ; ALMEIDA, R. C. ; LIMA, E. A. B. F.		
resumoExpandidoEmCongresso	Regina Célia Cerqueira de Almeida	2015	Modelo baseado em agentes para o crescimento tumoral avascular	SOLABIMA Congresso Latino Americano de Biomatemática, 2015, Botucatu. Proceedings of Congresso Latino Americano de Biomatemática	ROCHA, H. L. ; LIMA, E. A. B. F. ; ALMEIDA, R. C.		
resumoExpandidoEmCongresso	Regina Célia Cerqueira de Almeida	2015	Modelos baseados em campo de fase para o crescimento tumoral avascular	SOLABIMA Congresso Latino Americano de Biomatemática, 2015, Botucatu. Proceedings of Congresso Latino Americano de Biomatemática	FABIAN, J. H. L. ; ALMEIDA, R. C. ; LIMA, E. A. B. F.		
artigoEmPeriodico	Michel Iskin da Silveira Costa	2015	http://dx.doi.org/10.1093/imammb/dqv027	Allee effects in tritrophic food chains: some insights in pest biological control	Mathematical Medicine and Biology (Print)	COSTA, M. I. S.; ANJOS, L.	B1	
artigoEmPeriodico	Michel Iskin da Silveira Costa	2015	http://dx.doi.org/10.1007/s13744-015-0297-2	Integrated Pest Management in a Predator-Prey System with Allee Effects	Neotropical Entomology (Impresso)	COSTA, M I S; DOS ANJOS, L	B1	
artigoEmPeriodico	Michel Iskin da Silveira Costa	2015	http://dx.doi.org/10.1111/nrm.12062	COMPONENT ALLEE EFFECTS AND STAGE-SPECIFIC PREDATION: A BRIEF INSIGHT INTO CONSERVATION AND BIOLOGICAL CONTROL ISSUES	Natural Resource Modeling	DA S. COSTA, MICHEL ISKIN; DOS ANJOS, LUCAS	B1	
artigoEmPeriodico	Michel Iskin da Silveira Costa	2015	http://dx.doi.org/10.1016/j.ecocom.2015.01.001	Finite growth rate is not a proper indicator of demographic Allee effects in a discrete time single population model with density dependence in two stages	Ecological Complexity (Print)	COSTA, MICHEL ISKIN DA S.; DOS ANJOS, LUCAS	A2	
artigoEmPeriodico	Michel Iskin da Silveira Costa	2015		Increase in specific growth rate can generate alternate transitions between stability and instability in single population dynamics	Ecological Modelling	DOS ANJOS, LUCAS ; COSTA, M. I. S.	A1	
artigoEmPeriodico	Maurício Vieira Kritz	2015	http://dx.doi.org/10.1088/1742-6596/633/1/012008	Simulations of a epidemic model with parameters variation analysis for the dengue fever	Journal of Physics. Conference Series (Online)	JARDIM, C L T F ; PRATES, D B ; SILVA, J M ; FERREIRA, L A F ; KRITZ, M V	B2	
artigoEmPeriodico	Augusto Cesar Noronha Rodrigues Galeão	2015		O Método de CrankNicolson Aplicado ao Modelo de Difusão de Conhecimento: Uma Simulação para o Processo de Transmissão de Conhecimento	International Journal of Knowledge Engineering and Management	Santos, M. ; PIETROBOM-COSTA, F. ; GALEÃO, Augusto Cesar Noronha Rodrigues	B4	
trabalhoCompletoEmCongresso	Augusto Cesar Noronha Rodrigues Galeão	2015		Knowledge Diffusion and Transferingia a Research Chain: Paths, Retention and Velocity Influences (aceito para publicação)	XXXVI CILAMCE	BEVILACQUA, Luiz ; GALEÃO, Augusto Cesar Noronha Rodrigues ; PIETROBOM-COSTA, F.		
trabalhoCompletoEmCongresso	Antônio Tadeu Azevedo Gomes	2015	http://dx.doi.org/10.1109/escience.2015.26	Scientific Workflow Interchanging through Patterns: Reversals and Lessons Learned	2015 IEEE 11th International Conference on eScience (eScience)	BASTOS, BRUNO FERNANDES ; BRAGA, REGINA MARIA MACIEL ; GOMES, ANTONIO TADEU AZEVEDO		
artigoEmPeriodico	Pablo Javier Blanco	2015	http://dx.doi.org/10.1016/j.mechmat.2014.10.007	An RVE-based multiscale theory of solids with micro-scale inertia and body force effects	Mechanics of Materials (Print)	DE SOUZA NETO, E.A. ; Blanco, P.J. ; SÁNCHEZ, P.J. ; Feijóo, R.A.	A2	
artigoEmPeriodico	Pablo Javier Blanco	2015	http://dx.doi.org/10.1016/j.cma.2014.10.036	Hybrid element-based approximation for the Navier-Stokes equations in pipe-like domains	Computer Methods in Applied Mechanics and Engineering	Blanco, P.J.; MANSILLA ALVAREZ, L.A. ; Feijóo, R.A.	A1	
artigoEmPeriodico	Pablo Javier Blanco	2015	http://dx.doi.org/10.1109/TBME.2014.2364522	An Anatomically Detailed Arterial Network Model for One-Dimensional Computational Hemodynamics	IEEE Transactions on Biomedical Engineering	BLANCO, PABLO J.; WATANABE, SANSUKE M. ; PASSOS, MARCO AURELIO R. F. ; LEMOS, PEDRO A. ; FEIJOO, RAUL A.	A2	IEEE Transactions on Biomedical Engineering (Print)
artigoEmPeriodico	Pablo Javier Blanco	2015	http://dx.doi.org/10.1016/j.jcp.2015.03.065	On the search of more stable second-order lattice-Boltzmann schemes in confined flows	Journal of Computational Physics (Print)	Golbert, D.R. ; Blanco, P.J. ; CLAUSSE, A. ; Feijóo, R.A.	A1	
artigoEmPeriodico	Pablo Javier Blanco	2015	http://dx.doi.org/10.1109/TBME.2015.2449232	Improving Cardiac Phase Extraction in IVUS Studies by Integration of Gating Methods	IEEE Transactions on Biomedical Engineering (Print)	MASO TALOU, GONZALO ; LARRABIDE, IGNACIO ; Blanco, Pablo ; BEZERRA, CRISTIANO ; LEMOS, PEDRO ; FEIJOO, RAUL	A2	
artigoEmPeriodico	Pablo Javier Blanco	2015	http://dx.doi.org/10.1016/j.jcp.2015.07.056	A high order approximation of hyperbolic conservation laws in networks: Application to one-dimensional blood flow	Journal of Computational Physics (Print)	MÜLLER, LUCAS O. ; BLANCO, PABLO J.	A1	
artigoEmPeriodico	Pablo Javier Blanco	2015	http://dx.doi.org/10.1002/cnm.2732	A benchmark study of numerical schemes for one-dimensional arterial blood flow modelling	International Journal for Numerical Methods in Biomedical Engineering (Print)	BOILEAU, ETIENNE ; NITHIARASU, PERUMAL ; BLANCO, PABLO J. ; MÜLLER, LUCAS O. ; FOSSAN, FREDRIK EIKELAND ; HELLEVIK, LEIF RUNE ; DONDERS, WOUTER P. ; HUBERTS, WOUTER ; WILLEMET, MARIE ; ALASTRUEY, JORDI	B1	
artigoEmPeriodico	Pablo Javier Blanco	2015	http://dx.doi.org/10.1016/j.rbci.2015.12.013	Reconstrução tridimensional de artérias coronárias a partir da integração do ultrassom intracoronário e da angiografia convencional	Revista Brasileira de Cardiologia Invasiva	BEZERRA, CRISTIANO GUEDES ; TALOU, GONZALO DANIEL MASO ; BULANT, CARLOS ALBERTO ; FALCÃO, BRENO DE ALENCAR ARARIPE ; MARIANI, JOSÉ ; Blanco, Pablo Javier ; FEIJÓO, RAÚL ANTONINO ; NETO, PEDRO ALVES LEMOS	B2	
trabalhoCompletoEmCongresso	Pablo Javier Blanco	2015		IVUS image conditioning for in-vivo characterization of arterial tissue	ICCB 2015	MASO TALOU, G. D. ; PÉREZ ZERPA, J. ; BLANCO, P. J. ; CANELAS, A. ; FEIJÓO, R. A.		
trabalhoCompletoEmCongresso	Pablo Javier Blanco	2015		Combining transversal and longitudinal registration in IVUS studies	MICCAI 2015	MASO TALOU, G. D. ; BLANCO, P. J. ; LARRABIDE, I. ; GUEDES BEZERRA, C. ; LEMOS, P. A. ; FEIJÓO, R. A.		
trabalhoCompletoEmCongresso	Pablo Javier Blanco	2015		Reconstrução tridimensional de artérias coronárias à partir da integração do ultrassom intra-coronário e da angiografia convencional - Fase piloto de validação com a angiotomografia de coronárias	Congresso da Sociedade Brasileira de Hemodinâmica e Cardiologia Intervencional	GUEDES BEZERRA, C. ; FALCAO, B. A. A. ; MASO TALOU, G. D. ; BULANT, C. A. ; BLANCO, P. J. ; FEIJÓO, R. A. ; MARIANI JUNIOR, J. ; LEMOS, P. A.		
trabalhoCompletoEmCongresso	Pablo Javier Blanco	2015		RVE-based multiscale modeling for the Navier-Stokes equations: linking continuum and Lattice-Boltzmann models	CILAMCE 2015	BLANCO, P. J.; VALDEZ, A. R. ; CLAUSSE, A. ; FEIJÓO, R. A.		
trabalhoCompletoEmCongresso	Pablo Javier Blanco	2015		A multi-scale approach to model arterial tissue	CILAMCE 2015	ROCHA, F. F. ; BLANCO, P. J. ; SANCHEZ, P. J. ; HUESPE, A. E. ; FEIJÓO, R. A.		
trabalhoCompletoEmCongresso	Pablo Javier Blanco	2015		Geometrical characterization of the coronary arterial tree	CILAMCE 2015	BULANT, C. A. ; BLANCO, P. J. ; ASSUNCAO JR, A. N. ; LIBERATO, G. ; LIMA, T. P. ; PARGA FILHO, J. R. ; LEMOS, P. A. ; AVILA, L. F. R. ; FEIJÓO, R. A.		
resumoExpandidoEmCongresso	Pablo Javier Blanco	2015	Detailed 3D reconstruction and geometrical characterization of coronary arteries from IVUS-AX studies	MACI 2015, V Congreso de Matemática Aplicada, Computacional e Industrial, 2015, Tandil. Anales del MACI 2015, V Congreso de Matemática Aplicada, Computacional e Industrial	MASO TALOU, G. D. ; BULANT, C. A. ; BLANCO, P. J. ; LARRABIDE, I. ; GUEDES BEZERRA, C. ; LEMOS, P. A. ; FEIJÓO, R. A.		
resumoExpandidoEmCongresso	Pablo Javier Blanco	2015	Anatomical refinement in one-dimensional models. What do we gain?	CMBE 2015, International Conference on Computational and Mathematical Biomedical Engineering, 2015, Paris. Proceedings of the CMBE 2015, International Conference on Computational and Mathematical Biomedical Engineering	WATANABE, S. M. ; BLANCO, P. J. ; MULLER, L. O. ; FEIJÓO, R. A.		
resumoExpandidoEmCongresso	Pablo Javier Blanco	2015	A dimensionally heterogeneous coupled cardiac computational model	CMBE 2015, International Conference on Computational and Mathematical Biomedical Engineering, 2015, Paris. Proceedings of the CMBE 2015, International Conference on Computational and Mathematical Biomedical Engineering	SANTIAGO, A. ; VAZQUEZ, M. ; BLANCO, P. J. ; WATANABE, S. M. ; HOUZEAUX, G. ; AGUADO-SIERRA, J. ; RIVERO, M. ; LOPEZ-YUNTA, M.		
resumoExpandidoEmCongresso	Pablo Javier Blanco	2015	Extreme one-dimensional blood flow simulations: implications and proposed solutions	CMBE 2015, International Conference on Computational and Mathematical Biomedical Engineering, 2015, Paris. Proceedings of the CMBE 2015, International Conference on Computational and Mathematical Biomedical Engineering	MULLER, L. O. ; BLANCO, P. J. ; WATANABE, S. M. ; FEIJÓO, R. A.		
resumoExpandidoEmCongresso	Pablo Javier Blanco	2015	A refined one-dimensional model of the arteriovenous system	CMBE 2015, International Conference on Computational and Mathematical Biomedical Engineering, 2015, Paris. Proceedings of the CMBE 2015, International Conference on Computational and Mathematical Biomedical Engineering	BLANCO, P. J.; MULLER, L. O. ; WATANABE, S. M. ; FERNANDES, L. G. ; FEIJÓO, R. A.		
trabalhoCompletoEmCongresso	Eduardo Lucio Mendes Garcia	2015		A New Multi-scale Computational Model for Flow and Transport in Shale Gas Reservoirs Rigorously Derived by Reiterated Homogenization	13TH SPE Reservoir Simulation Symposium.	LE, T. D. ; PEREIRA, P. A. ; ARAB, M. M. ; GARCIA, Eduardo L. M. ; Boutin, C. ; LIMA, S.		
artigoEmPeriodico	Marisa Fabiana Nicolás	2015	http://dx.doi.org/10.4238/2015.november.18.40	Integrity of prokaryotic mRNA isolated from complex samples for in vivo bacterial transcriptome analysis	Genetics and Molecular Research	FERREIRA-MACHADO, A. B. ; FREITAS, M. C. R. ; Quispe Saji, Guadalupe del Rosario ; REZENDE, A. B. ; ALMEIDA, P. ; CESAR, D. E. ; RESENDE, J. A. ; Nicolas, M. F. ; da Silva V L ; DINIZ, C.	A2	
artigoEmPeriodico	Marisa Fabiana Nicolás	2015	http://dx.doi.org/10.1128/AAC.00158-15	Characterization of BKC-1 class A carbapenemase from Klebsiella pneumoniae clinical isolates in Brazil	Antimicrobial Agents and Chemotherapy (Print)	Adriana Giannini Nicoletti ; MARCONDES, M. F. M. ; MARTINS, W. B. ; ALMEIDA, L. G. P. ; NICOLÁS, M. F. ; VASCONCELOS, A. T. R. ; OLIVEIRA, V. ; GALES, A C	A1	
artigoEmPeriodico	Marisa Fabiana Nicolás	2015	http://dx.doi.org/10.1016/j.tube.2015.11.009	A Whole genome bioinformatic approach to determine potential latent phase specific targets in Mycobacterium tuberculosis	Tuberculosis (Edinburgh)	DEFELIPE, LUCAS A. ; RADUSKY, LEANDRO ; LANZAROTTI, ESTEBAN ; TURJANSKI, ADRIÁN G. ; MARTI, MARCELO A. ; DO PORTO, DARIO FERNÁNDEZ ; SOSA, EZEQUIEL ; PEREIRA RAMOS, PABLO IVAN ; NICOLÁS, Marisa Fabiana	A2	
artigoEmPeriodico	Marcos Garcia Todorov	2015	http://dx.doi.org/10.1109/tac.2014.2366253	A Detector-Based Approach for the H2 Control of Markov Jump Linear Systems with Partial Information	IEEE Transactions on Automatic Control (Print)	COSTA, OSWALDO L. V. ; Fragoso, Marcelo D. ; Todorov, Marcos G.	A2	
trabalhoCompletoEmCongresso	Marcos Garcia Todorov	2015	http://dx.doi.org/10.1109/CDC.2015.7402775	A new approach for the H∞ control of Markov jump linear systems with partial information	2015 54th IEEE Conference on Decision and Control (CDC)	Todorov, Marcos G.; Fragoso, Marcelo D. ; COSTA, OSWALDO L. V.		
trabalhoCompletoEmCongresso	Marcos Garcia Todorov	2015	http://dx.doi.org/10.1109/CDC.2015.7402878	A Bounded Real Lemma for continuous-time linear systems with partial information on the Markovian jumping parameters	2015 54th IEEE Conference on Decision and Control (CDC)	GRACIANI RODRIGUES, C. C. ; Todorov, Marcos G. ; Fragoso, Marcelo D.		
artigoEmPeriodico	Márcio Rentes Borges	2015	http://dx.doi.org/10.1007/s10596-015-9538-z	A Bayesian framework for the validation of models for subsurface flows: synthetic experiments	COMPUTATIONAL GEOSCIENCES	AKBARABADI, M. ; BORGES, M. ; JAN, A. ; PEREIRA, F. ; PIRI, M.	B1	
artigoEmPeriodico	Marcio Arab Murad	2015	http://dx.doi.org/10.1016/j.advwatres.2014.10.005	A three-scale model for ionic solute transport in swelling clays incorporating ion-ion correlation effects	Advances in Water Resources	LE, TIEN DUNG ; MOYNE, Christian ; MURAD, MARCIO A.	A1	
artigoEmPeriodico	Marcio Arab Murad	2015	http://dx.doi.org/10.1007/s10596-015-9511-x	Bridging between macroscopic behavior of shale gas reservoirs and confined fluids in nanopores	Computational Geosciences (Amsterdam)	LE, TIEN DUNG ; MURAD, MARCIO A. ; PEREIRA, PATRICIA A. ; Boutin, Claude	B1	
trabalhoCompletoEmCongresso	Marcio Arab Murad	2015	http://dx.doi.org/10.2118/173240-MS	A New Multi-scale Computational Model for Flow and Transport in Shale Gas Reservoirs Rigorously Derived by Reiterated Homogenization	13TH SPE Reservoir Simulation Symposium.	LE, TIEN DUNG ; MURAD, MARCIO A. ; PEREIRA, PATRICIA A. ; Boutin, Claude ; GARCIA, E. L. ; LIMA, S.		
artigoEmPeriodico	Marcelo Dutra Fragoso	2015	http://dx.doi.org/10.1109/tac.2014.2366253	A Detector-Based Approach for the H2 Control of Markov Jump Linear Systems with Partial Information	IEEE Transactions on Automatic Control (Print)	COSTA, OSWALDO L. V. ; Fragoso, Marcelo D. ; Todorov, Marcos G.	A2	
trabalhoCompletoEmCongresso	Marcelo Dutra Fragoso	2015	http://dx.doi.org/10.1109/CDC.2015.7402878	A bounded real lemma for continuous-time linear systems with partial information on the Markovian Jumping Parameters	2015 54th IEEE Conference on Decision and Control (CDC)	GRACIANI RODRIGUES, C. C. ; Todorov, Marcos G. ; Fragoso, Marcelo D.		
trabalhoCompletoEmCongresso	Marcelo Dutra Fragoso	2015		A new approach for the H_infinity control of Markov Jump linear systems with partial information	54th IEEE Conference on Decision and Control	TODOROV, M. G. ; FRAGOSO, M. D.		
artigoEmPeriodico	Marc Andre Michael Thorsten Sammeth	2015	http://dx.doi.org/10.1126/science.1261877	Effect of predicted protein-truncating genetic variants on the human transcriptome	Science (New York, N.Y.)	RIVAS, M	A1	
artigoEmPeriodico	Marc Andre Michael Thorsten Sammeth	2015	http://dx.doi.org/10.1126/science.aaa0355	The human transcriptome across tissues and individuals	Science (New York, N.Y.)	MELE, M. ; FERREIRA, P. G. ; REVERTER, F. ; DELUCA, D. S. ; MONLONG, J. ; SAMMETH, M. ; YOUNG, T. R. ; GOLDMANN, J. M. ; PERVOUCHINE, D. D. ; SULLIVAN, T. J. ; JOHNSON, R. ; SEGRE, A. V. ; DJEBALI, S. ; NIARCHOU, A. ; CONSORTIUM, T. G. ; WRIGHT, F. A. ; LAPPALAINEN, T. ; CALVO, M. ; GETZ, G. ; DERMITZAKIS, E. T. ; ARDLIE, K. G. ; GUIGO, R.	A1	
artigoEmPeriodico	Marc Andre Michael Thorsten Sammeth	2015	http://dx.doi.org/10.1126/science.1262110	The Genotype-Tissue Expression (GTEx) pilot analysis: Multitissue gene regulation in humans	Science (New York, N.Y.)	ARDLIE, K	A1	
artigoEmPeriodico	Marc Andre Michael Thorsten Sammeth	2015	http://dx.doi.org/10.1038/srep15145	Synchronized age-related gene expression changes across multiple tissues in human and the link to complex diseases	Scientific Reports	YANG, JIALIANG HUANG, TAO PETRALIA, FRANCESCA LONG, QUAN ZHANG, BIN ARGMANN, CARMEN ZHAO, YONG MOBBS, CHARLES V	Qualis nao identificado	Scientific Reports
artigoEmPeriodico	Marc Andre Michael Thorsten Sammeth	2015		Sharing and Specificity of Co-expression Networks across 35 Human Tissues	PLOS Computational Biology (Online)	PIERSON, E	A1	
artigoEmPeriodico	Luiz Manoel Rocha Gadelha Júnior	2015	http://dx.doi.org/10.1371/journal.pone.0130084	Baseline Assessment of Mesophotic Reefs of the Vitória-Trindade Seamount Chain Based on Water Quality, Microbial Diversity, Benthic Cover and Fish Biomass Data	Plos One	MEIRELLES, PEDRO M. ; AMADO-FILHO, GILBERTO M. ; PEREIRA-FILHO, GUILHERME H. ; PINHEIRO, HUDSON T. ; DE MOURA, RODRIGO L. ; JOYEUX, JEAN-CHRISTOPHE ; MAZZEI, ERIC F. ; BASTOS, ALEX C. ; EDWARDS, ROBERT A. ; DINSDALE, ELIZABETH ; PARANHOS, RODOLFO ; SANTOS, EIDY O. ; IIDA, TETSUYA ; GOTOH, KAZUYOSHI ; NAKAMURA, SHOTA ; SAWABE, TOMOO ; REZENDE, CARLOS E. ; Gadelha, Luiz M. R. ; FRANCINI-FILHO, RONALDO B. ; THOMPSON, CRISTIANE ; THOMPSON, FABIANO L.	A1	
artigoEmPeriodico	Luiz Manoel Rocha Gadelha Júnior	2015	http://dx.doi.org/10.1093/database/bav088	BaMBa: towards the integrated management of Brazilian marine environmental data	DATABASE-OXFORD	MEIRELLES, PEDRO MILET ; Gadelha, Luiz M. R. ; FRANCINI-FILHO, RONALDO BASTOS ; DE MOURA, RODRIGO LEÃO ; AMADO-FILHO, GILBERTO MENEZES ; BASTOS, ALEX CARDOSO ; PARANHOS, RODOLFO PINHEIRO DA ROCHA ; REZENDE, CARLOS EDUARDO ; SWINGS, JEAN ; SIEGLE, EDUARDO ; ASP NETO, NILS EDVIN ; LEITÃO, SIGRID NEUMANN ; COUTINHO, RICARDO ; Mattoso, Marta ; SALOMON, PAULO S. ; VALLE, ROGÉRIO A.B. ; PEREIRA, RENATO CRESPO ; KRUGER, RICARDO HENRIQUE ; THOMPSON, CRISTIANE ; THOMPSON, FABIANO L.	Qualis nao identificado	DATABASE-OXFORD
artigoEmPeriodico	Kary Ann del Carmen Ocaña Gautherot	2015	http://dx.doi.org/10.1016/j.future.2014.11.017	Dynamic steering of HPC scientific workflows: A survey	Future Generation Computer Systems	Mattoso, M. L. Q. ; Dias, J. ; OCAÑA, K.A.C.S. ; Ogasawara, E. ; Costa, F. ; Horta, F. ; Silva, V. ; Oliveira, D. C. M.	A2	
artigoEmPeriodico	Kary Ann del Carmen Ocaña Gautherot	2015	http://dx.doi.org/10.2147/aabc.s64482	Parallel computing in genomic research: advances and applications	Advances and Applications in Bioinformatics and Chemistry	OCAÑA, K.A.C.S.; Oliveira, D. C. M.	Qualis nao identificado	Advances and Applications in Bioinformatics and Chemistry
trabalhoCompletoEmCongresso	Kary Ann del Carmen Ocaña Gautherot	2015		Data Analytics in Bioinformatics: Data Science in Practice for Genomics Analysis Workflows	11th IEEE International Conference on eScience	OCAÑA, K.A.C.S.; Oliveira, D. C. M. ; Silva, V. ; Mattoso, M. L. Q.		
trabalhoCompletoEmCongresso	Kary Ann del Carmen Ocaña Gautherot	2015		Uma Abordagem para Publicação de Dados de Proveniência de Workflows Científicos na Web Semântica	XXX Simpósio Brasileiro de Banco de Dados	Castro, R. ; Souza, R. ; Silva, V. ; Kary A. C. S. Ocaña ; Oliveira, D. C. M. ; Mattoso, M. L. Q.		
artigoEmPeriodico	José Karam Filho	2015	http://dx.doi.org/10.4236/jbise.2015.83013	Computational Analysis of Anastomotic Angles by Blood Flow Conditions in Side-to-End Radio-Cephalic Fistulae Used in Hemodialysis	Journal of Biomedical Science and Engineering	DE ANDRADE SILVA, JANAÍNA ; KARAM-FILHO, JOSÉ ; BORGES, CARLOS CRISTIANO H.	Qualis nao identificado	Journal of Biomedical Science and Engineering
artigoEmPeriodico	José Karam Filho	2015	http://dx.doi.org/10.1080/00036811.2015.1009900	A stabilized finite element analysis for a power-law pseudoplastic Stokes problem	Applicable Analysis	DE ANDRADE BORTOLOTI, MARCIO ANTÔNIO ; KARAM-FILHO, JOSÉ	Qualis nao identificado	Applicable Analysis
resumoExpandidoEmCongresso	José Karam Filho	2015	Análise do Fluxo Sanguíneo não newtoniano em fístulas arteriovenosas término-laterais utilizadas em procedimento de hemodiálise	VI-Portuguese Congress on Biomechanics, 2015, Leiria. Proceedings of the VI-Portuguese Congress on Biomechanics. Lisboa: Sociedade Portuguesa de Biomecânica	SILVA, J. A. ; BORGES, C. C. H. ; KARAM-FILHO, J.		
resumoExpandidoEmCongresso	José Karam Filho	2015	Computation of blood flow oscillatory shear stress on vessel walls of an anastomotic configuration model for hemodialysis	VII-Brazilian Conference on Rheology, 2015, Curitiba. Proceedings of the VII-BCR. Rio de Janeiro: Brazilian Society of Rheology	SILVA, J. A. ; BORGES, C. C. H. ; KARAM-FILHO, J.		
resumoExpandidoEmCongresso	José Karam Filho	2015	An analysis of the plasma layer thickness for two Power-Law models	VII-Brazilian Conference on Rheology, 2015, Curitiba. Proceedings of the VII-BCR. Rio de Janeiro: Brazilian Society of Rheology	BORTOLOTI, Marcio ; KARAM-FILHO, J.		
