9490655465706879
6418711808050575
2440193189134197
7874406956798705
7170508510503648
7315592936477868
2317714197108593
4448540530244733
8102993969523532
0868909503278328
8989199088323836
2029610058780121
3423133876430218
7489426320194892
3336105307698769
4054756781423727
0375745110240885
4855123625274479
8344194525615133
4891962642648106
9950879952262717
2332051647489024
2770691272825932
0635728154206559
4587299173539062
2605062132611045
0472856771871140
5169726739148918
1471432563506193
6688041530466410
9273702863744424
3313361232260092
7692378777904673
9237713158265249
8326803963394077
2207239537360072
2825302557451331
5523810187385217
0717161560405537
1391205251405727
8203775174455802
1392335366884977
6124706286821773
9037349417947599
5337477770035604
9851093795076823
1906825541995385
1435339422167961
8764848120200293
7200733421420566
