ID LATTES;NOME;INFO_AREA;DESCRICAO_AREA;INFO_CURSO;DESCRICAO_CURSO;INFO_LINHADEPESQUISA;DESCRICAO_LINHADEPESQUISA
3678668865183045;Alessandro Melo de Ana;1;Ciências da Saúde;1;PPGB;1;Aplicações Terapêuticas da Biofotônica
3818545357716126;Cristiane Miranda França;1;Ciências da Saúde;1;PPGB;1;Aplicações Terapêuticas da Biofotônica
5912729434641689;Daniela de Fátima Teixeira da Silva;1;Ciências da Saúde;1;PPGB;1;Aplicações Terapêuticas da Biofotônica
8166626486201116;Ernesto Cesar Pinto Leal Junior;1;Ciências da Saúde;1;PPGB;1;Aplicações Terapêuticas da Biofotônica
3080471306410102;Marcelo Tavares de Oliveira;1;Ciências da Saúde;1;PPGB;1;Aplicações Terapêuticas da Biofotônica
9684711829191051;Maria Cristina Chavantes;1;Ciências da Saúde;1;PPGB;1;Aplicações Terapêuticas da Biofotônica
7664790931310514;Renato Araujo Prates;1;Ciências da Saúde;1;PPGB;1;Aplicações Terapêuticas da Biofotônica
4110914499694913;Sandra Kalil Bussadori;1;Ciências da Saúde;1;PPGB;1;Aplicações Terapêuticas da Biofotônica
7295388304888384;Adriana Lino dos Santos Franco;1;Ciências da Saúde;1;PPGB;2;Bases Celulares e Moleculares da Biofotônica
5700855351581023;Ana Paula Ligeiro de Oliveira ;1;Ciências da Saúde;1;PPGB;2;Bases Celulares e Moleculares da Biofotônica
6499058447489317;Andrey Jorge Serra;1;Ciências da Saúde;1;PPGB;2;Bases Celulares e Moleculares da Biofotônica
6532810307204867;Kristianne Porta Santos Fernandes;1;Ciências da Saúde;1;PPGB;2;Bases Celulares e Moleculares da Biofotônica
2378784910179477;Paulo de Tarso Camillo de Carvalho;1;Ciências da Saúde;1;PPGB;2;Bases Celulares e Moleculares da Biofotônica
7048141683554943;Raquel Agnelli Mesquita Ferrari;1;Ciências da Saúde;1;PPGB;2;Bases Celulares e Moleculares da Biofotônica
2515657728339113;Regiane Albertini de Carvalho   ;1;Ciências da Saúde;1;PPGB;2;Bases Celulares e Moleculares da Biofotônica
2964112163504080;Rodrigo Labat Marcos;1;Ciências da Saúde;1;PPGB;2;Bases Celulares e Moleculares da Biofotônica
7541914413496897;Dirceu Costa;1;Ciências da Saúde;2;PPGCR;3;Avaliação e Reabilitação das Disfunções Cardiopulmonares
5288152697269527;Fernanda de Cordoba Lanza;1;Ciências da Saúde;2;PPGCR;3;Avaliação e Reabilitação das Disfunções Cardiopulmonares
4299344810509965;Kátia De Angelis;1;Ciências da Saúde;2;PPGCR;3;Avaliação e Reabilitação das Disfunções Cardiopulmonares
2970138065407046;Luciana Maria Malosa Sampaio Jorge;1;Ciências da Saúde;2;PPGCR;3;Avaliação e Reabilitação das Disfunções Cardiopulmonares
3644494034569111;Luís Vicente Franco de Oliveira;1;Ciências da Saúde;2;PPGCR;3;Avaliação e Reabilitação das Disfunções Cardiopulmonares
9213556008468472;Rodolfo de Paula Vieira;1;Ciências da Saúde;2;PPGCR;3;Avaliação e Reabilitação das Disfunções Cardiopulmonares
9690847988531306;Simone Dal Corso;1;Ciências da Saúde;2;PPGCR;3;Avaliação e Reabilitação das Disfunções Cardiopulmonares
8166626486201116;Ernesto Cesar Pinto Leal Junior;1;Ciências da Saúde;2;PPGCR;4;Interações de Recursos Terapêuticos em Sistemas Biológicos
6532810307204867;Kristianne Porta Santos Fernandes;1;Ciências da Saúde;2;PPGCR;4;Interações de Recursos Terapêuticos em Sistemas Biológicos
2378784910179477;Paulo de Tarso Camillo de Carvalho;1;Ciências da Saúde;2;PPGCR;4;Interações de Recursos Terapêuticos em Sistemas Biológicos
7048141683554943;Raquel Agnelli Mesquita Ferrari;1;Ciências da Saúde;2;PPGCR;4;Interações de Recursos Terapêuticos em Sistemas Biológicos
2515657728339113;Regiane Albertini de Carvalho   ;1;Ciências da Saúde;2;PPGCR;4;Interações de Recursos Terapêuticos em Sistemas Biológicos
8012781178161885;Claudia Santos Oliveira;1;Ciências da Saúde;2;PPGCR;5;Processo de Avaliação e Intervenção Terapêutica das Disfunções dos Sistemas Neuro-Muscular
6741738316587978;Daniela Aparecida Biasotto-Gonzalez;1;Ciências da Saúde;2;PPGCR;5;Processo de Avaliação e Intervenção Terapêutica das Disfunções dos Sistemas Neuro-Muscular
3676041103277010;Fabiano Politti;1;Ciências da Saúde;2;PPGCR;5;Processo de Avaliação e Intervenção Terapêutica das Disfunções dos Sistemas Neuro-Muscular
4725380354418431;Fernanda Ishida Corrêa;1;Ciências da Saúde;2;PPGCR;5;Processo de Avaliação e Intervenção Terapêutica das Disfunções dos Sistemas Neuro-Muscular
7430706253523346;João Carlos Ferrari Corrêa;1;Ciências da Saúde;2;PPGCR;5;Processo de Avaliação e Intervenção Terapêutica das Disfunções dos Sistemas Neuro-Muscular
9905380373300754;Paulo Roberto Garcia Lucareli;1;Ciências da Saúde;2;PPGCR;5;Processo de Avaliação e Intervenção Terapêutica das Disfunções dos Sistemas Neuro-Muscular
4110914499694913;Sandra Kalil Bussadori;1;Ciências da Saúde;2;PPGCR;5;Processo de Avaliação e Intervenção Terapêutica das Disfunções dos Sistemas Neuro-Muscular
1832800364435894;Cléber Pinto Camacho;1;Ciências da Saúde;3;PPGM;6;Biomarcadores para diagnóstico precoce e avaliação prognóstica de Doenças Crônicas não Transmissíveis
6028188157816694;Daniel Giannella Neto ;1;Ciências da Saúde;3;PPGM;6;Biomarcadores para diagnóstico precoce e avaliação prognóstica de Doenças Crônicas não Transmissíveis
0858687306637957;Heno Ferreira Lopes ;1;Ciências da Saúde;3;PPGM;6;Biomarcadores para diagnóstico precoce e avaliação prognóstica de Doenças Crônicas não Transmissíveis
7435662740477057;Humberto Dellê;1;Ciências da Saúde;3;PPGM;6;Biomarcadores para diagnóstico precoce e avaliação prognóstica de Doenças Crônicas não Transmissíveis
1990427833073161;Jose Antonio Silva Junior;1;Ciências da Saúde;3;PPGM;6;Biomarcadores para diagnóstico precoce e avaliação prognóstica de Doenças Crônicas não Transmissíveis
1003211871657833;Jose Pontes Junior;1;Ciências da Saúde;3;PPGM;6;Biomarcadores para diagnóstico precoce e avaliação prognóstica de Doenças Crônicas não Transmissíveis
4590409188222406;Laura Silveira Moriyama;1;Ciências da Saúde;3;PPGM;6;Biomarcadores para diagnóstico precoce e avaliação prognóstica de Doenças Crônicas não Transmissíveis
9818040147487320;Maria Aparecida Dalboni;1;Ciências da Saúde;3;PPGM;6;Biomarcadores para diagnóstico precoce e avaliação prognóstica de Doenças Crônicas não Transmissíveis
7503896254471304;Rosa Maria Affonso Moysés;1;Ciências da Saúde;3;PPGM;6;Biomarcadores para diagnóstico precoce e avaliação prognóstica de Doenças Crônicas não Transmissíveis
5064366102552124;Rubens Chojniak ;1;Ciências da Saúde;3;PPGM;6;Biomarcadores para diagnóstico precoce e avaliação prognóstica de Doenças Crônicas não Transmissíveis
7792587919251431;Carlos Alberto Avellaneda Penatti ;1;Ciências da Saúde;3;PPGM;7;Mecanismos de lesão e de reparo de Doenças Crônicas não Transmissíveis
8102854014364848;Fernanda Marciano Consolim Colombo;1;Ciências da Saúde;3;PPGM;7;Mecanismos de lesão e de reparo de Doenças Crônicas não Transmissíveis
6691204901202886;Ivani Credidio Trombetta;1;Ciências da Saúde;3;PPGM;7;Mecanismos de lesão e de reparo de Doenças Crônicas não Transmissíveis
8998261956379752;Jean Goncalves de Oliveira;1;Ciências da Saúde;3;PPGM;7;Mecanismos de lesão e de reparo de Doenças Crônicas não Transmissíveis
4299344810509965;Kátia De Angelis;1;Ciências da Saúde;3;PPGM;7;Mecanismos de lesão e de reparo de Doenças Crônicas não Transmissíveis
9684711829191051;Maria Cristina Chavantes;1;Ciências da Saúde;3;PPGM;7;Mecanismos de lesão e de reparo de Doenças Crônicas não Transmissíveis
9213556008468472;Rodolfo de Paula Vieira;1;Ciências da Saúde;3;PPGM;7;Mecanismos de lesão e de reparo de Doenças Crônicas não Transmissíveis
1935805744318404;Stella Regina Zamuner   ;1;Ciências da Saúde;3;PPGM;7;Mecanismos de lesão e de reparo de Doenças Crônicas não Transmissíveis
9810353999214630;Taís Tinucci;1;Ciências da Saúde;3;PPGM;7;Mecanismos de lesão e de reparo de Doenças Crônicas não Transmissíveis
4524013741486821;Benny Kramer Costa;2;Ciências Sociais Aplicada;4;MPA-GE;8;Estratégia e Governança no Esporte
2619592110416186;Daniel Reed Bergmann;2;Ciências Sociais Aplicada;4;MPA-GE;8;Estratégia e Governança no Esporte
2700716884947412;Edmilson de Oliveira Lima;2;Ciências Sociais Aplicada;4;MPA-GE;8;Estratégia e Governança no Esporte
2683183169996481;Edson Antonio Edinho da Silva;2;Ciências Sociais Aplicada;4;MPA-GE;8;Estratégia e Governança no Esporte
4885629365119489;Henrique César Melo Ribeiro;2;Ciências Sociais Aplicada;4;MPA-GE;8;Estratégia e Governança no Esporte
6687009668803720;João Paulo Lara de Siqueira;2;Ciências Sociais Aplicada;4;MPA-GE;8;Estratégia e Governança no Esporte
6202822187041175;Júlio Araújo Carneiro da Cunha;2;Ciências Sociais Aplicada;4;MPA-GE;8;Estratégia e Governança no Esporte
7033780505958439;Manuel Portugal e Vasconcelos Ferreira;2;Ciências Sociais Aplicada;4;MPA-GE;8;Estratégia e Governança no Esporte
6936403740310206;Vania Maria Jorge Nassif;2;Ciências Sociais Aplicada;4;MPA-GE;8;Estratégia e Governança no Esporte
6368172108000961;Ary José Rocco Jr.;2;Ciências Sociais Aplicada;4;MPA-GE;9;Marketing Esportivo
8912994803481178;Filipe Quevedo Pires de Oliveira e Silva;2;Ciências Sociais Aplicada;4;MPA-GE;9;Marketing Esportivo
9724555442252785;João Manuel Casquinha Malaia Santos;2;Ciências Sociais Aplicada;4;MPA-GE;9;Marketing Esportivo
6222841355609478;Leandro Carlos Mazzei;2;Ciências Sociais Aplicada;4;MPA-GE;9;Marketing Esportivo
7655166434217513;Marcos Vinicius Cardoso;2;Ciências Sociais Aplicada;4;MPA-GE;9;Marketing Esportivo
1745770940204631;Otávio Bandeira De Lamônica Freire;2;Ciências Sociais Aplicada;4;MPA-GE;9;Marketing Esportivo
8973929290442297;Fernando De Andrade Franco Malagrino;2;Ciências Sociais Aplicada;4;MPA-GE;9;Marketing Esportivo
8717665448862017;Alexandre de Oliveira e Aguiar;2;Ciências Sociais Aplicada;5;MPA-GeAS;10;Gerenciamento Ambiental
7516981304630146;Amarilis Lucia Casteli Figueiredo Gallardo;2;Ciências Sociais Aplicada;5;MPA-GeAS;10;Gerenciamento Ambiental
0812507610373175;Ana Cristina de Faria;2;Ciências Sociais Aplicada;5;MPA-GeAS;10;Gerenciamento Ambiental
3410710553298468;Andreza Portella Ribeiro;2;Ciências Sociais Aplicada;5;MPA-GeAS;10;Gerenciamento Ambiental
4341905714307969;Claudia Echevenguá Teixeira;2;Ciências Sociais Aplicada;5;MPA-GeAS;10;Gerenciamento Ambiental
5193387185016793;Fábio Ytoshi Shibao ;2;Ciências Sociais Aplicada;5;MPA-GeAS;10;Gerenciamento Ambiental
6214289236131303;Heidy Rodriguez Ramos;2;Ciências Sociais Aplicada;5;MPA-GeAS;10;Gerenciamento Ambiental
7933402277545891;João Alexandre Paschoalin Filho;2;Ciências Sociais Aplicada;5;MPA-GeAS;10;Gerenciamento Ambiental
1088858946552108;Marcelo Luiz Dias da Silva Gabriel;2;Ciências Sociais Aplicada;5;MPA-GeAS;10;Gerenciamento Ambiental
1522795968175184;Ana Paula do Nascimento Lamano Ferreira;2;Ciências Sociais Aplicada;5;MPA-GeAS;11;Gestão da Sustentabilidade
8233265633962510;Claudia Terezinha Kniess;2;Ciências Sociais Aplicada;5;MPA-GeAS;11;Gestão da Sustentabilidade
0412490684047223;Flavio Hourneaux Junior;2;Ciências Sociais Aplicada;5;MPA-GeAS;11;Gestão da Sustentabilidade
9757368282639184;Gustavo Silveira Graudenz;2;Ciências Sociais Aplicada;5;MPA-GeAS;11;Gestão da Sustentabilidade
3116585740884468;Mauro Silva Ruiz;2;Ciências Sociais Aplicada;5;MPA-GeAS;11;Gestão da Sustentabilidade
0806369390396060;Pedro Luiz Côrtes ;2;Ciências Sociais Aplicada;5;MPA-GeAS;11;Gestão da Sustentabilidade
5664558410139621;Tatiana Tucunduva Philippi Cortese;2;Ciências Sociais Aplicada;5;MPA-GeAS;11;Gestão da Sustentabilidade
7649391782228457;Cristiane Drebes Pedron;2;Ciências Sociais Aplicada;6;MPA-GP;12;Estratégia em Projetos
3471910853542167;Cristina Dai Prá Martens;2;Ciências Sociais Aplicada;6;MPA-GP;12;Estratégia em Projetos
1320281388219996;Emerson Antonio Maccari;2;Ciências Sociais Aplicada;6;MPA-GP;12;Estratégia em Projetos
8912994803481178;Filipe Quevedo Pires de Oliveira e Silva;2;Ciências Sociais Aplicada;6;MPA-GP;12;Estratégia em Projetos
2841051412997153;Franciane Freitas Silveira;2;Ciências Sociais Aplicada;6;MPA-GP;12;Estratégia em Projetos
1735620967943101;Marcos Paixão Garcez;2;Ciências Sociais Aplicada;6;MPA-GP;12;Estratégia em Projetos
3030110438207215;Marcos Roberto Piscopo;2;Ciências Sociais Aplicada;6;MPA-GP;12;Estratégia em Projetos
4701779533683744;Cesar Augusto Biancolino;2;Ciências Sociais Aplicada;6;MPA-GP;13;Gerenciamento em Projetos
8233265633962510;Claudia Terezinha Kniess;2;Ciências Sociais Aplicada;6;MPA-GP;13;Gerenciamento em Projetos
9630816378078767;Leandro Alves Patah;2;Ciências Sociais Aplicada;6;MPA-GP;13;Gerenciamento em Projetos
1149445153608393;Marcirio Silveira Chaves;2;Ciências Sociais Aplicada;6;MPA-GP;13;Gerenciamento em Projetos
9510041230174906;Ricardo Leonardo Rovai;2;Ciências Sociais Aplicada;6;MPA-GP;13;Gerenciamento em Projetos
1996533325699482;Roque Rabechini Jr.;2;Ciências Sociais Aplicada;6;MPA-GP;13;Gerenciamento em Projetos
2521059777840892;Rosária de Fátima Segger Macri Russo;2;Ciências Sociais Aplicada;6;MPA-GP;13;Gerenciamento em Projetos
1465610782304076;Chennyfer Dobbins Paes da Rosa;2;Ciências Sociais Aplicada;7;MPA-GS;14;Gerenciamento em Sistemas de Saúde
0403872913808157;Mario Ivo Serinolli;2;Ciências Sociais Aplicada;7;MPA-GS;14;Gerenciamento em Sistemas de Saúde
6750462252900819;Lara Jansiski Motta;2;Ciências Sociais Aplicada;7;MPA-GS;14;Gerenciamento em Sistemas de Saúde
2970715966617073;Renato Ribeiro Nogueira Ferraz;2;Ciências Sociais Aplicada;7;MPA-GS;14;Gerenciamento em Sistemas de Saúde
0253559588991007;Simone Aquino;2;Ciências Sociais Aplicada;7;MPA-GS;14;Gerenciamento em Sistemas de Saúde
4648925294194872;Sonia Francisca Monken de Assis;2;Ciências Sociais Aplicada;7;MPA-GS;14;Gerenciamento em Sistemas de Saúde
5529421541489904;Antonio Pires Barbosa;2;Ciências Sociais Aplicada;7;MPA-GS;15;Gestão em Saúde
2683183169996481;Edson Antonio Edinho da Silva;2;Ciências Sociais Aplicada;7;MPA-GS;15;Gestão em Saúde
0631574435962669;Evandro Luiz Lopes;2;Ciências Sociais Aplicada;7;MPA-GS;15;Gestão em Saúde
7914282268625215;Marcia Cristina Zago Novaretti;2;Ciências Sociais Aplicada;7;MPA-GS;15;Gestão em Saúde
3030110438207215;Marcos Roberto Piscopo;2;Ciências Sociais Aplicada;7;MPA-GS;15;Gestão em Saúde
1102913561025402;Reed Elliot Nelson;2;Ciências Sociais Aplicada;7;MPA-GS;15;Gestão em Saúde
2329851999310719;Silvia Novaes Zilber;2;Ciências Sociais Aplicada;7;MPA-GS;15;Gestão em Saúde
4524013741486821;Benny Kramer Costa;2;Ciências Sociais Aplicada;8;PPGA;16;Estratégia
1320281388219996;Emerson Antonio Maccari;2;Ciências Sociais Aplicada;8;PPGA;16;Estratégia
4170407039210695;Fernando Antonio Ribeiro Serra;2;Ciências Sociais Aplicada;8;PPGA;16;Estratégia
0412490684047223;Flavio Hourneaux Junior;2;Ciências Sociais Aplicada;8;PPGA;16;Estratégia
6202822187041175;Júlio Araújo Carneiro da Cunha;2;Ciências Sociais Aplicada;8;PPGA;16;Estratégia
7033780505958439;Manuel Portugal e Vasconcelos Ferreira;2;Ciências Sociais Aplicada;8;PPGA;16;Estratégia
3030110438207215;Marcos Roberto Piscopo;2;Ciências Sociais Aplicada;8;PPGA;16;Estratégia
2970715966617073;Renato Ribeiro Nogueira Ferraz;2;Ciências Sociais Aplicada;8;PPGA;16;Estratégia
8943748174209783;Roberto de Lima Ruas;2;Ciências Sociais Aplicada;8;PPGA;16;Estratégia
4701779533683744;Cesar Augusto Biancolino;2;Ciências Sociais Aplicada;8;PPGA;17;Inovação
5246504721140328;Claudia Brito Silva Cirani;2;Ciências Sociais Aplicada;8;PPGA;17;Inovação
4341905714307969;Claudia Echevenguá Teixeira;2;Ciências Sociais Aplicada;8;PPGA;17;Inovação
8233265633962510;Claudia Terezinha Kniess;2;Ciências Sociais Aplicada;8;PPGA;17;Inovação
7649391782228457;Cristiane Drebes Pedron;2;Ciências Sociais Aplicada;8;PPGA;17;Inovação
9630816378078767;Leandro Alves Patah;2;Ciências Sociais Aplicada;8;PPGA;17;Inovação
9075295558587388;Leonel Cezar Rodrigues;2;Ciências Sociais Aplicada;8;PPGA;17;Inovação
4754764003480925;Luc Quoniam;2;Ciências Sociais Aplicada;8;PPGA;17;Inovação
5631049543029993;Priscila Rezende da Costa;2;Ciências Sociais Aplicada;8;PPGA;17;Inovação
2329851999310719;Silvia Novaes Zilber;2;Ciências Sociais Aplicada;8;PPGA;17;Inovação
8407510651093986;Andre Torres Urdan;2;Ciências Sociais Aplicada;8;PPGA;18;Marketing
9583759917108842;Dirceu da Silva;2;Ciências Sociais Aplicada;8;PPGA;18;Marketing
0631574435962669;Evandro Luiz Lopes;2;Ciências Sociais Aplicada;8;PPGA;18;Marketing
8912994803481178;Filipe Quevedo Pires de Oliveira e Silva;2;Ciências Sociais Aplicada;8;PPGA;18;Marketing
1717178124800971;Marcelo Moll Brandão;2;Ciências Sociais Aplicada;8;PPGA;18;Marketing
1745770940204631;Otávio Bandeira De Lamônica Freire;2;Ciências Sociais Aplicada;8;PPGA;18;Marketing
7001960538148118;Suzane Strehlau;2;Ciências Sociais Aplicada;8;PPGA;18;Marketing
7530550147145928;Amelia  Silveira;2;Ciências Sociais Aplicada;8;PPGA;19;Organizações e Empreendedorismo
3471910853542167;Cristina Dai Prá Martens;2;Ciências Sociais Aplicada;8;PPGA;19;Organizações e Empreendedorismo
2700716884947412;Edmilson de Oliveira Lima;2;Ciências Sociais Aplicada;8;PPGA;19;Organizações e Empreendedorismo
6214289236131303;Heidy Rodriguez Ramos;2;Ciências Sociais Aplicada;8;PPGA;19;Organizações e Empreendedorismo
6722335489800535;Henrique Mello Rodrigues de Freitas;2;Ciências Sociais Aplicada;8;PPGA;19;Organizações e Empreendedorismo
1050030810573625;Nildes Pitombo Leite;2;Ciências Sociais Aplicada;8;PPGA;19;Organizações e Empreendedorismo
1102913561025402;Reed Elliot Nelson;2;Ciências Sociais Aplicada;8;PPGA;19;Organizações e Empreendedorismo
6936403740310206;Vania Maria Jorge Nassif;2;Ciências Sociais Aplicada;8;PPGA;19;Organizações e Empreendedorismo
6899308380367576;Frederico da Costa Carvalho Neto;2;Direito;9;PPGD;20;EMPRESA
3599192657351076;José Fernando Vidal de Souza;2;Direito;9;PPGD;20;EMPRESA
7171365095068677;Luís Renato Vedovato;2;Direito;9;PPGD;20;EMPRESA
5471669159750359;Maitê Cecilia Fabbri Moro;2;Direito;9;PPGD;20;EMPRESA
1167703262561814;Manoel de Queiroz Pereira Calças;2;Direito;9;PPGD;20;EMPRESA
0539616434544033;Marcelo Benacchio;2;Direito;9;PPGD;20;EMPRESA
1581325340293507;Orides Mezzaroba;2;Direito;9;PPGD;20;EMPRESA
2728024169913639;Ruy Cardozo de Mello Tucunduva Sobrinho;2;Direito;9;PPGD;20;EMPRESA
4529730931640744;Samyra Haydêe Dal Farra Naspolini Sanches;2;Direito;9;PPGD;20;EMPRESA
5229046964889778;Vladmir Oliveira da Silveira;2;Direito;9;PPGD;20;EMPRESA
4751387091627114;Adriana Silva Maillart;2;Direito;9;PPGD;21;JUSTIÇA E O PARADIGMA DA EFICIÊNCIA
1624909293061785;Alvaro Goncalves Antunes Andreucci;2;Direito;9;PPGD;21;JUSTIÇA E O PARADIGMA DA EFICIÊNCIA
1682399754131937;Irene Patrícia Nohara;2;Direito;9;PPGD;21;JUSTIÇA E O PARADIGMA DA EFICIÊNCIA
3439599096974863;José Renato Nalini;2;Direito;9;PPGD;21;JUSTIÇA E O PARADIGMA DA EFICIÊNCIA
6781554480030304;Mônica Bonetti Couto;2;Direito;9;PPGD;21;JUSTIÇA E O PARADIGMA DA EFICIÊNCIA
1501178944339003;Newton De Lucca;2;Direito;9;PPGD;21;JUSTIÇA E O PARADIGMA DA EFICIÊNCIA
9121479237887428;Roberto Correia da Silva Gomes Caldas;2;Direito;9;PPGD;21;JUSTIÇA E O PARADIGMA DA EFICIÊNCIA
4568093820920860;Samantha Ribeiro Meyer- Pflug;2;Direito;9;PPGD;21;JUSTIÇA E O PARADIGMA DA EFICIÊNCIA
4210677711500797;Wagner Luiz Menezes Lino ;2;Direito;9;PPGD;21;JUSTIÇA E O PARADIGMA DA EFICIÊNCIA
5919942925510483;Elesandro Antonio Baptista;3;Exatas;10;PPGEP;22;Gerência da Produção
6721738988129342;Geraldo Cardoso de Oliveira Neto;3;Exatas;10;PPGEP;22;Gerência da Produção
0921218077863198;Milton Vieira Junior;3;Exatas;10;PPGEP;22;Gerência da Produção
1996533325699482;Roque Rabechini Junior;3;Exatas;10;PPGEP;22;Gerência da Produção
9625205540823263;Rosangela Maria Vanalle;3;Exatas;10;PPGEP;22;Gerência da Produção
3756827815409780;Wagner Cezar Lucato;3;Exatas;10;PPGEP;22;Gerência da Produção
3569470521730110;Andre Felipe Henriques Librantz;3;Exatas;10;PPGEP;23;Modelagem e Otimização de Sistemas e Processos
0382304490753424;Fabio Henrique Pereira;3;Exatas;10;PPGEP;23;Modelagem e Otimização de Sistemas e Processos
0646085361798175;Ivanir Costa;3;Exatas;10;PPGEP;23;Modelagem e Otimização de Sistemas e Processos
2179657609596194;Leonardo Junqueira;3;Exatas;10;PPGEP;23;Modelagem e Otimização de Sistemas e Processos
8750334661789610;Renato José Sassi;3;Exatas;10;PPGEP;23;Modelagem e Otimização de Sistemas e Processos
2542529753132844;Sidnei Alves de Araújo;3;Exatas;10;PPGEP;23;Modelagem e Otimização de Sistemas e Processos
9093695081597599;Felipe Araujo Calarge;3;Exatas;10;PPGEP;24;Sistemas Integrados de Melhoria da Qualidade em Processos
6815275032415719;Fernando Tobal Berssaneti;3;Exatas;10;PPGEP;24;Sistemas Integrados de Melhoria da Qualidade em Processos
0408226658529368;José Carlos Curvelo Santana;3;Exatas;10;PPGEP;24;Sistemas Integrados de Melhoria da Qualidade em Processos
3809285940688486;Marcos Antonio Gaspar;3;Exatas;11;PPGI;25;Gestão da Informação e do Conhecimento -GIC
7655166434217513;Marcos Vinicius Cardoso;3;Exatas;11;PPGI;25;Gestão da Informação e do Conhecimento -GIC
0646085361798175;Ivanir Costa;3;Exatas;11;PPGI;25;Gestão da Informação e do Conhecimento -GIC
1149445153608393;Marcilio Silveira Chaves;3;Exatas;11;PPGI;25;Gestão da Informação e do Conhecimento -GIC
3678668865183045;Alessandro Melo de Ana;3;Exatas;11;PPGI;26;Modelagem e Simulação Computacional -MSC
3569470521730110;Andre Felipe Henriques Librantz;3;Exatas;11;PPGI;26;Modelagem e Simulação Computacional -MSC
0382304490753424;Fabio Henrique Pereira;3;Exatas;11;PPGI;26;Modelagem e Simulação Computacional -MSC
9938713955885093;Pedro Henrique Triguis Schimit;3;Exatas;11;PPGI;26;Modelagem e Simulação Computacional -MSC
2147386441758156;Cleber Gustavo Dias;3;Exatas;11;PPGI;27;Sistemas Inteligentes -SIN
8750334661789610;Renato José Sassi;3;Exatas;11;PPGI;27;Sistemas Inteligentes -SIN
2542529753132844;Sidnei Alves de Araújo;3;Exatas;11;PPGI;27;Sistemas Inteligentes -SIN
3138898469532698;Wonder Alexandre Luz Alves;3;Exatas;11;PPGI;27;Sistemas Inteligentes -SIN
