uni|quali|indice|curso|IndProdArt|IndProdSup|Orientacao|IndProd|doscente
1|4|1|CEFET_MG|3.20909091|2.73409091|9|2.73409091|PAULO EDUARDO MACIEL DE ALMEIDA
1|4|1|CEFET_MG|3.20909091|2.73409091|9|2.73409091|JOSE LUIZ ACEBAL FERNANDES
1|4|1|CEFET_MG|3.20909091|2.73409091|9|2.73409091|MARCONE JAMILSON FREITAS SOUZA
1|4|1|CEFET_MG|3.20909091|2.73409091|9|2.73409091|LEONARDO DOS SANTOS LIMA
1|4|1|CEFET_MG|3.20909091|2.73409091|9|2.73409091|JOSE GERALDO PEIXOTO DE FARIA
1|4|1|CEFET_MG|3.20909091|2.73409091|9|2.73409091|HENRIQUE ELIAS BORGES
1|4|1|CEFET_MG|3.20909091|2.73409091|9|2.73409091|GRAY FARIAS MOITA
1|4|1|CEFET_MG|3.20909091|2.73409091|9|2.73409091|GIANCARLO QUEIROZ PELLEGRINO
1|4|1|CEFET_MG|3.20909091|2.73409091|9|2.73409091|FLAVIO LUIS CARDEAL PADUA
1|4|1|CEFET_MG|3.20909091|2.73409091|9|2.73409091|FERNANDO ANTONIO CAMPOS GOMIDE
1|4|1|CEFET_MG|3.20909091|2.73409091|9|2.73409091|ELIZABETH FIALHO WANNER
1|4|1|CEFET_MG|3.20909091|2.73409091|9|2.73409091|CRISTINA DUARTE MURTA
1|4|1|CEFET_MG|3.20909091|2.73409091|9|2.73409091|BRENO RODRIGUES LAMAGHERE GALVAO
1|4|1|CEFET_MG|3.20909091|2.73409091|9|2.73409091|ARTHUR RODRIGO BOSCO DE MAGALHAES
1|4|1|CEFET_MG|3.20909091|2.73409091|9|2.73409091|ALLBENS ATMAN PICARDI FARIA
1|4|1|CEFET_MG|3.20909091|2.73409091|9|2.73409091|ADRIANO CESAR MACHADO PEREIRA
1|4|1|CEFET_MG|3.20909091|2.73409091|9|2.73409091|THIAGO GOMES DE MATTOS
1|4|1|CEFET_MG|3.20909091|2.73409091|9|2.73409091|ROGERIO MARTINS GOMES
1|4|1|CEFET_MG|3.20909091|2.73409091|9|2.73409091|RODRIGO TOMAS NOGUEIRA CARDOSO
1|4|1|CEFET_MG|3.20909091|2.73409091|9|2.73409091|VINICIUS FERNANDES DOS SANTOS
1|4|1|CEFET_MG|3.20909091|2.73409091|9|2.73409091|THIAGO DE SOUZA RODRIGUES
1|4|1|CEFET_MG|3.20909091|2.73409091|9|2.73409091|SERGIO RICARDO DE SOUZA
2|5|2|CIMATEC|4.84166667|3.23888889|12|7.23888889|IVAN COSTA DA CUNHA LIMA
2|5|2|CIMATEC|4.84166667|3.23888889|12|7.23888889|PABLO VAVELIUK
2|5|2|CIMATEC|4.84166667|3.23888889|12|7.23888889|HERNANE BORGES DE BARROS PEREIRA
2|5|2|CIMATEC|4.84166667|3.23888889|12|7.23888889|FRANCISCO UCHOA PASSOS
2|5|2|CIMATEC|4.84166667|3.23888889|12|7.23888889|CAMILA DE SOUSA PEREIRA GUIZZO
2|5|2|CIMATEC|4.84166667|3.23888889|12|7.23888889|LYNN ROSALINA GAMA ALVES
2|5|2|CIMATEC|4.84166667|3.23888889|12|7.23888889|JOSEMAR RODRIGUES DE SOUZA
2|5|2|CIMATEC|4.84166667|3.23888889|12|7.23888889|ALEX ALISSON BANDEIRA SANTOS
2|5|2|CIMATEC|4.84166667|3.23888889|12|7.23888889|RENELSON RIBEIRO SAMPAIO
2|5|2|CIMATEC|4.84166667|3.23888889|12|7.23888889|VALERIA LOUREIRO DA SILVA
2|5|2|CIMATEC|4.84166667|3.23888889|12|7.23888889|LILIAN LEFOL NANI GUARIEIRO
2|5|2|CIMATEC|4.84166667|3.23888889|12|7.23888889|PAULO SOARES FIGUEIREDO
2|5|2|CIMATEC|4.84166667|3.23888889|12|7.23888889|MARCELO ALBANO MORET SIMOES GONCALVES
2|5|2|CIMATEC|4.84166667|3.23888889|12|7.23888889|DAVIDSON MARTINS MOREIRA
2|5|2|CIMATEC|4.84166667|3.23888889|12|7.23888889|GILNEY FIGUEIRA ZEBENDE
2|5|2|CIMATEC|4.84166667|3.23888889|12|7.23888889|ROBERTO LUIZ SOUZA MONTEIRO
2|5|2|CIMATEC|4.84166667|3.23888889|12|7.23888889|VALTER DE SENNA
2|5|2|CIMATEC|4.84166667|3.23888889|12|7.23888889|VALTER ESTEVAO BEAL
3|4|3|FUFSE|5.95882353|2.85588235|24|17.85588235|MARIO JORGE CAMPOS DOS SANTOS
3|4|3|FUFSE|5.95882353|2.85588235|24|17.85588235|ANTONIO MARTINS DE OLIVEIRA JUNIOR
3|4|3|FUFSE|5.95882353|2.85588235|24|17.85588235|DANIEL PEREIRA DA SILVA
3|4|3|FUFSE|5.95882353|2.85588235|24|17.85588235|ELMA REGINA SILVA DE ANDRADE WARTHA
3|4|3|FUFSE|5.95882353|2.85588235|24|17.85588235|ROBELIUS DE BORTOLI
3|4|3|FUFSE|5.95882353|2.85588235|24|17.85588235|JO BELMINO DOS SANTOS
3|4|3|FUFSE|5.95882353|2.85588235|24|17.85588235|GLAUCIO JOSE COURI MACHADO
3|4|3|FUFSE|5.95882353|2.85588235|24|17.85588235|JOSE RICARDO DE SANTANA
3|4|3|FUFSE|5.95882353|2.85588235|24|17.85588235|MARIA EMILIA CAMARGO
3|4|3|FUFSE|5.95882353|2.85588235|24|17.85588235|CARLOS ANTONIO CABRAL DOS SANTOS
3|4|3|FUFSE|5.95882353|2.85588235|24|17.85588235|JANE DE JESUS DA SILVEIRA MOREIRA
3|4|3|FUFSE|5.95882353|2.85588235|24|17.85588235|CRISTINA MARIA ASSIS LOPES TAVARES DA MATA HERMIDA QUINTEL
3|4|3|FUFSE|5.95882353|2.85588235|24|17.85588235|RENATA SILVA_MANN
3|4|3|FUFSE|5.95882353|2.85588235|24|17.85588235|IRACEMA MACHADO DE ARAGAO GOMES
3|4|3|FUFSE|5.95882353|2.85588235|24|17.85588235|GABRIEL FRANCISCO DA SILVA
3|4|3|FUFSE|5.95882353|2.85588235|24|17.85588235|ANA ELEONORA ALMEIDA PAIXAO
3|4|3|FUFSE|5.95882353|2.85588235|24|17.85588235|SUZANA LEITAO RUSSO
4|4|4|FUMEC|3.65952381|1.71190476|12|5.71190476|LEONIDAS CONCEICAO BARROSO
4|4|4|FUMEC|3.65952381|1.71190476|12|5.71190476|JULIA EPISCHINA ENGRACIA DE OLIVEIRA
4|4|4|FUMEC|3.65952381|1.71190476|12|5.71190476|JORGE TADEU DE RAMOS NEVES
4|4|4|FUMEC|3.65952381|1.71190476|12|5.71190476|JOAO VICTOR BOECHAT GOMIDE
4|4|4|FUMEC|3.65952381|1.71190476|12|5.71190476|HENRIQUE CORDEIRO MARTINS
4|4|4|FUMEC|3.65952381|1.71190476|12|5.71190476|RODRIGO FONSECA RODRIGUES
4|4|4|FUMEC|3.65952381|1.71190476|12|5.71190476|MARTA MACEDO KERR PINHEIRO
4|4|4|FUMEC|3.65952381|1.71190476|12|5.71190476|LUIZ CLAUDIO VIEIRA DE OLIVEIRA
4|4|4|FUMEC|3.65952381|1.71190476|12|5.71190476|JOSE MARCOS CARVALHO DE MESQUITA
4|4|4|FUMEC|3.65952381|1.71190476|12|5.71190476|JERSONE TASSO MOREIRA SILVA
4|4|4|FUMEC|3.65952381|1.71190476|12|5.71190476|FERNANDO SILVA PARREIRAS
4|4|4|FUMEC|3.65952381|1.71190476|12|5.71190476|FABRICIO ZIVIANI
4|4|4|FUMEC|3.65952381|1.71190476|12|5.71190476|DANIEL JARDIM PARDINI
4|4|4|FUMEC|3.65952381|1.71190476|12|5.71190476|ANA MARIA PEREIRA CARDOSO
4|4|4|FUMEC|3.65952381|1.71190476|12|5.71190476|ANA LIDDY CENNI DE CASTRO MAGALHAES
4|4|4|FUMEC|3.65952381|1.71190476|12|5.71190476|ALAIR DIAS JUNIOR
4|4|4|FUMEC|3.65952381|1.71190476|12|5.71190476|LUIZ CLAUDIO GOMES MAIA
4|4|4|FUMEC|3.65952381|1.71190476|12|5.71190476|CRISTIANA FERNANDES DE MUYLDER
4|4|4|FUMEC|3.65952381|1.71190476|12|5.71190476|ORLANDO ABREU GOMES
4|4|4|FUMEC|3.65952381|1.71190476|12|5.71190476|LUIZ OTAVIO BORGES DUARTE
4|4|4|FUMEC|3.65952381|1.71190476|12|5.71190476|RODRIGO MORENO MARQUES
5|4|5|FURG|6.79047619|3.10952381|13|8.10952381|ADRIANO DE CEZARO
5|4|5|FURG|6.79047619|3.10952381|13|8.10952381|BARBARA DENICOL DO AMARAL RODRIGUEZ
5|4|5|FURG|6.79047619|3.10952381|13|8.10952381|ANTONIO GLEDSON DE OLIVEIRA GOULART
5|4|5|FURG|6.79047619|3.10952381|13|8.10952381|ALESSANDRO DE LIMA BICHO
5|4|5|FURG|6.79047619|3.10952381|13|8.10952381|MARCELO MORAES GALARCA
5|4|5|FURG|6.79047619|3.10952381|13|8.10952381|SILVIA SILVA DA COSTA BOTELHO
5|4|5|FURG|6.79047619|3.10952381|13|8.10952381|SEBASTIAO CICERO PINHEIRO GOMES
5|4|5|FURG|6.79047619|3.10952381|13|8.10952381|PAULO ROBERTO DE FREITAS TEIXEIRA
5|4|5|FURG|6.79047619|3.10952381|13|8.10952381|NISIA KRUSCHE
5|4|5|FURG|6.79047619|3.10952381|13|8.10952381|ELISA HELENA LEAO FERNANDES
5|4|5|FURG|6.79047619|3.10952381|13|8.10952381|RENATO GLAUCO DE SOUZA RODRIGUES
5|4|5|FURG|6.79047619|3.10952381|13|8.10952381|WILIAN CORREA MARQUES
5|4|5|FURG|6.79047619|3.10952381|13|8.10952381|VIVIANE LEITE DIAS DE MATTOS
5|4|5|FURG|6.79047619|3.10952381|13|8.10952381|MAURO DE VASCONCELLOS REAL
5|4|5|FURG|6.79047619|3.10952381|13|8.10952381|LUIZ ALBERTO OLIVEIRA ROCHA
5|4|5|FURG|6.79047619|3.10952381|13|8.10952381|LIERCIO ANDRE ISOLDI
5|4|5|FURG|6.79047619|3.10952381|13|8.10952381|LEONARDO RAMOS EMMENDORFER
5|4|5|FURG|6.79047619|3.10952381|13|8.10952381|JEFERSON AVILA SOUZA
5|4|5|FURG|6.79047619|3.10952381|13|8.10952381|ELIZALDO DOMINGUES DOS SANTOS
5|4|5|FURG|6.79047619|3.10952381|13|8.10952381|DIANA FRANCISCA ADAMATTI
5|4|5|FURG|6.79047619|3.10952381|13|8.10952381|CATIA MARIA DOS SANTOS MACHADO
6|3|6|IETEC|1.82142857|1.36428571|8|2.36428571|MAURI FORTES
6|3|6|IETEC|1.82142857|1.36428571|8|2.36428571|JOSE HELVECIO MARTINS
6|3|6|IETEC|1.82142857|1.36428571|8|2.36428571|GEORGE LEAL JAMIL
6|3|6|IETEC|1.82142857|1.36428571|8|2.36428571|BRUNO SANTOS PIMENTEL
6|3|6|IETEC|1.82142857|1.36428571|8|2.36428571|ALINE PEREIRA LEITE NUNES
6|3|6|IETEC|1.82142857|1.36428571|8|2.36428571|JOSE LUIS BRAGA
6|3|6|IETEC|1.82142857|1.36428571|8|2.36428571|JULIANA CAPANEMA FERREIRA MENDONCA
6|3|6|IETEC|1.82142857|1.36428571|8|2.36428571|MARIO EDUARDO RANGEL MOREIRA CAVALCANTI MATA
6|3|6|IETEC|1.82142857|1.36428571|8|2.36428571|WANYR ROMERO FERREIRA
6|3|6|IETEC|1.82142857|1.36428571|8|2.36428571|PAULO MARCOS DE BARROS MONTEIRO
6|3|6|IETEC|1.82142857|1.36428571|8|2.36428571|EDUARDO TRINDADE BAHIA
6|3|6|IETEC|1.82142857|1.36428571|8|2.36428571|RAFAEL PINHEIRO AMANTEA
6|3|6|IETEC|1.82142857|1.36428571|8|2.36428571|GISELE TESSARI SANTOS
6|3|6|IETEC|1.82142857|1.36428571|8|2.36428571|WEDERLEY MENDES MIRANDA
7|3|7|IFCE|3.17|2.65333333|5|2.65333333|GERALDO LUIS BEZERRA RAMALHO
7|3|7|IFCE|3.17|2.65333333|5|2.65333333|MARCOS ERICK RODRIGUES DA SILVA
7|3|7|IFCE|3.17|2.65333333|5|2.65333333|JOAO CARLOS DA COSTA ASSUNCAO
7|3|7|IFCE|3.17|2.65333333|5|2.65333333|RODRIGO FREITAS GUIMARAES
7|3|7|IFCE|3.17|2.65333333|5|2.65333333|FRANCISCO EDUARDO ARRUDA RODRIGUES
7|3|7|IFCE|3.17|2.65333333|5|2.65333333|AUZUIR RIPARDO DE ALEXANDRIA
7|3|7|IFCE|3.17|2.65333333|5|2.65333333|ERIKA DA JUSTA TEIXEIRA ROCHA
7|3|7|IFCE|3.17|2.65333333|5|2.65333333|FRANCISCO FREDERICO DOS SANTOS MATOS
7|3|7|IFCE|3.17|2.65333333|5|2.65333333|JOSE RENATO DE BRITO SOUSA
7|3|7|IFCE|3.17|2.65333333|5|2.65333333|MARCELO MONTEIRO VALENTE PARENTE
7|3|7|IFCE|3.17|2.65333333|5|2.65333333|PEDRO PEDROSA REBOUCAS FILHO
7|3|7|IFCE|3.17|2.65333333|5|2.65333333|FRANCISCO NELIO COSTA FREITAS
7|3|7|IFCE|3.17|2.65333333|5|2.65333333|PEDRO HENRIQUE AUGUSTO MEDEIROS
7|3|7|IFCE|3.17|2.65333333|5|2.65333333|FRANKLIN ARAGAO GONDIM
7|3|7|IFCE|3.17|2.65333333|5|2.65333333|CLAUDIO MARQUES DE SA MEDEIROS
8|4|8|IME|2.853125|2.2|8|2.2|PAULO FERNANDO FERREIRA ROSA
8|4|8|IME|2.853125|2.2|8|2.2|PAULO CESAR PELLANDA
8|4|8|IME|2.853125|2.2|8|2.2|MARIA THEREZA MIRANDA ROCCO GIRALDI
8|4|8|IME|2.853125|2.2|8|2.2|MARIA ESTHER SOARES MARQUES
8|4|8|IME|2.853125|2.2|8|2.2|LUIZ FELIPE COUTINHO FERREIRA DA SILVA
8|4|8|IME|2.853125|2.2|8|2.2|LUIZ ANTONIO VIEIRA CARNEIRO
8|4|8|IME|2.853125|2.2|8|2.2|LEONARDO CASTRO DE OLIVEIRA
8|4|8|IME|2.853125|2.2|8|2.2|JOSE ANTONIO APOLINARIO JUNIOR
8|4|8|IME|2.853125|2.2|8|2.2|ITAMAR BORGES JUNIOR
8|4|8|IME|2.853125|2.2|8|2.2|ERNESTO LEITE PINTO
8|4|8|IME|2.853125|2.2|8|2.2|MAURICIO HENRIQUE COSTA DIAS
8|4|8|IME|2.853125|2.2|8|2.2|CARLA LIBERAL PAGLIARI
8|4|8|IME|2.853125|2.2|8|2.2|ANTONIO EDUARDO CARRILHO DA CUNHA
8|4|8|IME|2.853125|2.2|8|2.2|ALBERTO MOTA SIMOES
8|4|8|IME|2.853125|2.2|8|2.2|ROSANGELA FERNANDES COELHO
8|4|8|IME|2.853125|2.2|8|2.2|RONALDO MOREIRA SALLES
9|5|9|INPE|5.03333333|4.21833333|5|5.21833333|NANDAMUDI LANKALAPALLI VIJAYKUMAR
9|5|9|INPE|5.03333333|4.21833333|5|5.21833333|MARGARETE OLIVEIRA DOMINGUES
9|5|9|INPE|5.03333333|4.21833333|5|5.21833333|MARCOS GONCALVES QUILES
9|5|9|INPE|5.03333333|4.21833333|5|5.21833333|LUIZ ANTONIO NOGUEIRA LORENA
9|5|9|INPE|5.03333333|4.21833333|5|5.21833333|LEONARDO BACELAR LIMA SANTOS
9|5|9|INPE|5.03333333|4.21833333|5|5.21833333|LEILA MARIA GARCIA FONSECA
9|5|9|INPE|5.03333333|4.21833333|5|5.21833333|LAMARTINE NOGUEIRA FRUTUOSO GUIMARAES
9|5|9|INPE|5.03333333|4.21833333|5|5.21833333|EZZAT SELIM CHALHOUB
9|5|9|INPE|5.03333333|4.21833333|5|5.21833333|LUCIANO VIEIRA DUTRA
9|5|9|INPE|5.03333333|4.21833333|5|5.21833333|LUBIA VINHAS
9|5|9|INPE|5.03333333|4.21833333|5|5.21833333|ELBERT EINSTEIN NEHRER MACAU
9|5|9|INPE|5.03333333|4.21833333|5|5.21833333|KARINE REIS FERREIRA GOMES
9|5|9|INPE|5.03333333|4.21833333|5|5.21833333|JOSE CARLOS BECCENERI
9|5|9|INPE|5.03333333|4.21833333|5|5.21833333|JOAQUIM JOSE BARROSO DE CASTRO
9|5|9|INPE|5.03333333|4.21833333|5|5.21833333|HORACIO HIDEKI YANASSE
9|5|9|INPE|5.03333333|4.21833333|5|5.21833333|HAROLDO FRAGA DE CAMPOS VELHO
9|5|9|INPE|5.03333333|4.21833333|5|5.21833333|GILBERTO CAMARA NETO
9|5|9|INPE|5.03333333|4.21833333|5|5.21833333|FERNANDO MANOEL RAMOS
9|5|9|INPE|5.03333333|4.21833333|5|5.21833333|EDUARDO MARTINS GUERRA
9|5|9|INPE|5.03333333|4.21833333|5|5.21833333|CORINA DA COSTA FREITAS
9|5|9|INPE|5.03333333|4.21833333|5|5.21833333|ANTONIO MIGUEL VIEIRA MONTEIRO
9|5|9|INPE|5.03333333|4.21833333|5|5.21833333|VALDIVINO ALEXANDRE DE SANTIAGO JUNIOR
9|5|9|INPE|5.03333333|4.21833333|5|5.21833333|ROGERIO DEIENNO
9|5|9|INPE|5.03333333|4.21833333|5|5.21833333|RITA DE CASSIA MENESES RODRIGUES
9|5|9|INPE|5.03333333|4.21833333|5|5.21833333|REINALDO ROBERTO ROSA
9|5|9|INPE|5.03333333|4.21833333|5|5.21833333|STEPHAN STEPHANY
9|5|9|INPE|5.03333333|4.21833333|5|5.21833333|SOLON VENANCIO DE CARVALHO
9|5|9|INPE|5.03333333|4.21833333|5|5.21833333|SIDNEI JOAO SIQUEIRA SANT ANNA
9|5|9|INPE|5.03333333|4.21833333|5|5.21833333|SANDRA APARECIDA SANDRI
9|5|9|INPE|5.03333333|4.21833333|5|5.21833333|RAFAEL DUARTE COELHO DOS SANTOS
10|6|10|LNCC|4.539|4.264|5|5.264|FABIO BORGES DE OLIVEIRA
10|6|10|LNCC|4.539|4.264|5|5.264|FABIO ANDRE MACHADO PORTO
10|6|10|LNCC|4.539|4.264|5|5.264|ELSON MAGALHAES TOLEDO
10|6|10|LNCC|4.539|4.264|5|5.264|CARLOS EMANUEL DE SOUZA
10|6|10|LNCC|4.539|4.264|5|5.264|CARLA OSTHOFF FERREIRA DE BARROS
10|6|10|LNCC|4.539|4.264|5|5.264|ABIMAEL FERNANDO DOURADO LOULA
10|6|10|LNCC|4.539|4.264|5|5.264|SANDRA MARA CARDOSO MALTA
10|6|10|LNCC|4.539|4.264|5|5.264|BRUNO RICHARD SCHULZE
10|6|10|LNCC|4.539|4.264|5|5.264|ANTONIO ANDRE NOVOTNY
10|6|10|LNCC|4.539|4.264|5|5.264|ANDRE DA MOTTA SALLES BARRETO
10|6|10|LNCC|4.539|4.264|5|5.264|ANA TEREZA RIBEIRO DE VASCONCELOS
10|6|10|LNCC|4.539|4.264|5|5.264|ALEXANDRE LOUREIRO MADUREIRA
10|6|10|LNCC|4.539|4.264|5|5.264|JOAO NISAN CORREIA GUERREIRO
10|6|10|LNCC|4.539|4.264|5|5.264|JAIME EDILBERTO MUNOZ RIVERA
10|6|10|LNCC|4.539|4.264|5|5.264|JIANG ZHU
10|6|10|LNCC|4.539|4.264|5|5.264|JAUVANE CAVALCANTE DE OLIVEIRA
10|6|10|LNCC|4.539|4.264|5|5.264|HELIO JOSE CORREA BARBOSA
10|6|10|LNCC|4.539|4.264|5|5.264|GUSTAVO ALBERTO PERLA MENZALA
10|6|10|LNCC|4.539|4.264|5|5.264|LAURENT EMMANUEL DARDENNE
10|6|10|LNCC|4.539|4.264|5|5.264|PAULO ANTONIO ANDRADE ESQUEF
10|6|10|LNCC|4.539|4.264|5|5.264|GILSON ANTONIO GIRALDI
10|6|10|LNCC|4.539|4.264|5|5.264|JACK BACZYNSKI
10|6|10|LNCC|4.539|4.264|5|5.264|GILBERTO OLIVEIRA CORREA
10|6|10|LNCC|4.539|4.264|5|5.264|FREDERIC GERARD CHRISTIAN VALENTIN
10|6|10|LNCC|4.539|4.264|5|5.264|RENATO SIMOES SILVA
10|6|10|LNCC|4.539|4.264|5|5.264|RENATO PORTUGAL
10|6|10|LNCC|4.539|4.264|5|5.264|ARTUR ZIVIANI
10|6|10|LNCC|4.539|4.264|5|5.264|PAULO CESAR MARQUES VIEIRA
10|6|10|LNCC|4.539|4.264|5|5.264|ROBERTO PINTO SOUTO
10|6|10|LNCC|4.539|4.264|5|5.264|REGINA CELIA CERQUEIRA DE ALMEIDA
10|6|10|LNCC|4.539|4.264|5|5.264|PEDRO LEITE DA SILVA DIAS
10|6|10|LNCC|4.539|4.264|5|5.264|MICHEL ISKIN DA SILVEIRA COSTA
10|6|10|LNCC|4.539|4.264|5|5.264|MAURICIO VIEIRA KRITZ
10|6|10|LNCC|4.539|4.264|5|5.264|AUGUSTO CESAR NORONHA RODRIGUES GALEAO
10|6|10|LNCC|4.539|4.264|5|5.264|ANTONIO TADEU AZEVEDO GOMES
10|6|10|LNCC|4.539|4.264|5|5.264|PABLO JAVIER BLANCO
10|6|10|LNCC|4.539|4.264|5|5.264|EDUARDO LUCIO MENDES GARCIA
10|6|10|LNCC|4.539|4.264|5|5.264|FABIO LIMA CUSTODIO
10|6|10|LNCC|4.539|4.264|5|5.264|MARISA FABIANA NICOLAS
10|6|10|LNCC|4.539|4.264|5|5.264|MARCOS GARCIA TODOROV
10|6|10|LNCC|4.539|4.264|5|5.264|MARCIO RENTES BORGES
10|6|10|LNCC|4.539|4.264|5|5.264|MARCIO ARAB MURAD
10|6|10|LNCC|4.539|4.264|5|5.264|MARCELO TRINDADE DOS SANTOS
10|6|10|LNCC|4.539|4.264|5|5.264|MARCELO DUTRA FRAGOSO
10|6|10|LNCC|4.539|4.264|5|5.264|MARC ANDRE MICHAEL THORSTEN SAMMETH
10|6|10|LNCC|4.539|4.264|5|5.264|LUIZ MANOEL ROCHA GADELHA JUNIOR
10|6|10|LNCC|4.539|4.264|5|5.264|LUCIANE PRIOLI CIAPINA GUEDES
10|6|10|LNCC|4.539|4.264|5|5.264|KARY ANN DEL CARMEN SORIANO OCANA
10|6|10|LNCC|4.539|4.264|5|5.264|JOSIAS JOSE DA SILVA
10|6|10|LNCC|4.539|4.264|5|5.264|JOSE KARAM FILHO
11|4|11|PUC_SP|1.875|0.675|10|15.675|SERGIO ROCLAW BASBAUM
11|4|11|PUC_SP|1.875|0.675|10|15.675|POLLYANA FERRARI TEIXEIRA
11|4|11|PUC_SP|1.875|0.675|10|15.675|SONIA MARIA DE MACEDO ALLEGRETTI
11|4|11|PUC_SP|1.875|0.675|10|15.675|ALEXANDRE CAMPOS SILVA
11|4|11|PUC_SP|1.875|0.675|10|15.675|NELSON BRISSAC PEIXOTO
11|4|11|PUC_SP|1.875|0.675|10|15.675|MARIA LUCIA SANTAELLA BRAGA
11|4|11|PUC_SP|1.875|0.675|10|15.675|MARCUS VINICIUS FAINER BASTOS
11|4|11|PUC_SP|1.875|0.675|10|15.675|LUIS CARLOS PETRY
11|4|11|PUC_SP|1.875|0.675|10|15.675|JOAO AUGUSTO MATTAR NETO
11|4|11|PUC_SP|1.875|0.675|10|15.675|ITALO SANTIAGO VEGA
11|4|11|PUC_SP|1.875|0.675|10|15.675|HERMES RENATO HILDEBRAND
11|4|11|PUC_SP|1.875|0.675|10|15.675|DANIEL COUTO GATTI
11|4|11|PUC_SP|1.875|0.675|10|15.675|CLAUDIO FERNANDO ANDRE
11|4|11|PUC_SP|1.875|0.675|10|15.675|ANA MARIA DI GRADO HESSEL
11|4|11|PUC_SP|1.875|0.675|10|15.675|WINFRIED MAXIMILIAN NOTH
11|4|11|PUC_SP|1.875|0.675|10|15.675|DEMI GETSCHKO
12|3|12|UECE|0.63666667|0.37666667|2|0.37666667|RINALDO DOS SANTOS ARAUJO
12|3|12|UECE|0.63666667|0.37666667|2|0.37666667|RUI CARLOS BARROS DA SILVA
12|3|12|UECE|0.63666667|0.37666667|2|0.37666667|SERGIO SOUSA SOMBRA
12|3|12|UECE|0.63666667|0.37666667|2|0.37666667|FRANCISCO GERALDO DE MELO PINHEIRO
12|3|12|UECE|0.63666667|0.37666667|2|0.37666667|JOSE MARIA BRABO ALVES
12|3|12|UECE|0.63666667|0.37666667|2|0.37666667|JOAO BOSCO VERCOSA LEAL JUNIOR
12|3|12|UECE|0.63666667|0.37666667|2|0.37666667|ALEXANDRE ARAUJO COSTA
12|3|12|UECE|0.63666667|0.37666667|2|0.37666667|MONA LISA MOURA DE OLIVEIRA
12|3|12|UECE|0.63666667|0.37666667|2|0.37666667|GERSON PAIVA ALMEIDA
12|3|12|UECE|0.63666667|0.37666667|2|0.37666667|NARA ANGELICA POLICARPO
12|3|12|UECE|0.63666667|0.37666667|2|0.37666667|EMERSON MARIANO DA SILVA
12|3|12|UECE|0.63666667|0.37666667|2|0.37666667|AUGUSTO CESAR BARROS BARBOSA
12|3|12|UECE|0.63666667|0.37666667|2|0.37666667|LUTERO CARMO DE LIMA
12|3|12|UECE|0.63666667|0.37666667|2|0.37666667|FRANCISCO SALES AVILA CAVALCANTE
12|3|12|UECE|0.63666667|0.37666667|2|0.37666667|ANTONIO CARLOS SANTANA DOS SANTOS
13|2|13|UEFS|2.44411765|2.2|6|3.2|MIRCO RAGNI
13|2|13|UEFS|2.44411765|2.2|6|3.2|GERMANO PINTO GUEDES
13|2|13|UEFS|2.44411765|2.2|6|3.2|PAULO CESAR DA ROCHA POPPE
13|2|13|UEFS|2.44411765|2.2|6|3.2|JOAO BATISTA DA ROCHA JUNIOR
13|2|13|UEFS|2.44411765|2.2|6|3.2|MICHELE FULVIA ANGELO
13|2|13|UEFS|2.44411765|2.2|6|3.2|GRACINETE BASTOS DE SOUZA
13|2|13|UEFS|2.44411765|2.2|6|3.2|ROBERTO ALMEIDA BITTECOURT
13|2|13|UEFS|2.44411765|2.2|6|3.2|JOAO BOSCO GERTRUDES
13|2|13|UEFS|2.44411765|2.2|6|3.2|EDGAR SILVA JUNIOR
13|2|13|UEFS|2.44411765|2.2|6|3.2|EDUARDO BRESCANSIN DE AMORES
13|2|13|UEFS|2.44411765|2.2|6|3.2|IRANDERLY FERNANDES DE FERNANDES
13|2|13|UEFS|2.44411765|2.2|6|3.2|ANGELO AMANCIO DUARTE
13|2|13|UEFS|2.44411765|2.2|6|3.2|ANGELO CONRADO LOULA
13|2|13|UEFS|2.44411765|2.2|6|3.2|CARLOS ALBERTO RODRIGUES
13|2|13|UEFS|2.44411765|2.2|6|3.2|ARTUR TRANCOSO LOPO DE QUEIROZ
13|2|13|UEFS|2.44411765|2.2|6|3.2|ANTONIO DELSON CONCEICAO DE JESUS
13|2|13|UEFS|2.44411765|2.2|6|3.2|DANIEL GOUVEIA COSTA
14|3|14|UEM|8.4173913|5.78478261|15|9.78478261|EVERSON DO PRADO BANCZEK
14|3|14|UEM|8.4173913|5.78478261|15|9.78478261|EMERSON MEYER
14|3|14|UEM|8.4173913|5.78478261|15|9.78478261|GISELLA MARIA ZANIN
14|3|14|UEM|8.4173913|5.78478261|15|9.78478261|GILMARA DE OLIVEIRA MACHADO
14|3|14|UEM|8.4173913|5.78478261|15|9.78478261|CRISTIANE DE CONTI MEDINA
14|3|14|UEM|8.4173913|5.78478261|15|9.78478261|CESAR DE CASTRO
14|3|14|UEM|8.4173913|5.78478261|15|9.78478261|CASSIO EGIDIO CAVENAGHI PRETE
14|3|14|UEM|8.4173913|5.78478261|15|9.78478261|CARLOS ROBERTO SANQUETTA
14|3|14|UEM|8.4173913|5.78478261|15|9.78478261|CARLOS EDUARDO BORBA
14|3|14|UEM|8.4173913|5.78478261|15|9.78478261|EDUARDO DI MAURO
14|3|14|UEM|8.4173913|5.78478261|15|9.78478261|EDSON PEREZ GUERRA
14|3|14|UEM|8.4173913|5.78478261|15|9.78478261|EDSON LAURETO
14|3|14|UEM|8.4173913|5.78478261|15|9.78478261|EDSON ANTONIO DA SILVA
14|3|14|UEM|8.4173913|5.78478261|15|9.78478261|LUIZ PEREIRA RAMOS
14|3|14|UEM|8.4173913|5.78478261|15|9.78478261|LUIZ CLAUDIO GARCIA
14|3|14|UEM|8.4173913|5.78478261|15|9.78478261|LUCIANO FARINHA WATZLAWICK
14|3|14|UEM|8.4173913|5.78478261|15|9.78478261|MARCELO REAL PRADO
14|3|14|UEM|8.4173913|5.78478261|15|9.78478261|MARCELO FERNANDES VIEIRA
14|3|14|UEM|8.4173913|5.78478261|15|9.78478261|LEANDRO PAIOLA ALBRECHT
14|3|14|UEM|8.4173913|5.78478261|15|9.78478261|JULIANO TADEU VILELA DE RESENDE
14|3|14|UEM|8.4173913|5.78478261|15|9.78478261|JONATHAN DIETER
14|3|14|UEM|8.4173913|5.78478261|15|9.78478261|JOEL GUSTAVO TELEKEN
14|3|14|UEM|8.4173913|5.78478261|15|9.78478261|IRENE DOMENES ZAPPAROLI
14|3|14|UEM|8.4173913|5.78478261|15|9.78478261|HELTON JOSE ALVES
14|3|14|UEM|8.4173913|5.78478261|15|9.78478261|GRACIELA INES BOLZON DE MUNIZ
14|3|14|UEM|8.4173913|5.78478261|15|9.78478261|WALDIR NAGEL SCHIRMER
14|3|14|UEM|8.4173913|5.78478261|15|9.78478261|TATIANA RODRIGUES DA SILVA BAUMGARTNER
14|3|14|UEM|8.4173913|5.78478261|15|9.78478261|SANDRA REGINA MASETTO ANTUNES
14|3|14|UEM|8.4173913|5.78478261|15|9.78478261|DIVA DE SOUZA ANDRADE
14|3|14|UEM|8.4173913|5.78478261|15|9.78478261|DIONISIO BORSATO
14|3|14|UEM|8.4173913|5.78478261|15|9.78478261|CARMEN LUISA BARBOSA GUEDES
14|3|14|UEM|8.4173913|5.78478261|15|9.78478261|CYNTHIA BEATRIZ FURSTENBERGER
14|3|14|UEM|8.4173913|5.78478261|15|9.78478261|CAMILA DA SILVA
14|3|14|UEM|8.4173913|5.78478261|15|9.78478261|AUGUSTO CELSO ANTUNES
14|3|14|UEM|8.4173913|5.78478261|15|9.78478261|PEDRO HENRIQUE WEIRICH NETO
14|3|14|UEM|8.4173913|5.78478261|15|9.78478261|PEDRO AUGUSTO ARROYO
14|3|14|UEM|8.4173913|5.78478261|15|9.78478261|SAMUEL NELSON MELEGARI DE SOUZA
14|3|14|UEM|8.4173913|5.78478261|15|9.78478261|RICARDO RALISCH
14|3|14|UEM|8.4173913|5.78478261|15|9.78478261|RICARDO JOSE FERRACIN
14|3|14|UEM|8.4173913|5.78478261|15|9.78478261|PAULO ROGERIO PINTO RODRIGUES
14|3|14|UEM|8.4173913|5.78478261|15|9.78478261|PAULO HENRIQUE CARAMORI
14|3|14|UEM|8.4173913|5.78478261|15|9.78478261|NEHEMIAS CURVELO PEREIRA
14|3|14|UEM|8.4173913|5.78478261|15|9.78478261|MAURO ANTONIO DA SILVA SA RAVAGNANI
14|3|14|UEM|8.4173913|5.78478261|15|9.78478261|MARIA LUIZA MACHADO FERNANDES
14|3|14|UEM|8.4173913|5.78478261|15|9.78478261|MARIA ELENA PAYRET ARRUA
14|3|14|UEM|8.4173913|5.78478261|15|9.78478261|MARIA DE FÁTIMA GUIMARAES
15|4|15|UENF|5.603125|4.9859375|5|5.9859375|ANDRE OLIVEIRA GUIMARAES
15|4|15|UENF|5.603125|4.9859375|5|5.9859375|DELSON UBIRATAN DA SILVA SCHRAMM
15|4|15|UENF|5.603125|4.9859375|5|5.9859375|MARILIA PAIXAO LINHARES
15|4|15|UENF|5.603125|4.9859375|5|5.9859375|MARIA CRISTINA CANELA
15|4|15|UENF|5.603125|4.9859375|5|5.9859375|MARCELO SILVA STHEL
15|4|15|UENF|5.603125|4.9859375|5|5.9859375|LEONARDO MOTA DE OLIVEIRA
15|4|15|UENF|5.603125|4.9859375|5|5.9859375|RODRIGO RODRIGUES DE OLIVEIRA
15|4|15|UENF|5.603125|4.9859375|5|5.9859375|JAN SCHRIPSEMA
15|4|15|UENF|5.603125|4.9859375|5|5.9859375|RAIMUNDO BRAZ FILHO
15|4|15|UENF|5.603125|4.9859375|5|5.9859375|MAX ERIK SOFFNER
15|4|15|UENF|5.603125|4.9859375|5|5.9859375|MILTON MASAHIKO KANASHIRO
15|4|15|UENF|5.603125|4.9859375|5|5.9859375|JURACI APARECIDO SAMPAIO
15|4|15|UENF|5.603125|4.9859375|5|5.9859375|IVO JOSE CURCINO VIEIRA
15|4|15|UENF|5.603125|4.9859375|5|5.9859375|EDSON CORREA DA SILVA
15|4|15|UENF|5.603125|4.9859375|5|5.9859375|CARLOS EDUARDO NOVO GATTS
15|4|15|UENF|5.603125|4.9859375|5|5.9859375|ROSANA APARECIDA GIACOMINI
15|4|15|UENF|5.603125|4.9859375|5|5.9859375|SIMONNE TEIXEIRA
15|4|15|UENF|5.603125|4.9859375|5|5.9859375|VICTOR HABER PEREZ
15|4|15|UENF|5.603125|4.9859375|5|5.9859375|ROBERTO DA TRINDADE FARIA JUNIOR
15|4|15|UENF|5.603125|4.9859375|5|5.9859375|SERGIO LUIS CARDOSO
15|4|15|UENF|5.603125|4.9859375|5|5.9859375|NILSON SERGIO PERES STAHL
15|4|15|UENF|5.603125|4.9859375|5|5.9859375|EDMILSON JOSE MARIA
15|4|15|UENF|5.603125|4.9859375|5|5.9859375|ALEXANDRE MOURA STUMBO
15|4|15|UENF|5.603125|4.9859375|5|5.9859375|CHRISTIANE FERNANDES HORN
15|4|15|UENF|5.603125|4.9859375|5|5.9859375|ADOLFO HORN JUNIOR
15|4|15|UENF|5.603125|4.9859375|5|5.9859375|MARCELO GOMES DA SILVA
15|4|15|UENF|5.603125|4.9859375|5|5.9859375|MARIA PRISCILA PESSANHA DE CASTRO
15|4|15|UENF|5.603125|4.9859375|5|5.9859375|FERNANDO JOSE LUNA DE OLIVEIRA
15|4|15|UENF|5.603125|4.9859375|5|5.9859375|HELION VARGAS
15|4|15|UENF|5.603125|4.9859375|5|5.9859375|ROBERTO WEIDER DE ASSIS FRANCO
15|4|15|UENF|5.603125|4.9859375|5|5.9859375|LEDA MATHIAS
15|4|15|UENF|5.603125|4.9859375|5|5.9859375|MARIA RAQUEL GARCIA VEGA
16|3|16|UEPG|5.475|4.475|8|5.475|SELMA REGINA ARANHA RIBEIRO
16|3|16|UEPG|5.475|4.475|8|5.475|ROSANE FALATE
16|3|16|UEPG|5.475|4.475|8|5.475|PETRAQ PAPAJORGJI
16|3|16|UEPG|5.475|4.475|8|5.475|MARIA SALETE MARCON GOMES VAZ
16|3|16|UEPG|5.475|4.475|8|5.475|MARCELO GIOVANETTI CANTERI
16|3|16|UEPG|5.475|4.475|8|5.475|RICARDO ANTONIO AYUB
16|3|16|UEPG|5.475|4.475|8|5.475|RAFAEL MAZER ETTO
16|3|16|UEPG|5.475|4.475|8|5.475|JOSE CARLOS FERREIRA DA ROCHA
16|3|16|UEPG|5.475|4.475|8|5.475|IVO MARIO MATHIAS
16|3|16|UEPG|5.475|4.475|8|5.475|EDUARDO FÁVERO CAIRES
16|3|16|UEPG|5.475|4.475|8|5.475|LUCIANO JOSE SENGER
16|3|16|UEPG|5.475|4.475|8|5.475|SIMONE NASSER MATOS
16|3|16|UEPG|5.475|4.475|8|5.475|SERGIO LUIZ STEVAN JUNIOR
16|3|16|UEPG|5.475|4.475|8|5.475|ARION DE CAMPOS JUNIOR
16|3|16|UEPG|5.475|4.475|8|5.475|ALCEU DE SOUZA BRITTO JUNIOR
16|3|16|UEPG|5.475|4.475|8|5.475|ALAINE MARGARETE GUIMARAES
17|3|17|UERJ_CC|2.265|1.99166667|3|1.99166667|ALEXANDRE DA COSTA SENA
17|3|17|UERJ_CC|2.265|1.99166667|3|1.99166667|FABIANO DE SOUZA OLIVEIRA
17|3|17|UERJ_CC|2.265|1.99166667|3|1.99166667|FREDERICO ALAN DE OLIVEIRA CRUZ
17|3|17|UERJ_CC|2.265|1.99166667|3|1.99166667|CELIA MARTINS CORTEZ
17|3|17|UERJ_CC|2.265|1.99166667|3|1.99166667|CARLOS FREDERICO FRAGOSO DE BARROS E VASCONCELLOS
17|3|17|UERJ_CC|2.265|1.99166667|3|1.99166667|CARLOS ANTONIO DE MOURA
17|3|17|UERJ_CC|2.265|1.99166667|3|1.99166667|ALBERTO FRANCO DE SA SANTORO
17|3|17|UERJ_CC|2.265|1.99166667|3|1.99166667|ALEXANDRE SZTAJNBERG
17|3|17|UERJ_CC|2.265|1.99166667|3|1.99166667|DILSON SILVA
17|3|17|UERJ_CC|2.265|1.99166667|3|1.99166667|VERA MARIA BENJAMIM WERNECK
17|3|17|UERJ_CC|2.265|1.99166667|3|1.99166667|ROSELI SUZI WEDEMANN
17|3|17|UERJ_CC|2.265|1.99166667|3|1.99166667|ROSA MARIA ESTEVES MOREIRA DA COSTA
17|3|17|UERJ_CC|2.265|1.99166667|3|1.99166667|PAULO EUSTAQUIO DUARTE PINTO
17|3|17|UERJ_CC|2.265|1.99166667|3|1.99166667|AUGUSTO CESAR DE CASTRO BARBOSA
17|3|17|UERJ_CC|2.265|1.99166667|3|1.99166667|ANA LETICIA DE CERQUEIRA LEITE DUBOC
17|3|17|UERJ_CC|2.265|1.99166667|3|1.99166667|RICARDO CARVALHO DE BARROS
17|3|17|UERJ_CC|2.265|1.99166667|3|1.99166667|ROSA MARIA VIDEIRA DE FIGUEIREDO
17|3|17|UERJ_CC|2.265|1.99166667|3|1.99166667|REGINA SERRAO LANZILLOTTI
17|3|17|UERJ_CC|2.265|1.99166667|3|1.99166667|RAUL JOSE DONANGELO
17|3|17|UERJ_CC|2.265|1.99166667|3|1.99166667|PATRICIA NUNES DA SILVA
17|3|17|UERJ_CC|2.265|1.99166667|3|1.99166667|LUIS ALFREDO VIDAL DE CARVALHO
17|3|17|UERJ_CC|2.265|1.99166667|3|1.99166667|LEANDRO AUGUSTO JUSTEN MARZULO
17|3|17|UERJ_CC|2.265|1.99166667|3|1.99166667|NEIDE DOS SANTOS
17|3|17|UERJ_CC|2.265|1.99166667|3|1.99166667|SHEILA REGINA MURGEL VELOSO
17|3|17|UERJ_CC|2.265|1.99166667|3|1.99166667|CRISTIANE OLIVEIRA DE FARIA
17|3|17|UERJ_CC|2.265|1.99166667|3|1.99166667|MARIA HERMINIA DE PAULA LEITE MELLO
17|3|17|UERJ_CC|2.265|1.99166667|3|1.99166667|MARIA CLICIA STELLING DE CASTRO
17|3|17|UERJ_CC|2.265|1.99166667|3|1.99166667|MARCUS VINICIUS TOVAR COSTA
17|3|17|UERJ_CC|2.265|1.99166667|3|1.99166667|LUERBIO FARIA
17|3|17|UERJ_CC|2.265|1.99166667|3|1.99166667|GUILHERME LUCIO ABELHA MOTA
17|6|18|UERJ_MC|4.83684211|3.74473684|6|4.74473684|ROBERTO AIZIK TENENBAUM
17|6|18|UERJ_MC|4.83684211|3.74473684|6|4.74473684|LUIZ NELIO HENDERSON GUEDES DE OLIVEIRA
17|6|18|UERJ_MC|4.83684211|3.74473684|6|4.74473684|JOAQUIM TEIXEIRA DE ASSIS
17|6|18|UERJ_MC|4.83684211|3.74473684|6|4.74473684|ROBERTO PINHEIRO DOMINGOS
17|6|18|UERJ_MC|4.83684211|3.74473684|6|4.74473684|RICARDO CARVALHO DE BARROS
17|6|18|UERJ_MC|4.83684211|3.74473684|6|4.74473684|PEDRO PAULO GOMES WATTS RODRIGUES
17|6|18|UERJ_MC|4.83684211|3.74473684|6|4.74473684|LEONARDO TAVARES STUTZ
17|6|18|UERJ_MC|4.83684211|3.74473684|6|4.74473684|ANTONIO JOSE DA SILVA NETO
17|6|18|UERJ_MC|4.83684211|3.74473684|6|4.74473684|FRANCISCO DUARTE MOURA NETO
17|6|18|UERJ_MC|4.83684211|3.74473684|6|4.74473684|DIEGO CAMPOS KNUPP
17|6|18|UERJ_MC|4.83684211|3.74473684|6|4.74473684|HELIO PEDRO AMARAL SOUTO
17|6|18|UERJ_MC|4.83684211|3.74473684|6|4.74473684|GUSTAVO MENDES PLATT
17|6|18|UERJ_MC|4.83684211|3.74473684|6|4.74473684|ANDERSON AMENDOEIRA NAMEN
17|6|18|UERJ_MC|4.83684211|3.74473684|6|4.74473684|IVAN NAPOLEAO BASTOS
17|6|18|UERJ_MC|4.83684211|3.74473684|6|4.74473684|JOAO FLAVIO VIEIRA DE VASCONCELLOS
17|6|18|UERJ_MC|4.83684211|3.74473684|6|4.74473684|HERMES ALVES FILHO
17|6|18|UERJ_MC|4.83684211|3.74473684|6|4.74473684|RICARDO FABBRI
17|6|18|UERJ_MC|4.83684211|3.74473684|6|4.74473684|DAIARA FERNANDES DE FARIA
17|6|18|UERJ_MC|4.83684211|3.74473684|6|4.74473684|LEONCIO DIOGENES TAVARES CAMARA
18|3|19|UESC|2.55882353|1.21764706|5|3.21764706|FERNANDO RUBIERA MOROLLÓN
18|3|19|UESC|2.55882353|1.21764706|5|3.21764706|MARCELO INACIO FERREIRA FERRAZ
18|3|19|UESC|2.55882353|1.21764706|5|3.21764706|CARLA REGINA FERREIRA FREIRE GUIMARAES
18|3|19|UESC|2.55882353|1.21764706|5|3.21764706|GEOVANIA SILVA DE SOUSA
18|3|19|UESC|2.55882353|1.21764706|5|3.21764706|ZINA ANGELICA CACERES BENAVIDES
18|3|19|UESC|2.55882353|1.21764706|5|3.21764706|LESSI INES FARIAS PINHEIRO
18|3|19|UESC|2.55882353|1.21764706|5|3.21764706|CARLOS EDUARDO IWAI DRUMOND
18|3|19|UESC|2.55882353|1.21764706|5|3.21764706|ANDREA DA SILVA GOMES
18|3|19|UESC|2.55882353|1.21764706|5|3.21764706|GUILHARDES DE JESUS JUNIOR
18|3|19|UESC|2.55882353|1.21764706|5|3.21764706|JOAO PEDRO DE CASTRO NUNES PEREIRA
18|3|19|UESC|2.55882353|1.21764706|5|3.21764706|ANDRE LUIS BATISTA RIBEIRO
18|3|19|UESC|2.55882353|1.21764706|5|3.21764706|JORGE HENRIQUE DE OLIVEIRA SALES
18|3|19|UESC|2.55882353|1.21764706|5|3.21764706|SUSANA MARRERO IGLESIAS
18|3|19|UESC|2.55882353|1.21764706|5|3.21764706|SERGIO MOTA ALVES
18|3|19|UESC|2.55882353|1.21764706|5|3.21764706|PAULO EDUARDO AMBROSIO
18|3|19|UESC|2.55882353|1.21764706|5|3.21764706|MARTHA XIMENA TORRES DELGADO
18|3|19|UESC|2.55882353|1.21764706|5|3.21764706|MARIA VICTORIA MANSO GUEVARA
18|3|19|UESC|2.55882353|1.21764706|5|3.21764706|LUCIANO ANGELO DE SOUZA BERNARDES
18|3|19|UESC|2.55882353|1.21764706|5|3.21764706|GILDSON QUEIROZ DE JESUS
18|3|19|UESC|2.55882353|1.21764706|5|3.21764706|GESIL SAMPAIO AMARANTE SEGUNDO
18|3|19|UESC|2.55882353|1.21764706|5|3.21764706|FELIX MAS MILIAN
18|3|19|UESC|2.55882353|1.21764706|5|3.21764706|FRANCISCO BRUNO SOUZA OLIVEIRA
18|3|19|UESC|2.55882353|1.21764706|5|3.21764706|FLÁVIO PIETROBON COSTA
18|3|19|UESC|2.55882353|1.21764706|5|3.21764706|ESBEL TOMAS VALERO ORELLANA
18|3|19|UESC|2.55882353|1.21764706|5|3.21764706|DANY SANCHEZ DOMINGUEZ
18|3|19|UESC|2.55882353|1.21764706|5|3.21764706|CESAR ALBERTO BRAVO PARIENTE
18|3|19|UESC|2.55882353|1.21764706|5|3.21764706|EDUARDO SILVA PALMEIRA
18|3|19|UESC|2.55882353|1.21764706|5|3.21764706|MONICA DE MOURA PIRES
18|3|19|UESC|2.55882353|1.21764706|5|3.21764706|RICARDO CANDEA SA BARRETO
18|3|19|UESC|2.55882353|1.21764706|5|3.21764706|MOEMA MARIA BADARO CARTIBANI MIDLEJ
18|3|19|UESC|2.55882353|1.21764706|5|3.21764706|SOCRATES JACOBO MOQUETE GUZMAN
18|3|19|UESC|2.55882353|1.21764706|5|3.21764706|SALVADOR DAL POZZO TREVIZAN
18|3|19|UESC|2.55882353|1.21764706|5|3.21764706|RONALDO LIMA GOMES
18|3|19|UESC|2.55882353|1.21764706|5|3.21764706|NAISY SILVA SOARES
20|4|20|UFABC_EN|3.80833333|2.69722222|8|3.69722222|LUIS ALBERTO MARTINEZ RIASCOS
20|4|20|UFABC_EN|3.80833333|2.69722222|8|3.69722222|PAULO HENRIQUE DE MELLO SANT ANA
20|4|20|UFABC_EN|3.80833333|2.69722222|8|3.69722222|PATRICIA TEIXEIRA LEITE ASANO
20|4|20|UFABC_EN|3.80833333|2.69722222|8|3.69722222|MARAT RAFIKOV
20|4|20|UFABC_EN|3.80833333|2.69722222|8|3.69722222|JULIO CARLOS TEIXEIRA
20|4|20|UFABC_EN|3.80833333|2.69722222|8|3.69722222|JOSE RUBENS MAIORINO
20|4|20|UFABC_EN|3.80833333|2.69722222|8|3.69722222|JOAO MANOEL LOSADA MOREIRA
20|4|20|UFABC_EN|3.80833333|2.69722222|8|3.69722222|JESUS FRANKLIN ANDRADE ROMERO
20|4|20|UFABC_EN|3.80833333|2.69722222|8|3.69722222|IVAN ROBERTO SANTANA CASELLA
20|4|20|UFABC_EN|3.80833333|2.69722222|8|3.69722222|IGOR FUSER
20|4|20|UFABC_EN|3.80833333|2.69722222|8|3.69722222|HERLANDER DA MATA FERNANDES LIMA
20|4|20|UFABC_EN|3.80833333|2.69722222|8|3.69722222|JULIANA TOFANO DE CAMPOS LEITE
20|4|20|UFABC_EN|3.80833333|2.69722222|8|3.69722222|GRAZIELLA COLATO ANTONIO
20|4|20|UFABC_EN|3.80833333|2.69722222|8|3.69722222|GILBERTO MARTINS
20|4|20|UFABC_EN|3.80833333|2.69722222|8|3.69722222|FRANCISCO DE ASSIS COMARU
20|4|20|UFABC_EN|3.80833333|2.69722222|8|3.69722222|CLAUDIO LUIS DE CAMARGO PENTEADO
20|4|20|UFABC_EN|3.80833333|2.69722222|8|3.69722222|ARILSON DA SILVA FAVARETO
20|4|20|UFABC_EN|3.80833333|2.69722222|8|3.69722222|ANTONIO GARRIDO GALLEGO
20|4|20|UFABC_EN|3.80833333|2.69722222|8|3.69722222|FERNANDO GASI
20|4|20|UFABC_EN|3.80833333|2.69722222|8|3.69722222|FEDERICO BERNARDINO MORANTE TRIGOSO
20|4|20|UFABC_EN|3.80833333|2.69722222|8|3.69722222|DOUGLAS ALVES CASSIANO
20|4|20|UFABC_EN|3.80833333|2.69722222|8|3.69722222|ANA MARIA PEREIRA NETO
20|4|20|UFABC_EN|3.80833333|2.69722222|8|3.69722222|ALFEU JOAOZINHO SGUAREZI FILHO
20|4|20|UFABC_EN|3.80833333|2.69722222|8|3.69722222|AHDA PIONKOSKI GRILO PAVANI
20|4|20|UFABC_EN|3.80833333|2.69722222|8|3.69722222|ADRIANO VIANA ENSINAS
20|4|20|UFABC_EN|3.80833333|2.69722222|8|3.69722222|SINCLAIR MALLET GUY GUERRA
20|4|20|UFABC_EN|3.80833333|2.69722222|8|3.69722222|SILVIA AZUCENA NEBRA DE PEREZ
20|4|20|UFABC_EN|3.80833333|2.69722222|8|3.69722222|SERGIO RICARDO LOURENCO
20|4|20|UFABC_EN|3.80833333|2.69722222|8|3.69722222|MARCELO MODESTO DA SILVA
20|4|20|UFABC_EN|3.80833333|2.69722222|8|3.69722222|REYNALDO PALACIOS BERECHE
20|4|20|UFABC_EN|3.80833333|2.69722222|8|3.69722222|SERGIO HENRIQUE FERREIRA DE OLIVEIRA
20|4|20|UFABC_EN|3.80833333|2.69722222|8|3.69722222|SERGIO BROCHSZTAIN
20|4|20|UFABC_EN|3.80833333|2.69722222|8|3.69722222|ROSELI FREDERIGI BENASSI
20|4|20|UFABC_EN|3.80833333|2.69722222|8|3.69722222|RICARDO DE SOUSA MORETTI
20|4|20|UFABC_EN|3.80833333|2.69722222|8|3.69722222|RICARDO CANELOI DOS SANTOS
20|4|20|UFABC_EN|3.80833333|2.69722222|8|3.69722222|PEDRO CARAJILESCOV
20|5|21|UFABC_NANO|6.61351351|6.22162162|5|6.22162162|ALEXANDRE REILY ROCHA
20|5|21|UFABC_NANO|6.61351351|6.22162162|5|6.22162162|ANTONIO ALVARO RANHA NEVES
20|5|21|UFABC_NANO|6.61351351|6.22162162|5|6.22162162|ANDRE SARTO POLO
20|5|21|UFABC_NANO|6.61351351|6.22162162|5|6.22162162|ALEXANDRE JOSE DE CASTRO LANFREDI
20|5|21|UFABC_NANO|6.61351351|6.22162162|5|6.22162162|HUMBERTO NAOYUKI YOSHIMURA
20|5|21|UFABC_NANO|6.61351351|6.22162162|5|6.22162162|WENDEL ANDRADE ALVES
20|5|21|UFABC_NANO|6.61351351|6.22162162|5|6.22162162|SYDNEY FERREIRA SANTOS
20|5|21|UFABC_NANO|6.61351351|6.22162162|5|6.22162162|SANDRA ANDREA CRUZ
20|5|21|UFABC_NANO|6.61351351|6.22162162|5|6.22162162|ROOSEVELT DROPPA JUNIOR
20|5|21|UFABC_NANO|6.61351351|6.22162162|5|6.22162162|RONEI MIOTTO
20|5|21|UFABC_NANO|6.61351351|6.22162162|5|6.22162162|RENATO ALTOBELLI ANTUNES
20|5|21|UFABC_NANO|6.61351351|6.22162162|5|6.22162162|GERSON LUIZ MANTOVANI
20|5|21|UFABC_NANO|6.61351351|6.22162162|5|6.22162162|EVERALDO CARLOS VENANCIO
20|5|21|UFABC_NANO|6.61351351|6.22162162|5|6.22162162|DERVAL DOS SANTOS ROSA
20|5|21|UFABC_NANO|6.61351351|6.22162162|5|6.22162162|DEMETRIO JACKSON DOS SANTOS
20|5|21|UFABC_NANO|6.61351351|6.22162162|5|6.22162162|DANILO JUSTINO CARASTAN
20|5|21|UFABC_NANO|6.61351351|6.22162162|5|6.22162162|DANIEL ZANETTI DE FLORIO
20|5|21|UFABC_NANO|6.61351351|6.22162162|5|6.22162162|MARISELMA FERREIRA
20|5|21|UFABC_NANO|6.61351351|6.22162162|5|6.22162162|FRANK NELSON CRESPILHO
20|5|21|UFABC_NANO|6.61351351|6.22162162|5|6.22162162|FLAVIO LEANDRO DE SOUZA
20|5|21|UFABC_NANO|6.61351351|6.22162162|5|6.22162162|FABIO FURLAN FERREIRA
20|5|21|UFABC_NANO|6.61351351|6.22162162|5|6.22162162|CEDRIC ROCHA LEAO
20|5|21|UFABC_NANO|6.61351351|6.22162162|5|6.22162162|CARLOS TRIVENO RIOS
20|5|21|UFABC_NANO|6.61351351|6.22162162|5|6.22162162|CARLOS HENRIQUE SCURACCHIO
20|5|21|UFABC_NANO|6.61351351|6.22162162|5|6.22162162|CAETANO RODRIGUES MIRANDA
20|5|21|UFABC_NANO|6.61351351|6.22162162|5|6.22162162|MARCOS DE ABREU AVILA
20|5|21|UFABC_NANO|6.61351351|6.22162162|5|6.22162162|MARCIO TEIXEIRA DO NASCIMENTO VARELLA
20|5|21|UFABC_NANO|6.61351351|6.22162162|5|6.22162162|MARCIA TSUYAMA ESCOTE
20|5|21|UFABC_NANO|6.61351351|6.22162162|5|6.22162162|MARCIA APARECIDA DA SILVA SPINACE
20|5|21|UFABC_NANO|6.61351351|6.22162162|5|6.22162162|JULIANA MARCHI
20|5|21|UFABC_NANO|6.61351351|6.22162162|5|6.22162162|JOSE FERNANDO QUEIRUGA REY
20|5|21|UFABC_NANO|6.61351351|6.22162162|5|6.22162162|JOSE ANTONIO SOUZA
20|5|21|UFABC_NANO|6.61351351|6.22162162|5|6.22162162|JORGE DIEGO MARCONI
20|5|21|UFABC_NANO|6.61351351|6.22162162|5|6.22162162|JEVERSON TEODORO ARANTES JUNIOR
20|5|21|UFABC_NANO|6.61351351|6.22162162|5|6.22162162|ISELI LOURENCO NANTES
20|5|21|UFABC_NANO|6.61351351|6.22162162|5|6.22162162|HERCULANO DA SILVA MARTINHO
20|5|21|UFABC_NANO|6.61351351|6.22162162|5|6.22162162|GUSTAVO MARTINI DALPIAN
21|3|22|UFAL|3.3625|2.9275|8|6.9275|JOAO INACIO SOLETTI
21|3|22|UFAL|3.3625|2.9275|8|6.9275|EDUARDO CALIL DE OLIVEIRA
21|3|22|UFAL|3.3625|2.9275|8|6.9275|PATRICK HENRIQUE DA SILVA BRITO
21|3|22|UFAL|3.3625|2.9275|8|6.9275|EVANDRO DE BARROS COSTA
21|3|22|UFAL|3.3625|2.9275|8|6.9275|LUIS CLAUDIUS CORADINE
21|3|22|UFAL|3.3625|2.9275|8|6.9275|MARCELO COSTA OLIVEIRA
21|3|22|UFAL|3.3625|2.9275|8|6.9275|ALEJANDRO CESAR FRERY ORGAMBIDE
21|3|22|UFAL|3.3625|2.9275|8|6.9275|ELIANA SILVA DE ALMEIDA
21|3|22|UFAL|3.3625|2.9275|8|6.9275|IG IBERT BITTENCOURT SANTANA PINTO
21|3|22|UFAL|3.3625|2.9275|8|6.9275|ALAN PEDRO DA SILVA
21|3|22|UFAL|3.3625|2.9275|8|6.9275|RAQUEL DA SILVA CABRAL
21|3|22|UFAL|3.3625|2.9275|8|6.9275|FABIO PARAGUACU DUARTE DA COSTA
21|3|22|UFAL|3.3625|2.9275|8|6.9275|ARTURO HERNANDEZ DOMINGUEZ
21|3|22|UFAL|3.3625|2.9275|8|6.9275|AYDANO PAMPONET MACHADO
21|3|22|UFAL|3.3625|2.9275|8|6.9275|JORGE ARTUR PECANHA DE MIRANDA COELHO
21|3|22|UFAL|3.3625|2.9275|8|6.9275|MARCUS DE MELO BRAGA
21|3|22|UFAL|3.3625|2.9275|8|6.9275|HENRIQUE PACCA LOUREIRO LUNA
21|3|22|UFAL|3.3625|2.9275|8|6.9275|HEITOR SOARES RAMOS FILHO
21|3|22|UFAL|3.3625|2.9275|8|6.9275|LEONARDO VIANA PEREIRA
21|3|22|UFAL|3.3625|2.9275|8|6.9275|ANDRE LUIZ LINS DE AQUINO
22|3|23|UFBA|12.34705882|10.91176471|18|13.91176471|PEDRO AFONSO DE PAULA PEREIRA
22|2|23|UFBA|12.34705882|10.91176471|18|13.91176471|SILVIO ALEXANDRE BEISL VIEIRA DE MELO
22|2|23|UFBA|12.34705882|10.91176471|18|13.91176471|JARDEL PEREIRA GONCALVES
22|2|23|UFBA|12.34705882|10.91176471|18|13.91176471|HELOYSA MARTINS CARVALHO ANDRADE
22|2|23|UFBA|12.34705882|10.91176471|18|13.91176471|SANDRO LEMOS MACHADO
22|2|23|UFBA|12.34705882|10.91176471|18|13.91176471|DANIEL VERAS RIBEIRO
22|2|23|UFBA|12.34705882|10.91176471|18|13.91176471|MILTON JOSE PORSANI
22|2|23|UFBA|12.34705882|10.91176471|18|13.91176471|EDNILDO ANDRADE TORRES
22|2|23|UFBA|12.34705882|10.91176471|18|13.91176471|ASHER KIPERSTOK FIRST
22|2|23|UFBA|12.34705882|10.91176471|18|13.91176471|PAULO FERNANDO DE ALMEIDA
22|2|23|UFBA|12.34705882|10.91176471|18|13.91176471|CRISTINA MARIA ASSIS LOPES TAVARES DA MATA HERMIDA QUINTEL
22|2|23|UFBA|12.34705882|10.91176471|18|13.91176471|JAILSON BITTENCOURT DE ANDRADE
22|2|23|UFBA|12.34705882|10.91176471|18|13.91176471|GISELE OLIMPIO DA ROCHA
22|2|23|UFBA|12.34705882|10.91176471|18|13.91176471|CAIO MARIO CASTRO DE CASTILHO
22|2|23|UFBA|12.34705882|10.91176471|18|13.91176471|MARIA DAS GRACAS ANDRADE KORN
22|2|23|UFBA|12.34705882|10.91176471|18|13.91176471|LUIZ ROGERIO PINHO DE ANDRADE LIMA
22|2|23|UFBA|12.34705882|10.91176471|18|13.91176471|IURI MUNIZ PEPE
23|3|24|UFC|5.48661972|4.28591549|18|13.28591549|NICOLINO TROMPIERI FILHO
23|3|24|UFC|5.48661972|4.28591549|18|13.28591549|GERARDO CRISTINO FILHO
23|3|24|UFC|5.48661972|4.28591549|18|13.28591549|EDSON HOLANDA TEIXEIRA
23|3|24|UFC|5.48661972|4.28591549|18|13.28591549|ARMENIO AGUIAR DOS SANTOS
23|3|24|UFC|5.48661972|4.28591549|18|13.28591549|WALTER ARAUJO ZIN
23|3|24|UFC|5.48661972|4.28591549|18|13.28591549|IGOR IUCO CASTRO DA SILVA
23|3|24|UFC|5.48661972|4.28591549|18|13.28591549|MARCIA VIVIANE ALVES SARAIVA
23|3|24|UFC|5.48661972|4.28591549|18|13.28591549|KARUZA MARIA ALVES PEREIRA
23|3|24|UFC|5.48661972|4.28591549|18|13.28591549|LEONARDO DAMASCENO DE SÁ
23|3|24|UFC|5.48661972|4.28591549|18|13.28591549|MARIA ELIAS SOARES
23|3|24|UFC|5.48661972|4.28591549|18|13.28591549|MARIA DO SOCORRO DE SOUSA RODRIGUES
23|3|24|UFC|5.48661972|4.28591549|18|13.28591549|ANDRE JALLES MONTEIRO
23|3|24|UFC|5.48661972|4.28591549|18|13.28591549|VICENTE LIMA CRISOSTOMO
23|3|24|UFC|5.48661972|4.28591549|18|13.28591549|ALBERTO SAMPAIO LIMA
23|3|24|UFC|5.48661972|4.28591549|18|13.28591549|WAGNER BANDEIRA ANDRIOLA
23|3|24|UFC|5.48661972|4.28591549|18|13.28591549|MAXWEEL VERAS RODRIGUES
23|3|24|UFC|5.48661972|4.28591549|18|13.28591549|SUELI MARIA DE ARAUJO CAVALCANTE
23|3|24|UFC|5.48661972|4.28591549|18|13.28591549|ELOISA MAIA VIDAL
23|3|24|UFC|5.48661972|4.28591549|18|13.28591549|VIRGINIA BENTES PINTO
23|3|24|UFC|5.48661972|4.28591549|18|13.28591549|RODRIGO MARANGUAPE SILVA DA CUNHA
23|3|24|UFC|5.48661972|4.28591549|18|13.28591549|ANDRE HAGUETTE
23|3|24|UFC|5.48661972|4.28591549|18|13.28591549|FRANCISCO PLACIDO NOGUEIRA ARCANJO
23|3|24|UFC|5.48661972|4.28591549|18|13.28591549|MARIA ADELANE MONTEIRO DA SILVA
23|3|24|UFC|5.48661972|4.28591549|18|13.28591549|LUIZ ODORICO MONTEIRO DE ANDRADE
23|3|24|UFC|5.48661972|4.28591549|18|13.28591549|PERCY ANTONIO GALIMBERTTI CATANIO
23|3|24|UFC|5.48661972|4.28591549|18|13.28591549|GEISON VASCONCELOS LIRA
23|3|24|UFC|5.48661972|4.28591549|18|13.28591549|CAMILLA ARAUJO LOPES VIEIRA
23|3|24|UFC|5.48661972|4.28591549|18|13.28591549|LUIS ACHILLES RODRIGUES FURTADO
23|3|24|UFC|5.48661972|4.28591549|18|13.28591549|CIBELLY ALINY SIQUEIRA LIMA FREITAS
23|3|24|UFC|5.48661972|4.28591549|18|13.28591549|EDSON HOLANDA TEIXEIRA
23|3|24|UFC|5.48661972|4.28591549|18|13.28591549|DEBORAH CHRISTINA ANTUNES
23|3|24|UFC|5.48661972|4.28591549|18|13.28591549|IZABELLE MONT ALVERNE NAPOLEAO ALBUQUERQUE
23|3|24|UFC|5.48661972|4.28591549|18|13.28591549|ELIANY NAZARE OLIVEIRA
23|3|24|UFC|5.48661972|4.28591549|18|13.28591549|MARISTELA INES OSAWA VASCONCELOS
23|3|24|UFC|5.48661972|4.28591549|18|13.28591549|ANA LUCIA FIGUEIREDO PORTO
23|3|24|UFC|5.48661972|4.28591549|18|13.28591549|LISSIANA MAGNA VASCONCELOS AGUIAR
23|3|24|UFC|5.48661972|4.28591549|18|13.28591549|JOSE LUIZ DE LIMA FILHO
23|3|24|UFC|5.48661972|4.28591549|18|13.28591549|KYRIA SANTIAGO DO NASCIMENTO
23|3|24|UFC|5.48661972|4.28591549|18|13.28591549|CELSO SHINITI NAGANO
23|3|24|UFC|5.48661972|4.28591549|18|13.28591549|GEISON VASCONCELOS LIRA
23|3|24|UFC|5.48661972|4.28591549|18|13.28591549|VICTOR ALVES CARNEIRO
23|3|24|UFC|5.48661972|4.28591549|18|13.28591549|JOSE RONALDO VASCONCELOS DA GRACA
23|3|24|UFC|5.48661972|4.28591549|18|13.28591549|MARCELO MIRANDA DE MELO
23|3|24|UFC|5.48661972|4.28591549|18|13.28591549|VICENTE DE PAULO TEIXEIRA PINTO
23|3|24|UFC|5.48661972|4.28591549|18|13.28591549|BENILDO SOUSA CAVADA
23|3|24|UFC|5.48661972|4.28591549|18|13.28591549|CHRISTIAN DENNYS MONTEIRO DE OLIVEIRA
23|3|24|UFC|5.48661972|4.28591549|18|13.28591549|MARIA DOLORES DE BRITO MOTA
23|3|24|UFC|5.48661972|4.28591549|18|13.28591549|FERNANDO JOSE PIRES DE SOUSA
23|3|24|UFC|5.48661972|4.28591549|18|13.28591549|CARLOS AMERICO LEITE MOREIRA
23|3|24|UFC|5.48661972|4.28591549|18|13.28591549|ALBA MARIA PINHO DE CARVALHO
23|3|24|UFC|5.48661972|4.28591549|18|13.28591549|ELZA MARIA FRANCO BRAGA
23|3|24|UFC|5.48661972|4.28591549|18|13.28591549|FRANCISCA SILVANIA DE SOUSA MONTE
23|3|24|UFC|5.48661972|4.28591549|18|13.28591549|REJANE BATISTA VASCOCELOS
23|3|24|UFC|5.48661972|4.28591549|18|13.28591549|ALCIDES FERNANDO GUSSI
23|3|24|UFC|5.48661972|4.28591549|18|13.28591549|ELIONE MARIA NOGUEIRA DIOGENES
23|3|24|UFC|5.48661972|4.28591549|18|13.28591549|GEMA GALGANI SILVEIRA LEITE ESMERALDO
23|3|24|UFC|5.48661972|4.28591549|18|13.28591549|LEA CARVALHO RODRIGUES
23|3|24|UFC|5.48661972|4.28591549|18|13.28591549|LUIZ ANTONIO MACIEL DE PAULA
23|3|24|UFC|5.48661972|4.28591549|18|13.28591549|JOSE ROBERTO VIANA SILVA
23|3|24|UFC|5.48661972|4.28591549|18|13.28591549|ANTONIO ALFREDO RODRIGUES E SILVA
23|3|24|UFC|5.48661972|4.28591549|18|13.28591549|CARLA THICIANE VASCONCELOS DE MELO
23|3|24|UFC|5.48661972|4.28591549|18|13.28591549|ANDRE LUIS COELHO DA SILVA
23|3|24|UFC|5.48661972|4.28591549|18|13.28591549|RICARDO PIRES DOS SANTOS
23|3|24|UFC|5.48661972|4.28591549|18|13.28591549|BRUNO ANDERSON MATIAS DA ROCHA
23|3|24|UFC|5.48661972|4.28591549|18|13.28591549|MIRNA MARQUES BEZERRA BRAYNER
23|3|24|UFC|5.48661972|4.28591549|18|13.28591549|EDUARDO GIRAO SANTIAGO
23|3|24|UFC|5.48661972|4.28591549|18|13.28591549|JOSE ALMIR FARIAS FILHO
23|3|24|UFC|5.48661972|4.28591549|18|13.28591549|NORMA MARIA BARROS BENEVIDES
23|3|24|UFC|5.48661972|4.28591549|18|13.28591549|JOAO WELLIANDRE CARNEIRO ALEXANDRE
23|3|24|UFC|5.48661972|4.28591549|18|13.28591549|ROBERTA CAVALCANTE MUNIZ LIRA
23|3|24|UFC|5.48661972|4.28591549|18|13.28591549|IVANA CRISTINA DE HOLANDA CUNHA BARRETO
23|3|24|UFC|5.48661972|4.28591549|18|13.28591549|MARIA SOCORRO DE ARAUJO DIAS
23|3|24|UFC|5.48661972|4.28591549|18|13.28591549|PAULO ROBERTO SANTOS
24|3|25|UFES|2.47045455|1.72727273|5|2.72727273|JOSE RAFAEL CAPUA PROVETI
24|3|25|UFES|2.47045455|1.72727273|5|2.72727273|MARCELO SILVEIRA BACELOS
24|3|25|UFES|2.47045455|1.72727273|5|2.72727273|GLAYDSTON MATTOS RIBEIRO
24|3|25|UFES|2.47045455|1.72727273|5|2.72727273|GILMENE BIANCO
24|3|25|UFES|2.47045455|1.72727273|5|2.72727273|LAURA MARINA PINOTTI
24|3|25|UFES|2.47045455|1.72727273|5|2.72727273|BRENO NONATO DE MELO
24|3|25|UFES|2.47045455|1.72727273|5|2.72727273|TAISA SHIMOSAKAI DE LIRA
24|3|25|UFES|2.47045455|1.72727273|5|2.72727273|GISELE DE LORENA DINIZ CHAVES
24|3|25|UFES|2.47045455|1.72727273|5|2.72727273|FABIO DE ASSIS RESSEL PEREIRA
24|3|25|UFES|2.47045455|1.72727273|5|2.72727273|EDUARDO PERINI MUNIZ
24|3|25|UFES|2.47045455|1.72727273|5|2.72727273|CARLOS MINORU NASCIMENTO YOSHIOKA
24|3|25|UFES|2.47045455|1.72727273|5|2.72727273|WANDERLEY CARDOSO CELESTE
24|3|25|UFES|2.47045455|1.72727273|5|2.72727273|ANA PAULA MENEGUELO
24|3|25|UFES|2.47045455|1.72727273|5|2.72727273|RONEY PIGNATON DA SILVA
24|3|25|UFES|2.47045455|1.72727273|5|2.72727273|LEONARDO DA SILVA ARRIECHE
24|3|25|UFES|2.47045455|1.72727273|5|2.72727273|MARIA DE FATIMA PEREIRA DOS SANTOS
24|3|25|UFES|2.47045455|1.72727273|5|2.72727273|ANA BEATRIZ NEVES BRITO
24|3|25|UFES|2.47045455|1.72727273|5|2.72727273|MARIELCE DE CASSIA RIBEIRO TOSTA
24|3|25|UFES|2.47045455|1.72727273|5|2.72727273|OLDRICH JOEL ROMERO GUZMAN
24|3|25|UFES|2.47045455|1.72727273|5|2.72727273|MAXIMILIAN SERGUEI MESQUITA
24|3|25|UFES|2.47045455|1.72727273|5|2.72727273|PAULO SERGIO DA SILVA PORTO
24|3|25|UFES|2.47045455|1.72727273|5|2.72727273|RODRIGO DIAS PEREIRA
25|2|26|UFF_MCCT|1.53846154|1.17692308|4|1.17692308|TIAGO ARAUJO NEVES
25|2|26|UFF_MCCT|1.53846154|1.17692308|4|1.17692308|JOSE FLAVIO SILVEIRA FEITEIRA
25|2|26|UFF_MCCT|1.53846154|1.17692308|4|1.17692308|DIOMAR CESAR LOBAO
25|2|26|UFF_MCCT|1.53846154|1.17692308|4|1.17692308|GUSTAVO BENITEZ ALVAREZ
25|2|26|UFF_MCCT|1.53846154|1.17692308|4|1.17692308|YOISELL RODRIGUEZ NUNEZ
25|2|26|UFF_MCCT|1.53846154|1.17692308|4|1.17692308|WESLLEY LUIZ DA SILVA ASSIS
25|2|26|UFF_MCCT|1.53846154|1.17692308|4|1.17692308|THADEU JOSINO PEREIRA PENNA
25|2|26|UFF_MCCT|1.53846154|1.17692308|4|1.17692308|SALETE SOUZA DE OLIVEIRA
25|2|26|UFF_MCCT|1.53846154|1.17692308|4|1.17692308|PANTERS RODRIGUEZ BERMUDEZ
25|2|26|UFF_MCCT|1.53846154|1.17692308|4|1.17692308|EMERSON SOUZA FREIRE
25|2|26|UFF_MCCT|1.53846154|1.17692308|4|1.17692308|CLEBER DE ALMEIDA CORREA JUNIOR
25|2|26|UFF_MCCT|1.53846154|1.17692308|4|1.17692308|AQUINO LAURI DE ESPINDOLA
25|2|26|UFF_MCCT|1.53846154|1.17692308|4|1.17692308|VANESSA DA SILVA GARCIA
25|2|26|UFF_MCCT|1.53846154|1.17692308|4|1.17692308|TIBERIO BORGES VALE
25|2|26|UFF_MCCT|1.53846154|1.17692308|4|1.17692308|ROSILENE ABREU PORTELLA CORREA
25|2|26|UFF_MCCT|1.53846154|1.17692308|4|1.17692308|THIAGO JORDEM PEREIRA
25|2|26|UFF_MCCT|1.53846154|1.17692308|4|1.17692308|CECILIA TOLEDO HERNANDEZ
25|2|26|UFF_MCCT|1.53846154|1.17692308|4|1.17692308|WELLINGTON GOMES DANTAS
25|2|26|UFF_MCCT|1.53846154|1.17692308|4|1.17692308|CLEYTON SENIOR STAMPA
25|2|26|UFF_MCCT|1.53846154|1.17692308|4|1.17692308|GUSTAVO SILVA SEMAAN
25|2|26|UFF_MCCT|1.53846154|1.17692308|4|1.17692308|ANDRE GUSSO
25|2|26|UFF_MCCT|1.53846154|1.17692308|4|1.17692308|JORGE FERREIRA
25|2|26|UFF_MCCT|1.53846154|1.17692308|4|1.17692308|ELIANE DA SILVA CHRISTO
25|2|26|UFF_MCCT|1.53846154|1.17692308|4|1.17692308|LUIS ALBERTO DUNCAN RANGEL
25|2|26|UFF_MCCT|1.53846154|1.17692308|4|1.17692308|RICARDO HENRIQUES LEAL
25|2|26|UFF_MCCT|1.53846154|1.17692308|4|1.17692308|PAULO RANGEL RIOS
25|4|27|UFF_SGS|5.71590909|3.3|19|5.3|RICARDO GABBAY DE SOUZA
25|4|27|UFF_SGS|5.71590909|3.3|19|5.3|JACOB BINSZTOK
25|4|27|UFF_SGS|5.71590909|3.3|19|5.3|HELDER GOMES COSTA
25|4|27|UFF_SGS|5.71590909|3.3|19|5.3|SERGIO LUIZ BRAGA FRANCA
25|4|27|UFF_SGS|5.71590909|3.3|19|5.3|EDISON DAUSACKER BIDONE
25|4|27|UFF_SGS|5.71590909|3.3|19|5.3|ANNIBAL PARRACHO SANTANNA
25|4|27|UFF_SGS|5.71590909|3.3|19|5.3|JOSE RODRIGUES DE FARIAS FILHO
25|4|27|UFF_SGS|5.71590909|3.3|19|5.3|EMMANUEL PAIVA DE ANDRADE
25|4|27|UFF_SGS|5.71590909|3.3|19|5.3|JULIO VIEIRA NETO
25|4|27|UFF_SGS|5.71590909|3.3|19|5.3|OSVALDO LUIZ GONCALVES QUELHAS
25|4|27|UFF_SGS|5.71590909|3.3|19|5.3|MIRIAN PICININI MEXAS
25|4|27|UFF_SGS|5.71590909|3.3|19|5.3|ROGER MATSUMOTO MOREIRA
25|4|27|UFF_SGS|5.71590909|3.3|19|5.3|MARIA DE LURDES COSTA DOMINGOS
25|4|27|UFF_SGS|5.71590909|3.3|19|5.3|MARCELO JASMIM MEIRINO
25|4|27|UFF_SGS|5.71590909|3.3|19|5.3|LUIS PEREZ ZOTES
25|4|27|UFF_SGS|5.71590909|3.3|19|5.3|JULIO CESAR DE FARIA ALVIM WASSERMAN
25|4|27|UFF_SGS|5.71590909|3.3|19|5.3|DANIEL VIDAL PEREZ
25|4|27|UFF_SGS|5.71590909|3.3|19|5.3|SERGIO RICARDO DA SILVEIRA BARROS
25|4|27|UFF_SGS|5.71590909|3.3|19|5.3|LUIS ALBERTO DUNCAN RANGEL
25|4|27|UFF_SGS|5.71590909|3.3|19|5.3|LISIANE VEIGA MATTOS
25|4|27|UFF_SGS|5.71590909|3.3|19|5.3|GILSON BRITO ALVES LIMA
25|4|27|UFF_SGS|5.71590909|3.3|19|5.3|LETICIA HELENA MEDEIROS VELOSO
26|3|28|UFG|1.97631579|1.25|4|2.25|PAULO ROBERTO BERGAMASCHI
26|3|28|UFG|1.97631579|1.25|4|2.25|MURIS LAGE JUNIOR
26|3|28|UFG|1.97631579|1.25|4|2.25|MICHELLE ANDRADE
26|3|28|UFG|1.97631579|1.25|4|2.25|MARCOS NAPOLEAO RABELO
26|3|28|UFG|1.97631579|1.25|4|2.25|MARCOS AURELIO BATISTA
26|3|28|UFG|1.97631579|1.25|4|2.25|MARCELO HENRIQUE STOPPA
26|3|28|UFG|1.97631579|1.25|4|2.25|JOSE DOS REIS VIEIRA DE MOURA JUNIOR
26|3|28|UFG|1.97631579|1.25|4|2.25|HELIO YOCHIHIRO FUCHIGAMI
26|3|28|UFG|1.97631579|1.25|4|2.25|WELLINGTON ANDRADE DA SILVA
26|3|28|UFG|1.97631579|1.25|4|2.25|VASTON GONCALVES DA COSTA
26|3|28|UFG|1.97631579|1.25|4|2.25|HEBER MARTINS DE PAULA
26|3|28|UFG|1.97631579|1.25|4|2.25|FRAN SERGIO LOBATO
26|3|28|UFG|1.97631579|1.25|4|2.25|DONALD MARK SANTEE
26|3|28|UFG|1.97631579|1.25|4|2.25|CELSO VIEIRA ABUD
26|3|28|UFG|1.97631579|1.25|4|2.25|TOBIAS ANDERSON GUIMARAES
26|3|28|UFG|1.97631579|1.25|4|2.25|THIAGO ALVES DE QUEIROZ
26|3|28|UFG|1.97631579|1.25|4|2.25|SERGIO FRANCISCO DA SILVA
26|3|28|UFG|1.97631579|1.25|4|2.25|ROMES ANTONIO BORGES
26|3|28|UFG|1.97631579|1.25|4|2.25|ROBERTO MENDES FINZI NETO
27|5|29|UFGD|7.27|5.455|12|6.455|ERITON RODRIGO BOTERO
27|5|29|UFGD|7.27|5.455|12|6.455|ELIANA JANET SANJINEZ ARGANDONA
27|5|29|UFGD|7.27|5.455|12|6.455|EDUARDO JOSE DE ARRUDA
27|5|29|UFGD|7.27|5.455|12|6.455|ANDERSON RODRIGUES LIMA CAIRES
27|5|29|UFGD|7.27|5.455|12|6.455|ALEXEIA BARUFATTI GRISOLIA
27|5|29|UFGD|7.27|5.455|12|6.455|ZEFA VALDIVINA PEREIRA
27|5|29|UFGD|7.27|5.455|12|6.455|SILVIA MARIA MARTELLI
27|5|29|UFGD|7.27|5.455|12|6.455|SEILA ROJAS DE SOUZA
27|5|29|UFGD|7.27|5.455|12|6.455|ROZANNA MARQUES MUZZI
27|5|29|UFGD|7.27|5.455|12|6.455|RODRIGO SIMOES RIBEIRO LEITE
27|5|29|UFGD|7.27|5.455|12|6.455|PATRICIA HATSUE SUEGAMA
27|5|29|UFGD|7.27|5.455|12|6.455|NELSON LUIS DE CAMPOS DOMINGUES
27|5|29|UFGD|7.27|5.455|12|6.455|MARCIA REGINA RUSSO
27|5|29|UFGD|7.27|5.455|12|6.455|LUCAS PIZZUTI
27|5|29|UFGD|7.27|5.455|12|6.455|KELLY MARI PIRES DE OLIVEIRA
27|5|29|UFGD|7.27|5.455|12|6.455|KELLY CRISTINA DA SILVA BRADES
27|5|29|UFGD|7.27|5.455|12|6.455|IVAN RAMIRES
27|5|29|UFGD|7.27|5.455|12|6.455|HEBERTH JULIANO VIEIRA
27|5|29|UFGD|7.27|5.455|12|6.455|GUSTAVO GRACIANO FONSECA
27|5|29|UFGD|7.27|5.455|12|6.455|GLEISON ANTONIO CASAGRANDE
28|4|30|UFJF|3.77307692|3.125|8|4.125|SERGIO ALONSO MUOZ
28|4|30|UFJF|3.77307692|3.125|8|4.125|SAUL DE CASTRO LEITE
28|4|30|UFJF|3.77307692|3.125|8|4.125|RODRIGO WEBER DOS SANTOS
28|4|30|UFJF|3.77307692|3.125|8|4.125|RAFAEL ALVES BONFIM DE QUEIROZ
28|4|30|UFJF|3.77307692|3.125|8|4.125|LUCIANA CONCEICAO DIAS CAMPOS
28|4|30|UFJF|3.77307692|3.125|8|4.125|PRISCILA VANESSA ZABALA CAPRILES GOLIATT
28|4|30|UFJF|3.77307692|3.125|8|4.125|PATRICIA HABIB HALLAK
28|4|30|UFJF|3.77307692|3.125|8|4.125|MICHELE CRISTINA RESENDE FARAGE
28|4|30|UFJF|3.77307692|3.125|8|4.125|MARCELO LOBOSCO
28|4|30|UFJF|3.77307692|3.125|8|4.125|FLAVIO DE SOUZA BARBOSA
28|4|30|UFJF|3.77307692|3.125|8|4.125|RAUL FONSECA NETO
28|4|30|UFJF|3.77307692|3.125|8|4.125|LEONARDO GOLIATT DA FONSECA
28|4|30|UFJF|3.77307692|3.125|8|4.125|CARLOS CRISTIANO HASENCLEVER BORGES
28|4|30|UFJF|3.77307692|3.125|8|4.125|BERNARDO MARTINS ROCHA
28|4|30|UFJF|3.77307692|3.125|8|4.125|ALEXANDRE ABRAHAO CURY
28|4|30|UFJF|3.77307692|3.125|8|4.125|AFONSO CELSO DE CASTRO LEMONGE
28|4|30|UFJF|3.77307692|3.125|8|4.125|HENRIQUE STEINHERZ HIPPERT
28|4|30|UFJF|3.77307692|3.125|8|4.125|CIRO DE BARROS BARBOSA
28|4|30|UFJF|3.77307692|3.125|8|4.125|GRIGORI CHAPIRO
28|4|30|UFJF|3.77307692|3.125|8|4.125|FLAVIA DE SOUZA BASTOS
28|4|30|UFJF|3.77307692|3.125|8|4.125|WILHELM PASSARELLA FREIRE
28|4|30|UFJF|3.77307692|3.125|8|4.125|ELSON MAGALHAES TOLEDO
28|4|30|UFJF|3.77307692|3.125|8|4.125|FELIPE DOS SANTOS LOUREIRO
28|4|30|UFJF|3.77307692|3.125|8|4.125|HELIO JOSE CORREA BARBOSA
28|4|30|UFJF|3.77307692|3.125|8|4.125|LUIS PAULO DA SILVA BARRA
28|4|30|UFJF|3.77307692|3.125|8|4.125|HEDER SOARES BERNARDINO
29|5|31|UFPB_J.P-MDS|8.70681818|4.91818182|12|6.91818182|ANNA ALICE FIGUEIREDO DE ALMEIDA
29|5|31|UFPB_J.P-MDS|8.70681818|4.91818182|12|6.91818182|RONEI MARCOS DE MORAES
29|5|31|UFPB_J.P-MDS|8.70681818|4.91818182|12|6.91818182|ANA TEREZA MEDEIROS CAVALCANTI DA SILVA
29|5|31|UFPB_J.P-MDS|8.70681818|4.91818182|12|6.91818182|TATIENE CORREIA DE SOUZA
29|5|31|UFPB_J.P-MDS|8.70681818|4.91818182|12|6.91818182|HEMILIO FERNANDES CAMPOS COELHO
29|5|31|UFPB_J.P-MDS|8.70681818|4.91818182|12|6.91818182|JORDANA DE ALMEIDA NOGUEIRA
29|5|31|UFPB_J.P-MDS|8.70681818|4.91818182|12|6.91818182|JOZEMAR PEREIRA DOS SANTOS
29|5|31|UFPB_J.P-MDS|8.70681818|4.91818182|12|6.91818182|CALIANDRA MARIA BEZERRA LUNA LIMA
29|5|31|UFPB_J.P-MDS|8.70681818|4.91818182|12|6.91818182|KATIA SUELY QUEIROZ SILVA RIBEIRO
29|5|31|UFPB_J.P-MDS|8.70681818|4.91818182|12|6.91818182|JOSEMBERG MOURA DE ANDRADE
29|5|31|UFPB_J.P-MDS|8.70681818|4.91818182|12|6.91818182|NEIR ANTUNES PAES
29|5|31|UFPB_J.P-MDS|8.70681818|4.91818182|12|6.91818182|TARCIANA LIBERAL PEREIRA DE ARAUJO
29|5|31|UFPB_J.P-MDS|8.70681818|4.91818182|12|6.91818182|CESAR CAVALCANTI DA SILVA
29|5|31|UFPB_J.P-MDS|8.70681818|4.91818182|12|6.91818182|LILIANE DOS SANTOS MACHADO
29|5|31|UFPB_J.P-MDS|8.70681818|4.91818182|12|6.91818182|JOAO AGNALDO DO NASCIMENTO
29|5|31|UFPB_J.P-MDS|8.70681818|4.91818182|12|6.91818182|RODRIGO PINHEIRO DE TOLEDO VIANNA
29|5|31|UFPB_J.P-MDS|8.70681818|4.91818182|12|6.91818182|EUFRASIO DE ANDRADE LIMA NETO
29|5|31|UFPB_J.P-MDS|8.70681818|4.91818182|12|6.91818182|LUIZ MEDEIROS DE ARAUJO LIMA FILHO
29|5|31|UFPB_J.P-MDS|8.70681818|4.91818182|12|6.91818182|ANA MARIA GONDIM VALENCA
29|5|31|UFPB_J.P-MDS|8.70681818|4.91818182|12|6.91818182|ULISSES UMBELINO DOS ANJOS
29|5|31|UFPB_J.P-MDS|8.70681818|4.91818182|12|6.91818182|FLAVIA EMILIA LEITE DE LIMA
29|5|31|UFPB_J.P-MDS|8.70681818|4.91818182|12|6.91818182|SERGIO RIBEIRO DOS SANTOS
29|3|32|UFPB_J.P-MMC|2.071875|1.84375|4|1.84375|GERD BRUNO DA ROCHA
29|3|32|UFPB_J.P-MMC|2.071875|1.84375|4|1.84375|JOSE MIGUEL AROZTEGUI MASSERA
29|3|32|UFPB_J.P-MMC|2.071875|1.84375|4|1.84375|ANDREA VANESSA ROCHA
29|3|32|UFPB_J.P-MMC|2.071875|1.84375|4|1.84375|ALEXANDRE DE BUSTAMANTE SIMAS
29|3|32|UFPB_J.P-MMC|2.071875|1.84375|4|1.84375|GUIDO LEMOS DE SOUZA FILHO
29|3|32|UFPB_J.P-MMC|2.071875|1.84375|4|1.84375|ANTONIO JOSE BONESS DOS SANTOS
29|3|32|UFPB_J.P-MMC|2.071875|1.84375|4|1.84375|MOISES DANTAS DOS SANTOS
29|3|32|UFPB_J.P-MMC|2.071875|1.84375|4|1.84375|ZAQUEU ERNESTO DA SILVA
29|3|32|UFPB_J.P-MMC|2.071875|1.84375|4|1.84375|JAIRO ROCHA DE FARIA
29|3|32|UFPB_J.P-MMC|2.071875|1.84375|4|1.84375|HUGO LEONARDO DAVI DE SOUZA CAVALCANTE
29|3|32|UFPB_J.P-MMC|2.071875|1.84375|4|1.84375|WALDIR LEITE ROQUE
29|3|32|UFPB_J.P-MMC|2.071875|1.84375|4|1.84375|ANA PAULA PINTADO WYSE
29|3|32|UFPB_J.P-MMC|2.071875|1.84375|4|1.84375|KELY DIANA VILLACORTA VILLACORTA
29|3|32|UFPB_J.P-MMC|2.071875|1.84375|4|1.84375|FELIPE ANTONIO GARCIA MORENO
29|3|32|UFPB_J.P-MMC|2.071875|1.84375|4|1.84375|JOSE MAURICIO ALVES DE MATOS GURGEL
29|3|32|UFPB_J.P-MMC|2.071875|1.84375|4|1.84375|ROBERTO QUIRINO DO NASCIMENTO
30|3|33|UFPEL|2.98125|1.915625|2|2.915625|WILLIAN SILVA BARROS
30|3|33|UFPEL|2.98125|1.915625|2|2.915625|JULIAN BRAVO CASTILLERO
30|3|33|UFPEL|2.98125|1.915625|2|2.915625|JONAS DA COSTA CARVALHO
30|3|33|UFPEL|2.98125|1.915625|2|2.915625|GLENIO AGUIAR GONCALVES
30|3|33|UFPEL|2.98125|1.915625|2|2.915625|FABRICIO PEREIRA HARTER
30|3|33|UFPEL|2.98125|1.915625|2|2.915625|FABIO SILVA BOTELHO
30|3|33|UFPEL|2.98125|1.915625|2|2.915625|DANIELA BUSKE
30|3|33|UFPEL|2.98125|1.915625|2|2.915625|CLAUDIO ZEN PETERSEN
30|3|33|UFPEL|2.98125|1.915625|2|2.915625|CAMILA PINTO DA COSTA
30|3|33|UFPEL|2.98125|1.915625|2|2.915625|WELTON ALVES DE MENEZES
30|3|33|UFPEL|2.98125|1.915625|2|2.915625|VALDECIR BOTTEGA
30|3|33|UFPEL|2.98125|1.915625|2|2.915625|REJANE PERGHER
30|3|33|UFPEL|2.98125|1.915625|2|2.915625|REGIS SPEROTTO DE QUADROS
30|3|33|UFPEL|2.98125|1.915625|2|2.915625|LESLIE DARIEN PEREZ FERNANDEZ
30|3|33|UFPEL|2.98125|1.915625|2|2.915625|ANDREI BOURCHTEIN
30|3|33|UFPEL|2.98125|1.915625|2|2.915625|ALEXANDRE MOLTER
31|4|34|UFPR|2.884375|1.728125|7|7.728125|JULIANA DE CONTO
31|4|34|UFPR|2.884375|1.728125|7|7.728125|JOSE SIMAO DE PAULA PINTO
31|4|34|UFPR|2.884375|1.728125|7|7.728125|HELENA DE FATIMA NUNES SILVA
31|4|34|UFPR|2.884375|1.728125|7|7.728125|GLAUCO GOMES DE MENEZES
31|4|34|UFPR|2.884375|1.728125|7|7.728125|EGON WALTER WILDAUER
31|4|34|UFPR|2.884375|1.728125|7|7.728125|EDSON RONALDO GUARIDO FILHO
31|4|34|UFPR|2.884375|1.728125|7|7.728125|EDELVINO RAZZOLINI FILHO
31|4|34|UFPR|2.884375|1.728125|7|7.728125|DENISE MARIA WORANOVICZ CARVALHO
31|4|34|UFPR|2.884375|1.728125|7|7.728125|DENISE FUKUMI TSUNODA
31|4|34|UFPR|2.884375|1.728125|7|7.728125|DEBORAH RIBEIRO CARVALHO
31|4|34|UFPR|2.884375|1.728125|7|7.728125|VERA KARAM DE CHUEIRI
31|4|34|UFPR|2.884375|1.728125|7|7.728125|CICERO APARECIDO BEZERRA
31|4|34|UFPR|2.884375|1.728125|7|7.728125|CELSO YOSHIKAZU ISHIDA
31|4|34|UFPR|2.884375|1.728125|7|7.728125|PATRICIA ZENI MARCHIORI
31|4|34|UFPR|2.884375|1.728125|7|7.728125|NEWTON CORREA DE CASTILHO JUNIOR
31|4|34|UFPR|2.884375|1.728125|7|7.728125|MARIA DO CARMO DUARTE FREITAS
32|3|35|UFRRJ|2.65681818|2.28636364|3|2.28636364|JOSE WEBERSZPIL
32|3|35|UFRRJ|2.65681818|2.28636364|3|2.28636364|GIZELLE KUPAC VIANNA
32|3|35|UFRRJ|2.65681818|2.28636364|3|2.28636364|FREDERICO ALAN DE OLIVEIRA CRUZ
32|3|35|UFRRJ|2.65681818|2.28636364|3|2.28636364|CLAUDIA MAZZA DIAS
32|3|35|UFRRJ|2.65681818|2.28636364|3|2.28636364|CLARISSA OLIVEIRA DA SILVA
32|3|35|UFRRJ|2.65681818|2.28636364|3|2.28636364|CARLOS MAURICIO RABELLO DE SANTANNA
32|3|35|UFRRJ|2.65681818|2.28636364|3|2.28636364|CAMILA SILVA DE MAGALHAES
32|3|35|UFRRJ|2.65681818|2.28636364|3|2.28636364|ANGEL RAMON SANCHEZ DELGADO
32|3|35|UFRRJ|2.65681818|2.28636364|3|2.28636364|ADRIA RAMOS DE LYRA
32|3|35|UFRRJ|2.65681818|2.28636364|3|2.28636364|SERGIO MANUEL SERRA DA CRUZ
32|3|35|UFRRJ|2.65681818|2.28636364|3|2.28636364|RAFAEL BERNARDO TEIXEIRA
32|3|35|UFRRJ|2.65681818|2.28636364|3|2.28636364|MOISES AUGUSTO DA SILVA MONTEIRO DE ARAUJO
32|3|35|UFRRJ|2.65681818|2.28636364|3|2.28636364|MARCELO DIB CRUZ
32|3|35|UFRRJ|2.65681818|2.28636364|3|2.28636364|CARLOS ANDRES REYNA VERA TUDELA
32|3|35|UFRRJ|2.65681818|2.28636364|3|2.28636364|DUILIO TADEU DA CONCEICAO JUNIOR
32|3|35|UFRRJ|2.65681818|2.28636364|3|2.28636364|ROBSON MARIANO DA SILVA
32|3|35|UFRRJ|2.65681818|2.28636364|3|2.28636364|PRISCILA MACHADO VIEIRA LIMA
32|3|35|UFRRJ|2.65681818|2.28636364|3|2.28636364|ROSANE FERREIRA DE OLIVEIRA
32|3|35|UFRRJ|2.65681818|2.28636364|3|2.28636364|RONALDO MALHEIROS GREGORIO
32|3|35|UFRRJ|2.65681818|2.28636364|3|2.28636364|WANDERSON JOSE LAMBERT
32|3|35|UFRRJ|2.65681818|2.28636364|3|2.28636364|WAGNER DE SOUZA TASSINARI
32|3|35|UFRRJ|2.65681818|2.28636364|3|2.28636364|MARCOS BACIS CEDDIA
33|6|36|UFSC_ENG|7.35853659|4.49146341|12|18.49146341|ALICE THERESINHA CYBIS PEREIRA
33|6|36|UFSC_ENG|7.35853659|4.49146341|12|18.49146341|ALEXANDRE LEOPOLDO GONCALVES
33|6|36|UFSC_ENG|7.35853659|4.49146341|12|18.49146341|AIRES JOSE ROVER
33|6|36|UFSC_ENG|7.35853659|4.49146341|12|18.49146341|PATRICIA DE SÁ FREIRE
33|6|36|UFSC_ENG|7.35853659|4.49146341|12|18.49146341|NERI DOS SANTOS
33|6|36|UFSC_ENG|7.35853659|4.49146341|12|18.49146341|MARIO ANTONIO RIBEIRO DANTAS
33|6|36|UFSC_ENG|7.35853659|4.49146341|12|18.49146341|MARIA JOSE BALDESSAR
33|6|36|UFSC_ENG|7.35853659|4.49146341|12|18.49146341|MARCIO VIEIRA DE SOUZA
33|6|36|UFSC_ENG|7.35853659|4.49146341|12|18.49146341|MARCELO MACEDO
33|6|36|UFSC_ENG|7.35853659|4.49146341|12|18.49146341|LUCIANE MARIA FADEL
33|6|36|UFSC_ENG|7.35853659|4.49146341|12|18.49146341|LIA CAETANO BASTOS
33|6|36|UFSC_ENG|7.35853659|4.49146341|12|18.49146341|JOSE LEOMAR TODESCO
33|6|36|UFSC_ENG|7.35853659|4.49146341|12|18.49146341|JOAO BOSCO DA MOTA ALVES
33|6|36|UFSC_ENG|7.35853659|4.49146341|12|18.49146341|JOAO ARTUR DE SOUZA
33|6|36|UFSC_ENG|7.35853659|4.49146341|12|18.49146341|GREGORIO JEAN VARVAKIS RADOS
33|6|36|UFSC_ENG|7.35853659|4.49146341|12|18.49146341|GERTRUDES APARECIDA DANDOLINI
33|6|36|UFSC_ENG|7.35853659|4.49146341|12|18.49146341|FRANCISCO ANTONIO PEREIRA FIALHO
33|6|36|UFSC_ENG|7.35853659|4.49146341|12|18.49146341|FERNANDO JOSE SPANHOL
33|6|36|UFSC_ENG|7.35853659|4.49146341|12|18.49146341|FERNANDO ALVARO OSTUNI GAUTHIER
33|6|36|UFSC_ENG|7.35853659|4.49146341|12|18.49146341|EDUARDO MOREIRA DA COSTA
33|6|36|UFSC_ENG|7.35853659|4.49146341|12|18.49146341|EDUARDO JUAN SORIANO SIERRA
33|6|36|UFSC_ENG|7.35853659|4.49146341|12|18.49146341|SILVIO SERAFIM DA LUZ FILHO
33|6|36|UFSC_ENG|7.35853659|4.49146341|12|18.49146341|ROSA MARIA VICARI
33|6|36|UFSC_ENG|7.35853659|4.49146341|12|18.49146341|ROGERIO CID BASTOS
33|6|36|UFSC_ENG|7.35853659|4.49146341|12|18.49146341|VANIA RIBAS ULBRICHT
33|6|36|UFSC_ENG|7.35853659|4.49146341|12|18.49146341|TARCISIO VANZIN
33|6|36|UFSC_ENG|7.35853659|4.49146341|12|18.49146341|EDIS MAFRA LAPOLLI
33|6|36|UFSC_ENG|7.35853659|4.49146341|12|18.49146341|MARINA KEIKO NAKAYAMA
33|6|36|UFSC_ENG|7.35853659|4.49146341|12|18.49146341|CRISTIANO JOSE CASTRO DE ALMEIDA CUNHA
33|6|36|UFSC_ENG|7.35853659|4.49146341|12|18.49146341|DENILSON SELL
33|6|36|UFSC_ENG|7.35853659|4.49146341|12|18.49146341|LUIZ OTÁVIO PIMENTEL
33|6|36|UFSC_ENG|7.35853659|4.49146341|12|18.49146341|ANDREA VALERIA STEIL
33|6|36|UFSC_ENG|7.35853659|4.49146341|12|18.49146341|CLARISSA STEFANI TEIXEIRA
33|6|36|UFSC_ENG|7.35853659|4.49146341|12|18.49146341|CARLOS AUGUSTO MONGUILHOTT REMOR
33|6|36|UFSC_ENG|7.35853659|4.49146341|12|18.49146341|ARACI HACK CATAPAN
33|6|36|UFSC_ENG|7.35853659|4.49146341|12|18.49146341|ANA MARIA BENCCIVENI FRANZONI
33|6|36|UFSC_ENG|7.35853659|4.49146341|12|18.49146341|ROBERTO CARLOS DOS SANTOS PACHECO
33|6|36|UFSC_ENG|7.35853659|4.49146341|12|18.49146341|RICHARD PERASSI LUIZ DE SOUSA
33|6|36|UFSC_ENG|7.35853659|4.49146341|12|18.49146341|RICARDO AZAMBUJA SILVEIRA
33|6|36|UFSC_ENG|7.35853659|4.49146341|12|18.49146341|PAULO MAURICIO SELIG
33|6|36|UFSC_ENG|7.35853659|4.49146341|12|18.49146341|VINICIUS MEDINA KERN
33|3|37|UFSC_TIC|3.21111111|1.69166667|7|9.69166667|KATIA CILENE RODRIGUES MADRUGA
33|3|37|UFSC_TIC|3.21111111|1.69166667|7|9.69166667|JUAREZ BENTO DA SILVA
33|3|37|UFSC_TIC|3.21111111|1.69166667|7|9.69166667|JOAO BOSCO DA MOTA ALVES
33|3|37|UFSC_TIC|3.21111111|1.69166667|7|9.69166667|GIOVANI MENDONCA LUNARDI
33|3|37|UFSC_TIC|3.21111111|1.69166667|7|9.69166667|FERNANDO JOSE SPANHOL
33|3|37|UFSC_TIC|3.21111111|1.69166667|7|9.69166667|ELIANE POZZEBON
33|3|37|UFSC_TIC|3.21111111|1.69166667|7|9.69166667|SIMONE MEISTER SOMMER BILESSIMO
33|3|37|UFSC_TIC|3.21111111|1.69166667|7|9.69166667|RODERVAL MARCELINO
33|3|37|UFSC_TIC|3.21111111|1.69166667|7|9.69166667|PAULO CESAR LEITE ESTEVES
33|3|37|UFSC_TIC|3.21111111|1.69166667|7|9.69166667|PATRICIA JANTSCH FIUZA
33|3|37|UFSC_TIC|3.21111111|1.69166667|7|9.69166667|OLGA YEVSEYEVA
33|3|37|UFSC_TIC|3.21111111|1.69166667|7|9.69166667|MARCIO VIEIRA DE SOUZA
33|3|37|UFSC_TIC|3.21111111|1.69166667|7|9.69166667|LUCIANA BOLAN FRIGO
33|3|37|UFSC_TIC|3.21111111|1.69166667|7|9.69166667|ROBSON RODRIGUES LEMOS
33|3|37|UFSC_TIC|3.21111111|1.69166667|7|9.69166667|ANDREA CRISTINA TRIERWEILLER
33|3|37|UFSC_TIC|3.21111111|1.69166667|7|9.69166667|ANDERSON LUIZ FERNANDES PEREZ
33|3|37|UFSC_TIC|3.21111111|1.69166667|7|9.69166667|ALEXANDRE LEOPOLDO GONCALVES
33|3|37|UFSC_TIC|3.21111111|1.69166667|7|9.69166667|VILSON GRUBER
34|2|38|UFSJ|2.21956522|1.88695652|6|2.88695652|ELIDIA MARIA GUERRA
34|2|38|UFSJ|2.21956522|1.88695652|6|2.88695652|DANIELA LEITE FABRINO
34|2|38|UFSJ|2.21956522|1.88695652|6|2.88695652|DANE TADEU CESTAROLLI
34|2|38|UFSJ|2.21956522|1.88695652|6|2.88695652|RENATA CAROLINA ZANETTI LOFRANO
34|2|38|UFSJ|2.21956522|1.88695652|6|2.88695652|ANA MARIA DE OLIVEIRA
34|2|38|UFSJ|2.21956522|1.88695652|6|2.88695652|ANA CLAUDIA BERNARDES SILVA
34|2|38|UFSJ|2.21956522|1.88695652|6|2.88695652|ANDRE LINCOLN BARROSO DE MAGALHAES
34|2|38|UFSJ|2.21956522|1.88695652|6|2.88695652|TELDE NATEL CUSTODIO
34|2|38|UFSJ|2.21956522|1.88695652|6|2.88695652|BRUNO MEIRELES XAVIER
34|2|38|UFSJ|2.21956522|1.88695652|6|2.88695652|BOUTROS SARROUH
34|2|38|UFSJ|2.21956522|1.88695652|6|2.88695652|ANTONIO HELVECIO TOTOLA
34|2|38|UFSJ|2.21956522|1.88695652|6|2.88695652|SILVANA DE QUEIROZ SILVA
34|2|38|UFSJ|2.21956522|1.88695652|6|2.88695652|SANDRA DE CASSIA DIAS
34|2|38|UFSJ|2.21956522|1.88695652|6|2.88695652|ROGERIO ANTONIO PICOLI
34|2|38|UFSJ|2.21956522|1.88695652|6|2.88695652|ANDRE AGUIAR MENDES
34|2|38|UFSJ|2.21956522|1.88695652|6|2.88695652|MARCELO PERENCIN DE ARRUDA RIBEIRO
34|2|38|UFSJ|2.21956522|1.88695652|6|2.88695652|MARCELO DA SILVA BATISTA
34|2|38|UFSJ|2.21956522|1.88695652|6|2.88695652|MARCEL OTAVIO CERRI
34|2|38|UFSJ|2.21956522|1.88695652|6|2.88695652|LUIZ GUSTAVO MARTINS DA SILVA
34|2|38|UFSJ|2.21956522|1.88695652|6|2.88695652|JULIANO LEMOS BICAS
34|2|38|UFSJ|2.21956522|1.88695652|6|2.88695652|JOSE CARLOS DE MAGALHAES
34|2|38|UFSJ|2.21956522|1.88695652|6|2.88695652|HERALDO NUNES PITANGA
34|2|38|UFSJ|2.21956522|1.88695652|6|2.88695652|ENIO NAZARE DE OLIVEIRA JUNIOR
35|4|39|UFSM|2.525|1.5375|5|6.5375|VITOR SCHLICKMANN
35|4|39|UFSM|2.525|1.5375|5|6.5375|VANTOIR ROBERTO BRANCHER
35|4|39|UFSM|2.525|1.5375|5|6.5375|ROSELENE MOREIRA GOMES POMMER
35|4|39|UFSM|2.525|1.5375|5|6.5375|RICARDO MACHADO ELLENSOHN
35|4|39|UFSM|2.525|1.5375|5|6.5375|CLAUDIA SMANIOTTO BARIN
35|4|39|UFSM|2.525|1.5375|5|6.5375|MARTA ROSELI DE AZEREDO BARICHELLO
35|4|39|UFSM|2.525|1.5375|5|6.5375|MARCO ANTONIO DALLA COSTA
35|4|39|UFSM|2.525|1.5375|5|6.5375|MARCELO FREITAS DA SILVA
35|4|39|UFSM|2.525|1.5375|5|6.5375|LILIANA SOARES FERREIRA
35|4|39|UFSM|2.525|1.5375|5|6.5375|LEILA MARIA ARAUJO SANTOS
35|4|39|UFSM|2.525|1.5375|5|6.5375|JANETE MARIA DE CONTO
35|4|39|UFSM|2.525|1.5375|5|6.5375|GILSE ANTONINHA MORGENTAL FALKEMBACH
35|4|39|UFSM|2.525|1.5375|5|6.5375|CLAUDEMIR DE QUADROS
35|4|39|UFSM|2.525|1.5375|5|6.5375|ASCISIO DOS REIS PEREIRA
35|4|39|UFSM|2.525|1.5375|5|6.5375|ARNILDO POMMER
35|4|39|UFSM|2.525|1.5375|5|6.5375|ALYSSON RANIERE SEIDEL
36|2|40|UNB|5.02|4.56166667|6|7.56166667|LIDIA MARIA PEPE DE MORAES
36|2|40|UNB|5.02|4.56166667|6|7.56166667|LEONARDO GIORDANO PATERNO
36|2|40|UNB|5.02|4.56166667|6|7.56166667|JURANDIR RODRIGUES DE SOUZA
36|2|40|UNB|5.02|4.56166667|6|7.56166667|JULIANA PETROCCHI RODRIGUES
36|2|40|UNB|5.02|4.56166667|6|7.56166667|JOSE VICENTE ELIAS BERNARDI
36|2|40|UNB|5.02|4.56166667|6|7.56166667|JOSE JOAQUIN LINARES LEON
36|2|40|UNB|5.02|4.56166667|6|7.56166667|JOEL CAMARGO RUBIM
36|2|40|UNB|5.02|4.56166667|6|7.56166667|JOAO RICARDO MOREIRA DE ALMEIDA
36|2|40|UNB|5.02|4.56166667|6|7.56166667|JEZ WILLIAN BATISTA BRAGA
36|2|40|UNB|5.02|4.56166667|6|7.56166667|JADER GALBA BUSATO
36|2|40|UNB|5.02|4.56166667|6|7.56166667|GRACE FERREIRA GHESTI
36|2|40|UNB|5.02|4.56166667|6|7.56166667|FERNANDO FABRIZ SODRE
36|2|40|UNB|5.02|4.56166667|6|7.56166667|ALEXANDRE PEREZ UMPIERRE
36|2|40|UNB|5.02|4.56166667|6|7.56166667|ALEXANDRE FONSECA
36|2|40|UNB|5.02|4.56166667|6|7.56166667|ADRIANO OTAVIO MALDANER
36|2|40|UNB|5.02|4.56166667|6|7.56166667|NADIA SKORUPA PARACHIN
36|2|40|UNB|5.02|4.56166667|6|7.56166667|MARIA SUELI SOARES FELIPE
36|2|40|UNB|5.02|4.56166667|6|7.56166667|MARIA LUCILIA DOS SANTOS
36|2|40|UNB|5.02|4.56166667|6|7.56166667|MARCOS JULIANO PRAUCHNER
36|2|40|UNB|5.02|4.56166667|6|7.56166667|MARCELO HENRIQUE SOUSA
36|2|40|UNB|5.02|4.56166667|6|7.56166667|FERNANDO ARARIPE GONCALVES TORRES
36|2|40|UNB|5.02|4.56166667|6|7.56166667|WENDER ALVES DA SILVA
36|2|40|UNB|5.02|4.56166667|6|7.56166667|VALERIA REGINA BELLOTTO
36|2|40|UNB|5.02|4.56166667|6|7.56166667|SONIA MARIA DE FREITAS
36|2|40|UNB|5.02|4.56166667|6|7.56166667|FABRICIO MACHADO SILVA
36|2|40|UNB|5.02|4.56166667|6|7.56166667|FABIO MOREIRA DA SILVA
36|2|40|UNB|5.02|4.56166667|6|7.56166667|BRENNO AMARO DA SILVEIRA NETO
36|2|40|UNB|5.02|4.56166667|6|7.56166667|SIMONE MONTEIRO E SILVA
36|2|40|UNB|5.02|4.56166667|6|7.56166667|SARAH SILVA BRUM
36|2|40|UNB|5.02|4.56166667|6|7.56166667|PAULO ANSELMO ZIANI SUAREZ
36|2|40|UNB|5.02|4.56166667|6|7.56166667|ANGELO HENRIQUE DE LIRA MACHADO
37|4|41|UNESP_BAU|3.44473684|2.14473684|8|32.14473684|REGINA CELIA SILVA BAPTISTA BELLUZZO
37|4|41|UNESP_BAU|3.44473684|2.14473684|8|32.14473684|MARIA DA GRACA MELLO
37|4|41|UNESP_BAU|3.44473684|2.14473684|8|32.14473684|JULIANO MAURICIO DE CARVALHO
37|4|41|UNESP_BAU|3.44473684|2.14473684|8|32.14473684|JOAO FERNANDO MARAR
37|4|41|UNESP_BAU|3.44473684|2.14473684|8|32.14473684|EDUARDO MARTINS MORGADO
37|4|41|UNESP_BAU|3.44473684|2.14473684|8|32.14473684|MARIA CRISTINA GOBBI
37|4|41|UNESP_BAU|3.44473684|2.14473684|8|32.14473684|MARCOS AMERICO
37|4|41|UNESP_BAU|3.44473684|2.14473684|8|32.14473684|LETICIA PASSOS AFFINI
37|4|41|UNESP_BAU|3.44473684|2.14473684|8|32.14473684|JOAO PEDRO ALBINO
37|4|41|UNESP_BAU|3.44473684|2.14473684|8|32.14473684|HUMBERTO FERASOLI FILHO
37|4|41|UNESP_BAU|3.44473684|2.14473684|8|32.14473684|FRANCISCO ROLFSEN BELDA
37|4|41|UNESP_BAU|3.44473684|2.14473684|8|32.14473684|FRANCISCO MACHADO FILHO
37|4|41|UNESP_BAU|3.44473684|2.14473684|8|32.14473684|DENIS PORTO RENO
37|4|41|UNESP_BAU|3.44473684|2.14473684|8|32.14473684|JUAREZ TADEU DE PAULA XAVIER
37|4|41|UNESP_BAU|3.44473684|2.14473684|8|32.14473684|JOSE LUIZ BIZELLI
37|4|41|UNESP_BAU|3.44473684|2.14473684|8|32.14473684|CELIA MARIA RETZ GODOY DOS SANTOS
37|4|41|UNESP_BAU|3.44473684|2.14473684|8|32.14473684|ANTONIO FRANCISCO MAGNONI
37|4|41|UNESP_BAU|3.44473684|2.14473684|8|32.14473684|ANTONIO CARLOS SEMENTILLE
37|4|41|UNESP_BAU|3.44473684|2.14473684|8|32.14473684|VANIA CRISTINA PIRES NOGUEIRA VALENTE
38|4|42|UNICAMP|4.06875|3.371875|7|6.371875|CARLA KAZUE NAKAO CAVALIERO
38|4|42|UNICAMP|4.06875|3.371875|7|6.371875|ARNALDO CESAR DA SILVA WALTER
38|4|42|UNICAMP|4.06875|3.371875|7|6.371875|ANDRE TOSI FURTADO
38|4|42|UNICAMP|4.06875|3.371875|7|6.371875|CONRADO AUGUSTUS DE MELO
38|4|42|UNICAMP|4.06875|3.371875|7|6.371875|CARLOS EDUARDO KEUTENEDJIAN MADY
38|4|42|UNICAMP|4.06875|3.371875|7|6.371875|SERGIO VALDIR BAJAY
38|4|42|UNICAMP|4.06875|3.371875|7|6.371875|WALDYR LUIZ RIBEIRO GALLO
38|4|42|UNICAMP|4.06875|3.371875|7|6.371875|SONIA REGINA DA CAL SEIXAS
38|4|42|UNICAMP|4.06875|3.371875|7|6.371875|PAULO DE BARROS CORREIA
38|4|42|UNICAMP|4.06875|3.371875|7|6.371875|MICHELLE CRISTINA ARAUJO PICOLI
38|4|42|UNICAMP|4.06875|3.371875|7|6.371875|MARCELO PEREIRA DA CUNHA
38|4|42|UNICAMP|4.06875|3.371875|7|6.371875|JOAQUIM EUGENIO ABEL SEABRA
38|4|42|UNICAMP|4.06875|3.371875|7|6.371875|IEDA GERIBERTO HIDALGO
38|4|42|UNICAMP|4.06875|3.371875|7|6.371875|GILBERTO DE MARTINO JANNUZZI
38|4|42|UNICAMP|4.06875|3.371875|7|6.371875|FABIO VALE SCARPARE
38|4|42|UNICAMP|4.06875|3.371875|7|6.371875|ENNIO PERES DA SILVA
38|4|43|UNICAMP_LI|3.47222222|2.76851852|7|3.76851852|LUISA ANDREIA GACHET BARBOSA
38|4|43|UNICAMP_LI|3.47222222|2.76851852|7|3.76851852|LUIS FERNANDO DE AVILA
38|4|43|UNICAMP_LI|3.47222222|2.76851852|7|3.76851852|LUIS AUGUSTO ANGELOTTI MEIRA
38|4|43|UNICAMP_LI|3.47222222|2.76851852|7|3.76851852|LUBIENSKA CRISTINA LUCAS JAQUIE
38|4|43|UNICAMP_LI|3.47222222|2.76851852|7|3.76851852|LEONARDO LORENZO BRAVO ROGER
38|4|43|UNICAMP_LI|3.47222222|2.76851852|7|3.76851852|JOSE GERALDO PENA DE ANDRADE
38|4|43|UNICAMP_LI|3.47222222|2.76851852|7|3.76851852|VITOR RAFAEL COLUCI
38|4|43|UNICAMP_LI|3.47222222|2.76851852|7|3.76851852|CAROLINA SIQUEIRA FRANCO PICONE
38|4|43|UNICAMP_LI|3.47222222|2.76851852|7|3.76851852|CARMENLUCIA SANTOS GIORDANO PENTEADO
38|4|43|UNICAMP_LI|3.47222222|2.76851852|7|3.76851852|ANTONIO CARLOS ZAMBON
38|4|43|UNICAMP_LI|3.47222222|2.76851852|7|3.76851852|ANDRE LEON SAMPAIO GRADVOHL
38|4|43|UNICAMP_LI|3.47222222|2.76851852|7|3.76851852|ANDRE FRANCESCHI DE ANGELIS
38|4|43|UNICAMP_LI|3.47222222|2.76851852|7|3.76851852|EDSON LUIZ URSINI
38|4|43|UNICAMP_LI|3.47222222|2.76851852|7|3.76851852|DIEGO STEFANI TEODORO MARTINEZ
38|4|43|UNICAMP_LI|3.47222222|2.76851852|7|3.76851852|CRISTIANO DE MELLO GALLEP
38|4|43|UNICAMP_LI|3.47222222|2.76851852|7|3.76851852|CASSIANA CAROLINA MONTAGNER RAIMUNDO
38|4|43|UNICAMP_LI|3.47222222|2.76851852|7|3.76851852|JOSE CARLOS MAGOSSI
38|4|43|UNICAMP_LI|3.47222222|2.76851852|7|3.76851852|IVAN LUIZ MARQUES RICARTE
38|4|43|UNICAMP_LI|3.47222222|2.76851852|7|3.76851852|CELMAR GUIMARAES DA SILVA
38|4|43|UNICAMP_LI|3.47222222|2.76851852|7|3.76851852|CASSIANA MARIA REGANHAN
38|4|43|UNICAMP_LI|3.47222222|2.76851852|7|3.76851852|IVAN DE OLIVEIRA
38|4|43|UNICAMP_LI|3.47222222|2.76851852|7|3.76851852|RENATO FALCAO DANTAS
38|4|43|UNICAMP_LI|3.47222222|2.76851852|7|3.76851852|REGINA LUCIA DE OLIVEIRA MORAES
38|4|43|UNICAMP_LI|3.47222222|2.76851852|7|3.76851852|PETERSON BUENO DE MORAES
38|4|43|UNICAMP_LI|3.47222222|2.76851852|7|3.76851852|PAULO SERGIO MARTINS PEDRO
38|4|43|UNICAMP_LI|3.47222222|2.76851852|7|3.76851852|PATRICIA PREDIGER
38|4|43|UNICAMP_LI|3.47222222|2.76851852|7|3.76851852|MAUREA NICOLETTI FLYNN
38|4|43|UNICAMP_LI|3.47222222|2.76851852|7|3.76851852|MARTA SIVIERO GUILHERME PIRES
38|4|43|UNICAMP_LI|3.47222222|2.76851852|7|3.76851852|MARIA APARECIDA CARVALHO DE MEDEIROS
38|4|43|UNICAMP_LI|3.47222222|2.76851852|7|3.76851852|MARCOS AUGUSTO FRANCISCO BORGES
38|4|43|UNICAMP_LI|3.47222222|2.76851852|7|3.76851852|MARCO ANTONIO GARCIA DE CARVALHO
38|4|43|UNICAMP_LI|3.47222222|2.76851852|7|3.76851852|LUIZ CAMOLESI JUNIOR
38|4|43|UNICAMP_LI|3.47222222|2.76851852|7|3.76851852|RANGEL ARTHUR
38|4|43|UNICAMP_LI|3.47222222|2.76851852|7|3.76851852|ANA ESTELA ANTUNES DA SILVA
38|4|43|UNICAMP_LI|3.47222222|2.76851852|7|3.76851852|JAIME PORTUGHEIS
38|4|43|UNICAMP_LI|3.47222222|2.76851852|7|3.76851852|IEDA GERIBERTO HIDALGO
38|4|43|UNICAMP_LI|3.47222222|2.76851852|7|3.76851852|ELOISA DEZEN KEMPTER
38|4|43|UNICAMP_LI|3.47222222|2.76851852|7|3.76851852|ELAINE CRISTINA CATAPANI POLETTI
38|4|43|UNICAMP_LI|3.47222222|2.76851852|7|3.76851852|MARCOS SERGIO GONCALVES
38|4|43|UNICAMP_LI|3.47222222|2.76851852|7|3.76851852|GUILHERME RIBEIRO LOTUFO
38|4|43|UNICAMP_LI|3.47222222|2.76851852|7|3.76851852|GUILHERME PALERMO COELHO
38|4|43|UNICAMP_LI|3.47222222|2.76851852|7|3.76851852|GISLEIVA CRISTINA DOS SANTOS FERREIRA
38|4|43|UNICAMP_LI|3.47222222|2.76851852|7|3.76851852|GISELE BUSICHIA BAIOCO
38|4|43|UNICAMP_LI|3.47222222|2.76851852|7|3.76851852|GISELA DE ARAGAO UMBUZEIRO
38|4|43|UNICAMP_LI|3.47222222|2.76851852|7|3.76851852|FRANCISCO JOSE ARNOLD
38|4|43|UNICAMP_LI|3.47222222|2.76851852|7|3.76851852|ENELTON FAGNANI
38|4|43|UNICAMP_LI|3.47222222|2.76851852|7|3.76851852|NELMA DE MELLO SILVA OLIVEIRA
38|4|43|UNICAMP_LI|3.47222222|2.76851852|7|3.76851852|WISLEI RIUPER RAMOS OSORIO
38|4|43|UNICAMP_LI|3.47222222|2.76851852|7|3.76851852|VARESE SALVADOR TIMOTEO
38|4|43|UNICAMP_LI|3.47222222|2.76851852|7|3.76851852|TALIA SIMOES DOS SANTOS
38|4|43|UNICAMP_LI|3.47222222|2.76851852|7|3.76851852|SIMONE ANDREA POZZA
38|4|43|UNICAMP_LI|3.47222222|2.76851852|7|3.76851852|SANDRO TONSO
38|4|43|UNICAMP_LI|3.47222222|2.76851852|7|3.76851852|ROSA CRISTINA CECCHE LINTZ
38|4|43|UNICAMP_LI|3.47222222|2.76851852|7|3.76851852|RONALTON EVANDRO MACHADO
39|3|44|UNICESUMAR|2.88|1.8875|8|13.8875|HILKA PELIZZA VIER MACHADO
39|3|44|UNICESUMAR|2.88|1.8875|8|13.8875|TANIA REGINA CORREDATO
39|3|44|UNICESUMAR|2.88|1.8875|8|13.8875|SIDERLY DO CARMO DAHLE DE ALMEIDA
39|3|44|UNICESUMAR|2.88|1.8875|8|13.8875|RITA CRISTINA GALARRAGA BERARDI
39|3|44|UNICESUMAR|2.88|1.8875|8|13.8875|RENATO LUIS DE SOUZA DUTRA
39|3|44|UNICESUMAR|2.88|1.8875|8|13.8875|REGIO MARCIO TOESCA GIMENES
39|3|44|UNICESUMAR|2.88|1.8875|8|13.8875|REGIANE DA SILVA MACUCH
39|3|44|UNICESUMAR|2.88|1.8875|8|13.8875|NELSON NUNES TENORIO JUNIOR
39|3|44|UNICESUMAR|2.88|1.8875|8|13.8875|LUIZ TATTO
39|3|44|UNICESUMAR|2.88|1.8875|8|13.8875|LETICIA FLEIG DAL FORNO
39|3|44|UNICESUMAR|2.88|1.8875|8|13.8875|JOSE APARECIDO PEREIRA
39|3|44|UNICESUMAR|2.88|1.8875|8|13.8875|FLAVIO BORTOLOZZI
39|3|44|UNICESUMAR|2.88|1.8875|8|13.8875|ELY MITIE MASSUDA
39|3|44|UNICESUMAR|2.88|1.8875|8|13.8875|CLAUDIA HERRERO MARTINS MENEGASSI
39|3|44|UNICESUMAR|2.88|1.8875|8|13.8875|CASSIA KELY FAVORETTO COSTA
39|3|44|UNICESUMAR|2.88|1.8875|8|13.8875|ARTHUR GUALBERTO BACELAR DA CRUZ URPIA
39|3|44|UNICESUMAR|2.88|1.8875|8|13.8875|PAULO MARCELO FERRARESI PEGINO
39|3|44|UNICESUMAR|2.88|1.8875|8|13.8875|REGINALDO ALICANDRO BORDIN
39|3|44|UNICESUMAR|2.88|1.8875|8|13.8875|REJANE SARTORI
39|3|44|UNICESUMAR|2.88|1.8875|8|13.8875|JOSE FRANCISCO DE ASSIS DIAS
40|4|45|UNIFRA|8.5625|5.615|7|6.615|VIRGINIA CIELO RECH
40|4|45|UNIFRA|8.5625|5.615|7|6.615|SOLANGE CRISTINA DA SILVA
40|4|45|UNIFRA|8.5625|5.615|7|6.615|SOLANGE BINOTTO FAGAN
40|4|45|UNIFRA|8.5625|5.615|7|6.615|SERGIO ROBERTO MORTARI
40|4|45|UNIFRA|8.5625|5.615|7|6.615|RODRIGO DE ALMEIDA VAUCHER
40|4|45|UNIFRA|8.5625|5.615|7|6.615|ROBERTO CHRIST VIANNA SANTOS
40|4|45|UNIFRA|8.5625|5.615|7|6.615|RENATA PLATCHECK RAFFIN
40|4|45|UNIFRA|8.5625|5.615|7|6.615|PATRICIA GOMES
40|4|45|UNIFRA|8.5625|5.615|7|6.615|JUSSANE ROSSATO
40|4|45|UNIFRA|8.5625|5.615|7|6.615|IVANA ZANELLA DA SILVA
40|4|45|UNIFRA|8.5625|5.615|7|6.615|GIOVANI RUBERT LIBRELOTTO
40|4|45|UNIFRA|8.5625|5.615|7|6.615|EDER MAIQUEL SIMAO
40|4|45|UNIFRA|8.5625|5.615|7|6.615|LUIZ CARLOS RODRIGUES JUNIOR
40|4|45|UNIFRA|8.5625|5.615|7|6.615|LUIS OTAVIO DE SOUSA BULHOES
40|4|45|UNIFRA|8.5625|5.615|7|6.615|LIANA DA SILVA FERNANDES
40|4|45|UNIFRA|8.5625|5.615|7|6.615|CRISTIANE LUCHESE
40|4|45|UNIFRA|8.5625|5.615|7|6.615|CLAUDIA LANGE DOS SANTOS
40|4|45|UNIFRA|8.5625|5.615|7|6.615|CARINA RODRIGUES BOECK
40|4|45|UNIFRA|8.5625|5.615|7|6.615|ANTONIO GOMES DE SOUZA FILHO
40|4|45|UNIFRA|8.5625|5.615|7|6.615|ALINE FERREIRA OURIQUE
41|4|46|UNIJUI|3.68666667|3.02|12|10.02|PAULO SERGIO SAUSEN
41|4|46|UNIJUI|3.68666667|3.02|12|10.02|OLEG KHATCHATOURIAN
41|4|46|UNIJUI|3.68666667|3.02|12|10.02|MANUEL OSORIO BINELO
41|4|46|UNIJUI|3.68666667|3.02|12|10.02|MANUEL MARTIN PEREZ REIMBOLD
41|4|46|UNIJUI|3.68666667|3.02|12|10.02|LUIZ ANTONIO RASIA
41|4|46|UNIJUI|3.68666667|3.02|12|10.02|JOSE ANTONIO GONZALES DA SILVA
41|4|46|UNIJUI|3.68666667|3.02|12|10.02|FABRICIA CARNEIRO ROOS FRANTZ
41|4|46|UNIJUI|3.68666667|3.02|12|10.02|DANIEL CURVELLO DE MENDONCA MULLER
41|4|46|UNIJUI|3.68666667|3.02|12|10.02|ANTONIO CARLOS VALDIERO
41|4|46|UNIJUI|3.68666667|3.02|12|10.02|ALEXANDRE CUNHA OLIVEIRA
41|4|46|UNIJUI|3.68666667|3.02|12|10.02|AIRAM TEREZA ZAGO ROMCY
41|4|46|UNIJUI|3.68666667|3.02|12|10.02|RAFAEL ZANCAN FRANTZ
41|4|46|UNIJUI|3.68666667|3.02|12|10.02|RAFAEL CORCHUELO GIL
41|4|46|UNIJUI|3.68666667|3.02|12|10.02|VITOR MANUEL BASTO FERNANDES
41|4|46|UNIJUI|3.68666667|3.02|12|10.02|SANDRO SAWICKI
42|4|47|UNINOVE|5.01666667|3.46|7|9.46|MARCIRIO SILVEIRA CHAVES
42|4|47|UNINOVE|5.01666667|3.46|7|9.46|LUC MARIE QUONIAM
42|4|47|UNINOVE|5.01666667|3.46|7|9.46|IVANIR COSTA
42|4|47|UNINOVE|5.01666667|3.46|7|9.46|HENRIQUE MELLO RODRIGUES DE FREITAS
42|4|47|UNINOVE|5.01666667|3.46|7|9.46|FABIO HENRIQUE PEREIRA
42|4|47|UNINOVE|5.01666667|3.46|7|9.46|DIRCEU DA SILVA
42|4|47|UNINOVE|5.01666667|3.46|7|9.46|CLEBER GUSTAVO DIAS
42|4|47|UNINOVE|5.01666667|3.46|7|9.46|ANDRE FELIPE HENRIQUES LIBRANTZ
42|4|47|UNINOVE|5.01666667|3.46|7|9.46|ALESSANDRO MELO DE ANA
42|4|47|UNINOVE|5.01666667|3.46|7|9.46|WONDER ALEXANDRE LUZ ALVES
42|4|47|UNINOVE|5.01666667|3.46|7|9.46|SIDNEI ALVES DE ARAUJO
42|4|47|UNINOVE|5.01666667|3.46|7|9.46|RENATO JOSE SASSI
42|4|47|UNINOVE|5.01666667|3.46|7|9.46|PEDRO HENRIQUE TRIGUIS SCHIMIT
42|4|47|UNINOVE|5.01666667|3.46|7|9.46|MARCOS VINICIUS CARDOSO
42|4|47|UNINOVE|5.01666667|3.46|7|9.46|MARCOS ANTONIO GASPAR
43|6|48|USP-EN|4.73636364|4.24545455|8|7.24545455|VIRGINIA PARENTE DE BARROS
43|6|48|USP-EN|4.73636364|4.24545455|8|7.24545455|SUANI TEIXEIRA COELHO
43|6|48|USP-EN|4.73636364|4.24545455|8|7.24545455|SONIA SEGER PEREIRA MERCEDES
43|6|48|USP-EN|4.73636364|4.24545455|8|7.24545455|HEDIO TATIZAWA
43|6|48|USP-EN|4.73636364|4.24545455|8|7.24545455|FERNANDO SELLES RIBEIRO
43|6|48|USP-EN|4.73636364|4.24545455|8|7.24545455|EDMILSON MOUTINHO DOS SANTOS
43|6|48|USP-EN|4.73636364|4.24545455|8|7.24545455|COLOMBO CELSO GAETA TASSINARI
43|6|48|USP-EN|4.73636364|4.24545455|8|7.24545455|ADNEI MELGES DE ANDRADE
43|6|48|USP-EN|4.73636364|4.24545455|8|7.24545455|ALEXANDRE PIANTINI
43|6|48|USP-EN|4.73636364|4.24545455|8|7.24545455|CELIO BERMANN
43|6|48|USP-EN|4.73636364|4.24545455|8|7.24545455|ARNALDO GAKIYA KANASHIRO
43|6|48|USP-EN|4.73636364|4.24545455|8|7.24545455|GERALDO FRANCISCO BURANI
43|6|48|USP-EN|4.73636364|4.24545455|8|7.24545455|HIRDAN KATARINA DE MEDEIROS COSTA
43|6|48|USP-EN|4.73636364|4.24545455|8|7.24545455|ILDO LUIS SAUER
43|6|48|USP-EN|4.73636364|4.24545455|8|7.24545455|ANDRE FELIPE SIMOES
43|6|48|USP-EN|4.73636364|4.24545455|8|7.24545455|PATRICIA HELENA LARA DOS SANTOS MATAI
43|6|48|USP-EN|4.73636364|4.24545455|8|7.24545455|SERGIO ALMEIDA PACCA
43|6|48|USP-EN|4.73636364|4.24545455|8|7.24545455|ROBERTO ZILLES
43|6|48|USP-EN|4.73636364|4.24545455|8|7.24545455|MURILO TADEU WERNECK FAGA
43|6|48|USP-EN|4.73636364|4.24545455|8|7.24545455|JOSE ROBERTO SIMOES MOREIRA
43|6|48|USP-EN|4.73636364|4.24545455|8|7.24545455|JOSE ROBERTO MOREIRA
43|6|48|USP-EN|4.73636364|4.24545455|8|7.24545455|JOSE GOLDEMBERG
43|3|49|USP-MSC|3.11764706|2.79705882|5|5.79705882|FERNANDO FAGUNDES FERREIRA
43|3|49|USP-MSC|3.11764706|2.79705882|5|5.79705882|CANDIDO FERREIRA XAVIER DE MENDONCA NETO
43|3|49|USP-MSC|3.11764706|2.79705882|5|5.79705882|FERNANDO DE SOUZA COELHO
43|3|49|USP-MSC|3.11764706|2.79705882|5|5.79705882|PAULO ANTONIO DE ALMEIDA SINISGALLI
43|3|49|USP-MSC|3.11764706|2.79705882|5|5.79705882|MASAYUKI OKA HASE
43|3|49|USP-MSC|3.11764706|2.79705882|5|5.79705882|JOSE RICARDO GONCALVES DE MENDONCA
43|3|49|USP-MSC|3.11764706|2.79705882|5|5.79705882|FRANCISCO JAVIER SEBASTIAN MENDIZABAL ALVAREZ
43|3|49|USP-MSC|3.11764706|2.79705882|5|5.79705882|FLAVIA MORI SARTI
43|3|49|USP-MSC|3.11764706|2.79705882|5|5.79705882|ESTEBAN FERNANDEZ TUESTA
43|3|49|USP-MSC|3.11764706|2.79705882|5|5.79705882|DIEGO ANTONIO FALCETA GONCALVES
43|3|49|USP-MSC|3.11764706|2.79705882|5|5.79705882|CRISTINA ADAMS
43|3|49|USP-MSC|3.11764706|2.79705882|5|5.79705882|CARLOS DE BRITO PEREIRA
43|3|49|USP-MSC|3.11764706|2.79705882|5|5.79705882|CARLA MORSELLO
43|3|49|USP-MSC|3.11764706|2.79705882|5|5.79705882|CAMILO RODRIGUES NETO
43|3|49|USP-MSC|3.11764706|2.79705882|5|5.79705882|ANDRE CAVALCANTI ROCHA MARTINS
43|3|49|USP-MSC|3.11764706|2.79705882|5|5.79705882|ANA AMELIA BENEDITO SILVA
43|3|49|USP-MSC|3.11764706|2.79705882|5|5.79705882|ALEXANDRE FERREIRA RAMOS
43|4|50|USP_ESALQ|10.97788462|9.94134615|12|12.94134615|ANTONIO RIUL JUNIOR
43|4|50|USP_ESALQ|10.97788462|9.94134615|12|12.94134615|ANTONIO APRIGIO DA SILVA CURVELO
43|4|50|USP_ESALQ|10.97788462|9.94134615|12|12.94134615|ANDREAS KAROLY GOMBERT
43|4|50|USP_ESALQ|10.97788462|9.94134615|12|12.94134615|ANDRE TOSI FURTADO
43|4|50|USP_ESALQ|10.97788462|9.94134615|12|12.94134615|AFONSO LOPES
43|4|50|USP_ESALQ|10.97788462|9.94134615|12|12.94134615|MICHEL BRIENZO
43|4|50|USP_ESALQ|10.97788462|9.94134615|12|12.94134615|MARCUS BRUNO SOARES FORTE
43|4|50|USP_ESALQ|10.97788462|9.94134615|12|12.94134615|MARCIA JUSTINO ROSSINI MUTTON
43|4|50|USP_ESALQ|10.97788462|9.94134615|12|12.94134615|RAFAEL VASCONCELOS RIBEIRO
43|4|50|USP_ESALQ|10.97788462|9.94134615|12|12.94134615|PEDRO DE OLIVA NETO
43|4|50|USP_ESALQ|10.97788462|9.94134615|12|12.94134615|PAULO SELEGHIM JUNIOR
43|4|50|USP_ESALQ|10.97788462|9.94134615|12|12.94134615|NELSON RAMOS STRADIOTTO
43|4|50|USP_ESALQ|10.97788462|9.94134615|12|12.94134615|MUNIR SALOMAO SKAF
43|4|50|USP_ESALQ|10.97788462|9.94134615|12|12.94134615|MARCELO MENOSSI TEIXEIRA
43|4|50|USP_ESALQ|10.97788462|9.94134615|12|12.94134615|LUIS AUGUSTO BARBOSA CORTEZ
43|4|50|USP_ESALQ|10.97788462|9.94134615|12|12.94134615|JOSE MARIA FERREIRA JARDIM DA SILVEIRA
43|4|50|USP_ESALQ|10.97788462|9.94134615|12|12.94134615|JOSE LUZ SILVEIRA
43|4|50|USP_ESALQ|10.97788462|9.94134615|12|12.94134615|TITO JOSE BONAGAMBA
43|4|50|USP_ESALQ|10.97788462|9.94134615|12|12.94134615|LUCAS RIOS DO AMARAL
43|4|50|USP_ESALQ|10.97788462|9.94134615|12|12.94134615|MARCO AURELIO PINHEIRO LIMA
43|4|50|USP_ESALQ|10.97788462|9.94134615|12|12.94134615|JOSE GREGORIO CABRERA GOMEZ
43|4|50|USP_ESALQ|10.97788462|9.94134615|12|12.94134615|JONAS CONTIERO
43|4|50|USP_ESALQ|10.97788462|9.94134615|12|12.94134615|PAULO SERGIO GRAZIANO MAGALHAES
43|4|50|USP_ESALQ|10.97788462|9.94134615|12|12.94134615|RICARDO ALAN VERDU RAMOS
43|4|50|USP_ESALQ|10.97788462|9.94134615|12|12.94134615|SANDRA IMACULADA MAINTINGUER
43|4|50|USP_ESALQ|10.97788462|9.94134615|12|12.94134615|TELMA TEIXEIRA FRANCO
43|4|50|USP_ESALQ|10.97788462|9.94134615|12|12.94134615|SUANI TEIXEIRA COELHO
43|4|50|USP_ESALQ|10.97788462|9.94134615|12|12.94134615|JOAO RENATO CARVALHO MUNIZ
43|4|50|USP_ESALQ|10.97788462|9.94134615|12|12.94134615|JACKSON DIRCEU MEGIATTO JUNIOR
43|4|50|USP_ESALQ|10.97788462|9.94134615|12|12.94134615|IGOR POLIKARPOV
43|4|50|USP_ESALQ|10.97788462|9.94134615|12|12.94134615|IGOR CESARINO
43|4|50|USP_ESALQ|10.97788462|9.94134615|12|12.94134615|EDUARDO RIBEIRO DE AZEVEDO
43|4|50|USP_ESALQ|10.97788462|9.94134615|12|12.94134615|FERNANDO SEGATO
43|4|50|USP_ESALQ|10.97788462|9.94134615|12|12.94134615|ANTONIO JOSE DE ALMEIDA MEIRELLES
43|4|50|USP_ESALQ|10.97788462|9.94134615|12|12.94134615|HENRIQUE COUTINHO JUNQUEIRA FRANCO
43|4|50|USP_ESALQ|10.97788462|9.94134615|12|12.94134615|GONCALO AMARANTE GUIMARAES PEREIRA
43|4|50|USP_ESALQ|10.97788462|9.94134615|12|12.94134615|GLAUCIA MENDES SOUZA
43|4|50|USP_ESALQ|10.97788462|9.94134615|12|12.94134615|GABRIEL RODRIGUES ALVES MARGARIDO
43|4|50|USP_ESALQ|10.97788462|9.94134615|12|12.94134615|FRANCISCO EMILIO BACCARO NIGRO
43|4|50|USP_ESALQ|10.97788462|9.94134615|12|12.94134615|ELIANA GERTRUDES DE MACEDO LEMOS
43|4|50|USP_ESALQ|10.97788462|9.94134615|12|12.94134615|ELENI GOMES
43|4|50|USP_ESALQ|10.97788462|9.94134615|12|12.94134615|EDVALDO APARECIDO AMARAL DA SILVA
43|4|50|USP_ESALQ|10.97788462|9.94134615|12|12.94134615|EDUARDO ALVES DE ALMEIDA
43|4|50|USP_ESALQ|10.97788462|9.94134615|12|12.94134615|EDIVALDO DOMINGUES VELINI
43|4|50|USP_ESALQ|10.97788462|9.94134615|12|12.94134615|CECILIA LALUCE
43|4|50|USP_ESALQ|10.97788462|9.94134615|12|12.94134615|CARLOS EDUARDO PELLEGRINO CERRI
43|4|50|USP_ESALQ|10.97788462|9.94134615|12|12.94134615|CARLOS ALBERTO LABATE
43|4|50|USP_ESALQ|10.97788462|9.94134615|12|12.94134615|CARLA KAZUE NAKAO CAVALIERO
43|4|50|USP_ESALQ|10.97788462|9.94134615|12|12.94134615|SINDELIA FREITAS AZZONI
43|4|50|USP_ESALQ|10.97788462|9.94134615|12|12.94134615|RUDINEI TONETO JUNIOR
43|4|50|USP_ESALQ|10.97788462|9.94134615|12|12.94134615|RUBENS MACIEL FILHO
43|4|50|USP_ESALQ|10.97788462|9.94134615|12|12.94134615|RUBENS AUGUSTO CAMARGO LAMPARELLI
44|3|51|UTFPR|3.51785714|2.55714286|7|6.55714286|SARASPATHY NAIDOO TERROSO GAMA DE MENDONCA
44|3|51|UTFPR|3.51785714|2.55714286|7|6.55714286|PAULO LOPES DE MENEZES
44|3|51|UTFPR|3.51785714|2.55714286|7|6.55714286|PAULO CESAR TONIN
44|3|51|UTFPR|3.51785714|2.55714286|7|6.55714286|JOSE AIRTON AZEVEDO DOS SANTOS
44|3|51|UTFPR|3.51785714|2.55714286|7|6.55714286|FABIANA COSTA DE ARAUJO SCHUTZ
44|3|51|UTFPR|3.51785714|2.55714286|7|6.55714286|EVERTON COIMBRA DE ARAUJO
44|3|51|UTFPR|3.51785714|2.55714286|7|6.55714286|CARLOS APARECIDO FERNANDES
44|3|51|UTFPR|3.51785714|2.55714286|7|6.55714286|AUGUSTO VAGHETTI LUCHESE
44|3|51|UTFPR|3.51785714|2.55714286|7|6.55714286|CLAUDIO LEONES BAZZI
44|3|51|UTFPR|3.51785714|2.55714286|7|6.55714286|GLAUCIA CRISTINA MOREIRA
44|3|51|UTFPR|3.51785714|2.55714286|7|6.55714286|PEDRO LUIZ DE PAULA FILHO
44|3|51|UTFPR|3.51785714|2.55714286|7|6.55714286|SILVANA LIGIA VINCENZI BORTOLOTTI
44|3|51|UTFPR|3.51785714|2.55714286|7|6.55714286|DANIEL RODRIGUES BLANCO
44|3|51|UTFPR|3.51785714|2.55714286|7|6.55714286|CARLA ADRIANA PIZARRO SCHMIDT
