8529549983857097
6320661844629609
3624370723788970
4615245702160544
4212280532558083
1855232571882443
2368005158362357
2125771574338340
6833721744326745
7887148115540704
0182914969079164
0366398884876006
2828592893802233
4915694295850733
5737574588414921
4397388543222105
4795342927264998
2262428543098100
5762548246076451
2603433458436438
