ID_Lattes|MATRICULA|NOME|CH|mail|LP_1|PROGRAMA_1|CATEG_1|Periodo_Inicio_1|Periodo_Fim_1|Resp_prog|Resp_LP1
K4775367U3|99999|ANNA ALICE FIGUEIREDO DE ALMEIDA|40|UFPB_J.P.@UFPB_J.P..br|UFPB_J.P.|UFPB_J.P.|P|2013|2016|UFPB_J.P.|UFPB_J.P.
K4782613H1|99999|RONEI MARCOS DE MORAES|40|UFPB_J.P.@UFPB_J.P..br|UFPB_J.P.|UFPB_J.P.|P|2013|2016||
K4777631J0|99999|ANA TEREZA MEDEIROS CAVALCANTI DA SILVA|40|UFPB_J.P.@UFPB_J.P..br|UFPB_J.P.|UFPB_J.P.|P|2013|2016||
K4762582A2|99999|TATIENE CORREIA DE SOUZA|40|UFPB_J.P.@UFPB_J.P..br|UFPB_J.P.|UFPB_J.P.|P|2013|2016||
K4730732T2|99999|HEMILIO FERNANDES CAMPOS COELHO|40|UFPB_J.P.@UFPB_J.P..br|UFPB_J.P.|UFPB_J.P.|P|2013|2016||
K4707112T1|99999|JORDANA DE ALMEIDA NOGUEIRA|40|UFPB_J.P.@UFPB_J.P..br|UFPB_J.P.|UFPB_J.P.|P|2013|2016||
K4700058Y0|99999|JOZEMAR PEREIRA DOS SANTOS|40|UFPB_J.P.@UFPB_J.P..br|UFPB_J.P.|UFPB_J.P.|P|2013|2016||
K4762540Y6|99999|CALIANDRA MARIA BEZERRA LUNA LIMA|40|UFPB_J.P.@UFPB_J.P..br|UFPB_J.P.|UFPB_J.P.|P|2013|2016||
K4770196D5|99999|KATIA SUELY QUEIROZ SILVA RIBEIRO|40|UFPB_J.P.@UFPB_J.P..br|UFPB_J.P.|UFPB_J.P.|P|2013|2016||
K4701168Y8|99999|JOSEMBERG MOURA DE ANDRADE|40|UFPB_J.P.@UFPB_J.P..br|UFPB_J.P.|UFPB_J.P.|P|2013|2016||
K4788025H6|99999|LUCIA DE FATIMA GUERRA FERREIRA|40|UFPB_J.P.@UFPB_J.P..br|UFPB_J.P.|UFPB_J.P.|P|2013|2016||
K4781909Z6|99999|NEIR ANTUNES PAES|40|UFPB_J.P.@UFPB_J.P..br|UFPB_J.P.|UFPB_J.P.|P|2013|2016||
K4765964T4|99999|TARCIANA LIBERAL PEREIRA DE ARAUJO|40|UFPB_J.P.@UFPB_J.P..br|UFPB_J.P.|UFPB_J.P.|P|2013|2016||
K4777631E8|99999|CESAR CAVALCANTI DA SILVA|40|UFPB_J.P.@UFPB_J.P..br|UFPB_J.P.|UFPB_J.P.|P|2013|2016||
K4701351Y7|99999|LILIANE DOS SANTOS MACHADO|40|UFPB_J.P.@UFPB_J.P..br|UFPB_J.P.|UFPB_J.P.|P|2013|2016||
K4795605J7|99999|JOAO AGNALDO DO NASCIMENTO|40|UFPB_J.P.@UFPB_J.P..br|UFPB_J.P.|UFPB_J.P.|P|2013|2016||
K4797699H1|99999|RODRIGO PINHEIRO DE TOLEDO VIANNA|40|UFPB_J.P.@UFPB_J.P..br|UFPB_J.P.|UFPB_J.P.|P|2013|2016||
K4767888Z6|99999|EUFRASIO DE ANDRADE LIMA NETO|40|UFPB_J.P.@UFPB_J.P..br|UFPB_J.P.|UFPB_J.P.|P|2013|2016||
K4425190T6|99999|LUIZ MEDEIROS DE ARAUJO LIMA FILHO|40|UFPB_J.P.@UFPB_J.P..br|UFPB_J.P.|UFPB_J.P.|P|2013|2016||
K4797188H6|99999|MARCONI JOSE PIMENTEL PEQUENO|40|UFPB_J.P.@UFPB_J.P..br|UFPB_J.P.|UFPB_J.P.|P|2013|2016||
K4760267H4|99999|WILLIARD SCORPION PESSOA FRAGOSO|40|UFPB_J.P.@UFPB_J.P..br|UFPB_J.P.|UFPB_J.P.|P|2013|2016||
K4704377Y2|99999|FREDYS ORLANDO SORTO|40|UFPB_J.P.@UFPB_J.P..br|UFPB_J.P.|UFPB_J.P.|P|2013|2016||
K4772639T0|99999|FERNANDO CEZAR BEZERRA DE ANDRADE|40|UFPB_J.P.@UFPB_J.P..br|UFPB_J.P.|UFPB_J.P.|P|2013|2016||
K4764643P7|99999|ESTEVAO MARTINS PALITOT|40|UFPB_J.P.@UFPB_J.P..br|UFPB_J.P.|UFPB_J.P.|P|2013|2016||
K4783992A9|99999|ROSA MARIA GODOY SILVEIRA|40|UFPB_J.P.@UFPB_J.P..br|UFPB_J.P.|UFPB_J.P.|P|2013|2016||
K4767715J4|99999|ELIO CHAVES FLORES|40|UFPB_J.P.@UFPB_J.P..br|UFPB_J.P.|UFPB_J.P.|P|2013|2016||
K4766329Z0|99999|LUZIANA RAMALHO RIBEIRO|40|UFPB_J.P.@UFPB_J.P..br|UFPB_J.P.|UFPB_J.P.|P|2013|2016||
K8105682H6|99999|ADELAIDE ALVES DIAS|40|UFPB_J.P.@UFPB_J.P..br|UFPB_J.P.|UFPB_J.P.|P|2013|2016||
K4772069H3|99999|GUSTAVO BARBOSA DE MESQUITA BATISTA|40|UFPB_J.P.@UFPB_J.P..br|UFPB_J.P.|UFPB_J.P.|P|2013|2016||
K4779987T0|99999|MARIA ELIZETE GUIMARAES CARVALHO|40|UFPB_J.P.@UFPB_J.P..br|UFPB_J.P.|UFPB_J.P.|P|2013|2016||
K4703502A1|99999|GERD BRUNO DA ROCHA|40|UFPB_J.P.@UFPB_J.P..br|UFPB_J.P.|UFPB_J.P.|P|2013|2016||
K4113111E3|99999|JOSE MIGUEL AROZTEGUI MASSERA|40|UFPB_J.P.@UFPB_J.P..br|UFPB_J.P.|UFPB_J.P.|P|2013|2016||
K4764833P6|99999|ANDREA VANESSA ROCHA|40|UFPB_J.P.@UFPB_J.P..br|UFPB_J.P.|UFPB_J.P.|P|2013|2016||
K4732925T9|99999|ALEXANDRE DE BUSTAMANTE SIMAS|40|UFPB_J.P.@UFPB_J.P..br|UFPB_J.P.|UFPB_J.P.|P|2013|2016||
K4782411A1|99999|GUIDO LEMOS DE SOUZA FILHO|40|UFPB_J.P.@UFPB_J.P..br|UFPB_J.P.|UFPB_J.P.|P|2013|2016||
K4240497T0|99999|ANTONIO JOSE BONESS DOS SANTOS|40|UFPB_J.P.@UFPB_J.P..br|UFPB_J.P.|UFPB_J.P.|P|2013|2016||
K4211427E4|99999|MOISES DANTAS DOS SANTOS|40|UFPB_J.P.@UFPB_J.P..br|UFPB_J.P.|UFPB_J.P.|P|2013|2016||
K4796823J6|99999|ANA MARIA GONDIM VALENCA|40|UFPB_J.P.@UFPB_J.P..br|UFPB_J.P.|UFPB_J.P.|P|2013|2016||
K4703454J9|99999|ULISSES UMBELINO DOS ANJOS|40|UFPB_J.P.@UFPB_J.P..br|UFPB_J.P.|UFPB_J.P.|P|2013|2016||
K4788875H6|99999|ZAQUEU ERNESTO DA SILVA|40|UFPB_J.P.@UFPB_J.P..br|UFPB_J.P.|UFPB_J.P.|P|2013|2016||
K4768367E7|99999|JAIRO ROCHA DE FARIA|40|UFPB_J.P.@UFPB_J.P..br|UFPB_J.P.|UFPB_J.P.|P|2013|2016||
K4763113D6|99999|HUGO LEONARDO DAVI DE SOUZA CAVALCANTE|40|UFPB_J.P.@UFPB_J.P..br|UFPB_J.P.|UFPB_J.P.|P|2013|2016||
K4783020U3|99999|WALDIR LEITE ROQUE|40|UFPB_J.P.@UFPB_J.P..br|UFPB_J.P.|UFPB_J.P.|P|2013|2016||
K4706066H6|99999|ANA PAULA PINTADO WYSE|40|UFPB_J.P.@UFPB_J.P..br|UFPB_J.P.|UFPB_J.P.|P|2013|2016||
K4139750Z6|99999|KELY DIANA VILLACORTA VILLACORTA|40|UFPB_J.P.@UFPB_J.P..br|UFPB_J.P.|UFPB_J.P.|P|2013|2016||
K4735356D7|99999|FELIPE ANTONIO GARCIA MORENO|40|UFPB_J.P.@UFPB_J.P..br|UFPB_J.P.|UFPB_J.P.|P|2013|2016||
K4787870E3|99999|JOSE MAURICIO ALVES DE MATOS GURGEL|40|UFPB_J.P.@UFPB_J.P..br|UFPB_J.P.|UFPB_J.P.|P|2013|2016||
K4727526H0|99999|ROBERTO QUIRINO DO NASCIMENTO|40|UFPB_J.P.@UFPB_J.P..br|UFPB_J.P.|UFPB_J.P.|P|2013|2016||
K4703279E7|99999|FLAVIA EMILIA LEITE DE LIMA|40|UFPB_J.P.@UFPB_J.P..br|UFPB_J.P.|UFPB_J.P.|P|2013|2016||
K4164721P4|99999|SERGIO RIBEIRO DOS SANTOS|40|UFPB_J.P.@UFPB_J.P..br|UFPB_J.P.|UFPB_J.P.|P|2013|2016||
K4768265A4|99999|SILVANA DE SOUZA NASCIMENTO|40|UFPB_J.P.@UFPB_J.P..br|UFPB_J.P.|UFPB_J.P.|P|2013|2016||
K4257350Z1|99999|SVEN PETERKE|40|UFPB_J.P.@UFPB_J.P..br|UFPB_J.P.|UFPB_J.P.|P|2013|2016||
K4781306Y5|99999|TIMOTHY DENIS IRELAND|40|UFPB_J.P.@UFPB_J.P..br|UFPB_J.P.|UFPB_J.P.|P|2013|2016||
K4781412Y6|99999|RUBENS PINTO LYRA|40|UFPB_J.P.@UFPB_J.P..br|UFPB_J.P.|UFPB_J.P.|P|2013|2016||
K4703059U5|99999|RODRIGO FREIRE DE CARVALHO E SILVA|40|UFPB_J.P.@UFPB_J.P..br|UFPB_J.P.|UFPB_J.P.|P|2013|2016||
K4771141A1|99999|RITA DE CASSIA CAVALCANTI PORTO|40|UFPB_J.P.@UFPB_J.P..br|UFPB_J.P.|UFPB_J.P.|P|2013|2016||
K4789127T0|99999|MARIA DE NAZARE TAVARES ZENAIDE|40|UFPB_J.P.@UFPB_J.P..br|UFPB_J.P.|UFPB_J.P.|P|2013|2016||
K4700145H0|99999|MARIA DE FATIMA FERREIRA RODRIGUES|40|UFPB_J.P.@UFPB_J.P..br|UFPB_J.P.|UFPB_J.P.|P|2013|2016||
K4786385Y9|99999|GIUSEPPE TOSI|40|UFPB_J.P.@UFPB_J.P..br|UFPB_J.P.|UFPB_J.P.|P|2013|2016||
