strict digraph grafo3 {
	graph [bb="0,0,1433,209",
		id=grafo3,
		overlap=False
	];
	node [fontsize=8,
		label="\N",
		shape=rectangle,
		style=filled
	];
	0	 [URL="http://lattes.cnpq.br/6504389569181140",
		color="#17272B",
		fontcolor="#FFFFFF",
		height=0.23611,
		label="Mauri Fortes [1]",
		pos="117.5,200.5",
		width=0.95833];
	1	 [URL="http://lattes.cnpq.br/2582725571935270",
		color="#17272B",
		fontcolor="#FFFFFF",
		height=0.23611,
		label="José Helvecio Martins [2]",
		pos="49.5,136.5",
		width=1.375];
	0 -> 1	 [arrowhead=normal,
		arrowsize=0.75,
		fontsize=8,
		label=0.5,
		lp="73,168.5",
		penwidth=2.0,
		pos="e,51.787,145.23 96.138,191.93 86.474,187.69 75.461,181.59 67.5,173.5 61.669,167.58 57.37,159.38 54.438,152.31"];
	12	 [URL="http://lattes.cnpq.br/1156912706212227",
		color="#17272B",
		fontcolor="#FFFFFF",
		height=0.23611,
		label="Gisele Tessari Santos [3]",
		pos="119.5,72.5",
		width=1.3472];
	0 -> 12	 [arrowhead=normal,
		arrowsize=0.75,
		fontsize=8,
		label=0.5,
		lp="125,136.5",
		penwidth=2.0,
		pos="e,119.38,81.125 117.62,192 117.94,171.82 118.82,116.11 119.26,88.883"];
	1 -> 0	 [arrowhead=normal,
		arrowsize=0.75,
		fontsize=8,
		label=0.25,
		lp="97,168.5",
		penwidth=1.25,
		pos="e,109.16,191.74 58.158,145.2 63.938,150.36 71.698,157.31 78.5,163.5 86.807,171.06 96.044,179.58 103.44,186.43"];
	1 -> 12	 [arrowhead=normal,
		arrowsize=0.75,
		fontsize=8,
		label=0.75,
		lp="75,104.5",
		penwidth=2.75,
		pos="e,97.022,81.004 51.761,127.74 54.414,119.79 59.495,107.5 67.5,99.5 73.784,93.216 81.897,88.179 89.836,84.275"];
	12 -> 0	 [arrowhead=normal,
		arrowsize=0.75,
		fontsize=8,
		label=0.17,
		lp="147,136.5",
		penwidth=1.01,
		pos="e,123.23,191.74 124.93,81.294 128.06,86.26 131.73,92.969 133.5,99.5 142.11,131.25 142.14,142.05 132.5,173.5 131.27,177.51 129.33,\
181.56 127.26,185.24"];
	12 -> 1	 [arrowhead=normal,
		arrowsize=0.75,
		fontsize=8,
		label=0.5,
		lp="99,104.5",
		penwidth=2.0,
		pos="e,59.832,127.8 112.07,81.185 104.75,88.642 93.151,100.17 82.5,109.5 77.216,114.13 71.238,118.96 65.834,123.18"];
	6	 [URL="http://lattes.cnpq.br/4064024662560135",
		color="#17272B",
		fontcolor="#FFFFFF",
		height=0.23611,
		label="Juliana C. Ferreira Mendonça [1]",
		pos="119.5,8.5",
		width=1.7083];
	12 -> 6	 [arrowhead=normal,
		arrowsize=0.75,
		fontsize=8,
		label=0.33,
		lp="108,40.5",
		penwidth=1.49,
		pos="e,111.25,17.164 111.67,63.602 107.47,58.803 102.72,52.303 100.5,45.5 97.967,37.741 101.59,29.655 106.32,23.117"];
	6 -> 12	 [arrowhead=normal,
		arrowsize=0.75,
		fontsize=8,
		label=1.0,
		lp="125,40.5",
		penwidth=3.5,
		pos="e,119.5,63.898 119.5,17.165 119.5,26.864 119.5,43.797 119.5,56.189"];
	2	 [URL="http://lattes.cnpq.br/2803066379015505",
		color="#17272B",
		fontcolor="#FFFFFF",
		height=0.23611,
		label="George Leal Jamil [0]",
		pos="213.5,200.5",
		width=1.2083];
	3	 [URL="http://lattes.cnpq.br/9268849440017927",
		color="#17272B",
		fontcolor="#FFFFFF",
		height=0.23611,
		label="Bruno Santos Pimentel [0]",
		pos="326.5,200.5",
		width=1.4167];
	4	 [URL="http://lattes.cnpq.br/8535313996764809",
		color="#17272B",
		fontcolor="#FFFFFF",
		height=0.23611,
		label="Aline P. Leite Nunes [0]",
		pos="443.5,200.5",
		width=1.3194];
	5	 [URL="http://lattes.cnpq.br/7226474162395383",
		color="#17272B",
		fontcolor="#FFFFFF",
		height=0.23611,
		label="José L. Braga Guimarães [0]",
		pos="563.5,200.5",
		width=1.5];
	7	 [URL="http://lattes.cnpq.br/0162244851289477",
		color="#17272B",
		fontcolor="#FFFFFF",
		height=0.23611,
		label="Mario E. R. Moreira Cavalcanti-Mata [0]",
		pos="710.5,200.5",
		width=2.0694];
	8	 [URL="http://lattes.cnpq.br/5287040686973900",
		color="#17272B",
		fontcolor="#FFFFFF",
		height=0.23611,
		label="Wanyr Romero Ferreira [0]",
		pos="855.5,200.5",
		width=1.4583];
	9	 [URL="http://lattes.cnpq.br/0989160531231200",
		color="#17272B",
		fontcolor="#FFFFFF",
		height=0.23611,
		label="Paulo M. de Barros Monteiro [0]",
		pos="987.5,200.5",
		width=1.6944];
	10	 [URL="http://lattes.cnpq.br/9668558620603206",
		color="#17272B",
		fontcolor="#FFFFFF",
		height=0.23611,
		label="Eduardo Trindade Bahia [0]",
		pos="1119.5,200.5",
		width=1.4722];
	11	 [URL="http://lattes.cnpq.br/0859590825273621",
		color="#17272B",
		fontcolor="#FFFFFF",
		height=0.23611,
		label="Rafael Pinheiro Amantéa [0]",
		pos="1245.5,200.5",
		width=1.5139];
	13	 [URL="http://lattes.cnpq.br/2161118329998992",
		color="#17272B",
		fontcolor="#FFFFFF",
		height=0.23611,
		label="Wéderley Mendes Miranda [0]",
		pos="1375.5,200.5",
		width=1.5972];
}
