strict graph grafo1 {
	graph [bb="0,0,1404,125",
		id=grafo1,
		overlap=False
	];
	node [fontsize=8,
		label="\N",
		shape=rectangle,
		style=filled
	];
	0	 [URL="http://lattes.cnpq.br/6504389569181140",
		color="#17272B",
		fontcolor="#FFFFFF",
		height=0.23611,
		label="Mauri Fortes [1]",
		pos="88.5,116.5",
		width=0.95833];
	1	 [URL="http://lattes.cnpq.br/2582725571935270",
		color="#17272B",
		fontcolor="#FFFFFF",
		height=0.23611,
		label="José Helvecio Martins [2]",
		pos="49.5,62.5",
		width=1.375];
	0 -- 1	 [pos="82.745,107.83 75.372,97.996 62.663,81.051 55.278,71.204"];
	12	 [URL="http://lattes.cnpq.br/1156912706212227",
		color="#17272B",
		fontcolor="#FFFFFF",
		height=0.23611,
		label="Gisele Tessari Santos [3]",
		pos="127.5,8.5",
		width=1.3472];
	0 -- 12	 [pos="92.09,107.8 96.091,99.091 102.64,84.428 107.5,71.5 114.75,52.234 121.8,29.025 125.27,17.217"];
	1 -- 12	 [pos="61.009,53.827 75.841,43.939 101.47,26.856 116.2,17.035"];
	2	 [URL="http://lattes.cnpq.br/2803066379015505",
		color="#17272B",
		fontcolor="#FFFFFF",
		height=0.23611,
		label="George Leal Jamil [0]",
		pos="184.5,116.5",
		width=1.2083];
	3	 [URL="http://lattes.cnpq.br/9268849440017927",
		color="#17272B",
		fontcolor="#FFFFFF",
		height=0.23611,
		label="Bruno Santos Pimentel [0]",
		pos="297.5,116.5",
		width=1.4167];
	4	 [URL="http://lattes.cnpq.br/8535313996764809",
		color="#17272B",
		fontcolor="#FFFFFF",
		height=0.23611,
		label="Aline P. Leite Nunes [0]",
		pos="414.5,116.5",
		width=1.3194];
	5	 [URL="http://lattes.cnpq.br/7226474162395383",
		color="#17272B",
		fontcolor="#FFFFFF",
		height=0.23611,
		label="José L. Braga Guimarães [0]",
		pos="534.5,116.5",
		width=1.5];
	6	 [URL="http://lattes.cnpq.br/4064024662560135",
		color="#17272B",
		fontcolor="#FFFFFF",
		height=0.23611,
		label="Juliana C. Ferreira Mendonça [1]",
		pos="217.5,62.5",
		width=1.7083];
	6 -- 12	 [pos="204.22,53.827 187.11,43.939 157.54,26.856 140.54,17.035"];
	7	 [URL="http://lattes.cnpq.br/0162244851289477",
		color="#17272B",
		fontcolor="#FFFFFF",
		height=0.23611,
		label="Mario E. R. Moreira Cavalcanti-Mata [0]",
		pos="681.5,116.5",
		width=2.0694];
	8	 [URL="http://lattes.cnpq.br/5287040686973900",
		color="#17272B",
		fontcolor="#FFFFFF",
		height=0.23611,
		label="Wanyr Romero Ferreira [0]",
		pos="826.5,116.5",
		width=1.4583];
	9	 [URL="http://lattes.cnpq.br/0989160531231200",
		color="#17272B",
		fontcolor="#FFFFFF",
		height=0.23611,
		label="Paulo M. de Barros Monteiro [0]",
		pos="958.5,116.5",
		width=1.6944];
	10	 [URL="http://lattes.cnpq.br/9668558620603206",
		color="#17272B",
		fontcolor="#FFFFFF",
		height=0.23611,
		label="Eduardo Trindade Bahia [0]",
		pos="1090.5,116.5",
		width=1.4722];
	11	 [URL="http://lattes.cnpq.br/0859590825273621",
		color="#17272B",
		fontcolor="#FFFFFF",
		height=0.23611,
		label="Rafael Pinheiro Amantéa [0]",
		pos="1216.5,116.5",
		width=1.5139];
	13	 [URL="http://lattes.cnpq.br/2161118329998992",
		color="#17272B",
		fontcolor="#FFFFFF",
		height=0.23611,
		label="Wéderley Mendes Miranda [0]",
		pos="1346.5,116.5",
		width=1.5972];
}
