
PB0:2016,64;
PB1:2016,1;
PB2:2016,6;
PB3:*itens sem ano,2;2016,4;
PB4:2016,58;
PB5:2016,21;
PB6:2016,83;
PB7:2016,5;
PB8:*itens sem ano,3;2016,54;
PB9:2016,1;
PT3:2016,3;
PT4:*itens sem ano,1;2016,2;
PT5:*itens sem ano,3;2016,12;
OA0:2015,2;2016,1;2017,4;
OA1:2013,5;2014,15;2015,24;2016,32;2017,12;
OA2:2009,1;2012,2;2013,5;2014,6;2015,33;2016,41;2017,22;
OA4:2009,7;2016,3;2017,13;
OA5:2009,12;2014,3;2015,8;2016,35;2017,31;
OA6:2015,1;2016,12;2017,13;
OC0:2016,2;
OC1:2016,3;
OC2:2016,26;
OC3:2016,1;
OC4:2016,49;
OC5:2016,72;
OC6:2016,45;
Pm:2016,29;
Pj:1989,1;1995,1;2000,2;2003,1;2004,1;2005,1;2006,2;2007,1;2008,5;2009,7;2010,4;2011,8;2012,6;2013,13;2014,35;2015,20;2016,28;
PB:*itens sem ano,5;2016,297;
PT:*itens sem ano,4;2016,17;
OA:2009,20;2012,2;2013,10;2014,24;2015,68;2016,124;2017,95;
OC:2016,198;
Ep:2016,85;
Eo:2016,15;