artigoEmPeriodico	2014		TV Digital como Instrumento Interativo na Educação À Distância	Revista Multiplicidade	ALBINO, João Pedro; FERASOLI FILHO, H. ; RIBEIRO, C. E. T. ; CAMPANA, E. C. ; ANTUNES, M. A. M.	B5	
artigoEmPeriodico	2014		Gestão do Conhecimento e Comunidades de Prática um Enfoque à Partir das TICS	RETEC. Revista de Tecnologias (Ourinhos)	ALBINO, João Pedro; FERASOLI FILHO, H. ; VALENTE, V. P. N. ; RIBEIRO, C. E. T. ; CAMPANA, E. C. ; TEIXEIRA, A. N.	B5	
artigoEmPeriodico	2014		Definição de framework para a padronização de processos em um periódico científico com base em revisão da literatura e nos objetivos de desempenho	GEPROS. Gestão da Produção, Operações e Sistemas (Online)	ALBINO, João Pedro; GARCIA, J. A. C. ; RODRIGUES, J. S. ; OLIVEIRA, M. B.	B4	
artigoEmPeriodico	2014		Gamificação: modelagem de conteúdos para programas e aplicativos educativos no ambiente da TV digital interativa (on line)	Revista Ibero-Americana de Estudos em Educação	AMERICO, M. ; NAVARI, S. C. ; BELDA, Francisco Rolfsen	B1	
artigoEmPeriodico	2014	http://dx.doi.org/10.5007/1984-6924.2014v11n2p316	O jornalismo esportivo transmídia no ecossistema dos esportes eletrônicos (E-Sports)	Estudos em Jornalismo e Mídia	AMÉRICO, M	B1	Estudos em Jornalismo e Mídia (UFSC)
artigoEmPeriodico	2014		Inclusão e Cidadania Digital no Brasil: a (des) articulação das políticas públicas (impresso)	Redes.com (Sevilla)	AMÉRICO, M.; CARVALHO, Angela M. Grossi	B2	
artigoEmPeriodico	2014		Proposta de aplicativo gamificado para o ensino de direção defensiva (impresso)	Rastros (Joinville)	AMÉRICO, M.; GRANDE, F. ; SANTOS, J. F.	B4	
artigoEmPeriodico	2014		Proposta de aplicativo gamificado para o ensino de direção defensiva (on line)	Rastros	AMÉRICO, M.; GRANDE, F. C. ; SANTOS, J. F. T. S.	Qualis nao identificado	Rastros
artigoEmPeriodico	2014		Gamificação: modelagem de conteúdos para programas e aplicativos educativos no ambiente da TV digital interativa (impresso)	Revista Ibero-Americana de Estudos em Educação	AMÉRICO, M.; NAVARI, S. C. ; BELDA, F.R.	B1	
artigoEmPeriodico	2014		Realidade Interativa: Protótipo de Telejornal Interativo para TV Digital Baseado no Conceito de Infotretenimento	Tram[p]as de Comunicación y la Cultura	AMÉRICO, M.; VIEIRA, E. C. F. ; ARANHA, A. S.	Qualis nao identificado	Tram[p]as de Comunicación y la Cultura
artigoEmPeriodico	2014		New Business Models And Editorial Exemption: A Study On Service Journalism Based On Ecommerce Operations	Contemporanea (UFBA. Online)	BELDA, Francisco Rolfsen	B2	
artigoEmPeriodico	2014		Modelo de processo de interação do telespectador em programas da TV Cultura	REVISTA GEMInIS	BELDA, Francisco Rolfsen; GAMONAR, F.	B3	
artigoEmPeriodico	2014		Proposta de Aplicativo em Segunda Tela com Ênfase em Modelo de Negócios para TV Universitária UNESP	Temática (João Pessoa. Online)	BELDA, Francisco Rolfsen; LIMA, M. M. ; LIMA, F.	B4	
artigoEmPeriodico	2014		O conhecimento, as redes e a competência em informação (CoInfo) na sociedade contemporânea: uma proposta de articulação conceitual	Perspectivas em Gestão & Conhecimento	BELLUZO, R. C. B. ; BELLUZZO, R. C. B.	B1	
artigoEmPeriodico	2014		Elos e inter-relações entre redes, gestão e conhecimento:comemorações, desafios e contribuições	Perspectivas em Gestão & Conhecimento	BELLUZZO, R. C. B	B1	
artigoEmPeriodico	2014		Políticas Públicas Municipais de Saúde: fortalecendo a democracia em pequenos municípios brasileiros	Revista Iberoamericana de Estudios Municipales	BIZELLI, J. L.; BIZELLI, Sabrina S Kanesiro ; Castanheira, ERL	B1	Revista Iberoamericana
artigoEmPeriodico	2014		A gamificação do processo educativo.	REVISTA GEMInIS	BUENO, C. J. S. ; BIZELLI, J. L.	B3	
artigoEmPeriodico	2014		Emulação, teste e validação de conceitos e conteúdos	Trampas de la comunicación y la cultura	CAMPANA, E. C. ; FERASOLI FILHO, H. ; BIZELLI, J. L.	Qualis nao identificado	Trampas de la comunicación y la cultura
artigoEmPeriodico	2014		Futebol juvenil: entre o imaginário e a materialidade da vida nas categorias de base no Brasil.	Revista Ibero-Americana de Estudos em Educação	CANDIDO PEREIRA, C. E. ; BIZELLI, J. L.	B1	
artigoEmPeriodico	2014		Aspectos da regulação sobre o ensino a distância no Brasil.	Política e Gestão Educacional (Online)	CARAM, N. R. ; BIZELLI, J. L.	Qualis nao identificado	Política e Gestão Educacional (Online)
artigoEmPeriodico	2014		Televisão digital terrestre na agenda do MERCOSUL	Tram[p]as de la comunicación y la cultura	CARVALHO, Angela M. Grossi ; CARVALHO, Juliano M.	Qualis nao identificado	Tram[p]as de la comunicación y la cultura
artigoEmPeriodico	2014		Propriedade intelectual e as indústrias criativas: cultura digital, regulamentação e as licenças públicas	Alceu (PUCRJ)	CARVALHO, Juliano M.; ZAMBON, P. S. ; LOPES, G. F.	B1	
artigoEmPeriodico	2014		Análise formalista da ficção seriada televisiva 'A Grande Família'	Revista Anagrama (USP)	CAZANI JUNIOR, L. E. ; AFFINI, L. P.	B4	
artigoEmPeriodico	2014		Sistemas de Informação Governamental para Monitoramento e Avaliação das Políticas Públicas: quadro de desafios e perspectivas de avanços.	Revista Brasileira de Monitoramento e Avaliação	CINTRAO, L. P. ; BIZELLI, J. L.	Qualis nao identificado	Revista Brasileira de Monitoramento e Avaliação
artigoEmPeriodico	2014		Sociedade, tecnologias e educação: as tecnologias da informação e comunicação e o pensar da sociedade concreta.	Cadernos de Educação, Tecnologia e Sociedade	CRUZ, J. A. S. ; BIZELLI, J. L.	Qualis nao identificado	Cadernos de Educação, Tecnologia e Sociedade
artigoEmPeriodico	2014	http://dx.doi.org/10.15213/redes.n9.p69	Inclusão e Cidadania Digital no Brasil: a (des) articulação das políticas públicas	Redes.com (Sevilla)	DE CARVALHO, ANGELA ; AMÉRICO, MARCOS	B2	
artigoEmPeriodico	2014		ARBOT: Augmented Reality System for Teaching Logic Algorithmic	Engineering Research	GASPARI, T. ; SEMENTILLE, A. C. ; MARAR, J. F.	B2	Water Engineering Research
artigoEmPeriodico	2014		Gêneros e Formatos: a web como espaço legitimado da Folkcomunicação	Anuário Unesco/Metodista de Comunicação Regional (Impresso)	GOBBI, Maria Cristina	B4	
artigoEmPeriodico	2014		Gêneros e Formatos da Folkcomunicação	Revista Internacional de Folkcomunicação	GOBBI, Maria Cristina	B3	
artigoEmPeriodico	2014		Comunicação digital na América Latina. Cenários, desafios e perspectivas	Revista Latinoamericana de Ciencias de la Comunicación	GOBBI, Maria Cristina; MACHADO FILHO, Francisco	B1	
artigoEmPeriodico	2014		Caos e Complexidade: Design de Superficie e os Novos Paradigmas da Ciencia	Educação Gráfica (Online)	LARANJEIRA, M. ; MARAR, J. F.	Qualis nao identificado	Educação Gráfica (Online)
artigoEmPeriodico	2014		Obsolescência do direito autoral e modalidades de licenças pública para a economia criativa	Temática (João Pessoa. Online)	LIMA, M. M. ; BELDA, Francisco Rolfsen ; CARVALHO, Juliano M.	B4	
artigoEmPeriodico	2014		Projeto TV Brasil: Análise da implantação	Revista Tram[p]as de la comunicación y la cultura	MAGNONI, Antônio Francisco ; AFFINI, L. P.	Qualis nao identificado	Revista Tram[p]as de la comunicación y la cultura
artigoEmPeriodico	2014		Convergência, Jovens Digitais e Tendências para a recepção radiofônica no século XXI	Eptic (UFS)	MAGNONI, A. F.; MIRANDA, G. V.	B2	
artigoEmPeriodico	2014		O Desafio da Interação no Ensino de Língua Estrangeira em Cursos On-Line e Presenciais nas Escolas Públicas Paulistas	Revista Educação e Linguagens	MAGNONI, A. F.; SILVA, S. R.	B3	
artigoEmPeriodico	2014		Rádio e jovens digitais: novas formas de recepção de uma mídia tradicional	Revista Anagrama (USP)	MIRANDA, G. V. ; MAGNONI, A. F.	B4	
artigoEmPeriodico	2014		Design de Objetos de Aprendizagem Digital do ponto de vista da usabilidade	Engineering education in a technology-dependent World	Mochiuti, G. H. ; VALENTE, V. C. P. N.	Qualis nao identificado	Engineering education in a technology-dependent World
artigoEmPeriodico	2014		Pesquisa aplicada em comunicação: uma tendência necessária	Comunicação & Sociedade (Online)	RENO, Denis P	B1	
artigoEmPeriodico	2014		Crônica de um verão e a reativização da felicidade	Revista Poéticas Visuais	RENO, Denis P	B2	
artigoEmPeriodico	2014		Pesquisa aplicada em comunicação uma tendência necessária	Comunicação & Sociedade	RENO, Denis P	B1	
artigoEmPeriodico	2014		Opinião pública, autonomia (relativa) e um novo contexto tecnológico: uma discussão sobre jornalismo especializado em tecnologia	Razón y Palabra	RENO, Denis P.; DANCOSKY, A. K.	B1	
artigoEmPeriodico	2014		Midiatização, intervenções urbanas e cultura marginal: o aticismo terrorista poético na era da convergência	Revista Internacional de Folkcomunicação	RENO, Denis P.; DANCOSKY, A. K.	B3	
artigoEmPeriodico	2014		Mídia e desenvolvimento social no documentário transmídia	Rebej (Brasília)	RENO, Denis P.; RENÓ, Luciana Tarlá Lorenzi	B3	
artigoEmPeriodico	2014		Una narrativa híbrida frente al deseo de redimir el conflicto colombiano	Guionactualidad (Barcelona)	RENO, Denis P.; RUIZ, S.	B5	
artigoEmPeriodico	2014		A interculturalidade no ensino-aprendizagem em Relações Públicas: contribuições a partir de uma parceria internacional	Organicom (USP)	RUIZ, Angelica A. P. L. ; SANTOS, C. M. R. G. ; POREM, M.Eugenia ; CABRAL, R. ; ANDRELO, R. ; GUARALDO, T. S. B.	B1	
artigoEmPeriodico	2014		ARSTUDIO. Estúdio Virtual para Produção de Conteúdos Audiovisuais em Realidade Aumentada para a TV Digital.	REVISTA TRAM[P]AS DE LA COMUNICACIÓN Y LA CULTURA	SEMENTILLE, A. C. ; AMERICO, M. ; BELDA, Francisco Rolfsen ; MARAR, J. F. ; CUNHA, A. K.	Qualis nao identificado	REVISTA TRAM[P]AS DE LA COMUNICACIÓN Y LA CULTURA
artigoEmPeriodico	2014		O desafio de desenvolver artistas criativos no mundo das mídias digitais	The Challenge of Developing Creative Artists in a Standardized World	SILVA, G. V. ; VALENTE, V. C. P. N.	Qualis nao identificado	The Challenge of Developing Creative Artists in a Standardized World
artigoEmPeriodico	2014		As contribuições do dialogismo de Bakhtin e do signo em Umberto Eco para o ensino de língua estrangeira	Revista Ibero-Americana de Estudos em Educação	SILVA, S. R. ; MAGNONI, A. F.	B1	
artigoEmPeriodico	2014		Geração digital: uma reflexão sobre as relações da ?juventude digital? e os campos da comunicação e da cultura.	REVISTA GEMInIS	SOUSA, Juliano Ferreira de ; GOBBI, Maria Cristina	B3	
artigoEmPeriodico	2014		Ensino-aprendizagem em Ambientes Digitais: novas demandas profissionais	REVISTA GEMInIS	VALENTE, V. C. P. N.; MARTINS, C. N. B.	B3	
artigoEmPeriodico	2014		Arranjos subalternos e redes de comunicação social: NeoCriativa e o estudo da identidade Cultural	II Confibercom: Os desafi os da investigação Centro de Estudos de Comunicação e Sociedade	XAVIER, J. T. P.; VELOSO NETO, S. B.	B1	Comunicação e Sociedade
trabalhoCompletoEmCongresso	2014		TV Digital Interativa como Ferramenta de Apoio à Educação	IX Jornada Científica FIB	ALBINO, João Pedro; ANTUNES, M. A. M.		
trabalhoCompletoEmCongresso	2014		TV Digital: Set-Top Box - Análise de Vulnerabilidades	IX Jornada Científica FIB	ALBINO, João Pedro; ANTUNES, M. A. M.		
trabalhoCompletoEmCongresso	2014		O Uso das Midias Digitais como Apoio ao Fluxo de Informações: Uma Reflexão do Processo Didático e Pedgógico	IX Jornada Científica FIB	ALBINO, João Pedro; ANTUNES, M. A. M. ; BITTENCOURT, P. A. S. ; FERASOLI FILHO, H.		
trabalhoCompletoEmCongresso	2014		A Relação entre Gestão do Conhecimento e Redes Sociais	XI Jornada Científica FIB	ALBINO, João Pedro; FERASOLI FILHO, H. ; BIZELLI, J. L.		
trabalhoCompletoEmCongresso	2014		Validação de Aplicações Interativas para a Televisão Digital Através de Emuladores	IX Jornada Científica FIB	ALBINO, João Pedro; RIBEIRO, C. E. T. ; CAMPANA, E. C. ; ANTUNES, M. A. M. ; FABRICIO, M. A. ; FERASOLI FILHO, H.		
trabalhoCompletoEmCongresso	2014		TV Digital: GINGA Midleware para Set-Top Box	IX Jornada Científica FIB	ALBINO, João Pedro; RIBEIRO, C. E. T. ; CAMPANA, E. C. ; ANTUNES, M. A. M. ; FABRICIO, M. A. ; FERASOLI FILHO, H.		
trabalhoCompletoEmCongresso	2014		Assisted Robot Navigation based on Speech Recognition and Synthesis	5th IEEE Biosignals and Biorobotics Conference (ISSNIP) 2014	Alves, S. F. R. ; Nunes ; FERASOLI FILHO, H.		
trabalhoCompletoEmCongresso	2014		Intelligent Control Architecture for Interaction	6th Workshop on Applied Robotics and Automation	Alves, S. F. R. ; Nunes ; FERASOLI FILHO, H.		
trabalhoCompletoEmCongresso	2014		Pomodoro, a Mobile Robot Platform for Hand Motion Exercising	5th IEEE/RAS-EMBS International Conference on Biomedical Robotics an Biomechatronics (BioRob 2014)	Alves, S. F. R. ; URIBE, Alvaro ; Nunes ; FERASOLI FILHO, H.		
trabalhoCompletoEmCongresso	2014		A business model for service journalism based on ecommerce operations	11th World Media Economics and Management Conference	BELDA, Francisco Rolfsen		
trabalhoCompletoEmCongresso	2014		Modelo de processo de interação do telespectador em programas da TV Cultura	V Congreso Internacional de Investigadores Audiovisuales: Tecnología y Contenidos Digitales Aplicados	BELDA, Francisco Rolfsen; GAMONAR, F.		
trabalhoCompletoEmCongresso	2014		Modelo de processo de interação do telespectador em programas da TV Cultura	I Jornada Internacional GEMInIS (JIG 2014)	BELDA, Francisco Rolfsen; GAMONAR, F.		
trabalhoCompletoEmCongresso	2014		A interatividade na era de mudanças: estudo sobre as possibilidades de usos na TV Digital, segundas telas e modelo de negócios	II Congresso Mundial de Comunicação Ibero-americana	BERNARDINI, Gleice ; GOBBI, Maria Cristina		
trabalhoCompletoEmCongresso	2014		Notas introdutórias para discutir sobre os atores políticos e a transformação social	XXXVII Congresso Brasileiro de Ciências da Comunicação	BIZELLI, J. L.; CRUZ, J. A. S.		
trabalhoCompletoEmCongresso	2014		A gamificação do processo educativo	I Jornada Internacional GEMInIS: Entretenimento Transmídia.	BUENO, C. J. S. ; BIZELLI, J. L.		
trabalhoCompletoEmCongresso	2014		Folkcomunicação e mídia radical; semelhanças, diferenças e potencialidades	II Congresso Mundial de Comunicação Ibero-americana	CAMARGO, Aline Cristina ; GOBBI, Maria Cristina		
trabalhoCompletoEmCongresso	2014		Inclusão no Ensino Superior: Perspectiva da inclusão na percepção de servidores técnico-administrativos	Anais do VI Congresso Brasileiro de Educação Especial	CANDIDO PEREIRA, C. E. ; BIZELLI, J. L. ; LEITE, L. P.		
trabalhoCompletoEmCongresso	2014		Fashion of Fashion and the Complexity Theory by Edgar Morin	CIMODE 2014 Secondo Congresso Internazionale di Moda e Design	CARVALHO, A. P. ; MARAR, J. F.		
trabalhoCompletoEmCongresso	2014		Redes Neurais Artificiais e suas Aplicações no Design de Produto	3 Conferencia Internacional em Design e Artes Graficas	CARVALHO, A. P. ; MARAR, J. F. ; HOLDSCHIP, R.		
trabalhoCompletoEmCongresso	2014		Indústrias Criativas e Geração de Conteúdo: desafios e perspectivas	XII Congresso ALAIC	CARVALHO, Angela M. Grossi ; CARVALHO, Juliano M.		
trabalhoCompletoEmCongresso	2014		Produção de conteúdo e Indústrias Criativas: um ensaio crítico	II Congresso Mundial de Comunicação Ibero-Americana	CARVALHO, Angela M. Grossi ; CARVALHO, Juliano M.		
trabalhoCompletoEmCongresso	2014		Ensino Superior e a formação de docentes: educar para os meios a partir da pós-graduação lato sensu	XXXVII Congresso Brasileiro de Ciências da Comunicação	CRUZ, J. A. S. ; BIZELLI, J. L.		
trabalhoCompletoEmCongresso	2014		A gestão do conhecimento e as tecnologias da informação e comunicação - TIC: Mapas do Conhecimento na Formação Inicial do Docente e Educação a Distância	INTERCOM 2014 - XXXVII Congresso Brasileiro de Ciências da Comunicação	CRUZ, J. A. S. ; BIZELLI, J. L. ; ALBINO, João Pedro ; FABRICIO, M. A. ; GALVANI, A.		
trabalhoCompletoEmCongresso	2014		A sociedade informacional: internacionalização de aprendizagens na era digital e a formação inicial do docente	II Congresso Mundial de Comunicação ibero-americana	CRUZ, J. A. S. ; BIZELLI, J. L. ; SANTOS, A. C. F. ; MAGNONI, M. G. M.		
trabalhoCompletoEmCongresso	2014	http://dx.doi.org/10.1145/2670473.2670491	ARSTUDIO	the 13th ACM SIGGRAPH International Conference	DE GASPARI, TIAGO ; SEMENTILLE, ANTONIO CARLOS ; VIELMAS, DANIEL ZUNIGA ; AGUILAR, IVAN ABDO ; MARAR, JOÃO FERNANDO		
trabalhoCompletoEmCongresso	2014	http://dx.doi.org/10.1145/2670473.2670491	ARSTUDIO	the 13th ACM SIGGRAPH International Conference	DE GASPARI, TIAGO ; Sementille, Antonio Carlos ; VIELMAS, DANIEL ZUNIGA ; AGUILAR, IVAN ABDO ; MARAR, JOÃO FERNANDO		
trabalhoCompletoEmCongresso	2014		Projeto Global ITV para a América Latina	XXXVII Congresso Brasileiro de Ciências da Comunicação	GOBBI, Maria Cristina; BETTI, Juliana Cristina Gobbi		
trabalhoCompletoEmCongresso	2014		Jornalismo e Juventude na perspectiva de Luiz Beltrão	I Pens@com Brasil - Pensamento Comunicacional Brasileiro	GOBBI, Maria Cristina; BETTI, Juliana Cristina Gobbi		
trabalhoCompletoEmCongresso	2014		Relações Públicas em contextos de internacionalização organizacional	II Congresso Mundial de Comunicação Ibero-americana	GOBBI, Maria Cristina; GRANATO, Mariany Schievano		
trabalhoCompletoEmCongresso	2014		COLEÇÃO DE ADORNOS CORPORAIS CONTEMPORÂNEOS BASEADOS NO CONJUNTO DE SIGNOS DA JOALHERIA EGÍPCIA	11o PD Design 2014 - Congresso Brasileiro de Pesquisa e Desenvolvimento em Design	GOSMINI, M. C. ; MARAR, J. F. ; BUSATO, S. L.		
trabalhoCompletoEmCongresso	2014		O DESIGN DE ADORNOS CORPORAIS NO ANTIGO EGITO E SUAS FINALIDADES MÁGICAS	11o PD Design 2014 - Congresso Brasileiro de Pesquisa e Desenvolvimento em Design	GOSMINI, M. C. ; MARAR, J. F. ; BUSATO, S. L.		
trabalhoCompletoEmCongresso	2014		Design e Diferencial Sementico: Avaliação da Percepção Visual de Grupos Academicos distintos atraves da Analise de Componentes Principais	Congresso Brasileiro de Pesquisa e Desenvolvimento em Design	HOLDSCHIP, R. ; MARAR, J. F.		
trabalhoCompletoEmCongresso	2014		Identificação do Espaço Semantico de Fontes Tipograficas a partir da Analise de Componentes Principais	3 Conferencia Internacional em Design e Artes Graficas	HOLDSCHIP, R. ; SOARES, J. M. ; MARAR, J. F. ; CARVALHO, A. P.		
trabalhoCompletoEmCongresso	2014	http://dx.doi.org/10.5151/designpro-ped-01221	Caos e Complexidade: Design de Superficie e os Novos Paradigmas da Ciencia	Congresso Brasileiro de Pesquisa e Desenvolvimento em Design	LARANJEIRA, M. ; MARAR, J. F.		
trabalhoCompletoEmCongresso	2014		Influencia da Complexidade nas Possibilidades Expressivas do Design de Superficie	3 Conferencia Internacional em Design e Artes Graficas	LARANJEIRA, M. ; MARAR, J. F.		
trabalhoCompletoEmCongresso	2014		Panorama dos modelos de negócios emergentes na TV Digital aberta	I Jornada Internacional GEMInIS (JIG 2014)	LIMA, F. ; BRESSAN, D. ; BELDA, Francisco Rolfsen ; DURIGAN, G. ; LIMA, M. M.		
trabalhoCompletoEmCongresso	2014		As experiências de ensino e extensão desenvolvidas na Escola Municipal Núcleo de Ensino Renovado	IV Fórum de Extensão	MAGNONI, A. F		
trabalhoCompletoEmCongresso	2014		Gêneros e formatos jornalísticos no rádio do interior na era das novas tecnologias	XIX Congresso de Ciências da Comunicação na Região Sudeste	MAGNONI, A. F.; RODRIGUES, K. C.		
trabalhoCompletoEmCongresso	2014		Origami Cientifico: Um Estudo sobre o Paradigma dobra em conexão com o Design	3 Conferencia Internacional em Design e Artes Graficas	MARAR, J. F.; TEIXEIRA, S. A.		
trabalhoCompletoEmCongresso	2014		Ensino-Aprendizagem em ambientes digitais: novas demandas profissionais	JIG - I Jornada Internacional GEMInIS Entretenimento Transmídia	MARTINS, C. N. B. ; VALENTE, V. C. P. N.		
trabalhoCompletoEmCongresso	2014	http://dx.doi.org/10.13140/2.1.4531.7926	Revisão legislativa da formação de professores em educação especial no Brasil	IX EIDE - Encontro Ibero-americano de Educação	Mattos, M. O. ; Heredero, Eladio Sebastian ; BIZELLI, J. L.		
trabalhoCompletoEmCongresso	2014		Perspectiva Angular Imersiva: Uma Representação Contemporanea	3 Conferencia Internacional em Design e Artes Graficas	MIRA, F. ; SILVEIRA, E. ; MARAR, J. F.		
trabalhoCompletoEmCongresso	2014		A gamificação para o edutretenimento educativo: a experiência além dos badges	I Jornada Internacional GEMInIS: Entretenimento Transmídia	NAVARI, S. C. ; AMÉRICO, M.		
trabalhoCompletoEmCongresso	2014		Charge jornalísticas: definição, histórico e funções	XII Congresso de la Asociación Latinoamericana de Investigadores de la Comunicación	PARNAÍBA, Cristiane dos Santos ; GOBBI, Maria Cristina		
trabalhoCompletoEmCongresso	2014		Programa jornalístico de conteúdos multimídia colaborativos integrados a uma plataforma cartográfica de mídia digital	I Jornada Internacional GEMInIS (JIG 2014)	PEREIRA, J. R. ; ANTUNES, M. A. M. ; BELDA, Francisco Rolfsen ; ALBINO, J. P.		
trabalhoCompletoEmCongresso	2014		Navegação Assistida Baseada em Reconhecimento e Síntese de Fala	20o Congresso Brasileiro de Automática - CBA 2014	RANIERI, C. ; Alves, S. F. R. ; Nunes ; FERASOLI FILHO, H.		
trabalhoCompletoEmCongresso	2014		Perspectivas Inovadoras no Ensino de Relações Públicas a partir de Metodologias Ativas	XIV Congresso Internacional de Relações Públicas e Comunicação - ALARP 2014,	RUIZ, Angelica A. P. L. ; SANTOS, C. M. R. G. ; POREM, M.Eugenia ; CABRAL, R. ; ANDRELO, R. ; GUARALDO, T. S. B.		
trabalhoCompletoEmCongresso	2014		Ensino-aprendizagem em Relações Públicas e o desafio de uma parceria intercultural	XXXVII Congresso Brasileiro de Ciências da Comunicação	RUIZ, Angelica A. P. L. ; SANTOS, C. M. R. G. ; POREM, M.Eugenia ; CABRAL, R. ; ANDRELO, R. ; GUARALDO, T. S. B.		
trabalhoCompletoEmCongresso	2014		Qualidade de segmentação em realidade aumentada: definição e identificação de erros mais perceptíveis	XV Workshop de Realidade Virtual e Aumentada	SALIONI, D. V. ; SANCHES, S. R. R. ; SILVA, Valdinei F. ; SEMENTILLE, A. C.		
trabalhoCompletoEmCongresso	2014		Internacionalização de saberes: a construção do conhecimento na era digital	II Congresso Mundial de Comunicação Ibero-americana	SANTOS, A. C. F. ; MAGNONI, M. G. M. ; CRUZ, J. A. S. ; BIZELLI, J. L.		
trabalhoCompletoEmCongresso	2014		Reflexões sobre o ?estado da arte? de programas de formação da competência em informação no Brasil	III Seminário de Competência em Informação: cenários e tendências	SANTOS, C. A. ; BELLUZZO, R. C. B.		
trabalhoCompletoEmCongresso	2014		A Harmonia e as Proporções da Natureza Aplicadas na Identidade Visual da UNESP	3 Conferencia Internacional em Design e Artes Graficas	SILVEIRA, E. ; MIRA, F. ; MARAR, J. F.		
trabalhoCompletoEmCongresso	2014		Geração Digital: as relações da juventude digital com os campos da comunicação e da cultura	XII Congresso de la Asociación Latinoamericana de Investigadores de la Comunicación	SOUSA, Juliano Ferreira de ; GOBBI, Maria Cristina ; DREVES, Aleta Teresa		
trabalhoCompletoEmCongresso	2014		CIBERCULTURA: conceituação do web documentário interativo	I Jornada Internacional GEMInIS	SYLVESTRE, H. S. ; AFFINI, L. P.		
trabalhoCompletoEmCongresso	2014		Educação e memória nos ciberespaços	II Congresso Mundial de Comunicação ibero-americana	TARDIVO, J. A. ; CUNHA, M. D. ; CANDIDO PEREIRA, C. E. ; BIZELLI, J. L.		
trabalhoCompletoEmCongresso	2014	http://dx.doi.org/10.14684/intertech	Design de Objetos de Aprendizagem Digital do ponto de vista da usabilidade	XIII International Conference on Engineering and Technology Education - INTERTECH'2014	VALENTE, V. C. P. N.; Mochiuti, G. H.		
trabalhoCompletoEmCongresso	2014		O desafio de desenvolver artistas criativos no mundo das midias digitais	VII World Congress on Communication and Arts	VALENTE, V. C. P. N.; SILVA, G. V.		
resumoExpandidoEmCongresso	2014	A Implantação da TV Digital no Brasil	IX Jornada Científica FIB, 2014, Bauru - SP. Anais da IX Jornada Científica FIB. Bauru - SP: Faculdades Integradas de Bauru	ALBINO, João Pedro; ANTUNES, M. A. M.		
resumoExpandidoEmCongresso	2014	Influências econômicas da produção cultural criativa digital internacional no Brasil	Colóquio Mídia e Tecnologia 2014 (maio), 2014, Bauru. Anais do Colóquio Mídia e Tecnologia 2014	ANDRADE, S. S. ; CARVALHO, Juliano M.		
resumoExpandidoEmCongresso	2014	Influências econômicas da produção cultural criativa digital internacional no Brasil	XVI Jornada Multidisciplinar, 2014, Bauru, SP. Anais da XVI Jornada Multidisciplinar	ANDRADE, S. S. ; CARVALHO, Juliano M.		
resumoExpandidoEmCongresso	2014	A Construção da Narrativa Temporal na Minissérie 'A Teia'	XXVI Congresso de Iniciação Científica da Unesp, 2014, Bauru. Anais do XXVI Congresso de Iniciação Científica da Unesp. São Paulo: Editora da Unesp	ASSIS, J. F. V. ; AFFINI, L. P.		
resumoExpandidoEmCongresso	2014	NA RUA, EM CASA, NA FAZENDA: Estudo do aplicativo de segunda tela do reality show A Fazenda 7	IX Jornada Científica Faculdades Integradas de Bauru - FIB, 2014, Bauru. Anais da IX Jornada Científica Faculdades Integradas de Bauru - FIB. Bauru: Editora da FIB	BITTENCOURT, D. M. ; AFFINI, L. P.		
resumoExpandidoEmCongresso	2014	Uma Nova Forma de Assistir Televisão	IX Jornada Científica FIB, 2014, Bauru. Anais do IX Jornada Científica FIB 2014	BUENO, Samuel Siqueira ; FABRICIO, M. A. ; Bizelli, J.L. ; FERASOLI FILHO, H.		
resumoExpandidoEmCongresso	2014	Flashmob: dos meios à praça	XXVI Congresso de Iniciação Científica da Unesp, 2014, Bauru, SP. XXVI CIC. Bauru, SP: Unesp	DARCIE, Marina Paula ; GOBBI, Maria Cristina		
resumoExpandidoEmCongresso	2014	A oferta da disciplina Educação para Cidadania como ferramenta para a formação cidadã de crianças e adolescentes	XXVI Congresso de iniciação científica., 2014, Araraquara. Trabalhos apresentados no XXVI Congresso de iniciação científica.. São Paulo.: UNESP	Duarte, C. P. ; BIZELLI, J. L.		
resumoExpandidoEmCongresso	2014	Relação entre Gestão do Conhecimento e Redes Sociais	IX Jornada Científica FIB, 2014, Bauru. Anais do IX Jornada Científica FIB 2014	FABRICIO, M. A. ; FERASOLI FILHO, H. ; BUENO, Samuel Siqueira ; Bizelli, J.L.		
resumoExpandidoEmCongresso	2014	A Utilização da Internet como Apoio para Interatividade na TV Digital	IX Jornada Científica FIB, 2014, Bauru. Anais do IX Jornada Científica FIB 2014	FABRICIO, M. A. ; FERASOLI FILHO, H. ; BUENO, Samuel Siqueira ; Bizelli, J.L.		
resumoExpandidoEmCongresso	2014	As experiências de ensino e extensão desenvolvidas na Escola Municipal Núcleo de Ensino Renovado pelo SICOM-PET	IV Fórum de Extensão, 2014, Bauru, SP. As experiências de ensino e extensão desenvolvidas na Escola Municipal Núcleo de Ensino Renovado SiICOM-PET	MAGNONI, A. F.; GOMES, A. C. ; ORTEGA, P. M. ; MACENO, L. L. ; MISSURINI, L. B. ; SILVA, W. B. C. ; SCHIAVINATTI, G. R.		
resumoExpandidoEmCongresso	2014	Jornalismo multiplataforma da Embrapa: uma proposta de telejornal para a TV Brasil	XVI Jornada Multidisciplinar: O Brasil e o golpe de 1964, retrospectivas e perspectivas, 2014, Bauru/SP. XVI Jornada Multidisciplinar: O Brasil e o golpe de 1964, retrospectivas e perspectivas. Bauru-SP: Unesp-FAAC	MAGNONI, A. F.; MELO, R. R.		
resumoExpandidoEmCongresso	2014	Interfaces do jornalismo hiperlocal com os processos criativos dos arranjos produtivos locais	XVI Jornada Multidisciplinar, 2014, Bauru, SP. Anais da XVI Jornada Multidisciplinar	MIRANDA, G. V. ; Carvalho, J. M.		
resumoExpandidoEmCongresso	2014	Validação de Aplicações Interativas para a Televisão Digital Através de Emuladores	IX Jornada Científica FIB, 2014, Bauru. Anais do IX Jornada Científica FIB 2014	RIBEIRO, C. E. T. ; CAMPANA, E. C. ; ANTUNES, M. A. M. ; FABRICIO, M. A. ; ALBINO, J. P. ; FERASOLI FILHO, H.		
resumoExpandidoEmCongresso	2014	TV Digital: Ginga Midleware para Set-Top Box	IX Jornada Científica FIB, 2014, Bauru. Anais do IX Jornada Científica FIB 2014	RIBEIRO, C. E. T. ; CAMPANA, E. C. ; FABRÍCIO, M.A. ; ALBINO, J. P. ; FERASOLI FILHO, H.		
resumoExpandidoEmCongresso	2014	Preparação de atores: convergências e divergências entre as técnicas de Strasberg e Meisner	XXVI Congresso de Iniciação Científica da Unesp, 2014, Bauru. Anais do XXVI Congresso de Iniciação Científica da Unesp. São Paulo: Editora da Unesp	RODRIGUES, L. P. ; AFFINI, L. P.		
resumoExpandidoEmCongresso	2014	As webséries de The Walking Dead e a Narrativa Transmídia	XXVI Congresso de Iniciação Científica da Unesp, 2014, Bauru. Anais do XXVI Congresso de Iniciação Científica da Unesp. São Paulo: Editora da Unesp	SANTOS, S. C. ; AFFINI, L. P.		
resumoExpandidoEmCongresso	2014	Programa Pau a Pixel: as implicações entre a TV Universitária e a divulgação de Produtos Audiovisuais Universitários	XXVI Congresso de Iniciação Científica da Unesp, 2014, Bauru. Anais do XXVI Congresso de Iniciação Científica da Unesp. São Paulo: Editora da Unesp	STAFFA, G. ; AFFINI, L. P.		
resumoExpandidoEmCongresso	2014	Análise dos processos interativos em webdocumentário: um estudo exploratório	Colóquio de Mídia e Tecnologia, 2014, Bauru. Anais do Colóquio de Mídia e Tecnologia. Bauru: Editora da Unesp	SYLVESTRE, H. S. ; AFFINI, L. P.		
resumoExpandidoEmCongresso	2014	Análise de processos inovadores no governo do território paulista	XXVI Congresso de Iniciação Científica, 2014, Araraquara.. Trabalhos apresentados no XXVI Congresso de Iniciação Científica. São Paulo.: UNESP	Vargas, T. C. ; BIZELLI, J. L.		
resumoExpandidoEmCongresso	2014	A mediação crítica: o desenho institucional da propriedade intelectual para as indústrias criativas	XVI Jornada Multidisciplinar, 2014, Bauru, SP. Anais da XVI Jornada Multidisciplinar	VICENTE, G. H. ; Carvalho, J. M.		
resumoExpandidoEmCongresso	2014	A mediação crítica: o desenho institucional da propriedade intelectual para as indústrias criativas	XXVI Congresso de Iniciação Científica da Unesp, 2014, Bauru, SP. Anais do XXVI Congresso de Iniciação da Unesp	VICENTE, G. H. ; CARVALHO, Juliano M.		
resumoExpandidoEmCongresso	2014	Observatório De Indústrias Criativas	XVI Jornada Multidisciplinar, 2014, Bauru, SP. Anais da XVI Jornada Multidisciplinar	ZAMBON, P. S. ; CARVALHO, Juliano M.		
