3306639576480361
5891290481492220
5742286307682505
1843587196655459
5356631364526373
5566869997738091
5209245987326574
1495307371508861
3350119903495479
5360039693866307
8304507282532636
3966520672292193
5883532047220320
5816066197029925
5365980970949716
0036766179644104
8302799021512210
0193783578688625
8247613218944551
0149421197228356
1987040329676323
3367851356455715
6603067354811112
2488515249747169
3109765375187879
3761082063391085
2146827739602504
7066276230059704
2457201378390160
4511646102728382
7694775159640361
8679123716738439
6198722804410996
7819421851048499
1277989540271729
5144761239802060
