0.15
0.15
0.902871
0.15
0.835743
1.47245
0.588435
0.15
1.23329
0.15
0.15
1.21737
1.26219
0.15
1.0
0.15
0.15
0.588435
1.17526
0.15
0.649485
0.85012
1.51946
1.07347
0.707723
0.15
0.996126
1.17526
0.15
1.29615
0.15
0.15
0.15
1.0
0.456168
0.15
