strict digraph grafo3 {
	graph [bb="0,0,1376.5,273",
		id=grafo3,
		overlap=False
	];
	node [fontsize=8,
		label="\N",
		shape=rectangle,
		style=filled
	];
	0	 [URL="http://lattes.cnpq.br/1073307881297127",
		color="#17272B",
		fontcolor="#FFFFFF",
		height=0.23611,
		label="Pedro A. de Paula Pereira [4]",
		pos="103,264.5",
		width=1.5278];
	7	 [URL="http://lattes.cnpq.br/2483185411923070",
		color="#17272B",
		fontcolor="#FFFFFF",
		height=0.23611,
		label="Ednildo Andrade Torres [18]",
		pos="428,200.5",
		width=1.5278];
	0 -> 7	 [arrowhead=normal,
		arrowsize=0.75,
		fontsize=8,
		label=0.25,
		lp="292.5,232.5",
		penwidth=1.25,
		pos="e,388.49,209.04 142.53,255.96 202.59,244.5 316.64,222.74 380.91,210.48"];
	11	 [URL="http://lattes.cnpq.br/4049958660392553",
		color="#17272B",
		fontcolor="#FFFFFF",
		height=0.23611,
		label="Jailson Bittencourt de Andrade [11]",
		pos="134,8.5",
		width=1.8194];
	0 -> 11	 [arrowhead=normal,
		arrowsize=0.75,
		fontsize=8,
		label=0.75,
		lp="7.5,136.5",
		penwidth=2.75,
		pos="e,68.57,15.556 62.587,255.96 33.731,247.96 0,232.08 0,201.5 0,201.5 0,201.5 0,71.5 0,40.65 29.616,25.103 61.002,17.29"];
	7 -> 0	 [arrowhead=normal,
		arrowsize=0.75,
		fontsize=8,
		label=0.06,
		lp="349.5,232.5",
		penwidth=0.68,
		pos="e,158.41,258.65 405.86,209.05 381.25,217.18 340.21,229.95 304,237.5 258.31,247.03 206,253.66 166.2,257.85"];
	7 -> 11	 [arrowhead=normal,
		arrowsize=0.75,
		fontsize=8,
		label=0.06,
		lp="414.5,104.5",
		penwidth=0.68,
		pos="e,199.5,15.609 426.3,191.63 420.26,163.99 399.7,72.596 390,63.5 363.91,39.047 273.1,24.247 207.03,16.476"];
	1	 [URL="http://lattes.cnpq.br/9170893104155674",
		color="#17272B",
		fontcolor="#FFFFFF",
		height=0.23611,
		label="Silvio A. B. Vieira de Melo [5]",
		pos="682,136.5",
		width=1.6111];
	7 -> 1	 [arrowhead=normal,
		arrowsize=0.75,
		fontsize=8,
		label=0.22,
		lp="650.5,168.5",
		penwidth=1.16,
		pos="e,671.83,145.24 483.42,197.87 522.75,195.32 576.27,189 621,173.5 637.12,167.91 653.69,157.81 665.48,149.72"];
	3	 [URL="http://lattes.cnpq.br/7228906971455111",
		color="#17272B",
		fontcolor="#FFFFFF",
		height=0.23611,
		label="Heloysa M. Carvalho Andrade [7]",
		pos="682,72.5",
		width=1.75];
	7 -> 3	 [arrowhead=normal,
		arrowsize=0.75,
		fontsize=8,
		label=0.06,
		lp="761.5,136.5",
		penwidth=0.68,
		pos="e,698.89,81.151 483.31,199.04 566.78,196.98 718.46,187.4 749,145.5 766,122.16 731.31,98.242 705.8,84.69"];
	8	 [URL="http://lattes.cnpq.br/3733846364293441",
		color="#17272B",
		fontcolor="#FFFFFF",
		height=0.23611,
		label="Asher Kiperstok [5]",
		pos="566,136.5",
		width=1.1111];
	7 -> 8	 [arrowhead=normal,
		arrowsize=0.75,
		fontsize=8,
		label=0.28,
		lp="560.5,168.5",
		penwidth=1.34,
		pos="e,562.99,145.1 483.04,195.46 502.97,191.89 524.78,185.37 542,173.5 549.7,168.19 555.59,159.53 559.6,152.04"];
	10	 [URL="http://lattes.cnpq.br/7897779819494573",
		color="#17272B",
		fontcolor="#FFFFFF",
		height=0.23611,
		label="Cristina M. A. L. T. da M. Hermida Quintella [7]",
		pos="294,72.5",
		width=2.4167];
	7 -> 10	 [arrowhead=normal,
		arrowsize=0.75,
		fontsize=8,
		label=0.22,
		lp="332.5,136.5",
		penwidth=1.16,
		pos="e,295.96,81.033 393.19,191.97 379.55,187.94 364.26,182 352,173.5 321.89,152.62 305.23,110.66 298.15,88.305"];
	16	 [URL="http://lattes.cnpq.br/6401622195719726",
		color="#17272B",
		fontcolor="#FFFFFF",
		height=0.23611,
		label="Iuri Muniz Pepe [6]",
		pos="239,136.5",
		width=1.1111];
	7 -> 16	 [arrowhead=normal,
		arrowsize=0.75,
		fontsize=8,
		label=0.11,
		lp="253.5,168.5",
		penwidth=0.83,
		pos="e,238.15,145.02 372.83,198.47 326.05,196.41 263.81,190.44 246,173.5 240.5,168.26 238.6,160.09 238.15,152.85"];
	11 -> 0	 [arrowhead=normal,
		arrowsize=0.75,
		fontsize=8,
		label=0.27,
		lp="58.5,136.5",
		penwidth=1.31,
		pos="e,90.146,255.84 107.28,17.141 83.018,25.911 51,42.902 51,71.5 51,201.5 51,201.5 51,201.5 51,222.58 68.858,240.24 83.644,251.26"];
	11 -> 7	 [arrowhead=normal,
		arrowsize=0.75,
		fontsize=8,
		label=0.09,
		lp="439.5,104.5",
		penwidth=0.77,
		pos="e,429.88,191.82 199.28,11.075 243.73,13.625 303.45,19.973 354,35.5 379.84,43.437 389.24,44.032 408,63.5 439.79,96.491 430.15,117.78 \
433,163.5 433.28,167.94 433.42,169.08 433,173.5 432.67,177 432.09,180.73 431.44,184.24"];
	12	 [URL="http://lattes.cnpq.br/7767998250007993",
		color="#17272B",
		fontcolor="#FFFFFF",
		height=0.23611,
		label="Gisele Olímpio da Rocha [8]",
		pos="134,72.5",
		width=1.5139];
	11 -> 12	 [arrowhead=normal,
		arrowsize=0.75,
		fontsize=8,
		label=0.64,
		lp="141.5,40.5",
		penwidth=2.42,
		pos="e,134,63.898 134,17.165 134,26.864 134,43.797 134,56.189"];
	1 -> 7	 [arrowhead=normal,
		arrowsize=0.75,
		fontsize=8,
		label=0.8,
		lp="611.5,168.5",
		penwidth=2.9,
		pos="e,479.35,191.99 661.57,145.12 639.67,153.08 603.76,165.48 572,173.5 544.31,180.49 513.18,186.36 486.96,190.74"];
	1 -> 3	 [arrowhead=normal,
		arrowsize=0.75,
		fontsize=8,
		label=0.2,
		lp="687.5,104.5",
		penwidth=1.1,
		pos="e,682,81.165 682,127.9 682,118.23 682,101.3 682,88.891"];
	3 -> 7	 [arrowhead=normal,
		arrowsize=0.75,
		fontsize=8,
		label=0.14,
		lp="509.5,136.5",
		penwidth=0.92,
		pos="e,438.49,191.98 631.15,81.048 593.27,88.427 541.49,102.35 502,127.5 478.9,142.21 480.94,154.73 461,173.5 455.88,178.31 449.95,183.19 \
444.53,187.39"];
	3 -> 1	 [arrowhead=normal,
		arrowsize=0.75,
		fontsize=8,
		label=0.14,
		lp="670.5,104.5",
		penwidth=0.92,
		pos="e,674.17,127.6 673.75,81.164 667.18,88.228 659.62,99.154 663,109.5 664.39,113.75 666.76,117.89 669.37,121.56"];
	2	 [URL="http://lattes.cnpq.br/5363080225273626",
		color="#17272B",
		fontcolor="#FFFFFF",
		height=0.23611,
		label="Jardel Pereira Gonçalves [5]",
		pos="682,8.5",
		width=1.4861];
	3 -> 2	 [arrowhead=normal,
		arrowsize=0.75,
		fontsize=8,
		label=0.71,
		lp="670.5,40.5",
		penwidth=2.63,
		pos="e,673.75,17.164 674.17,63.602 669.97,58.803 665.22,52.303 663,45.5 660.47,37.741 664.09,29.655 668.82,23.117"];
	8 -> 7	 [arrowhead=normal,
		arrowsize=0.75,
		fontsize=8,
		label=1.0,
		lp="531.5,168.5",
		penwidth=3.5,
		pos="e,456.02,191.99 555.11,145.2 543.59,153.1 524.65,165.35 507,173.5 493.18,179.89 477.33,185.43 463.48,189.73"];
	10 -> 7	 [arrowhead=normal,
		arrowsize=0.75,
		fontsize=8,
		label=0.57,
		lp="371.5,136.5",
		penwidth=2.21,
		pos="e,417.65,191.82 301.08,81.07 317.18,98.165 358.02,140.82 395,173.5 400.26,178.15 406.24,182.98 411.64,187.2"];
	10 -> 16	 [arrowhead=normal,
		arrowsize=0.75,
		fontsize=8,
		label=0.43,
		lp="277.5,104.5",
		penwidth=1.79,
		pos="e,245.74,127.9 287.2,81.165 278.1,91.424 261.82,109.78 250.72,122.29"];
	16 -> 7	 [arrowhead=normal,
		arrowsize=0.75,
		fontsize=8,
		label=0.33,
		lp="293.5,168.5",
		penwidth=1.49,
		pos="e,372.95,195.52 246.56,145.16 255.27,153.5 270.4,166.58 286,173.5 310.71,184.46 339.8,190.8 365.2,194.46"];
	16 -> 10	 [arrowhead=normal,
		arrowsize=0.75,
		fontsize=8,
		label=0.5,
		lp="254.5,104.5",
		penwidth=2.0,
		pos="e,273.64,81.118 239.45,127.86 240.27,120.02 242.57,107.81 249,99.5 253.72,93.4 260.31,88.475 266.99,84.62"];
	16 -> 12	 [arrowhead=normal,
		arrowsize=0.75,
		fontsize=8,
		label=0.17,
		lp="169.5,104.5",
		penwidth=1.01,
		pos="e,138.15,81.193 202.84,127.99 189.2,124 174.08,118.08 162,109.5 154.06,103.86 147.29,95.329 142.39,87.987"];
	12 -> 11	 [arrowhead=normal,
		arrowsize=0.75,
		fontsize=8,
		label=0.88,
		lp="122.5,40.5",
		penwidth=3.14,
		pos="e,125.75,17.164 126.17,63.602 121.97,58.803 117.22,52.303 115,45.5 112.47,37.741 116.09,29.655 120.82,23.117"];
	12 -> 16	 [arrowhead=normal,
		arrowsize=0.75,
		fontsize=8,
		label=0.13,
		lp="200.5,104.5",
		penwidth=0.89,
		pos="e,226.12,127.9 146.98,81.165 165.14,91.89 198.29,111.46 219.45,123.95"];
	2 -> 3	 [arrowhead=normal,
		arrowsize=0.75,
		fontsize=8,
		label=1.0,
		lp="687.5,40.5",
		penwidth=3.5,
		pos="e,682,63.898 682,17.165 682,26.864 682,43.797 682,56.189"];
	4	 [URL="http://lattes.cnpq.br/2272781877323360",
		color="#17272B",
		fontcolor="#FFFFFF",
		height=0.23611,
		label="Sandro Lemos Machado [3]",
		pos="924,264.5",
		width=1.4722];
	5	 [URL="http://lattes.cnpq.br/4754562885515304",
		color="#17272B",
		fontcolor="#FFFFFF",
		height=0.23611,
		label="Daniel Veras Ribeiro [3]",
		pos="868,200.5",
		width=1.3333];
	4 -> 5	 [arrowhead=normal,
		arrowsize=0.75,
		fontsize=8,
		label=0.67,
		lp="875.5,232.5",
		penwidth=2.51,
		pos="e,865.8,209.04 892.21,255.89 882.8,252 873.54,246.17 868,237.5 864.08,231.37 863.73,223.36 864.51,216.46"];
	6	 [URL="http://lattes.cnpq.br/1428637808064409",
		color="#17272B",
		fontcolor="#FFFFFF",
		height=0.23611,
		label="Milton José Porsani [1]",
		pos="980,200.5",
		width=1.2639];
	4 -> 6	 [arrowhead=normal,
		arrowsize=0.75,
		fontsize=8,
		label=0.33,
		lp="951.5,232.5",
		penwidth=1.49,
		pos="e,966.57,209.19 927.12,255.72 930.49,247.98 936.4,236.05 944,227.5 948.64,222.28 954.5,217.5 960.14,213.5"];
	5 -> 4	 [arrowhead=normal,
		arrowsize=0.75,
		fontsize=8,
		label=0.67,
		lp="907.5,232.5",
		penwidth=2.51,
		pos="e,917.13,255.9 874.92,209.16 884.19,219.42 900.76,237.78 912.06,250.29"];
	15	 [URL="http://lattes.cnpq.br/5969382268977201",
		color="#17272B",
		fontcolor="#FFFFFF",
		height=0.23611,
		label="Luiz R. P. de Andrade Lima [1]",
		pos="868,136.5",
		width=1.6389];
	5 -> 15	 [arrowhead=normal,
		arrowsize=0.75,
		fontsize=8,
		label=0.33,
		lp="857.5,168.5",
		penwidth=1.49,
		pos="e,860.94,145.02 860.18,191.8 853.96,184.71 846.79,173.77 850,163.5 851.35,159.18 853.7,154.94 856.26,151.18"];
	6 -> 4	 [arrowhead=normal,
		arrowsize=0.75,
		fontsize=8,
		label=1.0,
		lp="971.5,232.5",
		penwidth=3.5,
		pos="e,936.65,255.92 976.61,209.25 972.99,216.97 966.72,228.87 959,237.5 954.36,242.69 948.53,247.51 942.97,251.55"];
	15 -> 5	 [arrowhead=normal,
		arrowsize=0.75,
		fontsize=8,
		label=1.0,
		lp="873.5,168.5",
		penwidth=3.5,
		pos="e,868,191.9 868,145.16 868,154.86 868,171.8 868,184.19"];
	9	 [URL="http://lattes.cnpq.br/8676714298611642",
		color="#17272B",
		fontcolor="#FFFFFF",
		height=0.23611,
		label="Paulo Fernando de Almeida [0]",
		pos="1054,264.5",
		width=1.625];
	13	 [URL="http://lattes.cnpq.br/5927149543717327",
		color="#17272B",
		fontcolor="#FFFFFF",
		height=0.23611,
		label="Caio M. Castro de Castilho [0]",
		pos="1188,264.5",
		width=1.5972];
	14	 [URL="http://lattes.cnpq.br/5329137760546794",
		color="#17272B",
		fontcolor="#FFFFFF",
		height=0.23611,
		label="Maria d. G. Andrade Korn [0]",
		pos="1320,264.5",
		width=1.5694];
}
