strict graph grafo2 {
	graph [bb="0,0,2421,145",
		id=grafo2,
		overlap=False
	];
	node [fontsize=8,
		label="\N",
		shape=rectangle,
		style=filled
	];
	0	 [URL="http://lattes.cnpq.br/6099942406051896",
		color="#17272B",
		fontcolor="#FFFFFF",
		height=0.23611,
		label="Paulo E. Maciel de Almeida [5]",
		pos="147.5,136.5",
		width=1.6389];
	6	 [URL="http://lattes.cnpq.br/2550201329788172",
		color="#17272B",
		fontcolor="#FFFFFF",
		height=0.23611,
		label="Gray Farias Moita [4]",
		pos="61.5,72.5",
		width=1.1944];
	0 -- 6	 [fontsize=8,
		label=3.0,
		lp="116,104.5",
		pos="136.95,127.9 120.45,116 88.69,93.102 72.132,81.165"];
	10	 [URL="http://lattes.cnpq.br/2243256075052322",
		color="#17272B",
		fontcolor="#FFFFFF",
		height=0.23611,
		label="Elizabeth Fialho Wanner [2]",
		pos="176.5,72.5",
		width=1.5];
	0 -- 10	 [fontsize=8,
		label=2.0,
		lp="170,104.5",
		pos="151.06,127.9 156.62,116 167.33,93.102 172.91,81.165"];
	18	 [URL="http://lattes.cnpq.br/5174842920583671",
		color="#17272B",
		fontcolor="#FFFFFF",
		height=0.23611,
		label="Rodrigo T. Nogueira Cardoso [1]",
		pos="61.5,8.5",
		width=1.7083];
	6 -- 18	 [fontsize=8,
		label=1.0,
		lp="67,40.5",
		pos="61.5,63.898 61.5,51.998 61.5,29.102 61.5,17.165"];
	1	 [URL="http://lattes.cnpq.br/0824886862509279",
		color="#17272B",
		fontcolor="#FFFFFF",
		height=0.23611,
		label="José L. Acebal Fernandes [0]",
		pos="279.5,136.5",
		width=1.5278];
	2	 [URL="http://lattes.cnpq.br/6078945717558464",
		color="#17272B",
		fontcolor="#FFFFFF",
		height=0.23611,
		label="Marcone J. Freitas Souza [0]",
		pos="407.5,136.5",
		width=1.5139];
	3	 [URL="http://lattes.cnpq.br/6579355215659091",
		color="#17272B",
		fontcolor="#FFFFFF",
		height=0.23611,
		label="Leonardo Lima dos Santos [0]",
		pos="537.5,136.5",
		width=1.5833];
	4	 [URL="http://lattes.cnpq.br/7536181384159078",
		color="#17272B",
		fontcolor="#FFFFFF",
		height=0.23611,
		label="José G. Peixoto de Faria [0]",
		pos="665.5,136.5",
		width=1.4722];
	5	 [URL="http://lattes.cnpq.br/6447512644654475",
		color="#17272B",
		fontcolor="#FFFFFF",
		height=0.23611,
		label="Henrique Elias Borges [0]",
		pos="786.5,136.5",
		width=1.3889];
	7	 [URL="http://lattes.cnpq.br/7555708910723173",
		color="#17272B",
		fontcolor="#FFFFFF",
		height=0.23611,
		label="Giancarlo Queiroz Pellegrino [0]",
		pos="915.5,136.5",
		width=1.6944];
	8	 [URL="http://lattes.cnpq.br/6545115051079964",
		color="#17272B",
		fontcolor="#FFFFFF",
		height=0.23611,
		label="Flávio L. Cardeal Pádua [1]",
		pos="1047.5,136.5",
		width=1.4722];
	15	 [URL="http://lattes.cnpq.br/6813736989856243",
		color="#17272B",
		fontcolor="#FFFFFF",
		height=0.23611,
		label="Adriano C. Machado Pereira [1]",
		pos="1047.5,72.5",
		width=1.6667];
	8 -- 15	 [fontsize=8,
		label=1.0,
		lp="1053,104.5",
		pos="1047.5,127.9 1047.5,116 1047.5,93.102 1047.5,81.165"];
	9	 [URL="http://lattes.cnpq.br/7224855414322463",
		color="#17272B",
		fontcolor="#FFFFFF",
		height=0.23611,
		label="Fernando A. Campos Gomide [0]",
		pos="1180.5,136.5",
		width=1.7222];
	11	 [URL="http://lattes.cnpq.br/5249973626810280",
		color="#17272B",
		fontcolor="#FFFFFF",
		height=0.23611,
		label="Cristina Duarte Murta [0]",
		pos="1309.5,136.5",
		width=1.3611];
	12	 [URL="http://lattes.cnpq.br/7962146839706796",
		color="#17272B",
		fontcolor="#FFFFFF",
		height=0.23611,
		label="Breno R. Lamaghere Galvão [0]",
		pos="1436.5,136.5",
		width=1.6667];
	13	 [URL="http://lattes.cnpq.br/6122907819049400",
		color="#17272B",
		fontcolor="#FFFFFF",
		height=0.23611,
		label="Arthur R. Bosco de Magalhães [0]",
		pos="1578.5,136.5",
		width=1.7639];
	14	 [URL="http://lattes.cnpq.br/4216801992845696",
		color="#17272B",
		fontcolor="#FFFFFF",
		height=0.23611,
		label="Allbens A. Picardi Faria [0]",
		pos="1713.5,136.5",
		width=1.4722];
	16	 [URL="http://lattes.cnpq.br/9832733706852720",
		color="#17272B",
		fontcolor="#FFFFFF",
		height=0.23611,
		label="Thiago Gomes de Mattos [0]",
		pos="1839.5,136.5",
		width=1.5139];
	17	 [URL="http://lattes.cnpq.br/0460460352086325",
		color="#17272B",
		fontcolor="#FFFFFF",
		height=0.23611,
		label="Rogério Martins Gomes [0]",
		pos="1964.5,136.5",
		width=1.4583];
	19	 [URL="http://lattes.cnpq.br/2530445511170734",
		color="#17272B",
		fontcolor="#FFFFFF",
		height=0.23611,
		label="Vinicius Fernandes dos Santos [0]",
		pos="2098.5,136.5",
		width=1.75];
	20	 [URL="http://lattes.cnpq.br/0923310420440204",
		color="#17272B",
		fontcolor="#FFFFFF",
		height=0.23611,
		label="Thiago Rodrigues de Souza [0]",
		pos="2237.5,136.5",
		width=1.6111];
	21	 [URL="http://lattes.cnpq.br/8136976170403371",
		color="#17272B",
		fontcolor="#FFFFFF",
		height=0.23611,
		label="Ricardo Sérgio de Souza [0]",
		pos="2367.5,136.5",
		width=1.4861];
}
