0301261650624992
4489563481314307
5919942925510483
7787913321806583
1030756025619809
2140268286728372
5626468496464459
4175990131659844
9201000909532824
2641658716558510
0921218077863198
0645079189654912
1980955062497401
0380216408754671
2906361055876941
1608433338630169
4524836424246846
8199384500642892
2927636393829724
8750334661789610
3138898469532698
3278877498378740
9391768652434032
8398009380639884
4723878738456794
9093695081597599
5932769865614689
3104857451971504
8361021379580362
0893279706246018
6721738988129342
5356631364526373
0408226658529368
5722744510274635
5126050152871678
8745287293424061
2912129599353554
3438700065198413
5851237082622009
0382304490753424
8060933644398432
3117333353838533
3389929189269372
1399302664820863
3203216104544968
1649425369822917
4169853204269236
2542529753132844
9194537781871709
3915066744089637
1298591853482803
