artigoEmPeriodico	Luis Alberto Martinez Riascos	2015	http://dx.doi.org/10.17265/1934-8975/2015.09.001	Integration of Energy and Fire Prevention Systems in Green Building	Journal of Energy and Power Engineering	PALMIERE, S. E. ; RIASCOS, L.A.M. ; MARTINEZ R., C. E.	B4	Energy and Power Engineering
artigoEmPeriodico	Luis Alberto Martinez Riascos	2015		Classification of Assessment Methods for Analyzing Sustainability in Buildings	Journal of Civil Engineering and Architecture Research	MARTINEZ R., C. E. ; ROMERO, J. F. A. ; RIASCOS, L.A.M.	Qualis nao identificado	Journal of Civil Engineering and Architecture Research
artigoEmPeriodico	Luis Alberto Martinez Riascos	2015	http://dx.doi.org/10.1109/TLA.2015.7332139	Energy Efficiency and Fire Prevention Integration in Green Buildings	Revista IEEE América Latina	PALMIERE, S. E. ; RIASCOS, L.A.M.	B1	
trabalhoCompletoEmCongresso	Luis Alberto Martinez Riascos	2015	http://dx.doi.org/10.1109/ISIE.2015.7281558	Integration of energy and fire prevention systems in greenbuildings	2015 IEEE 24th International Symposium on Industrial Electronics (ISIE)	PALMIERE, SERGIO E. ; RIASCOS, CARMEN E.M. ; RIASCOS, LUIS A.M.		
trabalhoCompletoEmCongresso	Luis Alberto Martinez Riascos	2015	http://dx.doi.org/10.1109/ISIE.2015.7281540	A low cost retrofitting technique for mechanical presses	2015 IEEE 24th International Symposium on Industrial Electronics (ISIE)	MORTAIO, LUIZ A. ; RIASCOS, LUIS A.M.		
trabalhoCompletoEmCongresso	Luis Alberto Martinez Riascos	2015	http://dx.doi.org/10.1109/ISIE.2015.7281541	A low cost stair climbing wheelchair	2015 IEEE 24th International Symposium on Industrial Electronics (ISIE)	RIASCOS, LUIS A.M		
artigoEmPeriodico	Patricia Teixeira Leite Asano	2015		Avaliação de Locais com Potencial para a Implantação de Geradores Distribuídos sob a Perspectiva do Desenvolvimento Sustentável	O Setor Elétrico	G. S. Cardoso ; Asano, Patricia Teixeira Leite	C	
artigoEmPeriodico	Patricia Teixeira Leite Asano	2015		Gerenciamento do Risco de Incêndio em Transformadores de Potência	Eletroevolução (Rio de Janeiro)	DUARTE, D. ; OLIVEIRA, A. A. ; MORIANA, A. ; VITA, A. ; CONSTATINO, D. ; CANEVARI, E. R. ; SUNE, J. ; CARNEIRO, J. C. ; ARANTES, I. P. ; SILVA, J. S. ; CHAVES, J. A. M. ; GUARENGHI, J. M. ; LIMA, M. ; PENA, M. M. ; LEITE, Patricia Teixeira ; ASANO JUNIOR, R. ; PERES, R. G. ; FARIAS, S. ; OLIVEIRA, T. A. C. P. ; PAULA, W. B.	B4	
artigoEmPeriodico	Patricia Teixeira Leite Asano	2015		Metodologia para a Determinação dos Índices de Confiabilidade em Subestações de Energia Elétrica com Ênfase nos Impactos Sociais de uma Falha	O Setor Elétrico	LEITE, P. T.; ROMERO, J. F. A. ; SANTOS, R. C. ; BARBOSA, J. D. ; CAMARGO JUNIOR, J. B.	C	
trabalhoCompletoEmCongresso	Patricia Teixeira Leite Asano	2015	http://dx.doi.org/10.1109/IYCE.2015.7180819	Location of distributed generation by the perspective of sustainable development	2015 5th International Youth Conference on Energy (IYCE)	CARDOSO DE LIMA, G. S. ; LEITE, P. T. ; CANESSO, B. C. ; ZAMBON, K. L.		
trabalhoCompletoEmCongresso	Patricia Teixeira Leite Asano	2015	http://dx.doi.org/10.1109/IYCE.2015.7180815	Decision support system based on Genetic Algorithms for optimizing the Operation Planning of Hydrothermal Power Systems	2015 5th International Youth Conference on Energy (IYCE)	ALENCAR, T. R. ; GRAMULIA, J. ; OTOBE, R. F. ; Asano, P. T. L.		
trabalhoCompletoEmCongresso	Patricia Teixeira Leite Asano	2015		Reviews of Environmental Criteria in Potential sites for Installation Distributed Generation	International Youth conference on Energy	LIMA, C. ; LEITE, P. T. ; LUZ, R. C. ; G. S. Cardoso		
trabalhoCompletoEmCongresso	Patricia Teixeira Leite Asano	2015		Ferramenta Computacional para Gerenciamento da Qualidade de Serviços na Geração de Energia Elétrica	XVI ERIAC - Encuentro Regional Iberoamericano de CIGRÉ	FRANCO, C. M. ; T. R. Alencar ; NAVARRO, J. ; FONSECA, E. F. ; GRAMULIA JUNIOR, J. ; Asano, P. T. L.		
trabalhoCompletoEmCongresso	Patricia Teixeira Leite Asano	2015		Avaliações de Critérios Ambientais em Locais Propícios para a Instalação de Geração Distribuída	XVI ERIAC - Encuentro Regional IberoAmericano de CIGRÉ	LIMA, C. ; G. S. Cardoso ; CANESSO, B. ; LEITE, P. T.		
trabalhoCompletoEmCongresso	Patricia Teixeira Leite Asano	2015		Metodologia de Avaliação de Locais com Potencial para a Implantação de Geradores Distribuídos sob a Perspectiva do Desenvolvimneto Sustentável	XVI ERIAC - Encuentro Regional IberoAmericano de CIGRÉ	G. S. Cardoso ; LEITE, P. T. ; ROMERO, J. F. A. ; ZAMBON, K. L. ; CANESSO, B. C. ; LIMA, C.		
trabalhoCompletoEmCongresso	Patricia Teixeira Leite Asano	2015		Análise de critérios para aproveitamento do Potencial Energético para a identificação de locais para implantação de Aerogeradores em Geração Distribuída	XVI ERIAC - Decimo Sexto Encontro Regional Iberoamericano de CIGRÉ (Conseil International des Grands Réseaux Électriques)	CANESSO, B. C. ; LEITE, P. T. ; G. S. Cardoso ; HAMBURGER, D. S. ; LIMA, C. ; Melo, D. M.		
trabalhoCompletoEmCongresso	Patricia Teixeira Leite Asano	2015		Requisitos dos Sistemas de Informação e Telecomunicações para as Funcionalidades das Smart Grids	XXIII SNPTEE SEMINÁRIO NACIONAL DE PRODUÇÃO E TRANSMISSÃO DE ENERGIA ELÉTRICA	ASANO JUNIOR, R. ; CASELLAS, I. R. S. ; LEITE, P. T.		
trabalhoCompletoEmCongresso	Patricia Teixeira Leite Asano	2015		Algoritmos Genéticos aplicado à Geração de Energia Elétrica	2° LA-CCI (Latin American) and 12° CBIC (Brazilian) Congress on Computational Intelligence	OTOBE JUNIOR, R. F. ; LEITE, P. T. ; GRAMULIA JUNIOR, J. ; T. R. Alencar		
trabalhoCompletoEmCongresso	Patricia Teixeira Leite Asano	2015		Estudo e Avaliação de Operadores Genéticos de uma Ferramenta Computacional para o Planejamento Energético Brasileiro	XI Latin-American Congress on Eletric Power Generation	OTOBE JUNIOR, R. F. ; T. R. Alencar ; GRAMULIA JUNIOR, J. ; LEITE, P. T.		
trabalhoCompletoEmCongresso	Patricia Teixeira Leite Asano	2015		Estudo e Avaliação do Gerenciamento de Transferência Não-Natural de Água entre Bacias Hidrográficas para o Planejamento Energético Brasileiro	XI Latin-American Congress on Eletric Power Generation	GRAMULIA JUNIOR, J. ; OTOBE JUNIOR, R. F. ; T. R. Alencar ; LEITE, P. T. ; MORETI, R. S.		
artigoEmPeriodico	Marat Rafikov	2015	http://dx.doi.org/10.1155/2015/918194	Optimization of the Control Strategies for Integrated Vector Management	Journal of Applied Mathematics	RAFIKOV, Marat; RAFIKOVA, Elvira ; YANG, HYUN MO	B1	IMA Journal of Applied Mathematics
artigoEmPeriodico	Julio Carlos Teixeira	2015		Procedures to Determine Inductances of Permanent Magnet Generators	Revista IEEE América Latina	KUCHENBECKER, W. E. ; TEIXEIRA, JULIO C.	B1	
artigoEmPeriodico	Julio Carlos Teixeira	2015	http://dx.doi.org/10.1109/TLA.2015.7350044	Influence of failure rate and downtime in annual energy produced on a horizontal axis wind turbine	Revista IEEE América Latina	Galani, P. A. ; J.C. Teixeira ; Guerra, S. M. G.	B1	
trabalhoCompletoEmCongresso	Julio Carlos Teixeira	2015	http://dx.doi.org/10.1109/EEEIC.2015.7165434	Methodology for grid voltage unbalance compensation appling a two-converter series DFIG topology	2015 IEEE 15th International Conference on Environment and Electrical Engineering (EEEIC)	SUPPIONI, V. P. ; GRILO PAVANI, A. P. ; TEIXEIRA, JULIO C.		
trabalhoCompletoEmCongresso	Julio Carlos Teixeira	2015	http://dx.doi.org/10.1109/pesgm.2015.7286462	Methodology for grid current unbalance compensation appling DFIG as a parallel active filter	2015 IEEE Power Energy Society General Meeting	SUPPIONI, V. P. ; GRILO PAVANI, A. P. ; TEIXEIRA, JULIO C.		
trabalhoCompletoEmCongresso	Julio Carlos Teixeira	2015	http://dx.doi.org/10.1109/pesgm.2015.7286515	Method for adaptive overcurrent protection of distribution systems with Distributed synchronous Generators	2015 IEEE Power Energy Society General Meeting	FERREIRA, R. R. ; GRILO PAVANI, A. P. ; TEIXEIRA, JULIO C. ; SANTOS, R. C.		
trabalhoCompletoEmCongresso	Julio Carlos Teixeira	2015		Measuring the 3D cross coupling effect in magnetic circuit with permanent magnet	XVII International Simposium on electromagnetic fields in mechatronics	Cardoso, L. R. L. ; TEIXEIRA, JULIO C		
trabalhoCompletoEmCongresso	Julio Carlos Teixeira	2015		Métodos Experimentais: interpretando medições, projetando experimentos e elaborando relatórios técnicos em engenharia	XLIII Congresso Brasileiro de Educação em Engenharia	CONSONNI, D. ; J.C. Teixeira		
trabalhoCompletoEmCongresso	Julio Carlos Teixeira	2015		Equipamento didáticos de laboratório para engenharia: aeropêndulo	XLIII Congresso Brasileiro de Educação em Engenharia	SANO, R. Y. ; LONGA, W. B. ; J.C. Teixeira ; MEZA, M. E. M.		
trabalhoCompletoEmCongresso	Julio Carlos Teixeira	2015		Análise de Sensibilidade de Segunda Ordem Aplicada ao Problema de Fluxo de Potência Ótimo para Sistemas de Distribuição e Transmissão	THE XI LATIN-AMERICAN CONGRESS ELECTRICITY GENERATION AND TRANSMISSION	Da Rosa, W. M. ; OSORIO, L. C. ; Belati, E. ; J.C. Teixeira		
artigoEmPeriodico	José Rubens Maiorino	2015	http://dx.doi.org/10.1016/j.enpol.2015.09.021	Sustainability deterioration of electricity generation in Brazil	Energy Policy	MOREIRA, JOÃO M.L. ; CESARETTI, MARCOS A. ; CARAJILESCOV, PEDRO ; MAIORINO, JOSÉ R.	A1	
trabalhoCompletoEmCongresso	José Rubens Maiorino	2015		FUTURE OF NUCLEAR ENERGY FOR ELECTRICITY GENERATION IN BRAZIL	2015 International Nuclear Atlantic Conference - INAC 2015	MAIORINO, J. R.; MOREIRA, J.L. ; CARAJILESCOV, P.		
trabalhoCompletoEmCongresso	José Rubens Maiorino	2015		THE UTILIZATION OF FREEZE-CAST SCAFFOLD FOR BURNING TRANSURANIC ELEMENTS IN SMR	2015 International Nuclear Atlantic Conference - INAC 2015	Ana C.A.A. Fernandes ; LANG, A. L. ; MAIORINO, J. R.		
trabalhoCompletoEmCongresso	José Rubens Maiorino	2015		Selection of relevant items for decommissioning costing estimation of a PWR using fuzzy logic	2015 International Nuclear Atlantic Conference-INAC 2015	MONTEIRO, D. B. ; BUSSE, A. L. ; MOREIRA, J.L. ; MAIORINO, J. R.		
trabalhoCompletoEmCongresso	José Rubens Maiorino	2015		Decommissioning Stategy and scheduled for Multiple Reactor Nuclear Power Plant Site	2015 International Nuclear Atlantic Conference-INAC 2015	MONTEIRO, D. B. ; MOREIRA, J.L. ; MAIORINO, J. R.		
trabalhoCompletoEmCongresso	José Rubens Maiorino	2015		Brazilian Nuclear Power Plants Decommissioning Plan for a Multiple Reactor Site	2015 International Nuclear Power Plants Decommissioning Plan for a Multiple Reactor Site	MONTEIRO, D. B. ; MOREIRA, J.L. ; MAIORINO, J. R.		
trabalhoCompletoEmCongresso	José Rubens Maiorino	2015		Neutronic and Thermal Hydraulic Calculations for the AP-1000 with MCNP-6 and SERPENT Codes	2015 International Nuclear Atlantic Conference-INAC 2015	STEFANI, G. L. ; ROSSI, P. C. R. ; MAIORINO, J. R. ; SANTOS, T. A.		
trabalhoCompletoEmCongresso	José Rubens Maiorino	2015		Benchmarks das Bibliotecas Masters do MCNP 5 e SCALE 5.1 com ênfase em Th-233 e U-233	2015 International Nuclear Atlantic Conference-INAC 2015- Jr Poster Section	SHIMOKAWA, J. O. ; STEFANI, G. L. ; BUSSE, A. L. ; MAIORINO, J. R. ; MOREIRA, J.L.		
artigoEmPeriodico	Joao Manoel Losada Moreira	2015	http://dx.doi.org/10.2174/1876400201508010012	Approximate Estimation of Landfill Emissions Considering Methane Oxidation	The Open Waste Management Journal	MOREIRA, J. M. L.; SILVA, E. R. ; CANDIANI, G.	B2	
artigoEmPeriodico	Joao Manoel Losada Moreira	2015	http://dx.doi.org/10.1016/j.matchemphys.2015.02.036	Effect of cold rolling on the hydrogen absorption and desorption kinetics of Zircaloy-4	Materials Chemistry and Physics	DUPIM, I.S. ; MOREIRA, J.M.L. ; HUOT, J. ; SANTOS, S.F.	A1	
artigoEmPeriodico	Joao Manoel Losada Moreira	2015	http://dx.doi.org/10.1016/j.enpol.2015.09.021	Sustainability deterioration of electricity generation in Brazil	Energy Policy	MOREIRA, JOÃO M.L. ; CESARETTI, MARCOS A. ; CARAJILESCOV, PEDRO ; MAIORINO, JOSÉ R.	A1	
trabalhoCompletoEmCongresso	Joao Manoel Losada Moreira	2015		Future of nuclear energy for electricity generation in Brazil	2015 International Nuclear Atlantic Conference - INAC 2015	MAIORINO, J. R. ; MOREIRA, J. M. L. ; CARAJILESCOV, P.		
trabalhoCompletoEmCongresso	Joao Manoel Losada Moreira	2015		Decommissioning strategy and schedule for a multiple reactor nuclear power plant site	2015 International Nuclear Atlantic Conference-INAC 2015	MONTEIRO, D. B. ; MOREIRA, J. M. L. ; MAIORINO, J. R.		
trabalhoCompletoEmCongresso	Joao Manoel Losada Moreira	2015		Selection of relevant items for decommissioning costing estimation of a PWR using fuzzy logic	2015 International Nuclear Atlantic Conference-INAC 2015	MONTEIRO, D. B. ; BUSSE, A. L. ; MOREIRA, J. M. L. ; MAIORINO, J. R.		
artigoEmPeriodico	Jesus Franklin Andrade Romero	2015		Classification of Assessment Methods for Analyzing Sustainability in Buildings	Journal of Civil Engineering and Architecture Research	RIASCOS, C. E. M. ; ROMERO, J. FRANKLIN A. ; RIASCOS, L. A. M.	Qualis nao identificado	Journal of Civil Engineering and Architecture Research
artigoEmPeriodico	Jesus Franklin Andrade Romero	2015		Proposta de retrofit na iluminação artificial para um prédio público: o caso do bloco de pós-graduação da Universidade Federal do ABC	Habitat Sustentable	AGUDELO, J. A. M. ; ROMERO, J. F. A. ; FUSER, I.	Qualis nao identificado	Habitat Sustentable
artigoEmPeriodico	Jesus Franklin Andrade Romero	2015		Metodologia para a Determinação dos Índices de Confiabilidade em Subestações de Energia Elétrica com Ênfase nos Impactos Sociais de uma Falha	O Setor Elétrico	LEITE, P. T. ; ROMERO, J. F. A. ; SANTOS, R. C. ; BARBOSA, J. D. ; CAMARGO JUNIOR, J. B.	C	
trabalhoCompletoEmCongresso	Jesus Franklin Andrade Romero	2015		Metodologia de Avaliação de Locais com Potencial para a Implantação de Geradores Distribuídos sob a Perspectiva do Desemvolvimento Sustentável	XVI ERIAC - Encuentro Regional IberoAmericano de CIGRÉ	LIMA, G. S. C. ; CANESSO, B. C. ; LEITE, Patricia Teixeira ; ROMERO, J. F. A. ; ZAMBON, K. L. ; LIMA, C.		
artigoEmPeriodico	Ivan Roberto Santana Casella	2015	http://dx.doi.org/10.1109/tie.2014.2331017	Performance of a Direct Power Control System Using Coded Wireless OFDM Power Reference Transmissions for Switched Reluctance Aerogenerators in a Smart Grid Scenario	IEEE Transactions on Industrial Electronics (1982. Print)	CAPOVILLA, C. E. ; CASELLA, I. R. S. ; BARROS, T. A. S. ; SGUAREZI FILHO, A. J. ; RUPPERT, E.	A1	
artigoEmPeriodico	Ivan Roberto Santana Casella	2015	http://dx.doi.org/10.1109/tla.2015.7273757	A SRM Applied in Wind Generation at Smart Grids Employing Wireless Power Control	Revista IEEE América Latina	BARROS, T. A. S. ; CAPOVILLA, C. E. ; CASELLA, I. R. S. ; SGUAREZI FILHO, A. J. ; RUPPERT, E.	B1	
artigoEmPeriodico	Ivan Roberto Santana Casella	2015	http://dx.doi.org/10.1142/s0218126615501078	Proposal of an RF CMOS Integrated Circuit Topology for Spatial Multiplexing of Local Elements (SMILE)	Journal of Circuits, Systems, and Computers	CAPOVILLA, C. E. ; CASELLA, I. R. S. ; SGUAREZI FILHO, A. J. ; ARAUJO, H. X.	Qualis nao identificado	Journal of Circuits, Systems, and Computers
artigoEmPeriodico	Ivan Roberto Santana Casella	2015		Uso das Comunicações Sem Fio em Smart Grids	O Setor Elétrico	SGUAREZI FILHO, A. J. ; CAPOVILLA, C. E. ; CASELLA, I. R. S.	C	
artigoEmPeriodico	Ivan Roberto Santana Casella	2015		Análise de Rede Bluetooth Low Energy em Ambiente Indoor com Opnet	Boletim Técnico da Faculdade de Tecnologia de São Paulo	SOUSA, F. S. ; CAPOVILLA, C. E. ; CASELLA, I. R. S.	B4	
artigoEmPeriodico	Ivan Roberto Santana Casella	2015		Aplicação de Redes Neurais na Modelagem de Canais de Radiopropagação para o SBTVD	Boletim Técnico da Faculdade de Tecnologia de São Paulo	CASELLA, I. R. S.; CAPOVILLA, C. E. ; PEREIRA, A. L.	B4	
artigoEmPeriodico	Ivan Roberto Santana Casella	2015	http://dx.doi.org/10.1109/tla.2015.7350036	Overvoltage Minimization in Induction Motors employing Long Cable PWM Drives	Revista IEEE América Latina	SANTOS, P. A. ; ALTUNA, J. A. T. ; CASELLA, I. R. S. ; SGUAREZI FILHO, A. J. ; CAPOVILLA, C. E.	B1	
artigoEmPeriodico	Ivan Roberto Santana Casella	2015		Desenvolvimento de um Sistema SDR OFDM na Plataforma USRP Baseado no GNU Radio	Boletim Técnico da Faculdade de Tecnologia de São Paulo	PEREZ JUNIOR, J. A. G. ; Capovilla, C. E. ; CASELLA, I. R. S.	B4	
trabalhoCompletoEmCongresso	Ivan Roberto Santana Casella	2015		Power line Communication Technology in Industrial Networks	International Symposium on Power Line Communications and its Applications	PEREIRA, S. C. ; CAPORALI, A. S. ; CASELLA, I. R. S.		
trabalhoCompletoEmCongresso	Ivan Roberto Santana Casella	2015		A Wireless Coded OFDM Neuro-Fuzzy Control System for Doubly-Fed Induction Aerogenerators in Smart Grid Applications	International Microwave and Optoelectronics Conference	CAPOVILLA, C. E. ; PUMA, J. L. A. ; JACOMINI, R. V. ; CASELLA, I. R. S. ; SGUAREZI FILHO, A. J.		
artigoEmPeriodico	Igor Fuser	2015		Proposta de retrofit na iluminação artificial para um prédio público: o caso do bloco de pós-graduação da Universidade Federal do ABC	Habitat Sustentable	AGUDELO, J. A. M. ; ROMERO, J. F. A. ; FUSER, I.	Qualis nao identificado	Habitat Sustentable
trabalhoCompletoEmCongresso	Igor Fuser	2015		Ecologismo e desenvolvimentismo nos conflitos do Tipnis (Bolívia) e do Yasuní (Bolívia): ?contradições no seio do povo??	VIII Colóquio Internacional Marx e Engels ? Centro de Estudos Marxistas (Cemarx)	FUSER, I		
artigoEmPeriodico	Herlander da Mata Fernandes Lima	2015		Estudo de caso sobre contaminação de solo e água subterrânea por benzeno na região de Barueri (SP)	Revista Hipótese	CALZA, A. ; MATA-LIMA, H. ; BENASSI, R. F.	Qualis nao identificado	Revista Hipótese
artigoEmPeriodico	Herlander da Mata Fernandes Lima	2015	http://dx.doi.org/10.1002/tqem.21444	Soil and Groundwater Contamination with Benzene: A Case Study of a Petrol Station in an Urban Area	Environmental Quality Management (Print)	CALZA, A. ; BATAGLIA, V. ; BENASSI, R. F. ; MATA-LIMA, H.	Qualis nao identificado	Environmental Quality Management (Print)
trabalhoCompletoEmCongresso	Juliana Tófano de Campos Leite Toneli	2015		CHARACTERIZATION OF COFFEE INDUSTRY?S RESIDUE FOR APPLICATION IN ENERGY RECOVERY	WASTES: Solutions	Camargo, H. J. ; Camargo, J. M. O. ; TÓFANO DE CAMPOS LEITE TONELI, JULIANA ; ANTONIO, G. C.		
trabalhoCompletoEmCongresso	Juliana Tófano de Campos Leite Toneli	2015		EFFECT OF PROCESS PARAMETERS ON ENERGY DENSITY OF BRIQUETTES COMPOSED BY SUGARCANE RESIDUAL BIOMASS	WASTES: Solutions	Camargo, J. M. O. ; Camargo, H. J. ; ANTONIO, G. C. ; PEREIRA NETO, A. M. ; PEREZ, S. A. N. ; TÓFANO DE CAMPOS LEITE TONELI, JULIANA		
trabalhoCompletoEmCongresso	Juliana Tófano de Campos Leite Toneli	2015		Avaliação do Potencial Energético dos Resíduos Sólidos Urbanos do Município de São Bernardo do Campo Utilizando Lógica Fuzzy	12º Congresso Brasileiro de Inteligência Computacional (CBIC) e 2 nd Latin-American Congress on Computational Intelligence (LA_CCI)	DRUDI, K C R ; Drudi, R. ; Martins, G. ; TÓFANO DE CAMPOS LEITE TONELI, JULIANA ; ANTONIO, G. C.		
trabalhoCompletoEmCongresso	Juliana Tófano de Campos Leite Toneli	2015		CARACTERIZAÇÃO DE BAGAÇO E RESÍDUO DE LIMPEZA A SECO DA CANA PARA APLICAÇÕES EM PROCESSOS TERMOQUÍMICOS	10° Congresso Brasileiro de Bioenergia	Camargo, J. M. O. ; PEREIRA NETO, A. M. ; ANTONIO, G. C. ; PEREZ, S. A. N. ; TÓFANO DE CAMPOS LEITE TONELI, JULIANA		
trabalhoCompletoEmCongresso	Graziella Colato Antonio	2015		Characterization of coffee industry´s residue for application in energy recovery	3rd International Conference WASTES: Solutions	Camargo, H. J. ; Camargo, J. M. O. ; TÓFANO DE CAMPOS LEITE TONELI, JULIANA ; ANTONIO, G. C.		
trabalhoCompletoEmCongresso	Graziella Colato Antonio	2015		Effect of process parameters on energy density of briquettes composed by sugarcane residual biomass	3rd International Conference WASTES: Solutions	Camargo, J. M. O. ; Camargo, H. J. ; ANTONIO, G. C. ; PEREIRA NETO, A. M. ; PEREZ, S. A. N. ; TÓFANO DE CAMPOS LEITE TONELI, JULIANA		
trabalhoCompletoEmCongresso	Graziella Colato Antonio	2015		Avaliação do Potencial Energético dos Resíduos Sólidos Urbanos do Município de São Bernardo do Campo Utilizando Lógica Fuzzy	12º Congresso Brasileiro de Inteligência Computacional (CBIC) e 2 nd Latin-American Congress on Computational Intelligence (LA_CCI)	DRUDI, K C R ; Drudi, R. ; Martins, G. ; TÓFANO DE CAMPOS LEITE TONELI, JULIANA ; ANTONIO, G. C.		
trabalhoCompletoEmCongresso	Graziella Colato Antonio	2015		CARACTERIZAÇÃO DE BAGAÇO E RESÍDUO DE LIMPEZA A SECO DA CANA PARA APLICAÇÕES EM PROCESSOS TERMOQUÍMICOS	10° Congresso Brasileiro de Bioenergia	Camargo, J. M. O. ; PEREIRA NETO, A. M. ; ANTONIO, G. C. ; PEREZ, S. A. N. ; TÓFANO DE CAMPOS LEITE TONELI, JULIANA		
resumoExpandidoEmCongresso	Graziella Colato Antonio	2015	Integrated solid waste management landfill Lara looking for energy recovery	2nd International Conference on Energy and Environment: bringing together Engineering and Economics, 2015, Guimarães. 2nd International Conference on Energy and Environment: bringing together Engineering and Economics. Guimarães	ALCANTARA, K. D. S. ; ANTONIO, Graziella Colato		
artigoEmPeriodico	Francisco de Assis Comarú	2015		Regeneration through the ?pedagogy of confrontation?: exploring critical spatial practices of social movements in São Paulo Inner City as avenues for urban renewal	de-arq - Revista de Arquitetura de la Universidad de los Andes / Journal of Architecture, Universidad de los andes	CARLI, B. ; FREDIANI, A. ; BARBOSA, B. ; COMARU, FA ; Moretti, R.S.	Qualis nao identificado	de-arq - Revista de Arquitetura de la Universidad de los Andes / Journal of Architecture, Universidad de los andes
artigoEmPeriodico	Francisco de Assis Comarú	2015	http://dx.doi.org/10.1590/2236-9996.2015-3406	Dinâmicas imobiliárias e políticas urbanas no centro de São Paulo: uma discussão sobre gentrificação na Mooca	Cadernos Metrópole	REINA, MICHELLY LIMA ; COMARÚ, FRANCISCO DE ASSIS	B4	
artigoEmPeriodico	Claudio Luis de Camargo Penteado	2015		Mídia e políticas públicas: possíveis campos exploratórios	Revista Brasileira de Ciências Sociais (Impresso)	PENTEADO, C. L. C.; FORTUNATO, I.	A1	
artigoEmPeriodico	Claudio Luis de Camargo Penteado	2015		Educomunicação, ou contra a concorrência desleal entre a Educãção e a Mídia do Espetáculo	ETD. Educação Temática Digital	FORTUNATO, I. ; PENTEADO, C. L. C.	A2	
artigoEmPeriodico	Claudio Luis de Camargo Penteado	2015		Utiliização de Mídias Sociais pelos governos dos Estados brasileiros: um estudo netnográfico	Diálogos de la Comunicación (En línea)	BRITO, M. L. A. ; PENTEADO, C. L. C. ; BENASSI, ROSELI FREDERIGI	B1	
artigoEmPeriodico	Claudio Luis de Camargo Penteado	2015		Caminhos da Participação cidadã em São Paulo: um estudo do Conselho Participativo Municipal	Revista Parlamento e Sociedade	PENTEADO, C. L. C.; LIMA, L. S. ; DESENZI, T. H.	Qualis nao identificado	Revista Parlamento e Sociedade
artigoEmPeriodico	Claudio Luis de Camargo Penteado	2015	http://dx.doi.org/10.1590/s0104-59702015000500004	Democracia digital e experiências de e-participação: webativismo e políticas públicas	História, Ciências, Saúde-Manguinhos (Online)	ARAÚJO, RAFAEL DE PAULA AGUIAR ; PENTEADO, CLÁUDIO LUIS CAMARGO ; SANTOS, MARCELO BURGOS PIMENTEL DOS	B1	
trabalhoCompletoEmCongresso	Claudio Luis de Camargo Penteado	2015		Caminhos da Participação Cidadã em São Paulo: Um estudo do Conselho Participativo Municipal	ALACIP 2015 - VIII Congreso Latinoamericano de Ciencia Política	PENTEADO, C. L. C.; LIMA, L. S. ; DESENZI, T. H.		
trabalhoCompletoEmCongresso	Claudio Luis de Camargo Penteado	2015		Capital Político e Meios de Comunicação: O Caso Pablo Iglesias do 'Podemos' da Espanha	VI Compolítica	SOUZA, P. R. E. ; PENTEADO, C. L. C.		
trabalhoCompletoEmCongresso	Claudio Luis de Camargo Penteado	2015		Sociedade Civil e Participação Online: o uso da internet pela ABONG	39o Encontro Anual da Anpocs	PENTEADO, C. L. C.; SANTOS, MARCELO BURGOS PIMENTEL ; ARAÚJO, RAFAEL DE PAULA AGUIAR		
trabalhoCompletoEmCongresso	Claudio Luis de Camargo Penteado	2015		Direita Volver: o estudo do uso das redes sociais de internet por coletivos sociais de direita no Brasil	Congresso ALAS 215	PENTEADO, CLAUDIO LUIS DE CAMARGO; LERNER, C.		
trabalhoCompletoEmCongresso	Claudio Luis de Camargo Penteado	2015		Novos atores políticos: o desafio da construção dos Partidos-Movimentos ?Podemos? (Espanha) e Raiz Cidadanista (Brasil)	Congresso ALAS 215	PENTEADO, CLAUDIO LUIS DE CAMARGO; SOUZA, P. R. E.		
artigoEmPeriodico	Arilson da Silva Favareto	2015	http://dx.doi.org/10.1016/j.worlddev.2014.09.017	Linkage to Dynamic Markets and Rural Territorial Development in Latin America	World Development	ESCOBAL, J. ; FAVARETO, Arilson da Silva ; AGUIRRE, F. ; PONCE, C.	A2	
artigoEmPeriodico	Arilson da Silva Favareto	2015		Avaliação da dimensão social no Protocolo de Kyoto	Desenvolvimento em Debate (INCT/PPED)	SIMÃO, N. ; MARTINS, G. ; FAVARETO, Arilson da Silva	B2	
artigoEmPeriodico	Arilson da Silva Favareto	2015		O avanço de Iniciativas de governança privada em mercados de sustentabilidade: o caso das roundtables globais em insumos para biocombustíveis	Revista de Estudos Sociais (UFMT)	NAKAGAWA, L. ; FAVARETO, ARILSON ; HOSPES, O.	B2	
artigoEmPeriodico	Arilson da Silva Favareto	2015		Territórios importam - bases conceituais para uma abordagem relacional do desenvolvimento das regiões rurais ou interioranas no Brasil	Revista em Inovação, Gestão e Sustentabilidade - ReGIS	FAVARETO, ARILSON; KLEEB, Suzana ; GALVANESE, C. ; MAGALHÃES, Clarissa ; CARDOSO, Ricardo C. ; BUZATO, Heidi ; SEIFER, P. ; MORALEZ, R.	Qualis nao identificado	Revista em Inovação, Gestão e Sustentabilidade - ReGIS
artigoEmPeriodico	Arilson da Silva Favareto	2015		Metamorfoses da dominação nos territórios rurais ? qual a extensão das mudanças recentes nas regiões interioranas do Brasil contemporâneo?	Estudos Sociedade e Agricultura (UFRRJ)	FAVARETO, ARILSON; KLEEB, Suzana ; GALVANESE, C. ; SEIFER, P. ; MAGALHÃES, Clarissa ; BUZATO, Heidi ; CARDOSO, Ricardo C. ; MORALEZ, R.	B1	
trabalhoCompletoEmCongresso	Arilson da Silva Favareto	2015		Challenges of integration in new institutional arrangements of public policies in Brazil	XIX International Research Society on Public Management Congress	LOTTA, G. ; FAVARETO, Arilson da Silva		
trabalhoCompletoEmCongresso	Arilson da Silva Favareto	2015		Metamorfoses da dominação nos territórios rurais - qual a extensão das mudanças recentes nas regiões interioranas do Brasil contemporâneo?	39 Encontro Anual da Anpocs	FAVARETO, Arilson da Silva; KLEEB, Suzana ; GALVANESE, C. ; SEIFER, P. ; MORALEZ, R.		
trabalhoCompletoEmCongresso	Antonio Garrido Gallego	2015		THERMODYNAMIC ANALYSIS OF THE POWER GENERATION SYSTEM OF ORGANIC RANKINE WITH THE SOLAR HEATING SYSTEM	CONGRESSO BRASILEIRO DE ENGENHARIA MECÂNICA	SILVA, A. L. ; GALLEGO, A. G.		
trabalhoCompletoEmCongresso	Antonio Garrido Gallego	2015		ENGINE BEHAVIOR ANALYSIS USING BIOGAS Antonio Gallego	CILAMCE 2015	GALLEGO, A. G.; TARTARI, R.		
trabalhoCompletoEmCongresso	Antonio Garrido Gallego	2015		ASSESSMENT OF GASIFICATION MODELS FOR A BIGCC CYCLE USING SUGARCANE BAGASSE AND STRAW	ECOS 2015	de BRITOA, A. L. ; GALLEGO, A. G. ; SILVA, M. M.		
trabalhoCompletoEmCongresso	Antonio Garrido Gallego	2015		Energetic evaluation of different alternatives of energy recovery from municipal solid waste	ECOS 2015	MEDINA-JIMENEZ, A. C. ; NORDI, G. H. ; BERECHE, R. P. ; NEBRA, S. A. ; GALLEGO, A. G.		
artigoEmPeriodico	Fernando Gasi	2015		ESTUDO COMPARATIVO DO ÂNGULO DE CONTATO EM TECIDOS DE MALHA TRATADOS COM PLASMA	Química Têxtil	GONDIM, M. L. ; GASI, F. ; LOURENCO, S. R. ; SANCHES, R. A.	B2	
artigoEmPeriodico	Fernando Gasi	2015	http://dx.doi.org/10.18472/sustdeb.v6n3.2015.15892	Reciclagem de resíduos do setor têxtil e confeccionista no Brasil: panorama e ações relacionadas	Sustentabilidade em Debate	ZONATTI, W. F. ; AMARAL, M. C. ; GASI, F. ; BARUQUE-RAMOS, J. ; DULEBA, W.	B4	
artigoEmPeriodico	Fernando Gasi	2015		O EFEITO DA CAPILARIDADE EM TECIDO DE MALHA	Química Têxtil	GASI, F.; CASSIANO, D. A. ; LOURENCO, S. R. ; FACO, J. F. B.	B2	
trabalhoCompletoEmCongresso	Fernando Gasi	2015		Análise do Trabalho de Conclusão de Curso Quanto aos Seus Objetivos e Diretrizes	COBENGE - Congresso Brasileiro de Educação em Engenharia	GOMES, M. H. ; CECONE, E. C. ; GASI, F. ; CASSIANO, D. A.		
trabalhoCompletoEmCongresso	Fernando Gasi	2015		Perspectives and the positioning of the textile and apparel industry ofBrazil to the World	ADVANCES in BUSINESS and ECONOMIC DEVELOPMENT	MARQUES, F. M. ; KARAN JR., D. ; GASI, F.		
trabalhoCompletoEmCongresso	Federico Bernardino Morante Trigoso	2015		?Sierra Productiva?: A revolução da agricultura familiar no Peru	10o Cogresso Sobre Geração Distribuída e Energia no Meio Rural - AGRENER GD 2015	ARIZA-ARIAS, J. A. ; MORANTE, Federico		
trabalhoCompletoEmCongresso	Federico Bernardino Morante Trigoso	2015		Evaluación del desempeño de un sistema fotovoltaico conectado a la red de 3,3 kW en la ciudad de Arequipa	XXII Simposio Peruano de Energía Solar y del Ambiente	TINAJEROS, Miguel ; MONTOYA, A. ; PALO, E. ; MORANTE, Federico		
artigoEmPeriodico	Douglas Alves Cassiano	2015	http://dx.doi.org/10.17564/2316-3801.2015v3n3p113-122	A ENERGIA COMO UM REVERSO SALIENTE NO SISTEMA SOCIOTÉCNICO DO BRASIL	Revista Interfaces Científicas Humanas e Sociais	SANTANA, D. M. ; LOURENÇO, S.R. ; CASSIANO, D. A.	Qualis nao identificado	Revista Interfaces Científicas Humanas e Sociais
artigoEmPeriodico	Douglas Alves Cassiano	2015	http://dx.doi.org/10.5585/ExactaEP.v13n2.5850	Optimization of a Semiconductor Manufacturing Process Using a Reentrant Model	Exacta (São Paulo. Impresso)	VALENTE, S. A. ; CECONE, E. C. ; ALVIM, L. A. P. ; CASSIANO, D. A.	B4	
artigoEmPeriodico	Douglas Alves Cassiano	2015		O EFEITO DA CAPILARIDADE EM TECIDO DE MALHA	Química Têxtil	GASI, F. ; FACÓ, J. F. B. ; LOURENÇO, S.R. ; CASSIANO, D. A.	B2	
artigoEmPeriodico	Douglas Alves Cassiano	2015	http://dx.doi.org/10.14393/19834071.2015.31977	Análise técnica e financeira de usina híbrida eólica-fotovoltaica	Ciência & Engenharia (UFU. Impresso)	BARACCO, R. P. ; LOURENÇO, S.R. ; LEVENHAGEN, R. S. ; CASSIANO, D. A.	B2	
trabalhoCompletoEmCongresso	Douglas Alves Cassiano	2015		Análise do Trabalho de Conclusão de Curso Quanto aos seus Objetivos e Diretrizes	XLIII COBENGE - Congresso Brasileiro de Educação em Engenharia	GOMES, M. H. ; CECONE, E. C. ; GASI, F. ; CASSIANO, D. A.		
resumoExpandidoEmCongresso	Douglas Alves Cassiano	2015	Gerador Social: Impactos dos Dez Anos de um Projeto para Geração de Energia Elétrica de Baixo Custo	III COPEX - Congresso Paulista de Extensão Universitária, 2015, Santo André. Anais do III COPEX	CASSIANO, D. A.; KAWANO, M.		
trabalhoCompletoEmCongresso	Ana Maria Pereira Neto	2015		EFFECT OF PROCESS PARAMETERS ON ENERGY DENSITY OF BRIQUETTES COMPOSED BY SUGARCANE RESIDUAL BIOMASS	3rd International Conference WASTES: Solutions	Camargo, J. M. O. ; Camargo, H. J. ; ANTONIO, G. C. ; PEREIRA NETO, A. M. ; PEREZ, S. A. N. ; TÓFANO DE CAMPOS LEITE TONELI, JULIANA		
artigoEmPeriodico	Alfeu Joãozinho Sguarezi Filho	2015		MRV aplicada em geração eólica empregando controle de potência sem fio	Revista IEEE América Latina	CASELLA, I. R. S. ; SGUAREZI FILHO, A. J. ; Capovilla, C. E. ; BARROS, T. A. S. ; Ruppert, E.	B1	
artigoEmPeriodico	Alfeu Joãozinho Sguarezi Filho	2015	http://dx.doi.org/10.1109/tie.2014.2331017	Performance of a Direct Power Control System Using Coded Wireless OFDM Power Reference Transmissions for Switched Reluctance Aerogenerators in a Smart Grid Scenario	IEEE Transactions on Industrial Electronics (1982. Print)	CAPOVILLA, C. E. ; Casella, I. R .S. ; SGUAREZI FILHO, A. J. ; BARROS, T. A. S. ; RUPPERT FILHO, E.	A1	
artigoEmPeriodico	Alfeu Joãozinho Sguarezi Filho	2015		A State Feedback Dfig Power Control For Wind Generation	Revista Eletrônica de Potência	Sguarezi Filho, Alfeu J.; R. V. Jacomini ; A. L. L. Murari ; J. A. T. Altuna ; Capovilla, C. E.	Qualis nao identificado	Revista Eletrônica de Potência
artigoEmPeriodico	Alfeu Joãozinho Sguarezi Filho	2015	http://dx.doi.org/10.1142/s0218126615501078	Proposal of an RF CMOS Integrated Circuit Topology for Spatial Multiplexing of Local Elements (SMILE)	Journal of Circuits, Systems, and Computers	CAPOVILLA, C. E. ; CASELLA, I. R. S. ; SGUAREZI FILHO, A. J. ; ARAUJO, H. X.	Qualis nao identificado	Journal of Circuits, Systems, and Computers
artigoEmPeriodico	Alfeu Joãozinho Sguarezi Filho	2015		Controlador Deadbeat Aplicado Ao Controle Direto De Torque Do Motor De Indução Trifásico	Revista Eletrônica de Potência	ALTUNA, J. A. T. ; R. V. Jacomini ; Azcue P., J. L. ; Capovilla, C. E. ; SGUAREZI FILHO, A. J.	Qualis nao identificado	Revista Eletrônica de Potência
artigoEmPeriodico	Alfeu Joãozinho Sguarezi Filho	2015		Analysis of Transmission Systems with Optimal Power Flow and Dobly Fed Induction Generator	Revista IEEE América Latina	VARGAS, G. A. L. ; TABARES, H. G. ; A. L. L. Murari ; Belati, E. ; Sguarezi Filho, Alfeu J.	B1	
artigoEmPeriodico	Alfeu Joãozinho Sguarezi Filho	2015	http://dx.doi.org/10.1109/tla.2015.7350036	Overvoltage Minimization in Induction Motors employing Long Cable PWM Drives	Revista IEEE América Latina	SANTOS, P. A. ; ALTUNA, J. A. T. ; CASELLA, I. R. S. ; Sguarezi Filho, Alfeu J. ; CAPOVILLA, C. E.	B1	
trabalhoCompletoEmCongresso	Alfeu Joãozinho Sguarezi Filho	2015		Filtro morfológico aplicado à estimação fasorial baseada em mínimos quadrados	Conferência Brasileira sobre Qualidade da Energia Elétrica	GOMES, H. M. T. C. ; SILVA, L. H. S. ; SGUAREZI FILHO, A. J. ; J. A. T. Altuna ; Costa, F. F.		
trabalhoCompletoEmCongresso	Alfeu Joãozinho Sguarezi Filho	2015	http://dx.doi.org/10.1109/pepqa.2015.7168203	Direct torque control for squirrel cage induction generator based on wind energy conversion system with battery energy storage system	2015 IEEE Workshop on Power Electronics and Power Quality Applications (PEPQA)	NAVAS, MICHAEL A. HERNANDEZ ; PUMA, JOSE L. AZCUE ; FILHO, ALFEU J. SGUAREZI		
trabalhoCompletoEmCongresso	Alfeu Joãozinho Sguarezi Filho	2015		A Classical CMOS Regulated Cascode Active Inductor RFIC Designed by De-Embedding Technique Approach	IMOC - IEEE MTT-S International Microwave and Optoelectronics Conference	Bolzan, E. ; Sguarezi Filho, Alfeu J. ; ARAUJO, H. X. ; Capovilla, C. E.		
trabalhoCompletoEmCongresso	Alfeu Joãozinho Sguarezi Filho	2015		Wireless Coded OFDM Neuro-Fuzzy Power Control System for Doubly-Fed Induction Aerogenerators in Smart Grid Applications	IMOC - IEEE MTT-S International Microwave and Optoelectronics Conference	Capovilla, C. E. ; Azcue P., J. L. ; R. V. Jacomini ; CASELLA, I. R. S. ; Sguarezi Filho, Alfeu J.		
trabalhoCompletoEmCongresso	Alfeu Joãozinho Sguarezi Filho	2015	http://dx.doi.org/10.1109/pesgm.2015.7285646	Protection strategies for rotor side converter of DFIG-based wind turbine during voltage dips	2015 IEEE Power Energy Society General Meeting	SALLES, M. B. C. ; AVILA, R. R. ; GRILO, A. P. ; Filho, A. J. S. ; RAHMANN, C.		
trabalhoCompletoEmCongresso	Alfeu Joãozinho Sguarezi Filho	2015	http://dx.doi.org/10.1109/ecce.2015.7309826	A sequence components estimation technique applied for distributed generation	2015 IEEE Energy Conversion Congress and Exposition	SILVA, LUIZ H. S. ; GOMES, HUGO M. T. C. ; FILHO, ALFEU J. S. ; FERNANDES, DARLAN A. ; COSTA, FABIANO F.		
artigoEmPeriodico	Ahda Pionkoski Grilo Pavani	2015	http://dx.doi.org/10.1016/j.epsr.2014.12.021	An analytical insight into large-disturbance stability of doubly fed induction generators	Electric Power Systems Research (Print)	Grilo, A.P.; SALLES, M.B.C. ; TRINDADE, F.C.L. ; FREITAS, W.	A2	
trabalhoCompletoEmCongresso	Ahda Pionkoski Grilo Pavani	2015	http://dx.doi.org/10.1109/PESGM.2015.7286515	Method for adaptive overcurrent protection of distribution systems with Distributed synchronous Generators	2015 IEEE Power Energy Society General Meeting	FERREIRA, ROBERTA R. ; GRILO, AHDA P. ; TEIXEIRA, JULIO C. ; SANTOS, RICARDO C.		
trabalhoCompletoEmCongresso	Ahda Pionkoski Grilo Pavani	2015	http://dx.doi.org/10.1109/eeeic.2015.7165434	Methodology for grid voltage unbalance compensation appling a two-converter series DFIG topology	2015 IEEE 15th International Conference on Environment and Electrical Engineering (EEEIC)	SUPPIONI, VINICIUS P. ; GRILO, AHDA P. ; TEIXEIRA, JULIO C.		
trabalhoCompletoEmCongresso	Ahda Pionkoski Grilo Pavani	2015	http://dx.doi.org/10.1109/PESGM.2015.7285646	Protection strategies for rotor side converter of DFIG-based wind turbine during voltage dips	2015 IEEE Power Energy Society General Meeting	SALLES, M. B. C. ; AVILA, R. R. ; GRILO, A. P. ; FILHO, A. J. S. ; RAHMANN, C.		
trabalhoCompletoEmCongresso	Ahda Pionkoski Grilo Pavani	2015	http://dx.doi.org/10.1109/PESGM.2015.7286462	Methodology for grid current unbalance compensation appling DFIG as a parallel active filter	2015 IEEE Power Energy Society General Meeting	SUPPIONI, VINICIUS P. ; GRILO, AHDA P. ; TEIXEIRA, JULIO C.		
artigoEmPeriodico	Adriano Viana Ensinas	2015	http://dx.doi.org/10.1016/j.energy.2015.06.104	Multi-objective optimization of a sugarcane biorefinery for integrated ethanol and methanol production	Energy (Oxford)	Albarelli, Juliana Q. ; ONORATI, SANDRO ; CALIANDRO, PRISCILLA ; PEDUZZI, EMANUELA ; MEIRELES, M ANGELA A. ; MARECHAL, FRANÇOIS ; Ensinas, Adriano V.	A1	
artigoEmPeriodico	Adriano Viana Ensinas	2015	http://dx.doi.org/10.1016/j.energy.2015.01.062	Double-effect distillation and thermal integration applied to the ethanol production process	Energy (Oxford)	PALACIOS-BERECHE, REYNALDO ; Ensinas, Adriano V. ; Modesto, Marcelo ; Nebra, Silvia A.	A1	
artigoEmPeriodico	Adriano Viana Ensinas	2015	http://dx.doi.org/10.1016/j.energy.2015.08.101	Surplus electricity production in sugarcane mills using residual bagasse and straw as fuel	Energy (Oxford)	ALVES, MOISES ; PONCE, GUSTAVO H.S.F. ; SILVA, MARIA APARECIDA ; Ensinas, Adriano V.	A1	
artigoEmPeriodico	Adriano Viana Ensinas	2015	http://dx.doi.org/10.1016/j.energy.2015.06.054	Reduction of process steam demand and water-usage through heat integration in sugar and ethanol production from sugarcane - Evaluation of different plant configurations	Energy (Oxford)	PINA, EDUARDO A. ; PALACIOS-BERECHE, REYNALDO ; CHAVEZ-RODRIGUEZ, MAURO F. ; Ensinas, Adriano V. ; Modesto, Marcelo ; Nebra, Silvia A.	A1	
artigoEmPeriodico	Adriano Viana Ensinas	2015	http://dx.doi.org/10.3389/fenrg.2015.00041	Dynamic Modeling of the Microalgae Cultivation Phase for Energy Production in Open Raceway Ponds and Flat Panel Photobioreactors	Frontiers in Energy Research	MARSULLO, MATTEO ; Mian, Alberto ; ENSINAS, ADRIANO VIANA ; MANENTE, GIOVANNI ; Lazzaretto, Andrea ; MARECHAL, FRANÇOIS	Qualis nao identificado	Frontiers in Energy Research
artigoEmPeriodico	Adriano Viana Ensinas	2015	http://dx.doi.org/10.1021/acs.iecr.5b01439	Optimum Biorefinery Pathways Selection Using the Integer-Cuts Constraint Method Applied to a MILP Problem	Industrial & Engineering Chemistry Research	MARONESE, STEFANO ; Ensinas, Adriano V. ; Mian, Alberto ; Lazzaretto, Andrea ; Maréchal, François	A1	
artigoEmPeriodico	Adriano Viana Ensinas	2015	http://dx.doi.org/10.1016/j.supflu.2014.09.009	Valorization of sugarcane biorefinery residues using supercritical water gasification: A case study and perspectives	The Journal of Supercritical Fluids	Albarelli, Juliana Q. ; Mian, Alberto ; SANTOS, DIEGO T. ; Ensinas, Adriano V. ; Maréchal, François ; MEIRELES, M. ANGELA A.	A1	
artigoEmPeriodico	Adriano Viana Ensinas	2015	http://dx.doi.org/10.1016/j.compchemeng.2015.01.013	Multi-objective optimization of SNG production from microalgae through hydrothermal gasification	Computers & Chemical Engineering	Mian, Alberto ; Ensinas, Adriano V. ; MARECHAL, FRANÇOIS	A1	
artigoEmPeriodico	Sinclair Mallet Guy Guerra	2015		A 'doença holandesa' e o pré-sal brasileiro	Observatorio de la Economía Latinoamericana	JULIANI, L. I. ; GUERRA, Sinclair Mallet Guy	B2	
artigoEmPeriodico	Sinclair Mallet Guy Guerra	2015	http://dx.doi.org/10.1109/TLA.2015.7350044	'Influence of failure rate and downtime in annual energy produced on a horizontal axis wind turbine'	Revista IEEE América Latina	GALANI, P. A. ; TEXEIRA, J. ; GUERRA, Sinclair Mallet Guy	B1	
artigoEmPeriodico	Sinclair Mallet Guy Guerra	2015		Práticas Imperialistas e o Petróleo Amazônico	REBELA - Revista Brasileira de Estudos Latino-Americanos	SANTOS, S. P. ; VERGOTTI, J. D. P. L. ; MORET, Antur de Souza ; GUERRA, Sinclair Mallet Guy	Qualis nao identificado	REBELA - Revista Brasileira de Estudos Latino-Americanos
trabalhoCompletoEmCongresso	Sinclair Mallet Guy Guerra	2015		Caminhos brasileiro na geração de energia elétrica - Versão II	Forum das Américas	SANTOS, E. C. S. dos ; DOTI, Marcelo Micki ; LIMA FILHO, P. A. ; GUERRA, Sinclair Mallet Guy		
artigoEmPeriodico	Silvia Azucena Nebra de Pérez	2015	http://dx.doi.org/10.1007/s40430-014-0210-7	Application of an alternative thermoeconomic approach to a two-stage vapour compression refrigeration cascade cycle	Journal of the Brazilian Society of Mechanical Sciences and Engineering (Impresso)	LOURENÇO, ATILIO B. ; Nebra, Silvia A. ; SANTOS, JOSÉ JOAQUIM C. S. ; DONATELLI, JOÃO LUIZ M.	B1	
artigoEmPeriodico	Silvia Azucena Nebra de Pérez	2015	http://dx.doi.org/10.1016/j.energy.2015.01.062	Double-effect distillation and thermal integration applied to the ethanol production process	Energy (Oxford)	Palacios-Bereche, Reynaldo ; Ensinas, Adriano V. ; MODESTO, Marcelo ; Nebra, Silvia A.	A1	
trabalhoCompletoEmCongresso	Silvia Azucena Nebra de Pérez	2015		Experimental Determination of Biomass Boiler Efficiency	10th European Conference on Industrial Furnaces and Boilers - INFUB 2015	Cortes - Rodriguez, Edgar Fernando ; Nebra, Silvia A. ; Sosa-Arnao, J.H.		
trabalhoCompletoEmCongresso	Silvia Azucena Nebra de Pérez	2015		Overview on energy trends and cogeneration potential in Europe	ICEE 2015	FERREIRA, A. C. M. ; TEIXEIRA, S. F. C. F. ; Martins, Luis Antônio Sousa Barreiros ; Teixeira, José Carlos Fernandes ; Nebra, S.A.		
trabalhoCompletoEmCongresso	Silvia Azucena Nebra de Pérez	2015		ENERGETIC EVALUATION OF DIFFERENT ALTERNATIVES OF ENERGY RECOVERY FROM MUNICIPAL SOLID WASTE	ECOS 2015 - the 28th International Conference on Efficiency	Medina-Jimenez, Ana Carolina ; Nordi, G.H. ; Palacios - Bereche, Reynaldo ; GALLEGO, A. A. ; Nebra, Silvia A.		
trabalhoCompletoEmCongresso	Silvia Azucena Nebra de Pérez	2015		Exergy analysis of water scrubbing process applied to biogas upgrading	ECOS 2015 - the 28th International Conference on Efficiency	Flores - Zavalla, Benjamin ; PALACIOS-BERECHE, R. ; Nebra, Silvia A.		
artigoEmPeriodico	Sérgio Ricardo Lourenço	2015	http://dx.doi.org/10.17564/2316-3801.2015v3n3p113-122	A ENERGIA COMO UM REVERSO SALIENTE NO SISTEMA SOCIOTÉCNICO DO BRASIL	Revista Interfaces Científicas Humanas e Sociais	SANTANA, D. M. ; LOURENÇO, S. R. ; CASSIANO, D. A.	B2	
artigoEmPeriodico	Sérgio Ricardo Lourenço	2015		Estudo comparativo do ângulo de contato em tecidos de malha tratados com plasma	Química Têxtil	GONDIM, M. L. ; GASI, F. ; LOURENÇO, S. R. ; SANCHES, R. A.	B2	
artigoEmPeriodico	Sérgio Ricardo Lourenço	2015		O Efeito da Capilaridade Em Tecidos de Malha	Química Têxtil	GASI, F. ; LOURENÇO, S. R. ; FACÓ, Júlio Francisco Blumetti ; CASSIANO, D.A.	B2	
trabalhoCompletoEmCongresso	Sérgio Ricardo Lourenço	2015		Centralizando informações de processo e qualidade utilizando o PIMS	Congresso Rio Automação	COSTA, P. H. M. ; ARANHA, E. R. ; TEIXEIRA, E. B. ; CARMO, E. ; FIGUEIREDO, A. M. ; BARBOZA, C. B. ; LOURENÇO, S. R.		
trabalhoCompletoEmCongresso	Sérgio Ricardo Lourenço	2015		Publicação de resultados de análise em sistemas PIMS	Congresso Rio Automação	ARANHA, E. R. ; TEIXEIRA, E. B. ; CARMO, E. ; TAVARES, G. A. S. ; BARBOZA, C. B. ; FIGUEIREDO, A. M. ; LOURENÇO, S. R.		
trabalhoCompletoEmCongresso	Sérgio Ricardo Lourenço	2015		Práticas corporativas para publicação de dados no PIMS	Congresso Rio Automação	TEIXEIRA, E. B. ; ARANHA, E. R. ; CARMO, E. ; TAVARES, G. A. S. ; COSTA, P. H. M. ; BARBOZA, C. B. ; FIGUEIREDO, A. M. ; LOURENÇO, S. R.		
trabalhoCompletoEmCongresso	Sérgio Ricardo Lourenço	2015		Hierarchical structure for corporate PIMS	IX International Conference on Engineering and Computer Education	ARANHA, E. R. ; TEIXEIRA, E. B. ; CARMO, E. ; TAVARES, G. A. S. ; COSTA, P. H. M. ; BARBOZA, C. B. ; FIGUEIREDO, A. M. ; LOURENÇO, S. R.		
artigoEmPeriodico	Reynaldo Palacios Bereche	2015	http://dx.doi.org/10.1016/j.energy.2015.01.062	Double-effect distillation and thermal integration applied to the ethanol production process	Energy (Oxford)	Palacios-Bereche, Reynaldo ; Ensinas, Adriano V. ; MODESTO, Marcelo ; Nebra, Silvia A.	A1	
trabalhoCompletoEmCongresso	Reynaldo Palacios Bereche	2015		Energetic evaluation of different alternatives of energy recovery from municipal solid waste	ECOS 2015 - the 28th International Conference on Efficiency	Medina-Jimenez, Ana Carolina ; Nordi, G.H. ; Palacios - Bereche, Reynaldo ; GALLEGO, A. A. ; Nebra, Silvia A.		
trabalhoCompletoEmCongresso	Reynaldo Palacios Bereche	2015		Exergy analysis of water scrubbing process applied to biogas upgrading	ECOS 2015 - the 28th International Conference on Efficiency	Flores - Zavalla, Benjamin ; PALACIOS-BERECHE, R. ; Nebra, Silvia A.		
trabalhoCompletoEmCongresso	Reynaldo Palacios Bereche	2015		Estudo de diferentes configurações de ciclos a vapor utilizando resíduos sólidos urbanos como combustível	VIII Congresso de Inovação Tecnológica em Energia Elétrica - CITENEL	NORDI, G. H. ; Palacios-Bereche, Reynaldo ; Nebra S.A.		
artigoEmPeriodico	Sergio Brochsztain	2015	http://dx.doi.org/10.1016/j.colsurfa.2014.12.045	Potential applications of cyclodextrins in enhanced oil recovery	Colloids and Surfaces. A, Physicochemical and Engineering Aspects (Print)	LARA, LUCAS STORI DE ; VOLTATONI, THIAGO ; RODRIGUES, MANUELLA CARAMELO ; MIRANDA, CAETANO RODRIGUES ; Brochsztain, Sergio	A2	
artigoEmPeriodico	Sergio Brochsztain	2015	http://dx.doi.org/10.1021/acs.jpcc.5b07912	Color-Tunable Fluorescence and White Light Emission from Mesoporous Organosilicas Based on Energy Transfer from 1,8-Naphthalimide Hosts to Perylenediimide Guests	Journal of Physical Chemistry. C	TRINDADE, FABIANE DE JESUS ; TRIBONI, EDUARDO REZENDE ; CASTANHEIRA, BRUNA ; Brochsztain, Sergio	A1	
artigoEmPeriodico	Roseli Frederigi Benassi	2015	http://dx.doi.org/10.1002/tqem.21444	Soil and Groundwater Contamination with Benzene: A Case Study of a Petrol Station in an Urban Area	Environmental Quality Management (Print)	CALZA, A. ; MATA - LIMA, H. ; BENASSI, R. F. ; BATAGLIA, V.	Qualis nao identificado	Environmental Quality Management (Print)
artigoEmPeriodico	Roseli Frederigi Benassi	2015		Estudo de caso sobre contaminação do solo e água subterrânea por benzeno na região de Barueri (SP)	Revista Hipótese	CALZA, A. ; MATA - LIMA, H. ; BENASSI, R. F.	Qualis nao identificado	Revista Hipótese
artigoEmPeriodico	Roseli Frederigi Benassi	2015		Utiliização de Mídias Sociais pelos governos dos Estados brasileiros: um estudo netnográfico	Diálogos de la Comunicación (En línea)	BRITO, M. L. A. ; PENTEADO, C. L. C. ; BENASSI, ROSELI FREDERIGI	B1	
artigoEmPeriodico	Roseli Frederigi Benassi	2015	http://dx.doi.org/10.1590/S2179-975X7613	Influence of water fluctuations on the limnological characteristics of two floodplain lagoons (Ribeira do Iguape Valley, state of São Paulo, Brazil)	Acta Limnologica Brasiliensia (Online)	FREIRE, Rogério Herlon Furtado ; BENASSI, R. F. ; Calijuri, Maria do Carmo ; SANCHES, A. A.	Qualis nao identificado	Acta Limnologica Brasiliensia (Online)
artigoEmPeriodico	Roseli Frederigi Benassi	2015		Crise hídrica e de energia elétrica entre 2014- 2015 na região Sudeste	Revista Hipotese	ALMEIDA, D. L. ; BENASSI, R. F.	Qualis nao identificado	Revista Hipotese
trabalhoCompletoEmCongresso	Roseli Frederigi Benassi	2015		Emissão e absorção de CH4 e CO2 em uma área alagada natural localizada na região fluvial da represa Billings (RMSP)	28º Congresso Brasileiro de Engenharia Sanitária e Ambiental	LOPES, T. N. ; COELHO, L. H. G. ; BENASSI, R. F.		
artigoEmPeriodico	Ricardo de Sousa Moretti	2015		Saneamento como importante elemento do Direito à Cidade: ponderações sobre a Política Municipal de Saneamento em São Paulo	Direito, Estado e Sociedade (Impresso)	Moretti, J.A. ; MORETTI, R. S.	B1	
artigoEmPeriodico	Ricardo de Sousa Moretti	2015		Regeneration through the ?pedagogy of confrontation?: Exploring critical spatial practices of social movements in São Paulo Inner City as avenues for urban renewal	de-arq - Revista de Arquitetura de la Universidad de los Andes / Journal of Architecture, Universidad de los andes	CARLI, B. ; FREDIANI, A. A. ; BARBOSA, B. R. ; COMARU, F. ; MORETTI, R. S.	Qualis nao identificado	de-arq - Revista de Arquitetura de la Universidad de los Andes / Journal of Architecture, Universidad de los andes
trabalhoCompletoEmCongresso	Ricardo de Sousa Moretti	2015		Reflexões sobre o uso de indicadores no planejamento do território	XVI Enanpur	MORETTI, R. S.; GHILARDI, F. H.		
trabalhoCompletoEmCongresso	Ricardo de Sousa Moretti	2015		Slum upgrading within the ?Informal Settlements Urbanization - Growth Acceleration Program (PAC-UAP)?. A Case Study of the ABC Region within the Metropolitan Region of São Paulo (Brazil)	The Ideal City- between myth and reality	MORETTI, R. S.; DENALDI, R. ; PAIVA, C. ; NOGUEIRA, F. ; PETRAROLLI, J.		
trabalhoCompletoEmCongresso	Ricardo de Sousa Moretti	2015		Tratamento de riscos em urbanização de favelas	15º Congresso Brasileiro de Geologia de Engenharia e Ambiental	NOGUEIRA, F. ; PAIVA, C. ; MORETTI, R. S.		
trabalhoCompletoEmCongresso	Ricardo de Sousa Moretti	2015		Cartas geotecnicas de aptitud a la urbanización: una herramienta de planificación para hacer frente a los desastres naturales	Convención Internacional de Ordenamento Territorial y Urbanismo	CANIL, K. ; MORETTI, R. S. ; NOGUEIRA, F.		
resumoExpandidoEmCongresso	Ricardo de Sousa Moretti	2015	Cartas Geotécnicas e a remoção de famílias- o risco da troca de riscos	9º Simpósio Brasileiro de Cartografia Geotécnica e Geoambiental, 2015, Cuiabá. 9º SBCGG- Cadernos de Resumos. São Paulo: ABGE	MORETTI, R. S		
resumoExpandidoEmCongresso	Ricardo de Sousa Moretti	2015	Metodologia para Elaboração das Cartas Geotécnicas de Aptidão à Urbanização- as áreas de urbanização restrita	9º Simpósio Brasileiro de Cartografia Geotécnica e Geoambiental, 2015, Cuiabá. 9º SBCGG- Cadernos de Resumos. São Paulo: ABGE	MORETTI, R. S		
artigoEmPeriodico	Ricardo Caneloi dos Santos	2015	http://dx.doi.org/10.2316/journal.203.2015.4.203-6206	DIFFERENTIAL PROTECTION OF TRANSFORMER BASED ON ARTIFICIAL NEURAL NETWORK AND PROGRAMMABLE LOGIC	International Journal of Power and Energy Systems	ALMEIDA, ISAQUE S. ; SANTOS, RICARDO C.	Qualis nao identificado	International Journal of Power and Energy Systems
trabalhoCompletoEmCongresso	Ricardo Caneloi dos Santos	2015		Implemantação de um Sistema Real Time Baseado em Redes Neurais Artificiais para Monitoramento Remoto de Tensão	XI Conferência Brasileira sobre Qualidade da Energia Elétrica	SILVA, A. S. ; SANTOS, R. C. ; BOTTURA, F. B. ; OLESKOVICZ, M.		
trabalhoCompletoEmCongresso	Ricardo Caneloi dos Santos	2015		Solução Prática para Monitoramento Remoto de Tensão Baseada em Redes Neurais Artificiais	IEEE PES Innovative Smart Grid Technologies Latin America	SILVA, A. S. ; SANTOS, R. C. ; BOTTURA, F. B. ; OLESKOVICZ, M.		
trabalhoCompletoEmCongresso	Ricardo Caneloi dos Santos	2015		Desenvolvimento de um Relé Digital no LabVIEW para a Detecção de Ilhamento de Geradores Distribuídos	IEEE PES Innovative Smart Grid Technologies Latin America	HARTMANN, N. B. ; SANTOS, R. C. ; SOUSA, T.		
trabalhoCompletoEmCongresso	Ricardo Caneloi dos Santos	2015	http://dx.doi.org/10.1109/PESGM.2015.7286515	Method for Adaptive Overcurrent Protection of Distribution Systems with Distributed Synchronous Generators	2015 IEEE Power Energy Society General Meeting	FERREIRA, ROBERTA R. ; GRILO, AHDA P. ; TEIXEIRA, JULIO C. ; SANTOS, RICARDO C.		
