strict graph grafo2 {
	graph [bb="0,0,1414.5,81",
		id=grafo2,
		overlap=False
	];
	node [fontsize=8,
		label="\N",
		shape=rectangle,
		style=filled
	];
	0	 [URL="http://lattes.cnpq.br/7877403729431750",
		color="#17272B",
		fontcolor="#FFFFFF",
		height=0.23611,
		label="Saraspathy N. T. Gama de Mendonça [1]",
		pos="74,72.5",
		width=2.0556];
	11	 [URL="http://lattes.cnpq.br/2547403563036811",
		color="#17272B",
		fontcolor="#FFFFFF",
		height=0.23611,
		label="Silvana Ligia Vincenzi [1]",
		pos="74,8.5",
		width=1.4167];
	0 -- 11	 [fontsize=8,
		label=1.0,
		lp="79.5,40.5",
		pos="74,63.898 74,51.998 74,29.102 74,17.165"];
	1	 [URL="http://lattes.cnpq.br/9781159016378038",
		color="#17272B",
		fontcolor="#FFFFFF",
		height=0.23611,
		label="Paulo Lopes de Menezes [1]",
		pos="220,72.5",
		width=1.5];
	5	 [URL="http://lattes.cnpq.br/7999781322175310",
		color="#17272B",
		fontcolor="#FFFFFF",
		height=0.23611,
		label="Everton Coimbra de Araújo [1]",
		pos="220,8.5",
		width=1.625];
	1 -- 5	 [fontsize=8,
		label=1.0,
		lp="225.5,40.5",
		pos="220,63.898 220,51.998 220,29.102 220,17.165"];
	2	 [URL="http://lattes.cnpq.br/6557298196355263",
		color="#17272B",
		fontcolor="#FFFFFF",
		height=0.23611,
		label="Paulo César Tonin [0]",
		pos="336,72.5",
		width=1.2083];
	3	 [URL="http://lattes.cnpq.br/1208427854093144",
		color="#17272B",
		fontcolor="#FFFFFF",
		height=0.23611,
		label="José A. Azevedo dos Santos [3]",
		pos="457,72.5",
		width=1.6389];
	13	 [URL="http://lattes.cnpq.br/6715272307281643",
		color="#17272B",
		fontcolor="#FFFFFF",
		height=0.23611,
		label="Carla A. Pizarro Schmidt [3]",
		pos="457,8.5",
		width=1.5139];
	3 -- 13	 [fontsize=8,
		label=3.0,
		lp="462.5,40.5",
		pos="457,63.898 457,51.998 457,29.102 457,17.165"];
	4	 [URL="http://lattes.cnpq.br/3997654537105134",
		color="#17272B",
		fontcolor="#FFFFFF",
		height=0.23611,
		label="Fabiana C. de Araujo Schutz [0]",
		pos="594,72.5",
		width=1.6667];
	6	 [URL="http://lattes.cnpq.br/0829902990523071",
		color="#17272B",
		fontcolor="#FFFFFF",
		height=0.23611,
		label="Carlos Aparecido Fernandes [0]",
		pos="732,72.5",
		width=1.6528];
	7	 [URL="http://lattes.cnpq.br/3033591975237656",
		color="#17272B",
		fontcolor="#FFFFFF",
		height=0.23611,
		label="Augusto Vaghetti Luchese [0]",
		pos="866,72.5",
		width=1.5694];
	8	 [URL="http://lattes.cnpq.br/2170981286370303",
		color="#17272B",
		fontcolor="#FFFFFF",
		height=0.23611,
		label="Claudio Leones Bazzi [0]",
		pos="990,72.5",
		width=1.3611];
	9	 [URL="http://lattes.cnpq.br/9438996788230697",
		color="#17272B",
		fontcolor="#FFFFFF",
		height=0.23611,
		label="Glaucia Cristina Moreira [0]",
		pos="1111,72.5",
		width=1.5];
	10	 [URL="http://lattes.cnpq.br/8149364045680042",
		color="#17272B",
		fontcolor="#FFFFFF",
		height=0.23611,
		label="Pedro L. de Paula Filho [0]",
		pos="1235,72.5",
		width=1.4444];
	12	 [URL="http://lattes.cnpq.br/8998670968329882",
		color="#17272B",
		fontcolor="#FFFFFF",
		height=0.23611,
		label="Daniel Rodrigues Blanco [0]",
		pos="1360,72.5",
		width=1.5139];
}
