ID_Lattes|MATRICULA|NOME|CH|mail|LP_1|PROGRAMA_1|CATEG_1|Periodo_Inicio_1|Periodo_Fim_1|Resp_prog|Resp_LP1
K4708129E1|99999|GLAUCO DA SILVA AGUIAR|40|CESGRANRIO@CESGRANRIO.br|CESGRANRIO|CESGRANRIO|P|2013|2016|CESGRANRIO|CESGRANRIO
K4276721H8|99999|ANDREIA FERREIRA DE OLIVEIRA|40|CESGRANRIO@CESGRANRIO.br|CESGRANRIO|CESGRANRIO|P|2013|2016||
K4788103D6|99999|LUCI MARY ARAUJO HILDENBRAND|40|CESGRANRIO@CESGRANRIO.br|CESGRANRIO|CESGRANRIO|P|2013|2016||
K4787530P4|99999|RUBEN KLEIN|40|CESGRANRIO@CESGRANRIO.br|CESGRANRIO|CESGRANRIO|P|2013|2016||
K4487587A7|99999|SUELY DA SILVA RODRIGUES|40|CESGRANRIO@CESGRANRIO.br|CESGRANRIO|CESGRANRIO|P|2013|2016||
K4756523Y7|99999|ROBERTO GUIMARAES BOCLIN|40|CESGRANRIO@CESGRANRIO.br|CESGRANRIO|CESGRANRIO|P|2013|2016||
K4737815J6|99999|OVIDIO ORLANDO FILHO|40|CESGRANRIO@CESGRANRIO.br|CESGRANRIO|CESGRANRIO|P|2013|2016||
K4792628E4|99999|NILMA SANTOS FONTANIVE|40|CESGRANRIO@CESGRANRIO.br|CESGRANRIO|CESGRANRIO|P|2013|2016||
K4799327U0|99999|MARIA DE LOURDES SA EARP DE MELLO E SILVA|40|CESGRANRIO@CESGRANRIO.br|CESGRANRIO|CESGRANRIO|P|2013|2016||
K4424358Y5|99999|ARTUR MARECOS PARREIRA E MOREIRA GONCALVES|40|CESGRANRIO@CESGRANRIO.br|CESGRANRIO|CESGRANRIO|P|2013|2016||
K4281458T6|99999|MARIA BEATRIZ GOMES BETTENCOURT|40|CESGRANRIO@CESGRANRIO.br|CESGRANRIO|CESGRANRIO|P|2013|2016||
K4727186D6|99999|LUCIA REGINA GOULART VILARINHO|40|CESGRANRIO@CESGRANRIO.br|CESGRANRIO|CESGRANRIO|P|2013|2016||
K4428038P3|99999|LIGIA SILVA LEITE|40|CESGRANRIO@CESGRANRIO.br|CESGRANRIO|CESGRANRIO|P|2013|2016||
K4783554T3|99999|LIGIA GOMES ELLIOT|40|CESGRANRIO@CESGRANRIO.br|CESGRANRIO|CESGRANRIO|P|2013|2016||
