artigoEmPeriodico	Gerd Bruno da Rocha	2016	http://dx.doi.org/10.1002/jcc.24415	Assessment of semiempirical enthalpy of formation in solution as an effective energy function to discriminate native-like structures in protein decoy sets	Journal of Computational Chemistry	URQUIZA-CARVALHO, GABRIEL AIRES ; FRAGOSO, WALLACE DUARTE ; Rocha, Gerd Bruno	A1	
artigoEmPeriodico	Alexandre de Bustamante Simas	2016	http://dx.doi.org/10.1007/s11222-015-9601-6	General mixed Poisson regression models with varying dispersion	STATISTICS AND COMPUTING	Barreto-Souza, Wagner ; SIMAS, A. B.	A1	
trabalhoCompletoEmCongresso	Antônio José Boness dos Santos	2016		MODELAGEM DA DINÂMICA E ESPALHAMENTO DE MOSQUITOS SELVAGENS E TRANSGÊNICOS	XIX Encontro Nacional de Modelagem Computacional	LIMA, J. S. ; WYSE, A. P. P. ; SANTOS, A. J. B.		
trabalhoCompletoEmCongresso	Antônio José Boness dos Santos	2016		A DINÂMICA DE MOSQUITOS SELVAGENS E TRANSGÊNICOS	XIX Encontro Nacional de Modelagem Computacional	OLIVEIRA, M. F. ; WYSE, A. P. P. ; SANTOS, A. J. B.		
artigoEmPeriodico	Jairo Rocha de Faria	2016	http://dx.doi.org/10.1007/s40430-016-0583-x	Structural optimization considering smallest magnitude eigenvalues: a smooth approximation	Journal of the Brazilian Society of Mechanical Sciences and Engineering (Impresso)	TORII, ANDRÉ J. ; FARIA, JAIRO R. DE	B1	
artigoEmPeriodico	Hugo Leonardo Davi de Souza Cavalcante	2016	http://dx.doi.org/10.1016/j.physa.2015.12.049	Characterization of diffusion processes: Normal and anomalous regimes	Physica. A (Print)	ALVES, SAMUEL B. ; DE OLIVEIRA, GILSON F. ; DE OLIVEIRA, LUIMAR C. ; Passerat de Silans, Thierry ; Chevrollier, Martine ; Oriá, Marcos ; DE S. CAVALCANTE, HUGO L.D.	A2	
artigoEmPeriodico	Hugo Leonardo Davi de Souza Cavalcante	2016	http://dx.doi.org/10.1088/0953-4075/49/8/085401	Stabilization of a laser on a large-detuned atomic-reference frequency by resonant interferometry	Journal of Physics. B, Atomic Molecular and Optical Physics (Print)	BARBOZA, PRISCILA M T ; NASCIMENTO, GUILHERME G ; ARAÚJO, MICHELLE O ; SILVA, CÍCERO M DA ; CAVALCANTE, HUGO L D DE S ; Oriá, Marcos ; Chevrollier, Martine ; SILANS, THIERRY PASSERAT DE	A2	
artigoEmPeriodico	Hugo Leonardo Davi de Souza Cavalcante	2016	http://dx.doi.org/10.1103/PhysRevE.93.062209	Local instability driving extreme events in a pair of coupled chaotic electronic circuits	Physical Review E	DE OLIVEIRA, GILSON F. ; DI LORENZO, ORLANDO ; DE SILANS, THIERRY PASSERAT ; Chevrollier, Martine ; Oriá, Marcos ; CAVALCANTE, HUGO L. D. DE SOUZA	A2	Physical Review. A
artigoEmPeriodico	Hugo Leonardo Davi de Souza Cavalcante	2016	http://dx.doi.org/10.1364/josab.33.000328	Controllable frequency hysteresis in semiconductor lasers	Journal of the Optical Society of America. B, Optical Physics	ALVES, SAMUEL B. ; De Souza Cavalcante, Hugo L. D. ; Chevrollier, Martine ; Passerat de Silans, Thierry ; Oriá, Marcos	A2	
artigoEmPeriodico	Waldir Leite Roque	2016	http://dx.doi.org/10.1016/j.petrol.2016.06.008	Competitive Placement of Oil Perforation Zones in Hydraulic Flow Units from Centrality Measures	Journal of Petroleum Science & Engineering	OLIVEIRA, G. C. P. ; ROQUE, W. L. ; ARAUJO, E. A. ; DINIZ, A. A. R. ; SIMOES, T. A. ; SANTOS, M. D.	A2	
artigoEmPeriodico	Waldir Leite Roque	2016	http://dx.doi.org/10.1590/2446-4740.05615	Estimating the mechanical competence parameter of the trabecular bone: A neural network approach	Research on Biomedical Engineering	FILLETTI, E. ; ROQUE, W. L.	Qualis nao identificado	Research on Biomedical Engineering
artigoEmPeriodico	Waldir Leite Roque	2016	http://dx.doi.org/10.15552/2236-0158/abenge.v35n1p65-73	Uma Ferramenta Computacional para Suporte nos Processos de Ensino e Aprendizagem de Equações Diferenciais Parciais	Revista de Ensino de Engenharia	LIMA, W.M. ; SANTOS, M.D. ; ROQUE, W.L. ; LIMA, R.S. ; SÁ, R.R.M. ; MEIRA, D.A.	B2	
trabalhoCompletoEmCongresso	Waldir Leite Roque	2016		Identification of Production Zones and Oil Recovery Simulation Based on Hydraulic Flow Units	Rio Oil Gas 2016	ROQUE, W. L.; SIMOES, T. A. ; OLIVEIRA, G. C. P. ; DINIZ, A. A. R. ; SANTOS, M. D.		
trabalhoCompletoEmCongresso	Waldir Leite Roque	2016		A Graph-Based Approach to Specify Perforation Placement in an Oil Reservoir Hydraulic Flow Unit	Congresso Nacional de Matemática Aplicada e Computacional	OLIVEIRA, G. C. P. ; ROQUE, W. L. ; SANTOS, M. D. ; SIMOES, T. A.		
trabalhoCompletoEmCongresso	Ana Paula Pintado Wyse	2016	http://dx.doi.org/10.5540/03.2017.005.01.0074	O Efeito dos Mosquitos Transge nicos e da Profilaxia na Dina mica Sazonal de Transmissa o da Mala ria	CNMAC 2016 XXXVI Congresso Nacional de Matemática Aplicada e Computacional	WYSE, ANA PAULA; BEVILACQUA, LUIZ ; RAFIKOV, MARAT		
trabalhoCompletoEmCongresso	Ana Paula Pintado Wyse	2016	http://dx.doi.org/10.5540/03.2016.004.01.0083	Modelagem da Interação entre Mosquitos Selvagens e Transgênicos	DINCON 2015 #45; Conferência Brasileira de Dinâmica	WYSE, ANA PAULA; BEVILACQUA, LUIZ ; RAFIKOV, MARAT		
trabalhoCompletoEmCongresso	Ana Paula Pintado Wyse	2016		MODELAGEM DA DINÂMICA E ESPALHAMENTO DE MOSQUITOS SELVAGENS E TRANSGÊNICOS	XIX Encontro Nacional de Modelagem Computacional	LIMA, J. S. ; WYSE, A. P. P. ; SANTOS, A. J. B.		
trabalhoCompletoEmCongresso	Ana Paula Pintado Wyse	2016		A DINÂMICA DE MOSQUITOS SELVAGENS E TRANSGÊNICOS	XIX Encontro Nacional de Modelagem Computacional	OLIVEIRA, M. F. ; WYSE, A. P. P. ; SANTOS, A. J. B.		
artigoEmPeriodico	Roberto Quirino do Nascimento	2016	http://dx.doi.org/10.1287/ijoc.2016.0711	A Branch-and-Bound Algorithm for the Close-Enough Traveling Salesman Problem	INFORMS Journal on Computing (Online)	COUTINHO, WALTON PEREIRA ; Nascimento, Roberto Quirino do ; PESSOA, ARTUR ALVES ; SUBRAMANIAN, Anand	Qualis nao identificado	INFORMS Journal on Computing (Online)
