artigoEmPeriodico	Marilia Paixão Linhares	2016		Um estudo de caso histórico sobre o experimento de Foucault no Brasil , elaborado por uma professora do ensino médio na formação continuada a distância	Caderno Brasileiro de Ensino de Física	RODRIGUES JUNIOR, E. ; LUNA, F. J. ; HYGINO, C. B. M. ; LINHARES, M. P. ; BASEGODA, M. R. C. F. A. ; LINHARES, MARÍLIA PAIXÃO	B1	
trabalhoCompletoEmCongresso	Marilia Paixão Linhares	2016		ESTUDO DE EPISÓDIO HISTÓRICO ATRAVÉS DE EXPERIMENTO: UMA PROPOSTA DE SEQUÊNCIA DIDÁTICA	XVI Encontro de Pesquisa em Ensino de Física	ADMIRAL, T. D. ; RODRIGUES JUNIOR, E. ; LINHARES, MARÍLIA PAIXÃO		
trabalhoCompletoEmCongresso	Marilia Paixão Linhares	2016		EVOLUÇÃO DOS MODELOS DIDÁTICOS DE FUTUROS PROFESSORES DE FÍSICA: UMA PROPOSTA DIDÁTICA	XVI Encontro de Pesquisa em Ensino de Física	HYGINO, C. B. M. ; RODRIGUES JUNIOR, E. ; MARCELINO, V. S. ; LINHARES, Marília Paixão		
artigoEmPeriodico	Maria Cristina Canela	2016	http://dx.doi.org/10.1016/j.scitotenv.2016.07.210	A preliminary nationwide survey of the presence of emerging contaminants in drinking and source waters in Brazil	Science of the Total Environment	MACHADO, KELLY C. ; GRASSI, MARCO TADEU ; VIDAL, CRISTIANE ; PESCARA, IGOR C. ; JARDIM, WILSON F. ; FERNANDES, ANDREIA N. ; SODRÉ, FERNANDO F. ; ALMEIDA, FERNANDA V. ; SANTANA, JOYCE S. ; Canela, Maria Cristina ; NUNES, CAMILA R.O. ; BICHINHO, KÁTIA M. ; SEVERO, FLAVIANA J.R.	A1	
resumoExpandidoEmCongresso	Maria Cristina Canela	2016	Hydrogen production from water splitting on TiO2/Ru-MCM-41 photocatalysts using solar light	3rd International Symposium on Catalysis for Clean Energy and Sustainable Chemistry, 2016, Madri. 3rd International Symposium on Catalysis for Clean Energy and Sustainable Chemistry	MARQUES, Fabielle Castelan ; STUMBO, Alexandre M ; CANELA, M. C.		
artigoEmPeriodico	Marcelo Silva Sthel	2016	http://dx.doi.org/10.1016/j.energy.2016.08.052	Thermal degradation of ethanolic biodiesel: Physicochemical and thermal properties evaluation	Energy (Oxford)	SILVA, WELLINGTON COSTA ; CASTRO, MARIA PRISCILA PESSANHA ; PEREZ, VICTOR HABER ; MACHADO, FRANCISCO A. ; MOTA, LEONARDO ; STHEL, MARCELO SILVA	A1	
artigoEmPeriodico	Raimundo Braz Filho	2016		A novel alkaloid isolated from Spiranthera atlantica (Rutaceae)	Natural Product Communications	ROCHA, M. R. E. ; CUNHA, C. P. ; BRAZ-FILHO, R ; VEIRA, I. J. C.	B1	
artigoEmPeriodico	Raimundo Braz Filho	2016	http://dx.doi.org/10.1016/j.bmcl.2015.11.095	Synthesis, antibacterial and cytotoxic activities of new biflorin-based hydrazones and oximes	Bioorganic & Medicinal Chemistry Letters (Print)	DA S. SOUZA, LUCIANA G. ; ALMEIDA, MACIA C.S. ; LEMOS, TELMA L.G. ; RIBEIRO, PAULO R.V. ; DE BRITO, EDY S. ; SILVA, VERA L.M. ; SILVA, ARTUR M.S. ; Braz-Filho, Raimundo ; COSTA, JOSÉ G.M. ; RODRIGUES, FÁBIO F.G. ; BARRETO, FRANCISCO S. ; DE MORAES, MANOEL O.	A2	
artigoEmPeriodico	Raimundo Braz Filho	2016	http://dx.doi.org/10.1016/j.steroids.2015.12.006	Spirostanol glucosides from the leaves of Cestrum laevigatum L.	Steroids (Stoneham, MA.)	RIBEIRO, PAULO RICELI VASCONCELOS ; ARAÚJO, ANA JÉRSIA ; COSTA-LOTUFO, LETÍCIA VERAS ; Braz-Filho, Raimundo ; NOBRE JUNIOR, HÉLIO VITORIANO ; DA SILVA, CECÍLIA ROCHA ; NETO, JOÃO BATISTA DE ANDRADE ; SILVEIRA, EDILBERTO ROCHA ; LIMA, MARY ANNE SOUSA	A2	
artigoEmPeriodico	Raimundo Braz Filho	2016	http://dx.doi.org/10.5935/1984-6835.20160013	Brazoxide A, a New Tirucallane Triterpene from subsp. Kaastra	Revista Virtual de Química	MADEIRO, SARA A. L. ; COSTA, V. C. D. ; Duarte, S. L. F ; CUNHA, C. P. ; Scotti, M. T ; ANGRA, M. F. ; BRAZ-FILHO, R.	B2	
artigoEmPeriodico	Raimundo Braz Filho	2016	http://dx.doi.org/10.5935/1984-6835.20160015	Chemical Constituents and Cytotoxic Activity of <i>Cnidoscolus phyllacanthus</i>	Revista Virtual de Química	PAULA, A. C. ; MELO, K. M. ; SILVA, Adriana M da ; FERREIRA, DANIELE ALVES ; MONTE, FRANCISCO JOSÉ Q. ; G. M.P. Santiago ; LEMOS, TELMA LEDA GOMES ; Braz-Filho, Raimundo ; Militão, G. C. G ; da Silva, P. B. N ; da Silva, T. G.	B2	
artigoEmPeriodico	Raimundo Braz Filho	2016	http://dx.doi.org/10.5935/1984-6835.20160004	Isolation of Flavonoids from <i>Dipteryx odorata</i> by High Performance Liquid Chromatography	Revista Virtual de Química	CUNHA, CAROLINA P. DA ; GODOY, RONOEL LUIZ DE O. ; Braz-Filho, Raimundo	B2	
artigoEmPeriodico	Raimundo Braz Filho	2016	http://dx.doi.org/10.5935/1984-6835.20160007	Two New Labdane-type Diterpenoids and others Compounds from <i>Conchocarpus cyrtanthus</i> (Rutaceae)	Revista Virtual de Química	OLIVEIRA, LIDIANA S. S. DE ; ARAÚJO, Marcelo Francisco de ; Braz-Filho, Raimundo ; VIEIRA, IVO JOSÉ C.	B2	
artigoEmPeriodico	Raimundo Braz Filho	2016	http://dx.doi.org/10.5935/1984-6835.20160006	Chemical Constituents and Lethality of (DC.) G. P. Lewis	Revista Virtual de Química	AZEVEDO, FERNANDA M. DE ; MATOS, CARLOS ROBERTO R. ; Braz-Filho, Raimundo ; MATHIAS, Leda	B2	
artigoEmPeriodico	Raimundo Braz Filho	2016	http://dx.doi.org/10.1016/j.carbpol.2016.04.108	Identification and determination of the inulin content in the roots of the Northeast Brazilian species Pombalia calceolaria L.	Carbohydrate Polymers	PONTES, ANA GEORGINA OLIVEIRA ; SILVA, KARINE LIMA ; FONSECA, SAID GONÇALVEZ DA CRUZ ; SOARES, ARLETE APARECIDA ; FEITOSA, JUDITH PESSOA DE ANDRADE ; SOMBRA, VENÍCIOS GONÇALVES ; Braz-Filho, Raimundo ; ROMERO, NIRLA RODRIGUES ; BANDEIRA, MARY ANNE MEDEIROS	A1	
artigoEmPeriodico	Raimundo Braz Filho	2016	http://dx.doi.org/10.1016/j.bjp.2016.03.006	Larvicidal activity of Ramalina usnea lichen against Aedes aegypti	Revista Brasileira de Farmacognosia (Impresso)	MOREIRA, ANTÔNIO S.N. ; FERNANDES, ROBERTA O.S. ; LEMOS, FRANCISCO J.A. ; Braz-Filho, Raimundo ; VIEIRA, IVO J.C.	B1	
artigoEmPeriodico	Raimundo Braz Filho	2016	http://dx.doi.org/10.5935/0103-5053.20160109	New Epimeric Spirostanol and Furostanol-Type Steroidal Saponins from <i>Cestrum laevigatum</i> L.	Journal of the Brazilian Chemical Society (Impresso)	RIBEIRO, PAULO R. V. ; Braz-Filho, Raimundo ; ARAÚJO, ANA J. ; COSTA-LOTUFO, LETÍCIA V. ; SOUZA, LUCIANA G. S. ; NOBRE JUNIOR, HÉLIO V. ; SILVA, CECÍLIA R. DA ; ANDRADE NETO, JOÃO B. DE ; SILVEIRA, Edilberto R. ; LIMA, MARY ANNE S.	A2	
artigoEmPeriodico	Raimundo Braz Filho	2016	http://dx.doi.org/10.1002/cbdv.201600058	New Cytotoxic Bibenzyl and Other Constituents from <i>Bauhinia ungulata</i> L. (Fabaceae)	Chemistry & Biodiversity (Print)	DE SOUSA, LEÔNCIO M. ; DE CARVALHO, JARBAS L. ; DA SILVA, HORLANDO C. ; LEMOS, Telma L. G. ; ARRIAGA, ANGELA M. C. ; Braz-Filho, Raimundo ; MILITÃO, GARDÊNIA C. G. ; SILVA, THIAGO D. S. ; RIBEIRO, PAULO R. V. ; SANTIAGO, GILVANDETE M. P.	Qualis nao identificado	Chemistry & Biodiversity (Print)
artigoEmPeriodico	Raimundo Braz Filho	2016	http://dx.doi.org/10.5935/0100-4042.20160002	NOVEL ALKALOID FROM <i>Rauvolfia capixabae</i> (APOCYNACEAE)	Química Nova (Impresso)	CARLOS, LANAMAR ALMEIDA ; MATHIAS, Leda ; Braz-Filho, Raimundo ; VIEIRA, Ivo Jose Curcino	A2	
artigoEmPeriodico	Milton Masahiko Kanashiro	2016		Cytotoxic activity of olive leaf extract against human melanoma (SK-MEL-5) and murine melanoma cell lines (B16F10)	Biointerface Research in Applied Chemistry	PEREIRA, W. L. ; OLIVEIRA, T. T. ; Kanashiro, Milton M. ; COSTA, M. R. ; COSTA, L. M. ; BORGES, F. V.	Qualis nao identificado	Biointerface Research in Applied Chemistry
artigoEmPeriodico	Milton Masahiko Kanashiro	2016	http://dx.doi.org/10.1016/j.inoche.2016.02.016	Synthesis, characterization and antitumoral activity of new di-iron(III) complexes containing naphthyl groups: Effect of the isomerism on the biological activity	Inorganic Chemistry Communications	MORCELLI, SAMILA R. ; Kanashiro, Milton M. ; CANDELA, DALBER R.S. ; ALZAMORA, M. ; HORN, ADOLFO ; FERNANDES, Christiane	Qualis nao identificado	Inorganic Chemistry Communications
artigoEmPeriodico	Milton Masahiko Kanashiro	2016	http://dx.doi.org/10.5935/1984-6835.20160068	Cytotoxic Potencial Acetogenins of Genus	Revista Virtual de Química	PAES, M. M. ; VEGA, M. R. G. ; KANASHIRO, M. M.	B2	
artigoEmPeriodico	Milton Masahiko Kanashiro	2016	http://dx.doi.org/10.1016/j.jinorgbio.2016.05.003	Synthesis, characterization and antitumoral activity of new cobalt(II)complexes: Effect of the ligand isomerism on the biological activity of the complexes	Journal of Inorganic Biochemistry	MORCELLI, SAMILA R. ; BULL, ÉRIKA S. ; TERRA, WAGNER S. ; MOREIRA, RAFAELA O. ; BORGES, FRANZ V. ; Kanashiro, Milton M. ; BORTOLUZZI, ADAILTON J. ; MACIEL, LEIDE L.F. ; DE A. ALMEIDA, JOÃO CARLOS ; JÚNIOR, ADOLFO HORN ; FERNANDES, Christiane	A2	
artigoEmPeriodico	Milton Masahiko Kanashiro	2016	http://dx.doi.org/10.1016/j.ejmech.2016.07.018	In vitro and in vivo studies of the antineoplastic activity of copper (II) compounds against human leukemia THP-1 and murine melanoma B16-F10 cell lines	European Journal of Medicinal Chemistry	BORGES, LAYLA J.H. ; BULL, ÉRIKA S. ; FERNANDES, Christiane ; HORN, ADOLFO ; AZEREDO, NATHALIA F. ; RESENDE, JACKSON A.L.C. ; FREITAS, WILLIAM R. ; CARVALHO, EULÓGIO C.Q. ; LEMOS, LUCIANA S. ; JERDY, HASSAN ; Kanashiro, Milton M.	A2	
artigoEmPeriodico	Milton Masahiko Kanashiro	2016		Phytochemical analysis and cytotoxic activity of Petiveria alliacea (Phytolaccaceae)	International Journal of Sciences	SALES, Q. S. ; GONCALVES, F. M. B. ; RAMOS, A. C. ; PAES, M. M. ; VEGA, M. R. G. ; Kanashiro, Milton M. ; OLIVEIRA, R. R.	B3	International Journal of Geosciences
artigoEmPeriodico	Ivo Jose Curcino Vieira	2016	http://dx.doi.org/10.5935/0100-4042.20160002	NOVEL ALKALOID FROM (APOCYNACEAE)	Química Nova (Impresso)	CARLOS, LANAMAR ALMEIDA ; MATHIAS, Leda ; Braz-Filho, Raimundo ; VIEIRA, IVO JOSE CURCINO	A2	
artigoEmPeriodico	Ivo Jose Curcino Vieira	2016	http://dx.doi.org/10.5935/1984-6835.20160007	Two New Labdane-type Diterpenoids and others Compounds from (Rutaceae)	Revista Virtual de Química	OLIVEIRA, LIDIANA S. S. DE ; ARAÚJO, Marcelo Francisco de ; Braz-Filho, Raimundo ; VIEIRA, IVO JOSÉ C.	B2	
artigoEmPeriodico	Ivo Jose Curcino Vieira	2016		A Novel Alkaloid Isolated from Spiranthera atlantica (Rutaceae)	Natural Product Communications	Rocha, M.R. ; Cunha, C. P. ; Braz-Filho, Raimundo ; VIEIRA, I. J. C.	B1	
artigoEmPeriodico	Ivo Jose Curcino Vieira	2016	http://dx.doi.org/10.1016/j.bjp.2016.03.006	Larvicidal activity of Ramalina usnea lichen against Aedes aegypti	Revista Brasileira de Farmacognosia (Impresso)	MOREIRA, ANTÔNIO S.N. ; FERNANDES, ROBERTA O.S. ; LEMOS, FRANCISCO J.A. ; Braz-Filho, Raimundo ; VIEIRA, IVO J.C.	B1	
artigoEmPeriodico	Ivo Jose Curcino Vieira	2016		CHEMICAL CONSTITUENTS OF TRICHILIA HIRTA (MELIACEAE)	Natural Product Communications	Gonçalves, M. S. ; SANTOS, F. R. ; Braz-Filho, Raimundo ; VIEIRA, I. J. C.	B1	
artigoEmPeriodico	Ivo Jose Curcino Vieira	2016	http://dx.doi.org/10.1080/0972060x.2016.1181575	Lemongrass Essential Oil Production and Qality in Response to Root Growth Restriction	Journal of Essential Oil-Bearing Plants	LOPES PRINS, CLÁUDIA ; DE PAIVA FREITAS, SILVÉRIO ; CURCINO VIEIRA, IVO JOSÉ ; CAMPOSTRINI, Eliemar ; DE AMARAL GRAVINA, GERALDO	B1	
artigoEmPeriodico	Ivo Jose Curcino Vieira	2016	http://dx.doi.org/10.1016/j.ttbdis.2016.11.013	In vitro acaricide activity of Ocotea aciphylla (Nees) Mez. (Lauraceae) extracts and identification of the compounds from the active fractions	Ticks and Tick-Borne Diseases	SOUZA CONCEIÇÃO, RODRIGO ; DE A. CARNEIRO, MONIQUE MARYLIN A. ; ALVES REIS, ISABELLA MARY ; BRANCO, ALEXSANDRO ; CURCINO VIEIRA, IVO JOSE ; BRAZ-FILHO, Raimundo ; BORGES BOTURA, MARIANA	B2	
artigoEmPeriodico	Carlos Eduardo Novo Gatts	2016	http://dx.doi.org/10.1017/s0025315416001788	Artisanal fishing and the franciscana (Pontoporia blainvillei) in Southern Brazil: ethnoecology from the fishing practice	JOURNAL OF THE MARINE BIOLOGICAL ASSOCIATION OF THE UNITED KINGDOM	ZAPPES, CAMILAH ANTUNES ; GAMA, RENATA MONTALVÃO ; DOMIT, CAMILA ; GATTS, CARLOS EDUARDO NOVO ; DI BENEDITTO, ANA PAULA MADEIRA	B1	
artigoEmPeriodico	Rosana Aparecida Giacomini	2016		QuimiTour ? Uma viagem do átomo à energia. Uma experiência do PIBID/QUÍMICA/UENF no Colégio Estadual José Francisco de Salles para a iniciação da Alfabetização Científica	REVISTA DE EXTENSÃO UENF	Giacomini, R.; Josimary dos Santos Cordeiro Soares ; Ana Flávia Loureiro Martins Nascimento ; Bruna Vidal Paes ; Gisele de Abreu Rangel ; Larissa Alves da Silva ; Suzana Aparecida Silva Queiroz	Qualis nao identificado	REVISTA DE EXTENSÃO UENF
artigoEmPeriodico	Simonne Teixeira	2016		Educaçao Patrimonial: trajetória de um projeto de extensao em articulaçao com a pesquisa e o ensino.	Revista de Extensao da UENF	Teixeira, Simonne; Sam-Sin, Lívia A. ; Dantas, Erivan da S. ; MORAES, Allana Pessanha de ; GARCIA, M. M. G. ; Torres, W. N.	Qualis nao identificado	Revista de Extensao da UENF
artigoEmPeriodico	Simonne Teixeira	2016	http://dx.doi.org/10.1016/j.clay.2016.04.024	Fe3+ in pottery: Distinction of the use for cooking and production parameters	Applied Clay Science (Print)	Mangueira, G.M. ; TEIXEIRA, S. ; SILVA, F.A. ; Franco, R.W.A.	A1	
artigoEmPeriodico	Simonne Teixeira	2016		Dossier 'Patrimonio Hidráulico: paisaje, memoria y identidad'	Boletín de Antropología	TEIXEIRA, S.; COSTA, F.	Qualis nao identificado	Boletín de Antropología
artigoEmPeriodico	Simonne Teixeira	2016		O Canal Campos-Macaé e sua importancia como patrimônio hidráulico na regiao Norte Fluminense: uma análise sobre sua construçao e viabilidade turística nos dias atuais	Boletín de Antropología	Monteiro, J. O. ; Teixeira, Simonne	Qualis nao identificado	Boletín de Antropología
trabalhoCompletoEmCongresso	Simonne Teixeira	2016		Música como patrimônio cultural: um debate sobre o patrimônio material e imaterial e a preservação de acervos musicais	VII Seminário Internacional de Políticas Culturais	GOMES, Karina Barra ; Teixeira, Simonne		
trabalhoCompletoEmCongresso	Simonne Teixeira	2016		Bandas Civis: sons e práticas que percorrem a cidade	1º Congreso Iberoamericano de Historia Urbana - Ciudades en el tiempo: infraestruturas	GOMES, Karina Barra ; Teixeira, Simonne		
trabalhoCompletoEmCongresso	Simonne Teixeira	2016		Políticas culturais do Instituto Estadual do Patrimônio Cultural (INEPAC- RJ): o patrimônio natural e sua apropriaçao pelo turismo na regiao norte fluminense	IV PYDES - IV Congresso Internacional em Patrimônio e Desenvolvimento Sustentável	Monteiro, J. O. ; Teixeira, Simonne		
artigoEmPeriodico	Victor Haber Pérez	2016	http://dx.doi.org/10.1016/j.renene.2015.10.065	Evaluation of oxygen availability on ethanol production from sugarcane bagasse hydrolysate in a batch bioreactor using two strains of xylose-fermenting yeast	Renewable Energy	DUSSÁN, KELLY J. ; SILVA, DÉBORA D.V. ; Perez, Victor H. ; DA SILVA, SILVIO S.	A1	
artigoEmPeriodico	Victor Haber Pérez	2016	http://dx.doi.org/10.1016/j.cherd.2016.05.011	Glycerol bioconversion in unconventional magnetically assisted bioreactor seeking whole cell biocatalyst (intracellular lipase) production	Chemical Engineering Research & Design	David, Geraldo F. ; Perez, Victor Haber ; JUSTO, OSELYS RODRIGUEZ ; CUBIDES, DIANA. C. ; CARDONA, CARLOS A. ; HRISTOV, JORDAN	A2	
artigoEmPeriodico	Victor Haber Pérez	2016	http://dx.doi.org/10.1016/j.indcrop.2016.04.050	Potential of Virginia-type peanut (Arachis hypogaea L.) as feedstock for biodiesel production	Industrial Crops and Products (Print)	SILVEIRA JUNIOR, EURÍPEDES GARCIA ; SIMIONATTO, EUCLÉSIO ; Perez, Victor Haber ; JUSTO, OSELYS RODRIGUEZ ; ZÁRATE, NÉSTOR ANTONIO HEREDIA ; VIEIRA, MARIA DO CARMO	A2	
artigoEmPeriodico	Victor Haber Pérez	2016	http://dx.doi.org/10.1016/j.energy.2016.08.052	Thermal degradation of ethanolic biodiesel: Physicochemical and thermal properties evaluation	Energy (Oxford)	SILVA, WELLINGTON COSTA ; CASTRO, MARIA PRISCILA PESSANHA ; Perez, Victor Haber ; MACHADO, FRANCISCO A. ; MOTA, LEONARDO ; STHEL, MARCELO SILVA	A1	
artigoEmPeriodico	Victor Haber Pérez	2016	http://dx.doi.org/10.1002/ceat.201500420	Ozonation of Pyrolytic Aqueous Phase: Changes in the Content of Phenolic Compounds and Color	Chemical Engineering & Technology	LIAW, SHI-SHEN ; JUSTO, OSELYS RODRIGUEZ ; Perez, Victor Haber ; ZHOU, SHUAI ; Garcia-Perez, Manuel	A2	
artigoEmPeriodico	Nilson Sergio Peres Stahl	2016	http://dx.doi.org/10.19180/1809-2667.v18n216-09	Dispositivos Móveis: Um Facilitador no Processo Ensino-Aprendizagem	Vértices	SANTOS, S.L. ; STAHL, N.S.P. ; SILVA, M.A.G.T. ; SARDINHA, L.C.	B4	
artigoEmPeriodico	Nilson Sergio Peres Stahl	2016		GEOMETRIA ESPACIAL NO ENSINO FUNDAMENTAL	REMAT	SCHROETTER, S. M. ; STAHL, N. S. P. ; DOMINGUES, E.	Qualis nao identificado	REMAT
artigoEmPeriodico	Nilson Sergio Peres Stahl	2016		A ESCRIT E O PENSAMENTO MAEMÁTICO NO AMBIENTE VIRTUAL UTILIZANDO A MODELAGEM MATEMÁTICA: EXPERIÊNCIA DE UMA TURMA DE 9 ANO	Educação Matemática Pesquisa (Online)	SCHROETTER, S. M. ; STAHL, N. S. P. ; CHYSOSTOMO, C. S. ; DUNCAN, C.	B1	
artigoEmPeriodico	Nilson Sergio Peres Stahl	2016		A UTILIZAÇÃO DO GEOGEBRA COMO FERRAMENTA DE ENSINO-APRENDIZAGEM EM ESTATÍSTICA	REVISTA ELETRÔNICA SALA DE AULA EM FOCO	JACOMINO, T. M. Z. ; STAHL, N. S. P.	Qualis nao identificado	REVISTA ELETRÔNICA SALA DE AULA EM FOCO
artigoEmPeriodico	Nilson Sergio Peres Stahl	2016		MODELAGEM MATEMÁTICA: UMA EXPERIÊNCIA NO PIBID	REVISTA DE EXTENSÃO UENF	DUNCAN, C. ; STAHL, N. S. P. ; SCHROETTER, S. M.	Qualis nao identificado	REVISTA DE EXTENSÃO UENF
resumoExpandidoEmCongresso	Alexandre Moura Stumbo	2016	Hydrogen production from water splitting on TiO2/Ru-MCM-41 photocatalysts using solar light	3rd International Symposium on Catalysis for Clean Energy and Sustainable Chemistry, 2016, Madri. 3rd International Symposium on Catalysis for Clean Energy and Sustainable Chemistry	MARQUES, Fabielle Castelan ; STUMBO, A. M. ; CANELA, Maria Cristina		
artigoEmPeriodico	Christiane Fernandes Horn	2016	http://dx.doi.org/10.1016/j.inoche.2016.02.016	Synthesis, characterization and antitumoral activity of new di-iron(III) complexes containing naphthyl groups: Effect of the isomerism on the biological activity	Inorganic Chemistry Communications	Morcelli, Samila R. ; KANASHIRO, MILTON M. ; CANDELA, DALBER R.S. ; ALZAMORA, M. ; Horn, Adolfo ; Fernandes, Christiane	Qualis nao identificado	Inorganic Chemistry Communications
artigoEmPeriodico	Christiane Fernandes Horn	2016	http://dx.doi.org/10.1016/j.inoche.2016.02.017	Synthesis, crystal structure and relevant antiproliferative activity against Toxoplasma gondii of a new binuclear Co(II) complex	Inorganic Chemistry Communications	de Assis, Vagner M. ; VISENTIN, LORENZO C. ; DE SOUZA, FERNANDA S. ; DAMATTA, RENATO A. ; Horn, Adolfo ; Fernandes, Christiane	Qualis nao identificado	Inorganic Chemistry Communications
artigoEmPeriodico	Christiane Fernandes Horn	2016	http://dx.doi.org/10.1016/j.jinorgbio.2016.05.003	Synthesis, characterization and antitumoral activity of new cobalt(II)complexes: Effect of the ligand isomerism on the biological activity of the complexes	Journal of Inorganic Biochemistry	Morcelli, Samila R. ; Bull, Érika S. ; TERRA, WAGNER S. ; MOREIRA, RAFAELA O. ; BORGES, FRANZ V. ; KANASHIRO, MILTON M. ; Bortoluzzi, Adailton J. ; MACIEL, LEIDE L.F. ; DE A. ALMEIDA, JOÃO CARLOS ; JÚNIOR, ADOLFO HORN ; Fernandes, Christiane	A2	
artigoEmPeriodico	Christiane Fernandes Horn	2016	http://dx.doi.org/10.1016/j.ica.2016.06.024	Evaluating the influence of the diamine unit (ethylenediamine, piperazine and homopiperazine) on the molecular structure, physical chemical properties and superoxide dismutase activity of copper complexes	Inorganica Chimica Acta (Testo stampato)	TERRA, WAGNER S. ; FERREIRA, SARAH S. ; COSTA, RAFAEL O. ; MENDES, LUISA L. ; FRANCO, ROBERTO W.A. ; Bortoluzzi, Adailton J. ; RESENDE, JACKSON A.L.C. ; Fernandes, Christiane ; Horn, Adolfo	B1	
artigoEmPeriodico	Christiane Fernandes Horn	2016	http://dx.doi.org/10.1016/j.ejmech.2016.07.018	In vitro and in vivo studies of the antineoplastic activity of copper (II) compounds against human leukemia THP-1 and murine melanoma B16-F10 cell lines	European Journal of Medicinal Chemistry	BORGES, LAYLA J.H. ; Bull, Érika S. ; Fernandes, Christiane ; Horn, Adolfo ; AZEREDO, NATHALIA F. ; RESENDE, JACKSON A.L.C. ; FREITAS, WILLIAM R. ; CARVALHO, EULÓGIO C.Q. ; LEMOS, LUCIANA S. ; JERDY, HASSAN ; KANASHIRO, MILTON M.	A2	
artigoEmPeriodico	Christiane Fernandes Horn	2016	http://dx.doi.org/10.1039/C6DT03200A	Metallohydrolase biomimetics with catalytic and structural flexibility	Dalton Transactions (2003. Print)	MENDES, LUISA L. ; ENGLERT, DANIEL ; Fernandes, Christiane ; GAHAN, LAWRENCE R. ; Schenk, Gerhard ; Horn, Adolfo	A1	
artigoEmPeriodico	Adolfo Horn Junior	2016	http://dx.doi.org/10.1016/j.inoche.2016.02.016	Synthesis, characterization and antitumoral activity of new di-iron(III) complexes containing naphthyl groups: Effect of the isomerism on the biological activity	Inorganic Chemistry Communications	MORCELLI, SAMILA R. ; KANASHIRO, MILTON M. ; CANDELA, DALBER R.S. ; ALZAMORA, M. ; Horn, Adolfo ; FERNANDES, Christiane	Qualis nao identificado	Inorganic Chemistry Communications
artigoEmPeriodico	Adolfo Horn Junior	2016	http://dx.doi.org/10.1016/j.inoche.2016.02.017	Synthesis, crystal structure and relevant antiproliferative activity against Toxoplasma gondii of a new binuclear Co(II) complex	Inorganic Chemistry Communications	de Assis, Vagner M. ; VISENTIN, LORENZO C. ; DE SOUZA, FERNANDA S. ; DAMATTA, RENATO A. ; Horn, Adolfo ; FERNANDES, Christiane	Qualis nao identificado	Inorganic Chemistry Communications
artigoEmPeriodico	Adolfo Horn Junior	2016	http://dx.doi.org/10.1016/j.jinorgbio.2016.05.003	Synthesis, characterization and antitumoral activity of new cobalt(II)complexes: Effect of the ligand isomerism on the biological activity of the complexes	Journal of Inorganic Biochemistry	MORCELLI, SAMILA R. ; Bull, Érika S. ; TERRA, WAGNER S. ; MOREIRA, RAFAELA O. ; BORGES, Franz V. ; KANASHIRO, MILTON M. ; BORTOLUZZI, Adailton J. ; MACIEL, LEIDE L.F. ; DE A. ALMEIDA, JOÃO CARLOS ; JÚNIOR, ADOLFO HORN ; FERNANDES, Christiane	A2	
artigoEmPeriodico	Adolfo Horn Junior	2016	http://dx.doi.org/10.1016/j.ica.2016.06.024	Evaluating the influence of the diamine unit (ethylenediamine, piperazine and homopiperazine) on the molecular structure, physical chemical properties and superoxide dismutase activity of copper complexes	Inorganica Chimica Acta (Testo stampato)	TERRA, WAGNER S. ; FERREIRA, SARAH S. ; COSTA, RAFAEL O. ; MENDES, LUISA L. ; FRANCO, ROBERTO W.A. ; BORTOLUZZI, Adailton J. ; RESENDE, JACKSON A.L.C. ; FERNANDES, Christiane ; Horn, Adolfo	B1	
artigoEmPeriodico	Adolfo Horn Junior	2016	http://dx.doi.org/10.1016/j.ejmech.2016.07.018	In vitro and in vivo studies of the antineoplastic activity of copper (II) compounds against human leukemia THP-1 and murine melanoma B16-F10 cell lines	European Journal of Medicinal Chemistry	BORGES, LAYLA J.H. ; Bull, Érika S. ; FERNANDES, Christiane ; Horn, Adolfo ; AZEREDO, NATHALIA F. ; RESENDE, JACKSON A.L.C. ; FREITAS, WILLIAM R. ; CARVALHO, EULÓGIO C.Q. ; LEMOS, LUCIANA S. ; JERDY, HASSAN ; KANASHIRO, MILTON M.	A2	
artigoEmPeriodico	Adolfo Horn Junior	2016	http://dx.doi.org/10.1039/C6DT03200A	Metallohydrolase biomimetics with catalytic and structural flexibility	Dalton Transactions (2003. Print)	MENDES, LUISA L. ; ENGLERT, DANIEL ; FERNANDES, Christiane ; Gahan, Lawrence R. ; Schenk, Gerhard ; Horn, Adolfo	A1	
artigoEmPeriodico	Maria Priscila Pessanha de Castro	2016	http://dx.doi.org/10.1016/j.energy.2016.08.052	Thermal degradation of ethanolic biodiesel: Physicochemical and thermal properties evaluation	Energy (Oxford)	SILVA, WELLINGTON COSTA ; CASTRO, MARIA PRISCILA PESSANHA ; PEREZ, VICTOR HABER ; MACHADO, FRANCISCO A. ; MOTA, LEONARDO ; STHEL, MARCELO SILVA	A1	
artigoEmPeriodico	Roberto Weider de Assis Franco	2016	http://dx.doi.org/10.1016/j.clay.2016.04.024	Fe3+ in pottery: Distinction of the use for cooking and production parameters	Applied Clay Science (Print)	G.M. Mangueira ; SILVA, F. A. ; TEIXEIRA, S. ; FRANCO, R.W.A.	A1	
artigoEmPeriodico	Roberto Weider de Assis Franco	2016	http://dx.doi.org/10.1016/j.ica.2016.06.024	Evaluating the influence of the diamine unit (ethylenediamine, piperazine and homopiperazine) on the molecular structure, physical chemical properties and superoxide dismutase activity of copper complexes	Inorganica Chimica Acta (Testo stampato)	TERRA, WAGNER S. ; FERREIRA, SARAH S. ; COSTA, RAFAEL O. ; MENDES, LUISA L. ; FRANCO, ROBERTO W.A. ; BORTOLUZZI, Adailton J. ; RESENDE, JACKSON A.L.C. ; FERNANDES, Christiane ; Horn, Adolfo	B1	
artigoEmPeriodico	Leda Mathias	2016		CONSTITUÍNTES QUÍMICOS E AVALIAÇÃO DA LETALIDADE DE PSEUDOPIPTADENIA CONTORTA	Revista Virtual de Química	AZEVEDO, F. M. ; MATOS, C. R. R. ; BRAZ-FILHO, R. ; MATHIAS, L.	B2	
artigoEmPeriodico	Leda Mathias	2016		NOVEL ALKALOID FROM Rauvolfia capixabae (APOCYNACEAE)	Química Nova (Impresso)	CARLOS, Lanamar A ; MATHIAS, L. ; BRAZ-FILHO, R. ; VIEIRA, I. J. C.	A2	
artigoEmPeriodico	Maria Raquel Garcia Vega	2016	http://dx.doi.org/10.5935/1984-6835.20160021	Flavonoids from the Genus <i>Solanum</i>	Revista Virtual de Química	PEREIRA, I. S. P. ; Rodrigues , F. V. ; VEGA, M. R. G.	B2	
artigoEmPeriodico	Maria Raquel Garcia Vega	2016		Phytochemical analysis and cytotoxic activity of Petiveria alliacea (Phytolaccaceae)	International Journal of Sciences	SALES, Q. S. ; GONCALVES, F. M. B. ; RAMOS, A. C. ; PAES, M. M. ; VEGA, M. R. G. ; Kanashiro, Milton M. ; OLIVEIRA, R. R.	B3	International Journal of Geosciences
