0593058472942217
7350855617953437
7581109804104545
0808558319536818
7803405172044612
8975609160142875
8113779505149284
1989968686637994
2283308265841242
6309884585355966
3249869254154819
7756246200728301
8209812760196580
1247971433213700
6705777988640459
4084554311427501
9513441748198376
4745932943641979
5540451701106047
2019663762572783
1390296669687868
0217232489124641
3294484867398346
1619405333024881
2630361385341232
2296387244845994
1704506017588419
9047349756866961
3219141445524243
9770791490758575
8371393564245194
0797406055534115
1292768783124905
7616609206029286
9330580908530980
2747085702096375
0158188163167191
1111075955903814
5094024755757334
5608808058995337
9554076940356537
3923083792713771
5192736085709877
6887310539435086
3284558841368748
6001624761731518
0943685190858134
0798902414843328
4441691798330519
0462306697037760
9171393689816902
5980170934785365
6721969586459436
6236498913421435
8895697287739745
1426644892238892
7652392298172269
8890545018242581
9698590574781877
0989764016387774
5752034273033855
8670247634402438
5193149437979818
9919649399653637
7744791759517135
7600570653495353
8882959656170754
9481262314079347
0775160605053287
5238059812699885
4823791936024697
0701679734111287
3927892593585823
6318845870313182
8922528250830998
8172531693245833
5968162110543751
9601013976432245
8434185687884989
6956945760968677
1109102110772659
6528670758515717
0082580537370493
3656895761396189
5353351784613424
1443338732472269
8363784238484680
7537784543204436
7963390052508784
5271094336884473
0564459167124143
8850836330319054
5748745713292417
2734534369457334
2746170518759611
1193062849655090
6602490339479877
1252927575495544
5575403411548477
5820146805906428
7450134319145548
2436436848429775
0438766445011979
0261596568941927
7350417152879995
8768018058705702
9185080076549750
4776088146194443
5123336948991939
8810448958272004
2516125498547643
6202668326517008
9314709318730076
9778700453308933
0237876840748219
4843007420669140
3825140150766103
9808914063485315
3719659803766075
3555799356851041
6913799864277174
7702402344957598
0471172921076687
7824355906998335
3831408036637444
1257932606332441
9044572545913697
3316258548510799
9326586141852190
4840067353836807
0738504713908524
3074997830683878
7405488854832914
0964096861817276
1295086836512910
0780532312340332
3988754415799973
0703270706398705
9322619117192632
8503062520726455
7556369336473272
6027598828196375
0064932539061079
0792240034570962
2024215473655372
5275304739793101
5821775386084127
5190578614664064
9109005884667366
8803119258741391
5607664918432371
8213941469518539
8174445528014427
1319645549100341
1469422001234073
0909227928280419
8797015996750551
2258564181801454
0289622062424379
0043476004081195
4420324818581796
0783231483314728
4340880050727941
5406914508671066
6806946003012672
1249176114751467
3226120847055296
6039926534932034
7329741950919356
3926549183102595
2073046127303600
6034606246409653
4291873402157287
7362504265702793
3732815540670292
8181788948588711
6766115493741543
3478842054984497
3551738516917290
3808250218734913
1372603620271150
1208411362882109
1510655084439926
9224951110002822
6760789832926234
1845406575748415
3430607699026670
4404268513358203
0135737587075569
3408285998367581
4500025814149366
2854727491946361
3557762571620028
1652421479853449
4496945996113383
3036476562950521
8946256003400067
0781721524175361
8530211624182009
4391063095852975
8892459126928726
1702222488312460
8897691398860808
1200849593735259
6469642481998660
4073022678370005
9989968333981551
5424457515997997
4933039592606571
0457632122660653
7705649361873518
0930538143260576
6389167888655527
7194981921130281
8705469754628887
0304199574256715
6343243219299412
6012129579229029
8420313304923712
5801184791379265
5474613072841707
6295562848487682
0600549075776976
2612710094900119
4286613425805523
2961832322849052
2798737720256678
5078324235375525
7191491222073956
5325753251589251
5626144252870596
5760515107506923
4563909148326497
5756498863910319
7948388584717287
7087730980420892
4618435355340098
4487352499381133
5978236490283099
2940252464508872
1655930426274093
7605529873093547
6632165634925053
0858530863519771
1531334478280353
0160242592680166
7790118292628323
4154979375881539
0484084945580832
0125877871373513
3240522953612293
8971972802186365
8760970413557464
9421751922437956
8789110916123550
3364986920433219
0084852448457050
3817637625204754
9262636712075107
6221517797882984
2717187327982497
8400492266306446
2647006029394495
1435118342182823
1641023223309413
1269350302658750
4163879756935913
1955070758364639
9216090599593672
8416299173961444
4893056116591017
5928000031808110
8834045114330136
3199766197573928
3730289800179047
7244554044381270
8781917833562275
5124865474215060
9883832777445498
5480815128867162
0091498279772223
5085393541593718
2082429653885105
5317597427402651
3940543577818673
8964082404753770
6291887019034026
3363373207440786
9708133332133424
4532007076076283
2853944482859542
4067583688227783
0264676109814969
8402296847454322
6009412640611523
5847088789120872
5043495454602083
7051505155443137
8531997680500054
4263499257957185
4391550127220340
9797420148146484
9867859929421065
5271934680890549
3613165109757541
2734203117778600
0989513579382135
1311955420049842
8912114481016558
7300036595890838
9178018907464804
4178600321965279
0233354086738774
8997271443179308
8874296140612422
3297119174137803
0649221010306606
7100210970121256
2962183322412029
0242276159685380
9827317232001760
4571782768633133
1379557619786602
6446047463034654
1505897980659598
9558827285667507
2882524776546697
5253813001012331
2270999850887484
6076765232285667
8076130432431642
7412798995510597
7230889846824050
6025666483343013
9128353103083394
2814879266988082
5939951644609181
5417599262853598
0000238107073973
0707585281011816
0021199964477362
2495520012360650
9429001283729460
2671704549084069
1449864328622892
5816358738260783
8219963090878404
5758984159711367
7643737074928128
2617773687973315
6366460598522912
6837208435617444
8778100177830636
3358090638386343
9098812530490569
2078090032041466
5857639706993429
3241415945486691
8012891031807567
2332629104748207
9572410339084315
9641413249653748
0107279453428385
1703547133505721
6542042150667330
6609504592713876
1177722911357179
2237448778462839
6875881652285315
2371995765980164
2500280502687742
9501907577020110
4395062638468624
7775566747895072
5313374711687727
0326014908040698
7186193792162754
9111551575458973
1395441328424499
1200940213980698
5197493849670617
5243381142088544
8664708384378316
2762547320425528
7348080139003970
0374560519672249
2133187590991763
3215417619963762
1554656988194656
0331575567107464
8192514759061336
2512066286388977
9034804887420018
8923844563320377
5189263761682019
6157005463336726
7244522592099497
3670870327023686
7917526105287615
0527085500008970
0103383524288212
4626577974595134
9875065822420268
7883599170097339
4630429624214663
2628894587500886
7938119508337389
5531473584607567
5111509888352596
5343067855595850
2819075769518114
0707333690000033
0196794551426360
1678856829160058
4848234725689626
3115982638657943
8634276633173689
2835864951583089
6185369922144905
7460060045516567
5230969199517253
4906885238111741
7736394354632954
9371461999947697
8017201112288577
8834528988686115
9416844941446325
4583811546838998
6666301937868490
2287316756049448
9028159858100017
9910521389307524
7659041851675992
9007529694928491
0854915183160058
1700438703383753
8362310485767606
5073058802312068
3227445943067035
3011071981410482
3191837532986128
6703563341959731
1034534634988402
0752968193129464
5425237044575885
9919135586409472
7281729436101854
8638021519578975
8665831722653734
5249001430287414
5271449729990345
9239829908537325
3922991828253553
2366782281149469
3042469760649626
5542359098126014
7878437435802930
4614477680028399
0869409583861681
5022515284689355
9701910854307451
7558860519549213
0097850796567234
5658806181923628
6068911894498452
0341581362000203
9133208317111833
1357061371579771
9833601447849479
7939017634049710
9866858833240787
1708325142303096
0569144988877808
6929312070167544
6575569264319071
4561253826544614
1352527728658742
5774499781092305
3660503715109916
6775752719088891
6914794871229481
0575859736444867
8873683560219910
4257145775646160
5844412764933875
2004534409726273
1704946542749907
5495579352462112
9936773000935083
4591544027987296
6420439109164757
8593079607841638
0013166907277670
2758940926368959
7638517746936259
1777801134014169
3744329382300316
6928655525551897
9683055091801104
8688783103064480
8437359425613507
4397038365608495
3542098570637209
3555567955507382
2850438778540403
2628789884579485
5804292863914591
2998503841917815
0270678899931025
9794813977231934
2873377341122367
7303566314964764
7744591053720497
9109195307461296
0641653465346902
0537243672457157
9190928016507366
6725982228402054
5893145382848301
7100510933977310
8986461537225859
3523719301508944
9412775108839411
4794464507236438
4457583288339052
3645186132827437
2087099684752643
3188625293580336
3131194893928876
3110423356650397
8298663599011575
4021506958174837
1625450900768652
1609235573836042
2520190926408820
6963447973536648
3821297511662902
4212006291762956
2299765370687645
7212288309449337
5699687690925931
7034087210537720
9632533218639695
5587119877028501
6968560510108605
5395774975535644
0136656577599009
9577443489881096
8612014612482760
2228584428876266
0414406298670007
6396356923072256
3021863942087584
0726021224038168
5230538884372479
6204369011340595
5236758856687873
5392658299538105
8523690278837518
1325874727382410
0229724056594599
1552509852504841
1043780332502091
6893630913752426
4845172563636385
5362501916620143
3430316379034033
2572300460729333
5610712451878218
3962655113310410
7586154109066567
3561532275931743
5700435372941756
1549793084368852
1055446047081201
5386062931435896
9406572870167006
0616167155515003
6509650071862960
8151746152898346
4936639465476057
5021218121375428
0416876292590430
0956078514518373
2089224568023504
8508106170798204
0032510175175421
6110730954006985
1387043320265189
8851501476349416
4920036219883328
7302577637950656
8576253595079973
7782675301226563
1289512724651335
9318885964891395
7445086243070619
6109575996470370
3061079332211219
9232288031302441
3765096344397105
1809553509946206
6198675526578478
7121057657575000
0242877000005120
2121884049105522
8293850854512556
3122993286102464
4154091399612910
2020221259823914
3394033948226642
7909901459443497
1413071683140519
5848966329072692
7204534064025448
8810155705415002
9596035619604047
4049958660392553
6949879982808858
4612168471348575
3820736224939372
0347366364982108
3477981724349561
7601300368135997
0937791837619484
5283240073480590
6448216748598848
1526059419518620
7116106415975076
2466590038390700
3814895410100282
8667735266764568
3274846698490693
5140773161563210
5151874600980943
4956035681407259
9595917441407045
5377483143596229
0905407015458080
7936101688744905
6637126351943749
4621514091549683
3667941735597178
8638722062776152
6372649810646310
2445656115892585
3369086759635725
6535601715719909
6029769936777246
1393329942220364
7916587565820478
4149814906786366
8649064187036244
9040477316617481
9431527895837157
5207922830903121
1324552190537148
2938388317505882
0971316493887301
3179658182045892
6530858962681496
0352346476879482
4049290999036716
1311501835612173
2941335797138677
0840002018932533
9804496328103850
2106623869015533
5902756093532709
0350618700512864
6445841478978597
2130598497047485
1118396022753204
3662104152598400
1432398953520532
4533495454524003
6025803966234813
2517303923786150
1819676602015444
8029656203911141
6582170420108448
2827670178604619
1082845457173638
8073005004386152
9177611084426682
3645990356984636
8548786652615472
3040267502248395
9411728518840295
1544316881574315
2137321916286256
4657882963133083
1188190487447673
5747758002162668
4081394632257660
2673268264970741
0937099106939852
5834970751967973
1481366755849386
4712623819171660
5304461218985295
4091439444304434
4361220072322558
8106114417987294
0588660330634011
3885489458764834
7633612475085935
3817505302938844
9866317366272905
2826839061806313
1200043975932513
2906847098530809
5744415641833528
6985652531782616
9849430794940727
6310868104861653
8570660944770195
5112627739121210
7574272872801262
5085113990949269
6748143521713365
9237129320898052
7115746326210586
6754857974348227
5802154554092013
7784823822401244
3235309329772519
8614307679953136
8397982914723864
9095069203467165
6167025404438965
7289063521641323
1611490673232025
3753647566324285
8346196960696904
0490838780480779
4111988765918149
5657929114457821
3576035801569264
4519960290535334
8204780680625242
0404701804598725
5942068988379022
9195779631240245
7026388762536003
7904202351027712
9903611898946991
2115492949957340
8363268778496483
7557434574349135
9304149069644667
5598322661148873
8409758215655036
1405759246065035
9826536434007160
0435226832258934
2324317884593704
8408216349957378
1693185688173220
0612647538080082
6762742002660251
6934256444898301
9190806435160457
5917373551645478
7826232118891914
3840423514221890
1497305034539892
0641524479927336
8674313761428521
1128412091226795
4612180352276210
4266221191908452
7300207658471022
4873901371931398
0008988570456026
0767423635527830
6599759415280576
2710474728753403
1803256000892909
9782159937151139
5193228545481595
4722550633119127
6034068708580803
5976525251814699
2702529760353164
2835093153489923
5991552356331492
4248251483705135
1917925633496304
2090018228785477
8805105993816935
2268474372457513
7890663067062257
0159280600583768
3589021870682847
6512228521177397
9951716451086323
6262682265095238
9182116015102809
0004094227653305
7563176486530058
1123957094187971
8012519054369649
3311087552472756
9890322878300982
5029320106524706
0066476351599948
3080506260732271
3527769308836331
0807675554407664
8986400503660171
7409840609097362
1162549673774246
8452329863196060
7992694643607149
5573207073284061
6521700934368848
7250668227174366
5208824640229110
9573924260693571
2120380699577029
6524695077583937
5988740329081192
1029607858204820
7240495353783482
2599495385507474
3259546601542310
4708897822994142
6882578512943651
0384846482774966
2299255676647028
6207603544664061
0725750287341168
8901547595246674
7542307478758199
9197210255594409
5990189383563490
9976993810704893
6452363536406113
3365596732918478
3074497305254782
8625415202207024
1409367562944345
1731384409714042
1020513547196002
4185605695685617
8462136188746811
2506941726425025
6345440666273561
2559117122403017
5479814788308057
4516705257317867
3443278586218412
7764577113401685
7686768230673663
0250066159980825
7079791448194916
5061261000226463
1807399214239200
9995002904136153
4700434717490143
2691336077459602
2242696438332110
2646626586269060
3935366222752874
8726739076785708
0565458729174243
0072138896064060
6747215104363265
5379727133148172
8244573429089386
8783877906923434
2355573864525602
4567815385232070
6677649772093605
4646078052811633
2394247636028569
5853201274742170
7386255589085740
3412816427200150
5007850894196444
1512588830326615
6840331067743251
5301042982020325
8460148380693628
0494533350878531
6474876222425791
8918438190559538
6458134420722312
6120421680422459
1280162769033253
6811361479513782
9220372399276737
0577968669754603
5827249312270686
1007654403493626
3929515319651043
9703168228208196
6627014131017403
2178133031989618
3645554888448921
6336778387691596
2042903123178925
3578469208419873
0561351993143523
0061106995455595
1898007894731106
5999344428396353
3154451807206910
9486815520020549
9281694502217088
7813380618656802
7130766494163520
2268246279249818
1434144272427926
2401114648564677
6495427775586892
8119272967700641
3729051794643743
1183078302328411
0637655944601899
1313259190884664
3882431982290696
5184353851396737
8812588591902130
4614982743707802
4050543278806170
1340487091302725
9484871854546287
8383334374831950
1915826985515007
3412664160255308
6253499638278059
3989136572460030
6987667778921498
5339226046436113
4558270749970982
9848311210578810
5841291496427516
1802982806436894
5616845340608352
8613164875025286
0190365234516027
1679062830272874
0979842940520641
7276282746873654
5792312135796017
1988532507166867
5127616638216372
0465861084042705
9700302420274549
5464440883524955
0360236115281426
8149917296667616
3463180838736718
1305553577433058
6377288674588197
1972736752029338
0394733398229079
0318613661791321
7315120489907985
9190291942925512
0758394542417366
3061039868145587
0553046070876845
7520975750843970
6245899482930836
4787444661770986
8238856071147246
7902290655947685
4968790230423085
5678722013385478
2701234424367012
7811386783464824
3123623442194024
0708957877089759
7647991444990054
2366790009383965
5642179225215973
8271659856741715
0086442182187054
3165974522899237
4948864943757907
3067900706772279
0587886921016313
8156683301306596
9595176018034545
3557992461593136
7716005942717002
0528258491277437
5996993884846655
1816679820824853
5116299425527604
5462356369357769
3358435384188023
9563298524247088
9484731630448542
1293090609428232
1879077396134052
5932980808143497
1678873440024132
8995445345006754
1269034029526621
5196560719753785
0416742450183540
1111686364010354
5651616479126344
8214723591030320
7274418142986892
7312223977002681
1339724757657824
6422282278596618
9637951128805835
9897551296004445
1432469382649603
8402221071942314
4721181770429919
0676872399141537
5370547552572834
3875667139934377
2353490740859588
6255354991400715
3143618015097592
5526683440534847
2019448857205643
9794451665032168
9244084483156893
3174947703949142
2553868848069242
8294757167478786
5606331204668066
7063544411977387
8721184698746876
6908955081859410
7255962059886608
3534978920247511
2792016882986736
8140578621545833
7572366766177648
0132296692760157
7407679973829420
1078578383414243
5403765777051256
6088560261476889
0616238673458322
5680938499038691
1200771569783721
9089764354163346
9980263926363134
1047548635863594
2127974358267500
8293392509573500
8629370203248536
3830155707659519
8033581461804610
4449588809179040
4564504261678929
8705279416589889
3876485681371131
3618933836911179
7103264117529228
7298552271098818
6525110627985140
7722559781233960
7533777918447983
1899321687841117
5588269274851789
3537235285492954
4494128138672067
2741394980043749
0561802115181270
0739341995308968
4403852935714504
0731580374184115
8239359030031567
4114888803522833
7541422056269063
5223057662929273
6482393995222222
7897717205884812
2060361125371120
5641123636520226
0373120022399807
7515984919866826
6653223814715498
3134757207752580
6709414720538112
3445508841737708
7838446217897233
2716615722375565
7340063621903093
1511007330525805
5248622466343519
3611312975264556
1505400360366643
6776556689033375
4593040132471449
7180073213909914
4720588555547447
0214794579710378
0883486364645272
8525636412783905
0799599514832070
9566660235278649
0243071556438466
9444588763858272
9246421703859581
6718407996891614
3331679553490088
9778511748386310
2910458445425162
5294781291958691
7257513474087477
0454490389384070
7716423349207719
4652384956803904
1708746974420285
9700477039154855
2746858124459124
9376203096430598
9237258375836358
5033930756866717
8477433845532599
8573195327542061
8099996221105627
2536750592337087
0089739298242263
0515800976222263
2338988540733524
0529623886649332
5233971488939681
7274851313427808
6407417840268100
1813665872419232
9071383748944593
2781133633966114
8571593985334486
8083324546867569
5549555331192522
8433158222878164
4676278711005293
0826727185770367
5219582653165363
6238654594421708
2647529909397336
8013429009340151
