
PB0:2013,23;2014,24;2015,26;2016,34;
PB1:2013,5;2014,27;2015,2;2016,7;
PB2:2013,26;2014,33;2015,20;2016,31;
PB3:*itens sem ano,18;2013,7;2014,19;2015,30;2016,26;
PB4:2013,9;2014,12;2015,10;2016,8;
PB6:2013,1;2015,2;2016,1;
PB7:2014,1;2016,3;
PB8:2013,52;2014,36;2015,38;2016,43;
PB9:2013,5;2014,7;2015,5;2016,9;
PT2:2013,1;
PT4:2013,26;2014,25;2015,40;2016,27;
PT5:*itens sem ano,9;2013,37;2014,22;2015,42;2016,9;
PA0:2013,1;2014,6;2015,1;2016,9;
OA0:2015,1;
OA1:2005,1;2008,2;2011,1;2012,4;2013,2;2014,10;2015,6;2016,7;2017,1;
OA2:2008,3;2009,2;2014,9;2015,10;2016,7;2017,6;
OA4:2008,5;2014,6;2015,8;
OA5:2009,1;2015,1;
OC0:2015,1;
OC1:2013,2;2014,7;2015,11;2016,13;
OC2:2013,17;2014,21;2015,17;2016,15;
OC3:2013,6;2015,5;
OC4:2013,6;2014,11;2015,3;2016,2;
OC5:2013,5;2014,6;2015,1;2016,2;
OC6:2013,1;2014,1;
Pm:2013,2;2014,6;2015,2;2016,7;
Pj:2006,1;2007,1;2008,1;2009,4;2010,3;2011,8;2012,2;2013,4;2014,4;2015,2;2016,3;
PB:*itens sem ano,18;2013,128;2014,159;2015,133;2016,162;
PT:*itens sem ano,9;2013,64;2014,47;2015,82;2016,36;
PA:2013,1;2014,6;2015,1;2016,9;
OA:2005,1;2008,10;2009,3;2011,1;2012,4;2013,2;2014,25;2015,26;2016,14;2017,7;
OC:2013,37;2014,46;2015,38;2016,32;
Ep:2013,60;2014,56;2015,62;2016,82;
Eo:2013,12;2014,8;2015,10;2016,10;