ID_Lattes|MATRICULA|NOME|CH|mail|LP_1|PROGRAMA_1|CATEG_1|Periodo_Inicio_1|Periodo_Fim_1|Resp_prog|Resp_LP1
NOK|99999|FERNANDO RUBIERA MOROLLÓN|40|UESC@UESC.br|MCCT|MCCT|P|2013|2016|MCCT|MCCT
K4707023D9|99999|MARCELO INACIO FERREIRA FERRAZ|40|UESC@UESC.br|MCCT|MCCT|P|2013|2016||
K4766712J0|99999|CARLA REGINA FERREIRA FREIRE GUIMARAES|40|UESC@UESC.br|MCCT|MCCT|P|2013|2016||
K4734373Z6|99999|GEOVANIA SILVA DE SOUSA|40|UESC@UESC.br|MCCT|MCCT|P|2013|2016||
K4779946A3|99999|ZINA ANGELICA CACERES BENAVIDES|40|UESC@UESC.br|MCCT|MCCT|P|2013|2016||
K4776213U1|99999|LESSI INES FARIAS PINHEIRO|40|UESC@UESC.br|MCCT|MCCT|P|2013|2016||
K4259922E7|99999|CARLOS EDUARDO IWAI DRUMOND|40|UESC@UESC.br|MCCT|MCCT|P|2013|2016||
K4359512P4|99999|ANDREA DA SILVA GOMES|40|UESC@UESC.br|MCCT|MCCT|P|2013|2016||
K4774130Y0|99999|GUILHARDES DE JESUS JUNIOR|40|UESC@UESC.br|MCCT|MCCT|P|2013|2016||
K4772992H7|99999|JOAO PEDRO DE CASTRO NUNES PEREIRA|40|UESC@UESC.br|MCCT|MCCT|P|2013|2016||
K4791873E4|99999|ANDRE LUIS BATISTA RIBEIRO|40|UESC@UESC.br|MCCT|MCCT|P|2013|2016||
K4775054A6|99999|JORGE HENRIQUE DE OLIVEIRA SALES|40|UESC@UESC.br|MCCT|MCCT|P|2013|2016||
K4736670Y5|99999|SUSANA MARRERO IGLESIAS|40|UESC@UESC.br|MCCT|MCCT|P|2013|2016||
K4784631E3|99999|SERGIO MOTA ALVES|40|UESC@UESC.br|MCCT|MCCT|P|2013|2016||
K4773650T9|99999|PAULO EDUARDO AMBROSIO|40|UESC@UESC.br|MCCT|MCCT|P|2013|2016||
K4791985Y2|99999|MARTHA XIMENA TORRES DELGADO|40|UESC@UESC.br|MCCT|MCCT|P|2013|2016||
K4703527Y7|99999|MARIA VICTORIA MANSO GUEVARA|40|UESC@UESC.br|MCCT|MCCT|P|2013|2016||
K4140318Z6|99999|LUCIANO ANGELO DE SOUZA BERNARDES|40|UESC@UESC.br|MCCT|MCCT|P|2013|2016||
K4508328Z7|99999|GILDSON QUEIROZ DE JESUS|40|UESC@UESC.br|MCCT|MCCT|P|2013|2016||
K4728230E6|99999|GESIL SAMPAIO AMARANTE SEGUNDO|40|UESC@UESC.br|MCCT|MCCT|P|2013|2016||
K4775521Z9|99999|FELIX MAS MILIAN|40|UESC@UESC.br|MCCT|MCCT|P|2013|2016||
K4776303Z7|99999|FRANCISCO BRUNO SOUZA OLIVEIRA|40|UESC@UESC.br|MCCT|MCCT|P|2013|2016||
K4707559T4|99999|FLÁVIO PIETROBON COSTA|40|UESC@UESC.br|MCCT|MCCT|P|2013|2016||
K4764524H2|99999|ESBEL TOMAS VALERO ORELLANA|40|UESC@UESC.br|MCCT|MCCT|P|2013|2016||
K4777930A6|99999|DANY SANCHEZ DOMINGUEZ|40|UESC@UESC.br|MCCT|MCCT|P|2013|2016||
K4701106E9|99999|CESAR ALBERTO BRAVO PARIENTE|40|UESC@UESC.br|MCCT|MCCT|P|2013|2016||
K4349398T1|99999|EDUARDO SILVA PALMEIRA|40|UESC@UESC.br|MCCT|MCCT|P|2013|2016||
K4790355U4|99999|MONICA DE MOURA PIRES|40|UESC@UESC.br|MCCT|MCCT|P|2013|2016||
K4774829Z7|99999|RICARDO CANDEA SA BARRETO|40|UESC@UESC.br|MCCT|MCCT|P|2013|2016||
K4708306D6|99999|MOEMA MARIA BADARO CARTIBANI MIDLEJ|40|UESC@UESC.br|MCCT|MCCT|P|2013|2016||
K4703587Z8|99999|SOCRATES JACOBO MOQUETE GUZMAN|40|UESC@UESC.br|MCCT|MCCT|P|2013|2016||
K4781812E9|99999|SALVADOR DAL POZZO TREVIZAN|40|UESC@UESC.br|MCCT|MCCT|P|2013|2016||
K4723771Z0|99999|RONALDO LIMA GOMES|40|UESC@UESC.br|MCCT|MCCT|P|2013|2016||
K4773720U2|99999|NAISY SILVA SOARES|40|UESC@UESC.br|MCCT|MCCT|P|2013|2016||
