ID_Lattes|MATRICULA|NOME|CH|mail|LP_1|PROGRAMA_1|CATEG_1|Periodo_Inicio_1|Periodo_Fim_1|Resp_prog|Resp_LP1
K4763067E6|99999|MARIO JORGE CAMPOS DOS SANTOS|40|FUFSE@FUFSE.br|FUFSE|FUFSE|P|2013|2016|FUFSE|FUFSE
K4798969A8|99999|ANTONIO MARTINS DE OLIVEIRA JUNIOR|40|FUFSE@FUFSE.br|FUFSE|FUFSE|P|2013|2016||
K4202521J6|99999|DANIEL PEREIRA DA SILVA|40|FUFSE@FUFSE.br|FUFSE|FUFSE|P|2013|2016||
K4776873U4|99999|ELMA REGINA SILVA DE ANDRADE WARTHA|40|FUFSE@FUFSE.br|FUFSE|FUFSE|P|2013|2016||
K4775626D0|99999|ROBELIUS DE BORTOLI|40|FUFSE@FUFSE.br|FUFSE|FUFSE|P|2013|2016||
NOK|99999|JOAO ANTONIO BELMINO DOS SANTOS|40|FUFSE@FUFSE.br|FUFSE|FUFSE|P|2013|2016||
K4708226D4|99999|GLAUCIO JOSE COURI MACHADO|40|FUFSE@FUFSE.br|FUFSE|FUFSE|P|2013|2016||
K4210199Z1|99999|JOSE RICARDO DE SANTANA|40|FUFSE@FUFSE.br|FUFSE|FUFSE|P|2013|2016||
K8442680D5|99999|MARIA EMILIA CAMARGO|40|FUFSE@FUFSE.br|FUFSE|FUFSE|P|2013|2016||
K4781517A9|99999|CARLOS ANTONIO CABRAL DOS SANTOS|40|FUFSE@FUFSE.br|FUFSE|FUFSE|P|2013|2016||
K4708915Y9|99999|JANE DE JESUS DA SILVEIRA MOREIRA|40|FUFSE@FUFSE.br|FUFSE|FUFSE|P|2013|2016||
NOK|99999|CRISTINA MARIA ASSIS LOPES TAVARES DA MATA HERMIDA QUINTEL|40|FUFSE@FUFSE.br|FUFSE|FUFSE|P|2013|2016||
K4721735T4|99999|RENATA SILVA-MANN|40|FUFSE@FUFSE.br|FUFSE|FUFSE|P|2013|2016||
K4730289Z6|99999|IRACEMA MACHADO DE ARAGAO GOMES|40|FUFSE@FUFSE.br|FUFSE|FUFSE|P|2013|2016||
K8023059H8|99999|GABRIEL FRANCISCO DA SILVA|40|FUFSE@FUFSE.br|FUFSE|FUFSE|P|2013|2016||
K4767043Y9|99999|ANA ELEONORA ALMEIDA PAIXAO|40|FUFSE@FUFSE.br|FUFSE|FUFSE|P|2013|2016||
K4723252D1|99999|SUZANA LEITAO RUSSO|40|FUFSE@FUFSE.br|FUFSE|FUFSE|P|2013|2016||
