ID_Lattes|MATRICULA|NOME|CH|mail|LP_1|PROGRAMA_1|CATEG_1|Periodo_Inicio_1|Periodo_Fim_1|Resp_prog|Resp_LP1
K4130924Y6|99999|LILIAN LEFOL NANI GUARIEIRO|40|CIMATEC@CIMATEC.br|CIMATEC|CIMATEC|P|2013|2016|CIMATEC|CIMATEC
K4727048H5|99999|MANOEL CARREIRA NETO|40|CIMATEC@CIMATEC.br|CIMATEC|CIMATEC|P|2013|2016||
K4733501P1|99999|JOSIANE DANTAS VIANA BARBOSA|40|CIMATEC@CIMATEC.br|CIMATEC|CIMATEC|P|2013|2016||
K4868080U4|99999|RODRIGO SANTIAGO COELHO|40|CIMATEC@CIMATEC.br|CIMATEC|CIMATEC|P|2013|2016||
K4787684A9|99999|RENELSON RIBEIRO SAMPAIO|40|CIMATEC@CIMATEC.br|CIMATEC|CIMATEC|P|2013|2016||
K4707769A1|99999|LYNN ROSALINA GAMA ALVES|40|CIMATEC@CIMATEC.br|CIMATEC|CIMATEC|P|2013|2016||
K4769787E6|99999|VALTER ESTEVAO BEAL|40|CIMATEC@CIMATEC.br|CIMATEC|CIMATEC|P|2013|2016||
K4707244T1|99999|ALEX ALISSON BANDEIRA SANTOS|40|CIMATEC@CIMATEC.br|CIMATEC|CIMATEC|P|2013|2016||
K4704713A2|99999|PAULO SOARES FIGUEIREDO|40|CIMATEC@CIMATEC.br|CIMATEC|CIMATEC|P|2013|2016||
K4700815Y5|99999|FRANCISCO UCHOA PASSOS|40|CIMATEC@CIMATEC.br|CIMATEC|CIMATEC|P|2013|2016||
K4716818T3|99999|CAMILA DE SOUSA PEREIRA GUIZZO|40|CIMATEC@CIMATEC.br|CIMATEC|CIMATEC|P|2013|2016||
K4388981Y2|99999|GUILHERME OLIVEIRA DE SOUZA|40|CIMATEC@CIMATEC.br|CIMATEC|CIMATEC|P|2013|2016||
K4787443A1|99999|VALERIA LOUREIRO DA SILVA|40|CIMATEC@CIMATEC.br|CIMATEC|CIMATEC|P|2013|2016||
K8080293H0|99999|EDNA DOS SANTOS ALMEIDA|40|CIMATEC@CIMATEC.br|CIMATEC|CIMATEC|P|2013|2016||
K4793619A9|99999|IVAN COSTA DA CUNHA LIMA|40|CIMATEC@CIMATEC.br|CIMATEC|CIMATEC|P|2013|2016||
K4705480Y6|99999|PABLO VAVELIUK|40|CIMATEC@CIMATEC.br|CIMATEC|CIMATEC|P|2013|2016||
K4773408Z2|99999|HERNANE BORGES DE BARROS PEREIRA|40|CIMATEC@CIMATEC.br|CIMATEC|CIMATEC|P|2013|2016||
K4700815Y5|99999|FRANCISCO UCHOA PASSOS|40|CIMATEC@CIMATEC.br|CIMATEC|CIMATEC|P|2013|2016||
K4716818T3|99999|CAMILA DE SOUSA PEREIRA GUIZZO|40|CIMATEC@CIMATEC.br|CIMATEC|CIMATEC|P|2013|2016||
K4707769A1|99999|LYNN ROSALINA GAMA ALVES|40|CIMATEC@CIMATEC.br|CIMATEC|CIMATEC|P|2013|2016||
K4706791U3|99999|JOSEMAR RODRIGUES DE SOUZA|40|CIMATEC@CIMATEC.br|CIMATEC|CIMATEC|P|2013|2016||
K4707244T1|99999|ALEX ALISSON BANDEIRA SANTOS|40|CIMATEC@CIMATEC.br|CIMATEC|CIMATEC|P|2013|2016||
K4787684A9|99999|RENELSON RIBEIRO SAMPAIO|40|CIMATEC@CIMATEC.br|CIMATEC|CIMATEC|P|2013|2016||
K4787443A1|99999|VALERIA LOUREIRO DA SILVA|40|CIMATEC@CIMATEC.br|CIMATEC|CIMATEC|P|2013|2016||
K4130924Y6|99999|LILIAN LEFOL NANI GUARIEIRO|40|CIMATEC@CIMATEC.br|CIMATEC|CIMATEC|P|2013|2016||
K4704713A2|99999|PAULO SOARES FIGUEIREDO|40|CIMATEC@CIMATEC.br|CIMATEC|CIMATEC|P|2013|2016||
K4799814Z4|99999|MARCELO ALBANO MORET SIMOES GONCALVES|40|CIMATEC@CIMATEC.br|CIMATEC|CIMATEC|P|2013|2016||
K4721138H6|99999|DAVIDSON MARTINS MOREIRA|40|CIMATEC@CIMATEC.br|CIMATEC|CIMATEC|P|2013|2016||
K4765062D8|99999|GILNEY FIGUEIRA ZEBENDE|40|CIMATEC@CIMATEC.br|CIMATEC|CIMATEC|P|2013|2016||
K4732542Z2|99999|ROBERTO LUIZ SOUZA MONTEIRO|40|CIMATEC@CIMATEC.br|CIMATEC|CIMATEC|P|2013|2016||
K4787698D9|99999|VALTER DE SENNA|40|CIMATEC@CIMATEC.br|CIMATEC|CIMATEC|P|2013|2016||
K4769787E6|99999|VALTER ESTEVAO BEAL|40|CIMATEC@CIMATEC.br|CIMATEC|CIMATEC|P|2013|2016||
K4706196Y6|99999|LUZIA APARECIDA TOFANELI|40|CIMATEC@CIMATEC.br|CIMATEC|CIMATEC|P|2013|2016||
