ID_Lattes|MATRICULA|NOME|CH|mail|LP_1|PROGRAMA_1|CATEG_1|Periodo_Inicio_1|Periodo_Fim_1|Resp_prog|Resp_LP1
K4783626E3|99999|MARIA LEONOR RIBEIRO CASIMIRO LOPES ASSAD|40|UFSCAR@UFSCAR.br|UFSCAR|UFSCAR|P|2013|2016|UFSCAR|UFSCAR
K4783227J9|99999|LUIZ ANTONIO CORREIA MARGARIDO|40|UFSCAR@UFSCAR.br|UFSCAR|UFSCAR|P|2013|2016||
K4784245A9|99999|LUCIMAR SANTIAGO ABREU|40|UFSCAR@UFSCAR.br|UFSCAR|UFSCAR|P|2013|2016||
K4700745Z1|99999|JANICE RODRIGUES PLACERES BORGES|40|UFSCAR@UFSCAR.br|UFSCAR|UFSCAR|P|2013|2016||
K4791180H4|99999|FERNANDO SILVEIRA FRANCO|40|UFSCAR@UFSCAR.br|UFSCAR|UFSCAR|P|2013|2016||
NOK|99999|FATIMA CONCEICAO MACHADO MARQUEZ|40|UFSCAR@UFSCAR.br|UFSCAR|UFSCAR|P|2013|2016||
K4790471E2|99999|FABRICIO ROSSI|40|UFSCAR@UFSCAR.br|UFSCAR|UFSCAR|P|2013|2016||
K4734703Y9|99999|ANDREA ELOISA BUENO PIMENTEL|40|UFSCAR@UFSCAR.br|UFSCAR|UFSCAR|P|2013|2016||
K4702164D0|99999|ANASTACIA FONTANETTI|40|UFSCAR@UFSCAR.br|UFSCAR|UFSCAR|P|2013|2016||
K4778034D4|99999|CLAUDIO JOSE BERTAZZO|40|UFSCAR@UFSCAR.br|UFSCAR|UFSCAR|P|2013|2016||
K4774372A3|99999|ADRIANA ESTELA SANJUAN MONTEBELLO|40|UFSCAR@UFSCAR.br|UFSCAR|UFSCAR|P|2013|2016||
K4799277P7|99999|LUIZ ANTONIO CABELLO NORDER|40|UFSCAR@UFSCAR.br|UFSCAR|UFSCAR|P|2013|2016||
K4798928U0|99999|MARTA CRISTINA MARJOTTA|40|UFSCAR@UFSCAR.br|UFSCAR|UFSCAR|P|2013|2016||
K4766923A3|99999|MARIA TERESA MENDES RIBEIRO BORGES|40|UFSCAR@UFSCAR.br|UFSCAR|UFSCAR|P|2013|2016||
K4787787U6|99999|CARLOS ALBERTO HECTOR FLECHTMANN|40|UFSCAR@UFSCAR.br|UFSCAR|UFSCAR|P|2013|2016||
K4783306H1|99999|SONIA MARIA PESSOA PEREIRA BERGAMASCO|40|UFSCAR@UFSCAR.br|UFSCAR|UFSCAR|P|2013|2016||
K4786215E8|99999|KATIA CRISTINA KUPPER|40|UFSCAR@UFSCAR.br|UFSCAR|UFSCAR|P|2013|2016||
K4791967H4|99999|MARCELO NIVERT SCHLINDWEIN|40|UFSCAR@UFSCAR.br|UFSCAR|UFSCAR|P|2013|2016||
K4787418D2|99999|MARIA DE CLEOFAS FAGGION ALENCAR|40|UFSCAR@UFSCAR.br|UFSCAR|UFSCAR|P|2013|2016||
K4708443D1|99999|LUZIA SIGOLI FERNANDES COSTA|40|UFSCAR@UFSCAR.br|UFSCAR|UFSCAR|P|2013|2016||
K4772139P2|99999|LUCILIA MARIA ABRAHAO E SOUSA|40|UFSCAR@UFSCAR.br|UFSCAR|UFSCAR|P|2013|2016||
K4779067Z3|99999|LUCIANA DE SOUZA GRACIOSO|40|UFSCAR@UFSCAR.br|UFSCAR|UFSCAR|P|2013|2016||
NOK|99999|LUC MARIE QUONIAM|40|UFSCAR@UFSCAR.br|UFSCAR|UFSCAR|P|2013|2016||
K4798459A0|99999|LEANDRO INNOCENTINI LOPES DE FARIA|40|UFSCAR@UFSCAR.br|UFSCAR|UFSCAR|P|2013|2016||
K4711750H1|99999|ELIZABETE MAYUMY KOBAYASHI|40|UFSCAR@UFSCAR.br|UFSCAR|UFSCAR|P|2013|2016||
K4775456H0|99999|EDUARDO NESPOLI|40|UFSCAR@UFSCAR.br|UFSCAR|UFSCAR|P|2013|2016||
K4795054D6|99999|WILSON JOSE ALVES PEDRO|40|UFSCAR@UFSCAR.br|UFSCAR|UFSCAR|P|2013|2016||
K4723832A1|99999|WANDA APARECIDA MACHADO HOFFMANN|40|UFSCAR@UFSCAR.br|UFSCAR|UFSCAR|P|2013|2016||
K4791771J2|99999|VALDEMIR MIOTELLO|40|UFSCAR@UFSCAR.br|UFSCAR|UFSCAR|P|2013|2016||
K4761680J2|99999|THALES HADDAD NOVAES DE ANDRADE|40|UFSCAR@UFSCAR.br|UFSCAR|UFSCAR|P|2013|2016||
K4775056D4|99999|RONIBERTO MORATO DO AMARAL|40|UFSCAR@UFSCAR.br|UFSCAR|UFSCAR|P|2013|2016||
K8183609T0|99999|ROBERTO FERRARI JUNIOR|40|UFSCAR@UFSCAR.br|UFSCAR|UFSCAR|P|2013|2016||
K4707431A7|99999|DANIEL RIBEIRO SILVA MILL|40|UFSCAR@UFSCAR.br|UFSCAR|UFSCAR|P|2013|2016||
K4792114H6|99999|CIDOVAL MORAIS DE SOUSA|40|UFSCAR@UFSCAR.br|UFSCAR|UFSCAR|P|2013|2016||
K4708053E4|99999|CARLOS ROBERTO MASSAO HAYASHI|40|UFSCAR@UFSCAR.br|UFSCAR|UFSCAR|P|2013|2016||
K8592680U9|99999|CAMILA CARNEIRO DIAS|40|UFSCAR@UFSCAR.br|UFSCAR|UFSCAR|P|2013|2016||
K4791875J2|99999|ARTHUR AUTRAN FRANCO DE SA NETO|40|UFSCAR@UFSCAR.br|UFSCAR|UFSCAR|P|2013|2016||
K4767658P9|99999|ARIADNE CHLOE MARY FURNIVAL|40|UFSCAR@UFSCAR.br|UFSCAR|UFSCAR|P|2013|2016||
K4170955T4|99999|ROBERTO DE ANDRADE MARTINS|40|UFSCAR@UFSCAR.br|UFSCAR|UFSCAR|P|2013|2016||
NOK|99999|NADEA REGINA GASPAR RIBEIRO|40|UFSCAR@UFSCAR.br|UFSCAR|UFSCAR|P|2013|2016||
NOK|99999|MARIA TEREZA MICELI KERBAUY|40|UFSCAR@UFSCAR.br|UFSCAR|UFSCAR|P|2013|2016||
K4783151H2|99999|MARIA ZANIN|40|UFSCAR@UFSCAR.br|UFSCAR|UFSCAR|P|2013|2016||
K4783363A4|99999|RUBISMAR STOLF|40|UFSCAR@UFSCAR.br|UFSCAR|UFSCAR|P|2013|2016||
K4799662J3|99999|RODOLFO ANTONIO DE FIGUEIREDO|40|UFSCAR@UFSCAR.br|UFSCAR|UFSCAR|P|2013|2016||
K4784985U9|99999|MARTA REGINA VERRUMA BERNARDI|40|UFSCAR@UFSCAR.br|UFSCAR|UFSCAR|P|2013|2016||
K4706654E3|99999|MARIA LUCIA TEIXEIRA MACHADO|40|UFSCAR@UFSCAR.br|UFSCAR|UFSCAR|P|2013|2016||
K4767627H7|99999|MARIA CRISTINA PIUMBATO INNOCENTINI HAYASHI|40|UFSCAR@UFSCAR.br|UFSCAR|UFSCAR|P|2013|2016||
K4584377T1|99999|MARCIA REGINA DA SILVA|40|UFSCAR@UFSCAR.br|UFSCAR|UFSCAR|P|2013|2016||
K4767653U1|99999|MARCIA NIITUMA OGATA|40|UFSCAR@UFSCAR.br|UFSCAR|UFSCAR|P|2013|2016||
