artigoEmPeriodico	2014		BUSCA TABU NA OBTENÇÃO DE SUPERVISORES POR DISTINGUIDORES APROXIMADOS	C&T. Revista Militar de Ciência e Tecnologia	AGUIAR, R. S. S. ; CARRILHO DA CUNHA, A. E. ; CURY, J. E. R.	B3	
artigoEmPeriodico	2014	http://dx.doi.org/10.5935/1984-6835.20140043	Theoretical Chemistry at the Service of the Chemical Defense: Degradation of Nerve Agents in Magnesium Oxide and Hydroxide Surface	Revista Virtual de Química	Alvim, Raphael S. ; Vaiss, Viviane S. ; Leitão, Alexandre A. ; BORGES JR., ITAMAR	B2	
artigoEmPeriodico	2014	http://dx.doi.org/10.1039/c4cp02900c	Intermolecular interactions and charge transfer transitions in aromatic hydrocarbon-tetracyanoethylene complexes	PCCP. Physical Chemistry Chemical Physics (Print)	AQUINO, ADÉLIA A. J. ; BORGES, ITAMAR ; NIEMAN, REED ; KÖHN, ANDREAS ; Lischka, Hans	A1	
artigoEmPeriodico	2014	http://dx.doi.org/10.1007/s00894-014-2095-x	Electronic and ionization spectra of 1,1-diamino-2,2-dinitroethylene, FOX-7	Journal of Molecular Modeling (Print)	BORGES, ITAMAR	B1	
artigoEmPeriodico	2014	http://dx.doi.org/10.1021/jp507396e	A Multireference Configuration Interaction Study of the Photodynamics of Nitroethylene	The Journal of Physical Chemistry. A	BORGES, ITAMAR; Aquino, Adélia J. A. ; Lischka, Hans	A2	
artigoEmPeriodico	2014	http://dx.doi.org/10.1021/jp508512s	Absorption and Fluorescence Spectra of Poly-(p-phenylene vinylene) (PPV) oligomers: An <i>Ab Initio</i> Simulation	The Journal of Physical Chemistry. A	CARDOZO, THIAGO MESSIAS ; AQUINO, ADELIA J. A. ; Barbatti, Mario ; BORGES, ITAMAR ; Lischka, Hans	A2	
artigoEmPeriodico	2014	http://dx.doi.org/10.1016/j.adhoc.2013.12.013	Modeling message diffusion in epidemical DTN	Ad Hoc Networks	DE ABREU, CLAUDIO SÁ ; SALLES, RONALDO MOREIRA	Qualis nao identificado	Ad Hoc Networks
artigoEmPeriodico	2014	http://dx.doi.org/10.1155/2014/793191	Dual-Band Compact Planar Antenna for a Low-Cost WLAN USB Dongle	International Journal of Antennas and Propagation (Online)	DIAS, M. H. C.; FRANCISCATTO, B. R. ; ADEL, H. ; VUONG, T. P.	B2	International Journal of Antennas and Propagation (Print)
artigoEmPeriodico	2014	http://dx.doi.org/10.2514/1.g000453	Smoothly Gain-Scheduled Control of a Tri-Turbofan Airship	Journal of Guidance, Control, and Dynamics (Print)	DO VALLE, RICARDO C. ; MENEGALDO, LUCIANO L. ; SIMÕES, ALBERTO M.	Qualis nao identificado	Journal of Guidance, Control, and Dynamics (Print)
artigoEmPeriodico	2014	http://dx.doi.org/10.1109/tifs.2014.2363524	Edit Detection in Speech Recordings via Instantaneous Electric Network Frequency Variations	IEEE Transactions on Information Forensics and Security	ESQUEF, PAULO ANTONIO ; APOLINARIO, JOSE ; BISCAINHO, LUIZ W. P.	B1	
artigoEmPeriodico	2014	http://dx.doi.org/10.1590/S1982-21702014000200024	A aplicação das tecnologias de prototipagem rápida na confecção de matrizes táteis	Boletim de Ciências Geodésicas (Online)	FERREIRA, M. E. S. ; FERREIRA DA SILVA, L. F. C.	Qualis nao identificado	Boletim de Ciências Geodésicas (Online)
artigoEmPeriodico	2014	http://dx.doi.org/10.1016/j.jvoice.2014.02.001	Classification of Vocal Aging Using Parameters Extracted From the Glottal Signal	Journal of Voice	FORERO MENDOZA, LEONARDO A. ; CATALDO, EDSON ; VELLASCO, MARLEY M.B.R. ; SILVA, MARCO A. ; APOLINÁRIO, JOSÉ A.	B1	
artigoEmPeriodico	2014	http://dx.doi.org/10.1002/mop.28720	Interrogation and multiplexing system for fiber loop mirror coupled intensity sensors using OTDR	Microwave and Optical Technology Letters (Print)	Giraldi, M. T. M. R.; FERNANDES, C. S. ; FERREIRA, M. S. ; SOUSA, M. J. ; JORGE, P. A. S. ; COSTA, J. C. W. A. ; Jose Luis Santos ; FRAZAO, O.	B1	
artigoEmPeriodico	2014	http://dx.doi.org/10.1109/LCOMM.2014.2367125	A Model for Epidemical DTN Considering Effects of Path Loss and Interference	IEEE Communications Letters (Print)	MARANHAO, JOAO PAULO ; ROLLA, VITOR ; CURADO, MARILIA ; SALLES, Ronaldo	A2	
artigoEmPeriodico	2014		Panorama das Pesquisas com Sistemas de Informações Histórico-Geográficas no Mundo e suas Relações com a Geografia, História e Cartografia Histórica	RBC. Revista Brasileira de Cartografia (Online)	MARTINS, P. A. ; FERREIRA DA SILVA, L. F. C.	B1	
artigoEmPeriodico	2014		Comportamento mecânico de solo mole tratado com a técnica de CPR	C&T. Revista Militar de Ciência e Tecnologia	Mello, M. A. ; Marques, M. E. S. ; ALMEIDA, Márcio de Souza Soares de ; ARAGAO, L. A. C. M.	B3	
artigoEmPeriodico	2014		Caracterização do Material Cimentício de Colunas de Consolidação Profunda Radial	Concreto & Contrução	MELLO, M. A. ; MARQUES, M. E. S. ; CARNEIRO, L. A. V.	B4	
artigoEmPeriodico	2014		Taludes marinhos com ocorrência de hidrato de gás em traçado de dutovias	C&T. Revista Militar de Ciência e Tecnologia	Menezes, W. J. O. ; Marques, M. E. S. ; OLIVEIRA, José Renato Moreira da Silva de	B3	
artigoEmPeriodico	2014		Disposição de Sedimentos Contaminados de Dragagem em Tubos Geotêxteis	C&T. Revista Militar de Ciência e Tecnologia	MONTEIRO, A. M. ; Amorim, J.C.C. ; Marques, M. E. S.	B3	
artigoEmPeriodico	2014		Equation of state for near critical argon obtained via molecular dynamics	High Temperatures. High Pressures (Print)	NICHELE, J. ; ALVES, L. S. B. ; BORGES JR., I.	B2	
artigoEmPeriodico	2014	http://dx.doi.org/10.1109/tac.2014.2322436	Haar-Based Stability Analysis of LPV Systems	IEEE Transactions on Automatic Control (Print)	OLIVEIRA DE ARAUJO, LEONARDO ; PELLANDA, PAULO CESAR ; FERREIRA GALDINO, JURACI ; Simoes, Alberto Mota	A2	
artigoEmPeriodico	2014	http://dx.doi.org/10.1109/tac.2014.2298985	Verification of the Observer Property in Discrete Event Systems	IEEE Transactions on Automatic Control (Print)	PENA, P. N. ; BRAVO, H. J. ; da Cunha, A. E. C. ; MALIK, R. ; LAFORTUNE, S. ; CURY, J. E. R.	A2	
artigoEmPeriodico	2014	http://dx.doi.org/10.7437/nt2236-7640/2014.02.004	Enhancement of structures in images through diffusion equation	Notas Técnicas do CBPF	PERSECHINO, ANDRÉ ; APOLINÁRIO JR, JOSÉ ANTÔNIO ; ALBQUERQUE, MÁRCIO	Qualis nao identificado	Notas Técnicas do CBPF
artigoEmPeriodico	2014		Análise e Controle do Sistema de Propulsão de um Navio de Guerra	Revista Militar de Ciência e Tecnologia	PINTO, Fernando Teixeira ; PELLANDA, Paulo César	B5	
artigoEmPeriodico	2014	http://dx.doi.org/10.12721/2237-5112.v04n01a01	EstimaÃ§Ã£o da DireÃ§Ã£o de Disparo de Arma de Fogo: Uma ImplementaÃ§Ã£o em Tempo Real	Revista de Tecnologia da Informação e Comunicação	PRANDEL, P.C. ; APOLINÁRIO JR., J.A.	Qualis nao identificado	Revista de Tecnologia da Informação e Comunicação
artigoEmPeriodico	2014		Timed Automata Verification Applied to Performance Analysis of Control Logics Synthesized by Supervisory Control Theory	Computer Science and Applications	RODRIGUEZ, J. A. V. ; Carrilho da Cunha, Antonio Eduardo	Qualis nao identificado	Computer Science and Applications
artigoEmPeriodico	2014		Ensaio Pouco Invasivo Para Avaliação de Estabilizadores em Usinas Multigeradores	Revista Militar de Ciência e Tecnologia	Samir de Oliveria Ferreira ; PELLANDA, Paulo César ; MARTINS, Nelson	B5	
artigoEmPeriodico	2014		Pavimentos de Concreto: Histórico, Tipos e Modelos de Fadiga	Revista Militar de Ciência e Tecnologia	SILVA, J. E. M ; CARNEIRO, L. A. V.	B5	
artigoEmPeriodico	2014	http://dx.doi.org/10.1109/taslp.2014.2355821	On speech features fusion, α-integration Gaussian modeling and multi-style training for noise robust speaker classification	IEEE/ACM Transactions on Audio, Speech, and Language Processing	VENTURINI, A. ; ZAO, L. ; COELHO, R.	Qualis nao identificado	IEEE/ACM Transactions on Audio, Speech, and Language Processing
artigoEmPeriodico	2014	http://dx.doi.org/10.1371/journal.pntd.0002878	Distantiae Transmission of Trypanosoma cruzi: A New Epidemiological Feature of Acute Chagas Disease in Brazil	PLoS Neglected Tropical Diseases (Online)	XAVIER, Samanta Cristina das Chagas ; Roque, André Luiz Rodrigues ; BILAC, DANIELE ; DE ARAÚJO, VITOR ANTÔNIO LOUZADA ; NETO, SÓCRATES FRAGA DA COSTA ; LOROSA, ELIAS SEIXAS ; SILVA, LUIZ FELIPE COUTINHO FERREIRA DA ; JANSEN, Ana Maria	A1	
artigoEmPeriodico	2014	http://dx.doi.org/10.1109/lsp.2014.2311435	Time-Frequency Feature and AMS-GMM Mask for Acoustic Emotion Classification	IEEE Signal Processing Letters	ZAO, L. ; CAVALCANTE, D. ; COELHO, R.	A2	
artigoEmPeriodico	2014	http://dx.doi.org/10.1109/taslp.2014.2312541	Speech Enhancement with EMD and Hurst-based Mode Selection	IEEE/ACM Transactions on Audio, Speech, and Language Processing	ZAO, LEONARDO ; COELHO, ROSANGELA ; FLANDRIN, PATRICK	Qualis nao identificado	IEEE/ACM Transactions on Audio, Speech, and Language Processing
trabalhoCompletoEmCongresso	2014		Comparative of heuristics on search of supervisors by approximated distinguishers	Emerging Technology and Factory Automation (ETFA)	AGUIAR, R. S. S. ; Carrilho da Cunha, Antonio Eduardo ; CURY, J. E. R. ; QUEIROZ, M. H.		
trabalhoCompletoEmCongresso	2014		Robust Supervisory Control against Intermittent Loss of Observations	Workshop on Discrete Event Systems	ALVES, M. V. S. ; BASILIO, J. C. S. ; Carrilho da Cunha, Antonio Eduardo ; CARVALHO, L. K. ; MOREIRA, M. V. B.		
trabalhoCompletoEmCongresso	2014		Controle supervisório robusto de SED sujeitos a perdas intermitentes de observação	XX Congresso Brasileiro de Automática	ALVES, M. V. S. ; BASILIO, J. C. S. ; Carrilho da Cunha, Antonio Eduardo ; CARVALHO, L. K. ; MOREIRA, M. V. B.		
trabalhoCompletoEmCongresso	2014		SIRLab: Uma Evolução do Projeto Engenharia-Escola para Competições Robóticas	5th Workshop of Robotics in Education	Angonese, T. A. ; KREMPSER, E. ; ROSA, PAULO F. F.		
trabalhoCompletoEmCongresso	2014		GIROFLOW: Openflow virtualized infrastructure management tool	10th International Conference on Network and Service Management	Araújo, T. ; SALLES, R. M.		
trabalhoCompletoEmCongresso	2014	http://dx.doi.org/10.1109/ISIE.2014.6864778	Active stereoscopic camera to build an occupancy grid for autonomous navigation	2014 IEEE 23rd International Symposium on Industrial Electronics (ISIE)	BARCELOS, ANDRE DE OLIVEIRA PALMERIM ; VIDAL, FABIO SILVEIRA ; ROSA, PAULO FERNANDO FERREIRA		
trabalhoCompletoEmCongresso	2014		Use of Wissa?s piezo-probe for prediction of post-construction settlements in soft clay	3rd International Symposium on Cone Penetration Testing	Baroni, M. ; Marques, M. E. S. ; ALMEIDA, Márcio de Souza Soares de		
trabalhoCompletoEmCongresso	2014		Aplicação de Rede de Casamento de Impedâncias para Alargamento de Banda de Antena Patch Circular	MOMAG 2014: 16° SBMO - Simpósio Brasileiro de Microondas e Optoeletrônica e 11° CBMag - Congresso Brasileiro de Eletromagnetismo	BARROS, J. A. A. ; SILVA, R. A. O. ; DIAS, M. H. C. ; SANTOS, J. C. A.		
trabalhoCompletoEmCongresso	2014		Gunshot Signal Enhancement for DOA Estimation and Weapon Recognition	European Signal Processing Conference (EUSIPCO)	BORZINO, A. M. C. R. ; APOLINÁRIO JR., J.A. ; de Campos, Marcello L. R. ; PAGLIARI, C. L.		
trabalhoCompletoEmCongresso	2014	http://dx.doi.org/10.1109/its.2014.6947995	Estimating direction of arrival of long range gunshot signals	2014 International Telecommunications Symposium (ITS)	BORZINO, ANGELO M.C.R. ; Apolinario, Jose A. ; de Campos, Marcello L. R.		
trabalhoCompletoEmCongresso	2014		Generalised Search for the Observer Property in Discrete Event Systems	Workshop on Discrete Event Systems	CIPRIANO, H. J. B. ; PENA, P. N. ; Carrilho da Cunha, Antonio Eduardo ; MALIK, R. ; CURY, J. E. R.		
trabalhoCompletoEmCongresso	2014		Remote curvature fiber sensors using core mismatch structures and OTDR based interrogation	II International Conference on Applications of Optics and Photonics	FERNANDES, C. S. ; GIRALDI, M. T. M. R. ; Gouveia, Carlos ; SOUSA, M. J. ; COSTA, J. C. W. A. ; FRAZAO, O. ; JORGE, P. A. S.		
trabalhoCompletoEmCongresso	2014	http://dx.doi.org/10.1109/EuCAP.2014.6901758	A compact IFA-based dual-band planar antenna for WiFi USB dongles	2014 8th European Conference on Antennas and Propagation (EuCAP)	FRANCISCATTO, BRUNO R. ; ADEL, HANS ; DIAS, MAURICIO H. C. ; VUONG, TAN-PHU		
trabalhoCompletoEmCongresso	2014		Interrogation System for Fiber Loop Mirror Sensors using OTDR	23rd International Conference on Optical Fiber Sensors OFS23	GIRALDI, M. T. M. R.; FERNANDES, C. S. ; FERREIRA, M. S. ; COSTA, J. C. W. A. ; Jose Luis Santos ; FRAZAO, O.		
trabalhoCompletoEmCongresso	2014		Ensaios em material de reforço de túneis urbanos utilizando sistemas extensométricos de fibra óptica	XXVIII Congresso de Pesquisa e Ensino em Transportes	GOMES PINTO, F. ; ARAGAO, L. A. C. M. ; Marques, M. E. S.		
trabalhoCompletoEmCongresso	2014		Uso de extensômetros de fibra óptica em inclinometria	XVII Congresso Brasileiro de Mecânica dos Solos e Engenharia Geotécnica	GOMES, F. ; Mello, M. A. ; ARAGAO, L. A. C. M. ; Marques, M. E. S.		
trabalhoCompletoEmCongresso	2014		Análise do Comportamento de Corpos de Prova Cilíndricos Aderidos com Epóxi e com Concretos de Diferentes Resistências e Inclinações	56. Congresso Brasileiro do Concreto	GUERRANTE, I. F. ; SÁNCHEZ FILHO, E. S. ; CARNEIRO, L. A. V.		
trabalhoCompletoEmCongresso	2014		Locally Linear Embedding-Based Prediction for 3D Holoscopic Image Coding Using HEVC	EUSIPCO 2014	Lucas, Luís ; NUNES, P. ; CONTI, C. ; SOARES, L. D. ; RODRIGUES, N. M. M. ; PAGLIARI, C. L. ; SILVA, E. A. B. ; FARIA, S. M. M.		
trabalhoCompletoEmCongresso	2014	http://dx.doi.org/10.1109/RADAR.2014.6875594	Highly maneuverable target tracking based on efficient propagation of model hypotheses	2014 IEEE Radar Conference (RadarCon)	LUCENA, MARCELO ; GUIMARAES, ALBERTO ; PINTO, ERNESTO		
trabalhoCompletoEmCongresso	2014		Nano-Inclusões de Ferro em Estruturas de Múltiplas-Camadas com Efeito de Camada Ressonante	MOMAG2014	MAGALHAES, G. M. ; ALENCAR, R. M. ; PAIXAO, D. K. ; GIRALDI, M. T. M. R. ; FONSECA, D. ; PEREIRA, R. ; SILVA, A. O. ; MARTINEZ, M. A. G.		
trabalhoCompletoEmCongresso	2014		ENHANCEMENT METHOD FOR MULTIPLE DESCRIPTION DECODING OF DEPTH MAPS SUBJECT TO RANDOM LOSS	3DTV Conference 2014	MARCELINO, S. ; CORREIA, P. ; ASSUNCAO, P. A. A. ; FARIA, S. M. M. ; SOARES, S. ; PAGLIARI, C. L. ; SILVA, Eduardo Antonio Barros da		
trabalhoCompletoEmCongresso	2014		Aquisição de Sinais para o Estudo da Curva Tensão-Deformação em Misturas Asfálticas Submetidas a Ensaios de Tração Indireta	43. Reunião Anual de Pavimentação	NASCIMENTO, F. A. C. ; GUIMARÃES, A. C. R. ; ARAGAO FILHO, L. A. M. ; CARNEIRO, L. A. V.		
trabalhoCompletoEmCongresso	2014		Análise de Estabilidade de Sistemas LPV Via Transformada Haar	20th Brazilian Automatic Control Conference	OLIVEIRA DE ARAUJO, LEONARDO ; PELLANDA, PAULO CESAR ; FERREIRA GALDINO, JURACI ; SIMÕES, ALBERTO M.		
trabalhoCompletoEmCongresso	2014		Image Coding Using Variable-Size Transforms and a Full Binary Tree Recursive Optimization	International Telecommunications Symposium 2014	OLIVEIRA, ANDERSON V. C. ; RODRIGUES, N. M. M. ; FARIA, S. M. M. ; SILVA, E. A. B. ; PAGLIARI, C. L.		
trabalhoCompletoEmCongresso	2014		Resistência à Compressão de Concreto Convencional sob Altas Temperaturas com o Uso de Esclerômetro	X Congreso Internacional sobre Patología y Recuperación de Estructuras	PAIVA, A. A. S. ; VASCONCELLOS, C. A. B. ; CARNEIRO, L. A. V.		
trabalhoCompletoEmCongresso	2014		Resistência e Parâmetros Não Destrutivos de Concreto Convencional Submetidos a Ciclos de Solução Ácida e Aquecimento	Iº Encontro Luso-Brasileiro de Degradação em Estruturas de Concreto Armado	PAIVA, A. A. S. ; VASCONCELLOS, C. A. B. ; CARNEIRO, L. A. V.		
trabalhoCompletoEmCongresso	2014	http://dx.doi.org/10.1109/CONCAPAN.2014.7000419	Shooter localization using microphone arrays on elevated platforms	2014 IEEE Central America and Panama Convention (CONCAPAN XXXIV)	PAREDES, D. M. ; Apolinario, J. A.		
trabalhoCompletoEmCongresso	2014	http://dx.doi.org/10.1109/LASCAS.2014.6820266	Detailing a useful position calibration for microphone arrays	2014 IEEE 5th Latin American Symposium on Circuits and Systems (LASCAS)	PAREDES-CALDERON, DARWIN M. ; Apolinario, Jose A.		
trabalhoCompletoEmCongresso	2014		Avaliação da Resistência de Concreto sob Baixas Temperaturas	56. Congresso Brasileiro do Concreto	RABELO, L. A. ; CARNEIRO, L. A. V.		
trabalhoCompletoEmCongresso	2014		Avaliação das Propriedades de Concreto de Alta Resistência com Agregados Miúdos de Escória de Ferro Níquel	56. Congresso Brasileiro do Concreto	SANTOS, G. P. P. ; SANTANA, C. S. A. ; GONDIM, R. C. ; GUIMARÃES, A. C. R. ; CARNEIRO, L. A. V.		
trabalhoCompletoEmCongresso	2014		On the Relation Between Gain Ripple and Pump-Pump Interaction in the Design of Broad Band Raman Amplifiers	MOMAG2014	SANTOS, R. S. ; MARTINEZ, M. A. G. ; GIRALDI, M. T. M. R.		
trabalhoCompletoEmCongresso	2014		Investigation of a military site for destruction of ammunitions by open detonation	XVII Congresso Brasileiro de Mecânica dos Solos e Engenharia Geotécnica	SILVA, A. A. D. ; Brum, T. ; BARBOSA, M. C. ; Marques, M. E. S.		
trabalhoCompletoEmCongresso	2014		Aplicação de Técnicas de Alargamento de Banda em uma Antena Patch Circular em 2,45 GHz	MOMAG 2014: 16° SBMO - Simpósio Brasileiro de Microondas e Optoeletrônica e 11° CBMag - Congresso Brasileiro de Eletromagnetismo	SILVA, R. A. O. ; BARROS, J. A. A. ; DIAS, M. H. C. ; SANTOS, J. C. A.		
trabalhoCompletoEmCongresso	2014		Avaliação Experimental da Resistência do Concreto à Compressão de Vigas de Concreto Armado por Meio de Ensaios Não Destritivos	X Congreso Internacional sobre Patología y Recuperación de Estructuras	SILVA, R. C. B. E. ; Teixeira, A. M. A. J. ; CARNEIRO, L. A. V.		
trabalhoCompletoEmCongresso	2014	http://dx.doi.org/10.1109/its.2014.6948048	Speech intelligibility measures for speech enhancement under nonstationary acoustic noise	2014 International Telecommunications Symposium (ITS)	TAVARES, R. ; ZAO, L. ; COELHO, R.		
trabalhoCompletoEmCongresso	2014		Fissuração em Viadutos e Pontes de Concreto Armado ou Protendido: Alguns Casos e Suas Soluções	1. Congresso Brasileiro de Patologia das Construções	THOMAZ, E. C. S. ; CARNEIRO, L. A. V.		
trabalhoCompletoEmCongresso	2014		Vigas Gerber com Dentes Múltiplos: Dimensionamento e Detalhamento	VII Congresso Brasileiro de Pontes e Estruturas	THOMAZ, E. C. S. ; CARNEIRO, L. A. V. ; SARAIVA, R. M. D. C.		
trabalhoCompletoEmCongresso	2014		RLS sparse system identification using LAR-based situational awareness	European Signal Processing Conference (EUSIPCO)	Valdman, C. ; CAMPOS, M. L. R. ; APOLINÁRIO JR., J.A.		
resumoExpandidoEmCongresso	2014	RoboIME: on the road to RoboCup 2014	18th Annual ROBOCUP International Symposium, 2014, João Pessoa - PB. Proceedings of the 18th Annual ROBOCUP International Symposium. Porto Alegre: SBC	BARCELOS, ANDRE DE OLIVEIRA PALMERIM ; SEGRE, J. ; Lima, Lucas O. ; Naum, A. F. Barreira ; Gemignani, Renan ; Calou, Robinson M.B.F ; Bettio, Vitor H. F. ; Bramigk, V. ; ROSA, PAULO F. F.		
