strict digraph grafo3 {
	graph [bb="0,0,1282.5,593",
		id=grafo3,
		overlap=False
	];
	node [fontsize=8,
		label="\N",
		shape=rectangle,
		style=filled
	];
	0	 [URL="http://lattes.cnpq.br/7091334915208635",
		color="#17272B",
		fontcolor="#FFFFFF",
		height=0.23611,
		label="Ricardo Gabbay de Souza [2]",
		pos="112,584.5",
		width=1.5417];
	3	 [URL="http://lattes.cnpq.br/9900648217984726",
		color="#17272B",
		fontcolor="#FFFFFF",
		height=0.23611,
		label="Sergio L. Braga França [3]",
		pos="239,520.5",
		width=1.4167];
	0 -> 3	 [arrowhead=normal,
		arrowsize=0.75,
		fontsize=8,
		label=0.5,
		lp="189.5,552.5",
		penwidth=2.0,
		pos="e,223.3,529.16 127.57,575.9 149.85,565.02 190.95,544.96 216.53,532.47"];
	5	 [URL="http://lattes.cnpq.br/3615688579946805",
		color="#17272B",
		fontcolor="#FFFFFF",
		height=0.23611,
		label="Annibal Parracho Sant'Anna [3]",
		pos="95,136.5",
		width=1.6528];
	0 -> 5	 [arrowhead=normal,
		arrowsize=0.75,
		fontsize=8,
		label=0.25,
		lp="7.5,360.5",
		penwidth=1.25,
		pos="e,60.703,145.06 63.527,575.93 33.257,568.13 0,552.5 0,521.5 0,521.5 0,521.5 0,199.5 0,172.25 27.744,156.35 53.245,147.48"];
	9	 [URL="http://lattes.cnpq.br/9953503354410892",
		color="#17272B",
		fontcolor="#FFFFFF",
		height=0.23611,
		label="Osvaldo L. Gonçalves Quelhas [9]",
		pos="285,328.5",
		width=1.7639];
	0 -> 9	 [arrowhead=normal,
		arrowsize=0.75,
		fontsize=8,
		label=0.25,
		lp="429.5,456.5",
		penwidth=1.25,
		pos="e,348.29,334.41 162.5,575.97 250.34,562.52 422,534.57 422,521.5 422,521.5 422,521.5 422,391.5 422,358.86 389.31,343.31 355.87,335.95"];
	3 -> 0	 [arrowhead=normal,
		arrowsize=0.75,
		fontsize=8,
		label=0.33,
		lp="156.5,552.5",
		penwidth=1.49,
		pos="e,117.98,575.76 197.41,529.01 181.56,533 163.76,538.92 149,547.5 139.07,553.27 129.81,562.28 123.04,569.85"];
	3 -> 9	 [arrowhead=normal,
		arrowsize=0.75,
		fontsize=8,
		label=0.33,
		lp="387.5,424.5",
		penwidth=1.49,
		pos="e,326.2,337.08 290.29,513.82 316.23,509.8 343.92,503.34 352,493.5 390.94,446.12 387.43,405.56 352,355.5 347.25,348.79 340.52,343.82 \
333.13,340.13"];
	13	 [URL="http://lattes.cnpq.br/1209386477961973",
		color="#17272B",
		fontcolor="#FFFFFF",
		height=0.23611,
		label="Marcelo Jasmim Meiriño [5]",
		pos="234,456.5",
		width=1.5139];
	3 -> 13	 [arrowhead=normal,
		arrowsize=0.75,
		fontsize=8,
		label=0.33,
		lp="244.5,488.5",
		penwidth=1.49,
		pos="e,234.62,465.16 238.39,511.9 237.61,502.23 236.24,485.3 235.24,472.89"];
	5 -> 0	 [arrowhead=normal,
		arrowsize=0.75,
		fontsize=8,
		label=0.17,
		lp="45.5,360.5",
		penwidth=1.01,
		pos="e,90.198,575.88 80.616,145.02 63.731,155.01 38,174.35 38,199.5 38,521.5 38,521.5 38,521.5 38,546.2 62.514,563 83.323,572.82"];
	5 -> 9	 [arrowhead=normal,
		arrowsize=0.75,
		fontsize=8,
		label=0.17,
		lp="138.5,232.5",
		penwidth=1.01,
		pos="e,221.72,320.58 96.645,145.12 102.72,171.33 126.41,258.57 181,301.5 190.69,309.12 202.33,314.54 214.26,318.38"];
	20	 [URL="http://lattes.cnpq.br/2248567464602970",
		color="#17272B",
		fontcolor="#FFFFFF",
		height=0.23611,
		label="Gilson B. Alves Lima [6]",
		pos="257,200.5",
		width=1.3611];
	5 -> 20	 [arrowhead=normal,
		arrowsize=0.75,
		fontsize=8,
		label=0.67,
		lp="205.5,168.5",
		penwidth=2.51,
		pos="e,240.65,191.88 119.76,145.01 135.43,149.92 156.05,156.67 174,163.5 194.37,171.25 217.04,181.17 233.53,188.64"];
	9 -> 0	 [arrowhead=normal,
		arrowsize=0.75,
		fontsize=8,
		label=0.06,
		lp="91.5,456.5",
		penwidth=0.68,
		pos="e,106.06,575.97 221.68,336.75 162.76,345.32 84,362.24 84,391.5 84,521.5 84,521.5 84,521.5 84,539.27 93.673,557.57 101.65,569.64"];
	9 -> 3	 [arrowhead=normal,
		arrowsize=0.75,
		fontsize=8,
		label=0.11,
		lp="316.5,424.5",
		penwidth=0.83,
		pos="e,252.03,511.91 289.65,337.4 292.34,342.4 295.48,349.12 297,355.5 308.34,403.06 316.86,420.83 297,465.5 289.03,483.43 271.93,498.15 \
258.35,507.66"];
	9 -> 5	 [arrowhead=normal,
		arrowsize=0.75,
		fontsize=8,
		label=0.06,
		lp="114.5,232.5",
		penwidth=0.68,
		pos="e,94.4,145.19 221.48,320.14 203.16,316.29 183.64,310.42 167,301.5 132.64,283.07 123.09,273.02 107,237.5 94.374,209.63 93.403,173.13 \
94.052,152.83"];
	9 -> 13	 [arrowhead=normal,
		arrowsize=0.75,
		fontsize=8,
		label=0.11,
		lp="286.5,392.5",
		penwidth=0.83,
		pos="e,245.09,447.79 284.75,337.07 283.88,354.53 279.92,398.5 262,429.5 259.19,434.36 255.18,438.85 251.06,442.68"];
	9 -> 20	 [arrowhead=normal,
		arrowsize=0.75,
		fontsize=8,
		label=0.06,
		lp="181.5,264.5",
		penwidth=0.68,
		pos="e,232.52,209.1 236.73,319.95 211.21,312.93 183.28,299.43 174,273.5 166.29,251.98 178.75,241.26 197,227.5 205.45,221.13 215.71,215.95 \
225.33,211.94"];
	15	 [URL="http://lattes.cnpq.br/4365891367994000",
		color="#17272B",
		fontcolor="#FFFFFF",
		height=0.23611,
		label="Julio C. de F. Alvim Wasserman [2]",
		pos="305,136.5",
		width=1.8333];
	9 -> 15	 [arrowhead=normal,
		arrowsize=0.75,
		fontsize=8,
		label=0.06,
		lp="369.5,232.5",
		penwidth=0.68,
		pos="e,312.16,145.09 302.5,319.94 319.7,311.44 344.92,295.84 356,273.5 377.39,230.36 338.5,175.92 317.35,151.03"];
	8	 [URL="http://lattes.cnpq.br/8052370131852533",
		color="#17272B",
		fontcolor="#FFFFFF",
		height=0.23611,
		label="Julio Vieira Neto [4]",
		pos="440,136.5",
		width=1.1528];
	9 -> 8	 [arrowhead=normal,
		arrowsize=0.75,
		fontsize=8,
		label=0.11,
		lp="430.5,232.5",
		penwidth=0.83,
		pos="e,439.52,145.03 324.82,320 340.27,315.99 357.65,310.06 372,301.5 387.11,292.48 389.71,287.78 400,273.5 427.27,235.67 436.08,179.33 \
438.82,152.61"];
	10	 [URL="http://lattes.cnpq.br/9133608322839843",
		color="#17272B",
		fontcolor="#FFFFFF",
		height=0.23611,
		label="Mirian Picinini Méxas [6]",
		pos="162,392.5",
		width=1.3889];
	9 -> 10	 [arrowhead=normal,
		arrowsize=0.75,
		fontsize=8,
		label=0.33,
		lp="226.5,360.5",
		penwidth=1.49,
		pos="e,172.57,383.97 262.85,337.04 249.82,341.77 233.17,348.32 219,355.5 205,362.6 190.02,372.15 178.93,379.62"];
	18	 [URL="http://lattes.cnpq.br/9098047398813476",
		color="#17272B",
		fontcolor="#FFFFFF",
		height=0.23611,
		label="Luís A. Duncan Rangel [2]",
		pos="296,264.5",
		width=1.4306];
	9 -> 18	 [arrowhead=normal,
		arrowsize=0.75,
		fontsize=8,
		label=0.11,
		lp="275.5,296.5",
		penwidth=0.83,
		pos="e,283.97,273.1 277.27,319.84 270.95,312.59 263.69,301.38 268,291.5 270.21,286.43 273.95,281.91 277.98,278.12"];
	13 -> 3	 [arrowhead=normal,
		arrowsize=0.75,
		fontsize=8,
		label=0.2,
		lp="227.5,488.5",
		penwidth=1.1,
		pos="e,232.33,511.91 228.59,465.18 224.16,472.44 219.07,483.65 222,493.5 223.27,497.76 225.49,501.98 227.91,505.74"];
	13 -> 9	 [arrowhead=normal,
		arrowsize=0.75,
		fontsize=8,
		label=0.2,
		lp="265.5,392.5",
		penwidth=1.1,
		pos="e,281.23,337.1 236.52,447.85 240.93,434.61 250.5,406.61 260,383.5 265.56,369.97 272.62,354.88 277.82,344.1"];
	13 -> 10	 [arrowhead=normal,
		arrowsize=0.75,
		fontsize=8,
		label=0.6,
		lp="184.5,424.5",
		penwidth=2.3,
		pos="e,163.9,401 209.03,447.91 198.73,443.78 187.29,437.79 179,429.5 173.11,423.61 169,415.3 166.3,408.14"];
	20 -> 5	 [arrowhead=normal,
		arrowsize=0.75,
		fontsize=8,
		label=0.33,
		lp="162.5,168.5",
		penwidth=1.49,
		pos="e,105.55,145.14 216.4,192 197.34,187.76 174.57,181.66 155,173.5 139.63,167.09 123.51,157.22 111.86,149.44"];
	20 -> 9	 [arrowhead=normal,
		arrowsize=0.75,
		fontsize=8,
		label=0.08,
		lp="227.5,264.5",
		penwidth=0.74,
		pos="e,269.52,319.87 247.72,209.4 233.46,222.55 208.89,249.84 220,273.5 228.81,292.27 247.71,306.78 262.87,316"];
	20 -> 15	 [arrowhead=normal,
		arrowsize=0.75,
		fontsize=8,
		label=0.08,
		lp="267.5,168.5",
		penwidth=0.74,
		pos="e,282.97,145.04 255.72,191.97 254.8,184.22 254.56,172.08 260,163.5 263.9,157.34 269.82,152.48 276.1,148.72"];
	20 -> 8	 [arrowhead=normal,
		arrowsize=0.75,
		fontsize=8,
		label=0.33,
		lp="360.5,168.5",
		penwidth=1.49,
		pos="e,412.81,145.11 275.99,191.94 295.26,184.37 326.01,172.58 353,163.5 370.08,157.75 389.25,151.96 405.24,147.3"];
	20 -> 18	 [arrowhead=normal,
		arrowsize=0.75,
		fontsize=8,
		label=0.17,
		lp="286.5,232.5",
		penwidth=1.01,
		pos="e,291.22,255.9 261.82,209.16 268.1,219.14 279.19,236.78 287.04,249.25"];
	15 -> 9	 [arrowhead=normal,
		arrowsize=0.75,
		fontsize=8,
		label=0.25,
		lp="406.5,232.5",
		penwidth=1.25,
		pos="e,314.51,319.98 357.64,145.04 378.77,149.24 399.65,155.31 406,163.5 408.72,167.01 406.71,169.11 406,173.5 396.2,234.46 401.2,264.2 \
352,301.5 343.03,308.3 332.07,313.53 321.63,317.46"];
	15 -> 20	 [arrowhead=normal,
		arrowsize=0.75,
		fontsize=8,
		label=0.25,
		lp="291.5,168.5",
		penwidth=1.25,
		pos="e,262.89,191.9 299.07,145.16 291.2,155.33 277.17,173.44 267.5,185.94"];
	1	 [URL="http://lattes.cnpq.br/6783064368837751",
		color="#17272B",
		fontcolor="#FFFFFF",
		height=0.23611,
		label="Jacob Binsztok [1]",
		pos="317,72.5",
		width=1.0556];
	15 -> 1	 [arrowhead=normal,
		arrowsize=0.75,
		fontsize=8,
		label=0.5,
		lp="304.5,104.5",
		penwidth=2.0,
		pos="e,309.94,81.022 301.72,127.91 299,120.53 296.01,109.06 299,99.5 300.35,95.177 302.7,90.94 305.26,87.182"];
	8 -> 9	 [arrowhead=normal,
		arrowsize=0.75,
		fontsize=8,
		label=0.25,
		lp="497.5,232.5",
		penwidth=1.25,
		pos="e,348.45,326.77 450.83,145.09 456.46,149.7 462.81,156.12 466,163.5 490.35,219.79 506.89,255.78 466,301.5 451.45,317.77 400.28,324.07 \
356.05,326.4"];
	8 -> 20	 [arrowhead=normal,
		arrowsize=0.75,
		fontsize=8,
		label=0.5,
		lp="399.5,168.5",
		penwidth=2.0,
		pos="e,303.14,191.97 427.93,145.16 414.67,153.26 392.54,165.89 372,173.5 352.43,180.75 330.2,186.35 310.54,190.46"];
	6	 [URL="http://lattes.cnpq.br/9211890399850624",
		color="#17272B",
		fontcolor="#FFFFFF",
		height=0.23611,
		label="Jose R. de Farias Filho [2]",
		pos="433,72.5",
		width=1.4028];
	8 -> 6	 [arrowhead=normal,
		arrowsize=0.75,
		fontsize=8,
		label=0.25,
		lp="425.5,104.5",
		penwidth=1.25,
		pos="e,426.26,81.148 430.95,127.83 426.1,123.11 420.6,116.61 418,109.5 415.33,102.22 418.06,94.242 421.88,87.654"];
	10 -> 9	 [arrowhead=normal,
		arrowsize=0.75,
		fontsize=8,
		label=0.5,
		lp="192.5,360.5",
		penwidth=2.0,
		pos="e,229.66,337.04 165.26,383.97 169.22,375.74 176.66,362.75 187,355.5 197.48,348.15 209.92,342.88 222.35,339.1"];
	10 -> 13	 [arrowhead=normal,
		arrowsize=0.75,
		fontsize=8,
		label=0.5,
		lp="208.5,424.5",
		penwidth=2.0,
		pos="e,225.17,447.9 170.9,401.16 183.03,411.61 204.9,430.45 219.44,442.96"];
	18 -> 9	 [arrowhead=normal,
		arrowsize=0.75,
		fontsize=8,
		label=0.5,
		lp="297.5,296.5",
		penwidth=2.0,
		pos="e,286.35,319.9 294.64,273.16 292.92,282.86 289.91,299.8 287.72,312.19"];
	18 -> 20	 [arrowhead=normal,
		arrowsize=0.75,
		fontsize=8,
		label=0.5,
		lp="267.5,232.5",
		penwidth=2.0,
		pos="e,256.44,209.21 281.21,255.8 274.24,251.4 266.49,245.2 262,237.5 258.42,231.37 257.03,223.67 256.58,216.97"];
	1 -> 15	 [arrowhead=normal,
		arrowsize=0.75,
		fontsize=8,
		label=1.0,
		lp="319.5,104.5",
		penwidth=3.5,
		pos="e,307.34,127.82 316.2,81.272 315.39,88.596 313.96,99.85 312,109.5 311.27,113.1 310.33,116.94 309.37,120.54"];
	6 -> 8	 [arrowhead=normal,
		arrowsize=0.75,
		fontsize=8,
		label=0.5,
		lp="442.5,104.5",
		penwidth=2.0,
		pos="e,439.14,127.9 433.87,81.165 434.96,90.864 436.87,107.8 438.27,120.19"];
	11	 [URL="http://lattes.cnpq.br/3403870073253245",
		color="#17272B",
		fontcolor="#FFFFFF",
		height=0.23611,
		label="Roger Matsumoto Moreira [1]",
		pos="433,8.5",
		width=1.5833];
	6 -> 11	 [arrowhead=normal,
		arrowsize=0.75,
		fontsize=8,
		label=0.5,
		lp="422.5,40.5",
		penwidth=2.0,
		pos="e,426.04,17.264 426.72,63.847 423.1,58.934 418.91,52.232 417,45.5 414.89,38.057 417.77,30.165 421.64,23.672"];
	2	 [URL="http://lattes.cnpq.br/2270249882096942",
		color="#17272B",
		fontcolor="#FFFFFF",
		height=0.23611,
		label="Helder Gomes Costa [0]",
		pos="233,584.5",
		width=1.3056];
	4	 [URL="http://lattes.cnpq.br/4939043777843624",
		color="#17272B",
		fontcolor="#FFFFFF",
		height=0.23611,
		label="Edison Dausacker Bidone [0]",
		pos="354,584.5",
		width=1.5417];
	11 -> 6	 [arrowhead=normal,
		arrowsize=0.75,
		fontsize=8,
		label=1.0,
		lp="438.5,40.5",
		penwidth=3.5,
		pos="e,433,63.898 433,17.165 433,26.864 433,43.797 433,56.189"];
	7	 [URL="http://lattes.cnpq.br/6126104853334196",
		color="#17272B",
		fontcolor="#FFFFFF",
		height=0.23611,
		label="Emmanuel Paiva de Andrade [0]",
		pos="488,584.5",
		width=1.6806];
	12	 [URL="http://lattes.cnpq.br/5845787647988303",
		color="#17272B",
		fontcolor="#FFFFFF",
		height=0.23611,
		label="Maria de L. Costa Domingos [0]",
		pos="627,584.5",
		width=1.6806];
	14	 [URL="http://lattes.cnpq.br/9648922160710438",
		color="#17272B",
		fontcolor="#FFFFFF",
		height=0.23611,
		label="Luis Perez Zotes [0]",
		pos="747,584.5",
		width=1.1389];
	16	 [URL="http://lattes.cnpq.br/8006865596138564",
		color="#17272B",
		fontcolor="#FFFFFF",
		height=0.23611,
		label="Daniel Vidal Pérez [0]",
		pos="851,584.5",
		width=1.2361];
	17	 [URL="http://lattes.cnpq.br/0245365238186836",
		color="#17272B",
		fontcolor="#FFFFFF",
		height=0.23611,
		label="Sergio R. da Silveira Barros [0]",
		pos="973,584.5",
		width=1.6389];
	19	 [URL="http://lattes.cnpq.br/9588738213862295",
		color="#17272B",
		fontcolor="#FFFFFF",
		height=0.23611,
		label="Lisiane Veiga Mattos [0]",
		pos="1099,584.5",
		width=1.3472];
	21	 [URL="http://lattes.cnpq.br/1277202985083208",
		color="#17272B",
		fontcolor="#FFFFFF",
		height=0.23611,
		label="Leticia H. Medeiros Veloso [0]",
		pos="1224,584.5",
		width=1.625];
}
