strict graph grafo2 {
	graph [bb="0,0,1856.5,81",
		id=grafo2,
		overlap=False
	];
	node [fontsize=8,
		label="\N",
		shape=rectangle,
		style=filled
	];
	0	 [URL="http://lattes.cnpq.br/5132812297496991",
		color="#17272B",
		fontcolor="#FFFFFF",
		height=0.23611,
		label="Vitor Schlickmann [0]",
		pos="44,72.5",
		width=1.2222];
	1	 [URL="http://lattes.cnpq.br/3260077562370842",
		color="#17272B",
		fontcolor="#FFFFFF",
		height=0.23611,
		label="Vantoir Roberto Brancher [0]",
		pos="162,72.5",
		width=1.5417];
	2	 [URL="http://lattes.cnpq.br/1635475892372110",
		color="#17272B",
		fontcolor="#FFFFFF",
		height=0.23611,
		label="Roselene M. Gomes Pommer [1]",
		pos="297,72.5",
		width=1.6944];
	14	 [URL="http://lattes.cnpq.br/6826790692234990",
		color="#17272B",
		fontcolor="#FFFFFF",
		height=0.23611,
		label="Arnildo Pommer [1]",
		pos="297,8.5",
		width=1.1389];
	2 -- 14	 [fontsize=8,
		label=1.0,
		lp="302.5,40.5",
		pos="297,63.898 297,51.998 297,29.102 297,17.165"];
	3	 [URL="http://lattes.cnpq.br/0307859719242030",
		color="#17272B",
		fontcolor="#FFFFFF",
		height=0.23611,
		label="Ricardo Machado Ellensohn [0]",
		pos="436,72.5",
		width=1.6528];
	4	 [URL="http://lattes.cnpq.br/0832298305352059",
		color="#17272B",
		fontcolor="#FFFFFF",
		height=0.23611,
		label="Cláudia Smaniotto Barin [0]",
		pos="567,72.5",
		width=1.4861];
	5	 [URL="http://lattes.cnpq.br/0033898078248794",
		color="#17272B",
		fontcolor="#FFFFFF",
		height=0.23611,
		label="Marta Roseli de Azeredo [0]",
		pos="693,72.5",
		width=1.5];
	6	 [URL="http://lattes.cnpq.br/4455422053321491",
		color="#17272B",
		fontcolor="#FFFFFF",
		height=0.23611,
		label="Marco A. Dalla Costa [0]",
		pos="814,72.5",
		width=1.3611];
	7	 [URL="http://lattes.cnpq.br/2466545255645591",
		color="#17272B",
		fontcolor="#FFFFFF",
		height=0.23611,
		label="Marcelo da Silva Freitas [0]",
		pos="934,72.5",
		width=1.4722];
	8	 [URL="http://lattes.cnpq.br/4007512293061299",
		color="#17272B",
		fontcolor="#FFFFFF",
		height=0.23611,
		label="Liliana Soares Ferreira [0]",
		pos="1056,72.5",
		width=1.4028];
	9	 [URL="http://lattes.cnpq.br/0427736982554233",
		color="#17272B",
		fontcolor="#FFFFFF",
		height=0.23611,
		label="Leila M. Araújo Santos [0]",
		pos="1176,72.5",
		width=1.4306];
	10	 [URL="http://lattes.cnpq.br/5025251887185654",
		color="#17272B",
		fontcolor="#FFFFFF",
		height=0.23611,
		label="Janete Maria De Conto [0]",
		pos="1297,72.5",
		width=1.4167];
	11	 [URL="http://lattes.cnpq.br/5167203367542704",
		color="#17272B",
		fontcolor="#FFFFFF",
		height=0.23611,
		label="Gilse A. Morgental Falkembach [0]",
		pos="1432,72.5",
		width=1.8194];
	12	 [URL="http://lattes.cnpq.br/9506136012570087",
		color="#17272B",
		fontcolor="#FFFFFF",
		height=0.23611,
		label="Claudemir de Quadros [0]",
		pos="1566,72.5",
		width=1.3889];
	13	 [URL="http://lattes.cnpq.br/9916588298312326",
		color="#17272B",
		fontcolor="#FFFFFF",
		height=0.23611,
		label="Ascísio d. Reis Pereira [0]",
		pos="1685,72.5",
		width=1.4028];
	15	 [URL="http://lattes.cnpq.br/5764635299335289",
		color="#17272B",
		fontcolor="#FFFFFF",
		height=0.23611,
		label="Álysson Raniere Seidel [0]",
		pos="1805,72.5",
		width=1.4306];
}
