ID_Lattes|MATRICULA|NOME|CH|mail|LP_1|PROGRAMA_1|CATEG_1|Periodo_Inicio_1|Periodo_Fim_1|Resp_prog|Resp_LP1
K4784944H3|99999|MARCELO AUGUSTO RAUH SCHMITT|40|IFRS@IFRS.br|IFRS|IFRS|P|2013|2016|IFRS|IFRS
K4763471J9|99999|MARIANO NICOLAO|40|IFRS@IFRS.br|IFRS|IFRS|P|2013|2016||
K4707222T0|99999|MARCIA HAFELE ISLABAO FRANCO|40|IFRS@IFRS.br|IFRS|IFRS|P|2013|2016||
K4777426J8|99999|LIZANDRA BRASIL ESTABEL|40|IFRS@IFRS.br|IFRS|IFRS|P|2013|2016||
K4783453Y3|99999|LIANE MARGARIDA ROCKENBACH TAROUCO|40|IFRS@IFRS.br|IFRS|IFRS|P|2013|2016||
K4776017Z5|99999|LEANDRO RAIZER|40|IFRS@IFRS.br|IFRS|IFRS|P|2013|2016||
K4790497P1|99999|KAREN SELBACH BORGES|40|IFRS@IFRS.br|IFRS|IFRS|P|2013|2016||
K4771398H1|99999|JULIA MARQUES CARVALHO DA SILVA|40|IFRS@IFRS.br|IFRS|IFRS|P|2013|2016||
K4713925U3|99999|JOSIANE CAROLINA SOARES RAMOS DO AMARAL|40|IFRS@IFRS.br|IFRS|IFRS|P|2013|2016||
K4704677T0|99999|FABIO YOSHIMITSU OKUYAMA|40|IFRS@IFRS.br|IFRS|IFRS|P|2013|2016||
K4773961E5|99999|EVANDRO MANARA MILETTO|40|IFRS@IFRS.br|IFRS|IFRS|P|2013|2016||
K4751549E0|99999|CARINE BUEIRA LOUREIRO|40|IFRS@IFRS.br|IFRS|IFRS|P|2013|2016||
K4761478U3|99999|ANDRE PERES|40|IFRS@IFRS.br|IFRS|IFRS|P|2013|2016||
K4769380Y6|99999|SILVIA DE CASTRO BERTAGNOLLI|40|IFRS@IFRS.br|IFRS|IFRS|P|2013|2016||
K4787765U8|99999|ROSA MARIA VICARI|40|IFRS@IFRS.br|IFRS|IFRS|P|2013|2016||
K4766343D9|99999|RODRIGO PRESTES MACHADO|40|IFRS@IFRS.br|IFRS|IFRS|P|2013|2016||
NOK|99999|MÁRCIA AMARAL CORREA DE MORAES|40|IFRS@IFRS.br|IFRS|IFRS|P|2013|2016||
