strict graph grafo2 {
	graph [bb="0,0,1624,145",
		id=grafo2,
		overlap=False
	];
	node [fontsize=8,
		label="\N",
		shape=rectangle,
		style=filled
	];
	0	 [URL="http://lattes.cnpq.br/1073307881297127",
		color="#17272B",
		fontcolor="#FFFFFF",
		height=0.23611,
		label="Pedro A. de Paula Pereira [1]",
		pos="55,136.5",
		width=1.5278];
	7	 [URL="http://lattes.cnpq.br/2483185411923070",
		color="#17272B",
		fontcolor="#FFFFFF",
		height=0.23611,
		label="Ednildo Andrade Torres [3]",
		pos="152,72.5",
		width=1.4722];
	0 -- 7	 [fontsize=8,
		label=1.0,
		lp="115.5,104.5",
		pos="66.894,127.9 85.511,116 121.33,93.102 140.01,81.165"];
	8	 [URL="http://lattes.cnpq.br/3733846364293441",
		color="#17272B",
		fontcolor="#FFFFFF",
		height=0.23611,
		label="Asher Kiperstok [1]",
		pos="152,8.5",
		width=1.1111];
	7 -- 8	 [fontsize=8,
		label=1.0,
		lp="157.5,40.5",
		pos="152,63.898 152,51.998 152,29.102 152,17.165"];
	1	 [URL="http://lattes.cnpq.br/9170893104155674",
		color="#17272B",
		fontcolor="#FFFFFF",
		height=0.23611,
		label="Silvio A. B. Vieira de Melo [1]",
		pos="186,136.5",
		width=1.6111];
	1 -- 7	 [fontsize=8,
		label=1.0,
		lp="177.5,104.5",
		pos="181.83,127.9 175.31,116 162.75,93.102 156.2,81.165"];
	2	 [URL="http://lattes.cnpq.br/5363080225273626",
		color="#17272B",
		fontcolor="#FFFFFF",
		height=0.23611,
		label="Jardel Pereira Gonçalves [1]",
		pos="349,136.5",
		width=1.4861];
	3	 [URL="http://lattes.cnpq.br/7228906971455111",
		color="#17272B",
		fontcolor="#FFFFFF",
		height=0.23611,
		label="Heloysa M. Carvalho Andrade [1]",
		pos="349,72.5",
		width=1.75];
	2 -- 3	 [fontsize=8,
		label=1.0,
		lp="354.5,104.5",
		pos="349,127.9 349,116 349,93.102 349,81.165"];
	4	 [URL="http://lattes.cnpq.br/2272781877323360",
		color="#17272B",
		fontcolor="#FFFFFF",
		height=0.23611,
		label="Sandro Lemos Machado [0]",
		pos="474,136.5",
		width=1.4722];
	5	 [URL="http://lattes.cnpq.br/4754562885515304",
		color="#17272B",
		fontcolor="#FFFFFF",
		height=0.23611,
		label="Daniel Veras Ribeiro [0]",
		pos="593,136.5",
		width=1.3333];
	6	 [URL="http://lattes.cnpq.br/1428637808064409",
		color="#17272B",
		fontcolor="#FFFFFF",
		height=0.23611,
		label="Milton José Porsani [0]",
		pos="705,136.5",
		width=1.2639];
	9	 [URL="http://lattes.cnpq.br/8676714298611642",
		color="#17272B",
		fontcolor="#FFFFFF",
		height=0.23611,
		label="Paulo Fernando de Almeida [0]",
		pos="827,136.5",
		width=1.625];
	10	 [URL="http://lattes.cnpq.br/7897779819494573",
		color="#17272B",
		fontcolor="#FFFFFF",
		height=0.23611,
		label="Cristina M. A. L. T. da M. Hermida Quintella [0]",
		pos="991,136.5",
		width=2.4167];
	11	 [URL="http://lattes.cnpq.br/4049958660392553",
		color="#17272B",
		fontcolor="#FFFFFF",
		height=0.23611,
		label="Jailson Bittencourt de Andrade [1]",
		pos="1160,136.5",
		width=1.7639];
	12	 [URL="http://lattes.cnpq.br/7767998250007993",
		color="#17272B",
		fontcolor="#FFFFFF",
		height=0.23611,
		label="Gisele Olímpio da Rocha [2]",
		pos="1160,72.5",
		width=1.5139];
	11 -- 12	 [fontsize=8,
		label=1.0,
		lp="1165.5,104.5",
		pos="1160,127.9 1160,116 1160,93.102 1160,81.165"];
	16	 [URL="http://lattes.cnpq.br/6401622195719726",
		color="#17272B",
		fontcolor="#FFFFFF",
		height=0.23611,
		label="Iuri Muniz Pepe [1]",
		pos="1160,8.5",
		width=1.1111];
	12 -- 16	 [fontsize=8,
		label=1.0,
		lp="1165.5,40.5",
		pos="1160,63.898 1160,51.998 1160,29.102 1160,17.165"];
	13	 [URL="http://lattes.cnpq.br/5927149543717327",
		color="#17272B",
		fontcolor="#FFFFFF",
		height=0.23611,
		label="Caio M. Castro de Castilho [0]",
		pos="1299,136.5",
		width=1.5972];
	14	 [URL="http://lattes.cnpq.br/5329137760546794",
		color="#17272B",
		fontcolor="#FFFFFF",
		height=0.23611,
		label="Maria d. G. Andrade Korn [0]",
		pos="1431,136.5",
		width=1.5694];
	15	 [URL="http://lattes.cnpq.br/5969382268977201",
		color="#17272B",
		fontcolor="#FFFFFF",
		height=0.23611,
		label="Luiz R. P. de Andrade Lima [0]",
		pos="1565,136.5",
		width=1.6389];
}
