ID_Lattes|MATRICULA|NOME|CH|mail|LP_1|PROGRAMA_1|CATEG_1|Periodo_Inicio_1|Periodo_Fim_1|Resp_prog|Resp_LP1
K4113008Z1|99999|ROSSANA FERREIRA DA SILVA MATTOS|40|UVV@UVV.br|UVV|UVV|P|2013|2016|UVV|UVV
K4771248E2|99999|SIMONE CHABUDEE PYLRO|40|UVV@UVV.br|UVV|UVV|P|2013|2016||
K4718727U7|99999|VIVIANE MOZINE RODRIGUES|40|UVV@UVV.br|UVV|UVV|P|2013|2016||
K4265282Y1|99999|ANA PAULA RABELLO LYRA|40|UVV@UVV.br|UVV|UVV|P|2013|2016||
K4269646Y8|99999|HENRIQUE GEAQUINTO HERKENHOFF|40|UVV@UVV.br|UVV|UVV|P|2013|2016||
K4781182E8|99999|MARIA DA PENHA SMARZARO SIQUEIRA|40|UVV@UVV.br|UVV|UVV|P|2013|2016||
K8247986U0|99999|LUCIANA SOUZA BORGES|40|UVV@UVV.br|UVV|UVV|P|2013|2016||
K4243802P1|99999|SAULO DE SOUZA LIBARDI|40|UVV@UVV.br|UVV|UVV|P|2013|2016||
K4765403P4|99999|ERIKA DA SILVA FERRAO|40|UVV@UVV.br|UVV|UVV|P|2013|2016||
K4732754H9|99999|PABLO SILVA LIRA|40|UVV@UVV.br|UVV|UVV|P|2013|2016||
K4231120E5|99999|MARIA REGINA LOPES GOMES|40|UVV@UVV.br|UVV|UVV|P|2013|2016||
K4779037A8|99999|PABLO ORNELAS ROSA|40|UVV@UVV.br|UVV|UVV|P|2013|2016||
K4708068Z9|99999|MICHELLY RAMOS DE ANGELO|40|UVV@UVV.br|UVV|UVV|P|2013|2016||
K4734603D6|99999|DANILO ROBERTO PEREIRA SANTIAGO|40|UVV@UVV.br|UVV|UVV|P|2013|2016||
K4794429H4|99999|CARMEN HEIN DE CAMPOS|40|UVV@UVV.br|UVV|UVV|P|2013|2016||
K4188409A8|99999|TANIA MARA ZANOTTI GUERRA FRIZZERA DELBONI|40|UVV@UVV.br|UVV|UVV|P|2013|2016||
K4139210U4|99999|HUMBERTO RIBEIRO JUNIOR|40|UVV@UVV.br|UVV|UVV|P|2013|2016||
