strict digraph grafo3 {
	graph [bb="0,0,3565.5,145",
		id=grafo3,
		overlap=False
	];
	node [fontsize=8,
		label="\N",
		shape=rectangle,
		style=filled
	];
	0	 [URL="http://lattes.cnpq.br/",
		color="#17272B",
		fontcolor="#FFFFFF",
		height=0.23611,
		label="[Nome-nao-identificado] [0]",
		pos="53.5,136.5",
		width=1.4861];
	1	 [URL="http://lattes.cnpq.br/4015451841111880",
		color="#17272B",
		fontcolor="#FFFFFF",
		height=0.23611,
		label="Marcelo I. Ferreira Ferraz [0]",
		pos="180.5,136.5",
		width=1.5417];
	2	 [URL="http://lattes.cnpq.br/5428256895565798",
		color="#17272B",
		fontcolor="#FFFFFF",
		height=0.23611,
		label="Carla R. F. Freire Guimarães [0]",
		pos="314.5,136.5",
		width=1.6806];
	3	 [URL="http://lattes.cnpq.br/6488290754626724",
		color="#17272B",
		fontcolor="#FFFFFF",
		height=0.23611,
		label="Geovânia Silva de Sousa [0]",
		pos="447.5,136.5",
		width=1.5];
	4	 [URL="http://lattes.cnpq.br/4025227752576820",
		color="#17272B",
		fontcolor="#FFFFFF",
		height=0.23611,
		label="Zina A. Caceres Benavides [0]",
		pos="577.5,136.5",
		width=1.5972];
	5	 [URL="http://lattes.cnpq.br/5493564382050585",
		color="#17272B",
		fontcolor="#FFFFFF",
		height=0.23611,
		label="Lessí I. Farias Pinheiro [0]",
		pos="704.5,136.5",
		width=1.4167];
	6	 [URL="http://lattes.cnpq.br/7345698017961040",
		color="#17272B",
		fontcolor="#FFFFFF",
		height=0.23611,
		label="Carlos E. Iwai Drumond [0]",
		pos="826.5,136.5",
		width=1.4722];
	7	 [URL="http://lattes.cnpq.br/7289592650871795",
		color="#17272B",
		fontcolor="#FFFFFF",
		height=0.23611,
		label="Andrea da Silva Gomes [0]",
		pos="949.5,136.5",
		width=1.4444];
	8	 [URL="http://lattes.cnpq.br/7880060241219293",
		color="#17272B",
		fontcolor="#FFFFFF",
		height=0.23611,
		label="Guilhardes de Jesus Júnior [0]",
		pos="1076.5,136.5",
		width=1.5694];
	9	 [URL="http://lattes.cnpq.br/9289298095076064",
		color="#17272B",
		fontcolor="#FFFFFF",
		height=0.23611,
		label="João P. de C. Nunes Pereira [0]",
		pos="1209.5,136.5",
		width=1.625];
	10	 [URL="http://lattes.cnpq.br/3417734567782570",
		color="#17272B",
		fontcolor="#FFFFFF",
		height=0.23611,
		label="Andre L. Batista Ribeiro [0]",
		pos="1339.5,136.5",
		width=1.4861];
	11	 [URL="http://lattes.cnpq.br/9205464082942072",
		color="#17272B",
		fontcolor="#FFFFFF",
		height=0.23611,
		label="Jorge H. de Oliveira Sales [0]",
		pos="1467.5,136.5",
		width=1.5556];
	12	 [URL="http://lattes.cnpq.br/4221004979116020",
		color="#17272B",
		fontcolor="#FFFFFF",
		height=0.23611,
		label="Susana Marrero Iglesias [4]",
		pos="1594.5,136.5",
		width=1.4583];
	23	 [URL="http://lattes.cnpq.br/8384020879567133",
		color="#17272B",
		fontcolor="#FFFFFF",
		height=0.23611,
		label="Esbel T. Valero Orellana [2]",
		pos="1506.5,72.5",
		width=1.5];
	12 -> 23	 [arrowhead=normal,
		arrowsize=0.75,
		fontsize=8,
		label=0.13,
		lp="1531,104.5",
		penwidth=0.89,
		pos="e,1508.3,81.144 1557.6,127.93 1545.6,124.02 1533,118.18 1523.5,109.5 1517.4,103.88 1513.2,95.585 1510.6,88.37"];
	24	 [URL="http://lattes.cnpq.br/1838276397621049",
		color="#17272B",
		fontcolor="#FFFFFF",
		height=0.23611,
		label="Dany Sanchez Dominguez [4]",
		pos="1595.5,8.5",
		width=1.5694];
	12 -> 24	 [arrowhead=normal,
		arrowsize=0.75,
		fontsize=8,
		label=0.88,
		lp="1602,72.5",
		penwidth=3.14,
		pos="e,1595.4,17.125 1594.6,128 1594.7,107.82 1595.2,52.112 1595.4,24.883"];
	23 -> 12	 [arrowhead=normal,
		arrowsize=0.75,
		fontsize=8,
		label=0.25,
		lp="1563,104.5",
		penwidth=1.25,
		pos="e,1583.7,127.9 1517.4,81.165 1532.3,91.703 1559.4,110.78 1577.2,123.3"];
	23 -> 24	 [arrowhead=normal,
		arrowsize=0.75,
		fontsize=8,
		label=0.25,
		lp="1537,40.5",
		penwidth=1.25,
		pos="e,1565.1,17.046 1509.6,63.889 1513.3,55.831 1520.1,43.231 1529.5,35.5 1537.8,28.697 1548,23.517 1558,19.642"];
	19	 [URL="http://lattes.cnpq.br/2560106052820991",
		color="#17272B",
		fontcolor="#FFFFFF",
		height=0.23611,
		label="Gesil S. Amarante Segundo [1]",
		pos="1461.5,8.5",
		width=1.625];
	23 -> 19	 [arrowhead=normal,
		arrowsize=0.75,
		fontsize=8,
		label=0.5,
		lp="1471,40.5",
		penwidth=2.0,
		pos="e,1460.5,17.002 1487.3,63.899 1479.3,59.698 1470.6,53.65 1465.5,45.5 1461.7,39.424 1460.5,31.628 1460.3,24.845"];
	24 -> 12	 [arrowhead=normal,
		arrowsize=0.75,
		fontsize=8,
		label=0.88,
		lp="1621,72.5",
		penwidth=3.14,
		pos="e,1599.6,127.61 1600.2,17.44 1603,22.462 1606.4,29.177 1608.5,35.5 1615,55.02 1615.3,61.015 1613.5,81.5 1612.4,94.092 1612.7,97.563 \
1608.5,109.5 1607.1,113.39 1605.3,117.41 1603.3,121.08"];
	24 -> 23	 [arrowhead=normal,
		arrowsize=0.75,
		fontsize=8,
		label=0.13,
		lp="1566,40.5",
		penwidth=0.89,
		pos="e,1517.8,63.807 1584.6,17.271 1574.3,24.594 1558.4,35.851 1544.5,45.5 1537.9,50.056 1530.7,55.015 1524.3,59.368"];
	19 -> 23	 [arrowhead=normal,
		arrowsize=0.75,
		fontsize=8,
		label=1.0,
		lp="1492,40.5",
		penwidth=3.5,
		pos="e,1501,63.898 1467.1,17.165 1474.4,27.237 1487.3,45.111 1496.4,57.598"];
	13	 [URL="http://lattes.cnpq.br/3225963678857568",
		color="#17272B",
		fontcolor="#FFFFFF",
		height=0.23611,
		label="Sérgio Mota Alves [0]",
		pos="1709.5,136.5",
		width=1.2222];
	14	 [URL="http://lattes.cnpq.br/5034444360451621",
		color="#17272B",
		fontcolor="#FFFFFF",
		height=0.23611,
		label="Paulo Eduardo Ambrósio [3]",
		pos="1826.5,136.5",
		width=1.5139];
	21	 [URL="http://lattes.cnpq.br/0087804302005744",
		color="#17272B",
		fontcolor="#FFFFFF",
		height=0.23611,
		label="Francisco B. Souza Oliveira [1]",
		pos="1760.5,72.5",
		width=1.6389];
	14 -> 21	 [arrowhead=normal,
		arrowsize=0.75,
		fontsize=8,
		label=0.33,
		lp="1778,104.5",
		penwidth=1.49,
		pos="e,1760.8,81.256 1798.6,127.99 1788.5,124 1777.8,118.08 1770.5,109.5 1765.6,103.74 1763.1,95.773 1761.8,88.797"];
	25	 [URL="http://lattes.cnpq.br/5785651071977693",
		color="#17272B",
		fontcolor="#FFFFFF",
		height=0.23611,
		label="César A. Bravo Pariente [2]",
		pos="1890.5,72.5",
		width=1.4722];
	14 -> 25	 [arrowhead=normal,
		arrowsize=0.75,
		fontsize=8,
		label=0.67,
		lp="1858,104.5",
		penwidth=2.51,
		pos="e,1875.8,81.129 1830.3,127.96 1834.5,120.2 1841.8,108.05 1850.5,99.5 1856,94.112 1862.7,89.223 1869.1,85.175"];
	21 -> 14	 [arrowhead=normal,
		arrowsize=0.75,
		fontsize=8,
		label=1.0,
		lp="1802,104.5",
		penwidth=3.5,
		pos="e,1818.4,127.9 1768.7,81.165 1779.7,91.517 1799.5,110.11 1812.8,122.63"];
	25 -> 14	 [arrowhead=normal,
		arrowsize=0.75,
		fontsize=8,
		label=1.0,
		lp="1879,104.5",
		penwidth=3.5,
		pos="e,1840.4,127.97 1886.4,81.005 1882,88.744 1874.3,100.87 1865.5,109.5 1860,114.86 1853.3,119.79 1847,123.88"];
	15	 [URL="http://lattes.cnpq.br/5466915298318577",
		color="#17272B",
		fontcolor="#FFFFFF",
		height=0.23611,
		label="Martha X. Torres Delgado [0]",
		pos="1955.5,136.5",
		width=1.5694];
	16	 [URL="http://lattes.cnpq.br/7196165938116027",
		color="#17272B",
		fontcolor="#FFFFFF",
		height=0.23611,
		label="Maria V. Manso Guevara [1]",
		pos="2085.5,136.5",
		width=1.5278];
	20	 [URL="http://lattes.cnpq.br/1153836209203304",
		color="#17272B",
		fontcolor="#FFFFFF",
		height=0.23611,
		label="Felix Mas Milian [1]",
		pos="2085.5,72.5",
		width=1.1528];
	16 -> 20	 [arrowhead=normal,
		arrowsize=0.75,
		fontsize=8,
		label=1.0,
		lp="2075,104.5",
		penwidth=3.5,
		pos="e,2079.2,81.153 2078.5,127.74 2073,120.6 2066.6,109.63 2069.5,99.5 2070.7,95.398 2072.7,91.307 2074.9,87.625"];
	20 -> 16	 [arrowhead=normal,
		arrowsize=0.75,
		fontsize=8,
		label=1.0,
		lp="2091,104.5",
		penwidth=3.5,
		pos="e,2085.5,127.9 2085.5,81.165 2085.5,90.864 2085.5,107.8 2085.5,120.19"];
	17	 [URL="http://lattes.cnpq.br/6096624359077545",
		color="#17272B",
		fontcolor="#FFFFFF",
		height=0.23611,
		label="Luciano A. de Souza Bernardes [0]",
		pos="2223.5,136.5",
		width=1.7917];
	18	 [URL="http://lattes.cnpq.br/7122524744613697",
		color="#17272B",
		fontcolor="#FFFFFF",
		height=0.23611,
		label="Gildson Queiroz de Jesus [0]",
		pos="2360.5,136.5",
		width=1.5139];
	22	 [URL="http://lattes.cnpq.br/2383628271548614",
		color="#17272B",
		fontcolor="#FFFFFF",
		height=0.23611,
		label="Flávio Pietrobon Costa [0]",
		pos="2484.5,136.5",
		width=1.4167];
	26	 [URL="http://lattes.cnpq.br/7382773322716590",
		color="#17272B",
		fontcolor="#FFFFFF",
		height=0.23611,
		label="Eduardo Palmeira da Silva [0]",
		pos="2610.5,136.5",
		width=1.5694];
	27	 [URL="http://lattes.cnpq.br/6157255488660799",
		color="#17272B",
		fontcolor="#FFFFFF",
		height=0.23611,
		label="Mônica de Moura Pires [0]",
		pos="2736.5,136.5",
		width=1.4306];
	28	 [URL="http://lattes.cnpq.br/9498414767391075",
		color="#17272B",
		fontcolor="#FFFFFF",
		height=0.23611,
		label="Ricardo Candéa Sá Barreto [0]",
		pos="2863.5,136.5",
		width=1.5972];
	29	 [URL="http://lattes.cnpq.br/6838445286046040",
		color="#17272B",
		fontcolor="#FFFFFF",
		height=0.23611,
		label="Moema M. B. Cartibani Midlej [0]",
		pos="3003.5,136.5",
		width=1.7778];
	30	 [URL="http://lattes.cnpq.br/2981039601206887",
		color="#17272B",
		fontcolor="#FFFFFF",
		height=0.23611,
		label="Socrates J. Moquete Guzman [0]",
		pos="3146.5,136.5",
		width=1.6944];
	31	 [URL="http://lattes.cnpq.br/3312232105089762",
		color="#17272B",
		fontcolor="#FFFFFF",
		height=0.23611,
		label="Salvador D. Pozzo Trevizan [0]",
		pos="3284.5,136.5",
		width=1.6389];
	32	 [URL="http://lattes.cnpq.br/6508153637251662",
		color="#17272B",
		fontcolor="#FFFFFF",
		height=0.23611,
		label="Ronaldo Lima Gomes [0]",
		pos="3410.5,136.5",
		width=1.3611];
	33	 [URL="http://lattes.cnpq.br/1731706608106563",
		color="#17272B",
		fontcolor="#FFFFFF",
		height=0.23611,
		label="Naisy Silva Soares [0]",
		pos="3521.5,136.5",
		width=1.2222];
}
