strict graph grafo2 {
	graph [bb="0,0,1329.5,353",
		id=grafo2,
		overlap=False
	];
	node [fontsize=8,
		label="\N",
		shape=rectangle,
		style=filled
	];
	0	 [URL="http://lattes.cnpq.br/8529549983857097",
		color="#17272B",
		fontcolor="#FFFFFF",
		height=0.23611,
		label="Eriton Rodrigo Botero [8]",
		pos="97,280.5",
		width=1.3889];
	3	 [URL="http://lattes.cnpq.br/4615245702160544",
		color="#17272B",
		fontcolor="#FFFFFF",
		height=0.23611,
		label="Anderson R. Lima Caires [16]",
		pos="374,208.5",
		width=1.5833];
	0 -- 3	 [fontsize=8,
		label=6.0,
		lp="274.5,244.5",
		pos="126.91,271.94 180.21,258.47 291.01,230.47 344.22,217.03"];
	11	 [URL="http://lattes.cnpq.br/0366398884876006",
		color="#17272B",
		fontcolor="#FFFFFF",
		height=0.23611,
		label="Nelson L. de Campos Domingues [4]",
		pos="97,136.5",
		width=1.8889];
	0 -- 11	 [fontsize=8,
		label=2.0,
		lp="102.5,208.5",
		pos="97,271.87 97,247.21 97,169.88 97,145.17"];
	18	 [URL="http://lattes.cnpq.br/5762548246076451",
		color="#17272B",
		fontcolor="#FFFFFF",
		height=0.23611,
		label="Gustavo Graciano Fonseca [18]",
		pos="654,8.5",
		width=1.6389];
	0 -- 18	 [fontsize=8,
		label=1.0,
		lp="5.5,136.5",
		pos="68.159,271.99 39.566,262.59 0,243.45 0,209.5 0,209.5 0,209.5 0,71.5 0,12.051 433.82,8.3122 594.81,8.9714"];
	3 -- 11	 [fontsize=8,
		label=1.0,
		lp="209.5,172.5",
		pos="316.62,202.17 283.32,198.23 240.82,191.73 204,181.5 170.13,172.09 132.57,154.99 112.19,145.1"];
	3 -- 18	 [fontsize=8,
		label=2.0,
		lp="519.5,104.5",
		pos="382.98,199.95 400.38,185.43 440.02,152.81 475,127.5 535.91,83.425 612.15,35.437 641.6,17.153"];
	19	 [URL="http://lattes.cnpq.br/2603433458436438",
		color="#17272B",
		fontcolor="#FFFFFF",
		height=0.23611,
		label="Gleison Antonio Casagrande [8]",
		pos="345,72.5",
		width=1.6667];
	3 -- 19	 [fontsize=8,
		label=3.0,
		lp="305.5,136.5",
		pos="358.64,199.95 340.73,190.19 312.05,171.32 300,145.5 288.4,120.66 317.41,93.905 334.15,81.133"];
	7	 [URL="http://lattes.cnpq.br/2125771574338340",
		color="#17272B",
		fontcolor="#FFFFFF",
		height=0.23611,
		label="Seila Rojas de Souza [2]",
		pos="532,136.5",
		width=1.3194];
	3 -- 7	 [fontsize=8,
		label=2.0,
		lp="504.5,172.5",
		pos="414.35,199.91 431.95,195.76 452.51,189.75 470,181.5 490.77,171.7 511.95,154.9 523.38,145.13"];
	8	 [URL="http://lattes.cnpq.br/6833721744326745",
		color="#17272B",
		fontcolor="#FFFFFF",
		height=0.23611,
		label="Rozanna Marques Muzzi [2]",
		pos="374,136.5",
		width=1.5];
	3 -- 8	 [fontsize=8,
		label=2.0,
		lp="379.5,172.5",
		pos="374,199.74 374,186.21 374,158.48 374,145.08"];
	12	 [URL="http://lattes.cnpq.br/2828592893802233",
		color="#17272B",
		fontcolor="#FFFFFF",
		height=0.23611,
		label="Márcia Regina Russo [5]",
		pos="654,72.5",
		width=1.3472];
	3 -- 12	 [fontsize=8,
		label=2.0,
		lp="614.5,136.5",
		pos="431.16,202.05 477.32,195.2 541.95,179.84 588,145.5 614.1,126.04 638.17,95.268 648.58,81.1"];
	13	 [URL="http://lattes.cnpq.br/4915694295850733",
		color="#17272B",
		fontcolor="#FFFFFF",
		height=0.23611,
		label="Lucas Pizzuti [8]",
		pos="219,136.5",
		width=0.98611];
	3 -- 13	 [fontsize=8,
		label=1.0,
		lp="271.5,172.5",
		pos="318.99,199.96 301.36,196.08 282.21,190.24 266,181.5 248.88,172.27 233.32,155.26 225.11,145.31"];
	7 -- 12	 [fontsize=8,
		label=2.0,
		lp="606.5,104.5",
		pos="546.96,127.9 570.37,116 615.43,93.102 638.92,81.165"];
	8 -- 19	 [fontsize=8,
		label=1.0,
		lp="367.5,104.5",
		pos="370.44,127.9 364.88,116 354.17,93.102 348.59,81.165"];
	12 -- 18	 [fontsize=8,
		label=2.0,
		lp="659.5,40.5",
		pos="654,63.898 654,51.998 654,29.102 654,17.165"];
	13 -- 18	 [fontsize=8,
		label=1.0,
		lp="270.5,72.5",
		pos="221.55,127.65 226.92,112.48 240.92,79.26 265,63.5 318.13,28.726 499.85,15.968 594.94,11.597"];
	13 -- 19	 [fontsize=8,
		label=6.0,
		lp="271.5,104.5",
		pos="227.07,127.94 236,119.93 251.09,107.37 266,99.5 281.07,91.545 299.03,85.399 314.02,81.085"];
	1	 [URL="http://lattes.cnpq.br/6320661844629609",
		color="#17272B",
		fontcolor="#FFFFFF",
		height=0.23611,
		label="Eliana J. Sanjinez Argandoña [5]",
		pos="905,344.5",
		width=1.6944];
	1 -- 18	 [fontsize=8,
		label=3.0,
		lp="879.5,172.5",
		pos="898.12,335.71 888.99,324.53 874,302.92 874,281.5 874,281.5 874,281.5 874,71.5 874,38.018 778.41,21.737 713.25,14.529"];
	2	 [URL="http://lattes.cnpq.br/3624370723788970",
		color="#17272B",
		fontcolor="#FFFFFF",
		height=0.23611,
		label="Eduardo José de Arruda [6]",
		pos="608,280.5",
		width=1.4583];
	1 -- 2	 [fontsize=8,
		label=1.0,
		lp="780.5,312.5",
		pos="868.88,335.96 811.83,324.05 701.51,301.02 644.33,289.08"];
	6	 [URL="http://lattes.cnpq.br/2368005158362357",
		color="#17272B",
		fontcolor="#FFFFFF",
		height=0.23611,
		label="Silvia Maria Martelli [2]",
		pos="937,244.5",
		width=1.3194];
	1 -- 6	 [fontsize=8,
		label=1.0,
		lp="922.5,312.5",
		pos="907.51,335.81 913.49,317.49 928.53,271.44 934.5,253.15"];
	9	 [URL="http://lattes.cnpq.br/7887148115540704",
		color="#17272B",
		fontcolor="#FFFFFF",
		height=0.23611,
		label="Rodrigo S. Ribeiro Leite [10]",
		pos="997,172.5",
		width=1.5417];
	1 -- 9	 [fontsize=8,
		label=1.0,
		lp="982.5,280.5",
		pos="915.14,335.91 933.01,321.89 969.76,289.99 986,253.5 996.95,228.91 997.66,196.2 997.33,181.39"];
	2 -- 3	 [fontsize=8,
		label=3.0,
		lp="524.5,244.5",
		pos="582.51,271.88 537.38,258.37 443.96,230.43 399.1,217.01"];
	2 -- 19	 [fontsize=8,
		label=1.0,
		lp="618.5,172.5",
		pos="609.64,271.99 614.49,247.6 626.13,169.82 588,127.5 563.99,100.85 468.94,86.057 405.08,78.949"];
	4	 [URL="http://lattes.cnpq.br/4212280532558083",
		color="#17272B",
		fontcolor="#FFFFFF",
		height=0.23611,
		label="Alexeia Barufatti Grisolia [22]",
		pos="701,208.5",
		width=1.5972];
	2 -- 4	 [fontsize=8,
		label=1.0,
		lp="671.5,244.5",
		pos="618.31,271.74 636.28,258.21 673.12,230.48 690.93,217.08"];
	10	 [URL="http://lattes.cnpq.br/0182914969079164",
		color="#17272B",
		fontcolor="#FFFFFF",
		height=0.23611,
		label="Patricia Hatsue Suegama [3]",
		pos="219,208.5",
		width=1.5];
	2 -- 10	 [fontsize=8,
		label=1.0,
		lp="454.5,244.5",
		pos="559.93,271.99 528.36,266.96 486.18,260.1 449,253.5 381.15,241.46 302.32,226.08 256.79,217.05"];
	6 -- 18	 [fontsize=8,
		label=1.0,
		lp="927.5,136.5",
		pos="934.25,235.85 929.92,223.09 922,196.62 922,173.5 922,173.5 922,173.5 922,71.5 922,49.492 907.7,45.316 888,35.5 858.32,20.71 772.27,\
14.224 713.22,11.456"];
	9 -- 18	 [fontsize=8,
		label=10.0,
		lp="991.5,104.5",
		pos="996.21,163.99 993.29,140.42 980.84,67.551 936,35.5 918.33,22.867 790.63,15.284 713.26,11.8"];
	4 -- 12	 [fontsize=8,
		label=1.0,
		lp="690.5,136.5",
		pos="699.25,199.99 694.98,182.16 683.25,136.05 668,99.5 665.32,93.065 661.53,86.13 658.57,81.041"];
	14	 [URL="http://lattes.cnpq.br/5737574588414921",
		color="#17272B",
		fontcolor="#FFFFFF",
		height=0.23611,
		label="Kelly M. Pires de Oliveira [20]",
		pos="788,136.5",
		width=1.6111];
	4 -- 14	 [fontsize=8,
		label=20.0,
		lp="762.5,172.5",
		pos="710.64,199.74 727.45,186.21 761.92,158.48 778.58,145.08"];
	10 -- 11	 [fontsize=8,
		label=1.0,
		lp="147.5,172.5",
		pos="186.11,199.91 171.9,195.77 155.47,189.76 142,181.5 125.79,171.56 110.83,154.81 102.9,145.09"];
	10 -- 13	 [fontsize=8,
		label=1.0,
		lp="224.5,172.5",
		pos="219,199.74 219,186.21 219,158.48 219,145.08"];
	5	 [URL="http://lattes.cnpq.br/1855232571882443",
		color="#17272B",
		fontcolor="#FFFFFF",
		height=0.23611,
		label="Zefa Valdivina Pereira [0]",
		pos="1035,344.5",
		width=1.4028];
	15	 [URL="http://lattes.cnpq.br/4397388543222105",
		color="#17272B",
		fontcolor="#FFFFFF",
		height=0.23611,
		label="Kelly C. da Silva Brabes [1]",
		pos="1157,344.5",
		width=1.4861];
	16	 [URL="http://lattes.cnpq.br/4795342927264998",
		color="#17272B",
		fontcolor="#FFFFFF",
		height=0.23611,
		label="Ivan Ramires [1]",
		pos="1157,280.5",
		width=0.98611];
	15 -- 16	 [fontsize=8,
		label=1.0,
		lp="1162.5,312.5",
		pos="1157,335.9 1157,324 1157,301.1 1157,289.16"];
	17	 [URL="http://lattes.cnpq.br/2262428543098100",
		color="#17272B",
		fontcolor="#FFFFFF",
		height=0.23611,
		label="Heberth Juliano Vieira [0]",
		pos="1279,344.5",
		width=1.4028];
}
