ID_Lattes|MATRICULA|NOME|CH|mail|LP_1|PROGRAMA_1|CATEG_1|Periodo_Inicio_1|Periodo_Fim_1|Resp_prog|Resp_LP1
K4766483J7|99999|LUIZ EDMUNDO BASTOS SOLEDADE|40|UFMA@UFMA.br|UFMA|UFMA|P|2013|2016|UFMA|UFMA
K4702795J5|99999|SANNYA FERNANDA NUNES RODRIGUES|40|UFMA@UFMA.br|UFMA|UFMA|P|2013|2016||
K4785500Y8|99999|JOSE FERNANDO MANZKE|40|UFMA@UFMA.br|UFMA|UFMA|P|2013|2016||
K4742841U6|99999|RICIERI CARLINI ZORZAL|40|UFMA@UFMA.br|UFMA|UFMA|P|2013|2016||
K4250478Z4|99999|JOSE RIBAMAR FERREIRA JUNIOR|40|UFMA@UFMA.br|UFMA|UFMA|P|2013|2016||
K4785958D0|99999|JOSE ODVAL ALCANTARA JUNIOR|40|UFMA@UFMA.br|UFMA|UFMA|P|2013|2016||
K8114962J4|99999|SANDRA MARIA NASCIMENTO SOUSA|40|UFMA@UFMA.br|UFMA|UFMA|P|2013|2016||
K4757078U6|99999|JOAO BATISTA BOTTENTUIT JUNIOR|40|UFMA@UFMA.br|UFMA|UFMA|P|2013|2016||
K4771428A8|99999|ZILMARA DE JESUS VIANA DE CARVALHO|40|UFMA@UFMA.br|UFMA|UFMA|P|2013|2016||
K4792641A9|99999|CONCEICAO DE MARIA BELFORT DE CARVALHO|40|UFMA@UFMA.br|UFMA|UFMA|P|2013|2016||
K4266827A9|99999|LUCIANO DA SILVA FACANHA|40|UFMA@UFMA.br|UFMA|UFMA|P|2013|2016||
K4234837T4|99999|REINALDO PORTAL DOMINGO|40|UFMA@UFMA.br|UFMA|UFMA|P|2013|2016||
K4788057J5|99999|VERA LUCIA ROLIM SALLES|40|UFMA@UFMA.br|UFMA|UFMA|P|2013|2016||
K4777981T6|99999|MONICA TERESA COSTA SOUSA|40|UFMA@UFMA.br|UFMA|UFMA|P|2013|2016||
K4707741Y7|99999|MARCIA MANIR MIGUEL FEITOSA|40|UFMA@UFMA.br|UFMA|UFMA|P|2013|2016||
K4513494A4|99999|KLAUTENYS DELLENE GUEDES CUTRIM|40|UFMA@UFMA.br|UFMA|UFMA|P|2013|2016||
K4593285Z1|99999|ULISSES MAGALHAES NASCIMENTO|40|UFMA@UFMA.br|UFMA|UFMA|P|2013|2016||
K4766192Z6|99999|FRANCISCO SAVIO MENDES SINFRONIO|40|UFMA@UFMA.br|UFMA|UFMA|P|2013|2016||
K4785590Z2|99999|TERESA CRISTINA RODRIGUES DOS SANTOS FRANCO|40|UFMA@UFMA.br|UFMA|UFMA|P|2013|2016||
K4734385E8|99999|CLOVIS BOSCO MENDONCA OLIVEIRA|40|UFMA@UFMA.br|UFMA|UFMA|P|2013|2016||
K4785526H2|99999|CARITAS DE JESUS SILVA MENDONCA|40|UFMA@UFMA.br|UFMA|UFMA|P|2013|2016||
K4702794Y3|99999|NEY DE BARROS BELLO FILHO|40|UFMA@UFMA.br|UFMA|UFMA|P|2013|2016||
K4237298P7|99999|GERISVAL ALVES PESSOA|40|UFMA@UFMA.br|UFMA|UFMA|P|2013|2016||
K4731418A2|99999|DARLIANE RIBEIRO CUNHA|40|UFMA@UFMA.br|UFMA|UFMA|P|2013|2016||
K4798648P5|99999|LUIZ ANTONIO DE SOUZA RIBEIRO|40|UFMA@UFMA.br|UFMA|UFMA|P|2013|2016||
K4717592Z2|99999|LEONARDO LEOCADIO COELHO DE SOUZA|40|UFMA@UFMA.br|UFMA|UFMA|P|2013|2016||
K4791146D0|99999|VICTOR ELIAS MOUCHREK FILHO|40|UFMA@UFMA.br|UFMA|UFMA|P|2013|2016||
K4755864P4|99999|ZULIMAR MARITA RIBEIRO RODRIGUES|40|UFMA@UFMA.br|UFMA|UFMA|P|2013|2016||
K4294811D1|99999|ANTONIO CORDEIRO FEITOSA|40|UFMA@UFMA.br|UFMA|UFMA|P|2013|2016||
K4781028A6|99999|ARAO NOGUEIRA PARANAGUÁ DE SANTANA|40|UFMA@UFMA.br|UFMA|UFMA|P|2013|2016||
K4797685T4|99999|JOAO DE DEUS VIEIRA BARROS|40|UFMA@UFMA.br|UFMA|UFMA|P|2013|2016||
K4782171J7|99999|JOMAR SALES VASCONCELOS|40|UFMA@UFMA.br|UFMA|UFMA|P|2013|2016||
K4784702J6|99999|CICERO WELLINGTON BRITO BEZERRA|40|UFMA@UFMA.br|UFMA|UFMA|P|2013|2016||
K4794153J4|99999|ADEILTON PEREIRA MACIEL|40|UFMA@UFMA.br|UFMA|UFMA|P|2013|2016||
K4769939E6|99999|SHIGEAKI LEITE DE LIMA|40|UFMA@UFMA.br|UFMA|UFMA|P|2013|2016||
K4131211D1|99999|FERNANDO CARVALHO SILVA|40|UFMA@UFMA.br|UFMA|UFMA|P|2013|2016||
K4248998D5|99999|LUCYLEA GONCALVES FRANCA|40|UFMA@UFMA.br|UFMA|UFMA|P|2013|2016||
K4780112Z7|99999|OSVALDO RONALD SAAVEDRA MENDEZ|40|UFMA@UFMA.br|UFMA|UFMA|P|2013|2016||
K4785040T1|99999|GILVANDA SILVA NUNES|40|UFMA@UFMA.br|UFMA|UFMA|P|2013|2016||
K4744850T6|99999|JOSENILDO DE SOUZA CHAVES|40|UFMA@UFMA.br|UFMA|UFMA|P|2013|2016||
K4223056D1|99999|RICARDO LUIZ CASELLA DUGAICH|40|UFMA@UFMA.br|UFMA|UFMA|P|2013|2016||
K4723594D6|99999|MARTA CELIA DANTAS SILVA|40|UFMA@UFMA.br|UFMA|UFMA|P|2013|2016||
K4706559Z4|99999|ADENILDE RIBEIRO NASCIMENTO|40|UFMA@UFMA.br|UFMA|UFMA|P|2013|2016||
K4708883E5|99999|FLAVIA MARIA MENDONCA DO AMARAL|40|UFMA@UFMA.br|UFMA|UFMA|P|2013|2016||
K4766662Z5|99999|JORGE LUIZ SILVA NUNES|40|UFMA@UFMA.br|UFMA|UFMA|P|2013|2016||
K4294811D1|99999|ANTONIO CORDEIRO FEITOSA|40|UFMA@UFMA.br|UFMA|UFMA|P|2013|2016||
K4780738Y4|99999|ANTONIO CARLOS LEAL DE CASTRO|40|UFMA@UFMA.br|UFMA|UFMA|P|2013|2016||
K4783869U4|99999|IVONE GARROS ROSA|40|UFMA@UFMA.br|UFMA|UFMA|P|2013|2016||
K4782296D0|99999|ELOISA DA GRACA DO ROSARIO GONCALVES|40|UFMA@UFMA.br|UFMA|UFMA|P|2013|2016||
K8131519E5|99999|ANTONIO RAFAEL DA SILVA|40|UFMA@UFMA.br|UFMA|UFMA|P|2013|2016||
K4259401A2|99999|JOSE AQUINO JUNIOR|40|UFMA@UFMA.br|UFMA|UFMA|P|2013|2016||
K4773937U5|99999|JEAN MARLOS PINHEIRO BORBA|40|UFMA@UFMA.br|UFMA|UFMA|P|2013|2016||
K4784142E8|99999|ISTVAN VAN DEURSEN VARGA|40|UFMA@UFMA.br|UFMA|UFMA|P|2013|2016||
K4708885J6|99999|DENISE FERNANDES COUTINHO MORAES|40|UFMA@UFMA.br|UFMA|UFMA|P|2013|2016||
K4791200P4|99999|ANDREA LUCIA ALMEIDA DE CARVALHO|40|UFMA@UFMA.br|UFMA|UFMA|P|2013|2016||
K4792649U0|99999|MARIA DOS REMEDIOS FREITAS CARVALHO BRANCO|40|UFMA@UFMA.br|UFMA|UFMA|P|2013|2016||
K4704995Z3|99999|ANA HELIA DE LIMA SARDINHA|40|UFMA@UFMA.br|UFMA|UFMA|P|2013|2016||
