strict digraph grafo3 {
	graph [bb="0,0,1684.5,209",
		id=grafo3,
		overlap=False
	];
	node [fontsize=8,
		label="\N",
		shape=rectangle,
		style=filled
	];
	0	 [URL="http://lattes.cnpq.br/1161317972489632",
		color="#17272B",
		fontcolor="#FFFFFF",
		height=0.23611,
		label="Roberto Aizik Tenenbaum [0]",
		pos="56.5,200.5",
		width=1.5694];
	1	 [URL="http://lattes.cnpq.br/0543546857869709",
		color="#17272B",
		fontcolor="#FFFFFF",
		height=0.23611,
		label="Luiz N. H. Guedes de Oliveira [0]",
		pos="194.5,200.5",
		width=1.75];
	2	 [URL="http://lattes.cnpq.br/6419554168530740",
		color="#17272B",
		fontcolor="#FFFFFF",
		height=0.23611,
		label="Joaquim Teixeira de Assis [0]",
		pos="331.5,200.5",
		width=1.5556];
	3	 [URL="http://lattes.cnpq.br/0109837868064895",
		color="#17272B",
		fontcolor="#FFFFFF",
		height=0.23611,
		label="Roberto Pinheiro Domingos [1]",
		pos="464.5,200.5",
		width=1.6389];
	13	 [URL="http://lattes.cnpq.br/6725653281197187",
		color="#17272B",
		fontcolor="#FFFFFF",
		height=0.23611,
		label="Ivan Napoleão Bastos [2]",
		pos="388.5,136.5",
		width=1.3611];
	3 -> 13	 [arrowhead=normal,
		arrowsize=0.75,
		fontsize=8,
		label=0.5,
		lp="419,168.5",
		penwidth=2.0,
		pos="e,392.38,145.22 444.22,191.92 434.25,187.55 422.48,181.34 413.5,173.5 406.53,167.42 400.55,159 396.18,151.84"];
	16	 [URL="http://lattes.cnpq.br/5759364958802333",
		color="#17272B",
		fontcolor="#FFFFFF",
		height=0.23611,
		label="Ricardo Fabbri [1]",
		pos="468.5,72.5",
		width=1.0556];
	3 -> 16	 [arrowhead=normal,
		arrowsize=0.75,
		fontsize=8,
		label=0.5,
		lp="472,136.5",
		penwidth=2.0,
		pos="e,468.26,81.125 464.74,192 465.38,171.82 467.15,116.11 468.01,88.883"];
	13 -> 3	 [arrowhead=normal,
		arrowsize=0.75,
		fontsize=8,
		label=0.25,
		lp="443,168.5",
		penwidth=1.25,
		pos="e,456.45,191.79 399.76,145.17 406.97,150.19 416.46,157.01 424.5,163.5 433.47,170.74 443.09,179.37 450.65,186.37"];
	13 -> 16	 [arrowhead=normal,
		arrowsize=0.75,
		fontsize=8,
		label=0.25,
		lp="448,104.5",
		penwidth=1.25,
		pos="e,461.09,81.1 401.83,127.88 410.05,122.98 420.68,116.28 429.5,109.5 438.63,102.48 448.14,93.733 455.49,86.619"];
	8	 [URL="http://lattes.cnpq.br/6680742566331144",
		color="#17272B",
		fontcolor="#FFFFFF",
		height=0.23611,
		label="Francisco D. Moura Neto [2]",
		pos="316.5,8.5",
		width=1.5278];
	13 -> 8	 [arrowhead=normal,
		arrowsize=0.75,
		fontsize=8,
		label=0.25,
		lp="379,72.5",
		penwidth=1.25,
		pos="e,325.06,17.365 386.43,127.64 382.69,114.08 374.11,85.623 362.5,63.5 355.39,49.959 352.39,47.169 342.5,35.5 338.84,31.18 334.6,26.733 \
330.61,22.765"];
	11	 [URL="http://lattes.cnpq.br/4140908385855725",
		color="#17272B",
		fontcolor="#FFFFFF",
		height=0.23611,
		label="Gustavo Mendes Platt [2]",
		pos="248.5,72.5",
		width=1.3611];
	13 -> 11	 [arrowhead=normal,
		arrowsize=0.75,
		fontsize=8,
		label=0.25,
		lp="276,104.5",
		penwidth=1.25,
		pos="e,250.64,81.097 339.39,134.09 316,131.24 288.78,124.56 268.5,109.5 261.5,104.31 256.63,95.894 253.45,88.508"];
	16 -> 3	 [arrowhead=normal,
		arrowsize=0.75,
		fontsize=8,
		label=0.5,
		lp="492,136.5",
		penwidth=2.0,
		pos="e,469.76,191.66 473.62,81.327 476.56,86.307 479.97,93.017 481.5,99.5 489.06,131.54 488.24,142.06 478.5,173.5 477.28,177.44 475.44,\
181.47 473.5,185.15"];
	16 -> 13	 [arrowhead=normal,
		arrowsize=0.75,
		fontsize=8,
		label=0.5,
		lp="422,104.5",
		penwidth=2.0,
		pos="e,393.04,127.79 448.25,81.106 438.08,85.525 425.94,91.757 416.5,99.5 409.06,105.6 402.38,114.02 397.4,121.18"];
	8 -> 13	 [arrowhead=normal,
		arrowsize=0.75,
		fontsize=8,
		label=0.25,
		lp="355,72.5",
		penwidth=1.25,
		pos="e,381.75,127.87 319.17,17.363 323.93,30.928 334.61,59.398 347.5,81.5 356.04,96.152 367.96,111.42 376.74,121.96"];
	8 -> 11	 [arrowhead=normal,
		arrowsize=0.75,
		fontsize=8,
		label=0.75,
		lp="270,40.5",
		penwidth=2.75,
		pos="e,249.79,63.729 291.43,17.026 281.34,21.116 270.27,27.098 262.5,35.5 257.2,41.232 253.82,49.197 251.72,56.178"];
	11 -> 13	 [arrowhead=normal,
		arrowsize=0.75,
		fontsize=8,
		label=0.25,
		lp="312,104.5",
		penwidth=1.25,
		pos="e,357.03,127.94 258.34,81.007 269.17,88.975 287.32,101.5 304.5,109.5 318.76,116.14 335.15,121.65 349.64,125.86"];
	11 -> 8	 [arrowhead=normal,
		arrowsize=0.75,
		fontsize=8,
		label=0.75,
		lp="296,40.5",
		penwidth=2.75,
		pos="e,308.16,17.26 257.16,63.796 262.94,58.64 270.7,51.688 277.5,45.5 285.81,37.943 295.04,29.422 302.44,22.568"];
	4	 [URL="http://lattes.cnpq.br/8300604408079168",
		color="#17272B",
		fontcolor="#FFFFFF",
		height=0.23611,
		label="Ricardo Carvalho de Barros [0]",
		pos="600.5,200.5",
		width=1.625];
	5	 [URL="http://lattes.cnpq.br/6601368978577012",
		color="#17272B",
		fontcolor="#FFFFFF",
		height=0.23611,
		label="Pedro P. G. Watts Rodrigues [0]",
		pos="737.5,200.5",
		width=1.6667];
	6	 [URL="http://lattes.cnpq.br/1627016864213973",
		color="#17272B",
		fontcolor="#FFFFFF",
		height=0.23611,
		label="Leonardo Tavares Stutz [1]",
		pos="867.5,200.5",
		width=1.4444];
	9	 [URL="http://lattes.cnpq.br/1743826010794846",
		color="#17272B",
		fontcolor="#FFFFFF",
		height=0.23611,
		label="Diego Campos Knupp [2]",
		pos="867.5,136.5",
		width=1.375];
	6 -> 9	 [arrowhead=normal,
		arrowsize=0.75,
		fontsize=8,
		label=1.0,
		lp="857,168.5",
		penwidth=3.5,
		pos="e,860.54,145.26 861.22,191.85 857.6,186.93 853.41,180.23 851.5,173.5 849.39,166.06 852.27,158.16 856.14,151.67"];
	9 -> 6	 [arrowhead=normal,
		arrowsize=0.75,
		fontsize=8,
		label=0.5,
		lp="873,168.5",
		penwidth=2.0,
		pos="e,867.5,191.9 867.5,145.16 867.5,154.86 867.5,171.8 867.5,184.19"];
	18	 [URL="http://lattes.cnpq.br/0608816393004565",
		color="#17272B",
		fontcolor="#FFFFFF",
		height=0.23611,
		label="Leôncio D. Tavares Câmara [1]",
		pos="867.5,72.5",
		width=1.6389];
	9 -> 18	 [arrowhead=normal,
		arrowsize=0.75,
		fontsize=8,
		label=0.5,
		lp="857,104.5",
		penwidth=2.0,
		pos="e,860.54,81.264 861.22,127.85 857.6,122.93 853.41,116.23 851.5,109.5 849.39,102.06 852.27,94.165 856.14,87.672"];
	18 -> 9	 [arrowhead=normal,
		arrowsize=0.75,
		fontsize=8,
		label=1.0,
		lp="873,104.5",
		penwidth=3.5,
		pos="e,867.5,127.9 867.5,81.165 867.5,90.864 867.5,107.8 867.5,120.19"];
	7	 [URL="http://lattes.cnpq.br/8409134275489376",
		color="#17272B",
		fontcolor="#FFFFFF",
		height=0.23611,
		label="Josë A. da Silva Neto [0]",
		pos="986.5,200.5",
		width=1.3472];
	10	 [URL="http://lattes.cnpq.br/1999072996132654",
		color="#17272B",
		fontcolor="#FFFFFF",
		height=0.23611,
		label="Helio P. Amaral Souto [0]",
		pos="1103.5,200.5",
		width=1.4028];
	12	 [URL="http://lattes.cnpq.br/2182469523085517",
		color="#17272B",
		fontcolor="#FFFFFF",
		height=0.23611,
		label="Anderson Amendoeira Namen [0]",
		pos="1235.5,200.5",
		width=1.75];
	14	 [URL="http://lattes.cnpq.br/9634798722030132",
		color="#17272B",
		fontcolor="#FFFFFF",
		height=0.23611,
		label="Joao F. Vieira de Vasconcellos [0]",
		pos="1380.5,200.5",
		width=1.7639];
	15	 [URL="http://lattes.cnpq.br/1089015137026377",
		color="#17272B",
		fontcolor="#FFFFFF",
		height=0.23611,
		label="Hermes Alves Filho [0]",
		pos="1508.5,200.5",
		width=1.2778];
	17	 [URL="http://lattes.cnpq.br/9401814864083219",
		color="#17272B",
		fontcolor="#FFFFFF",
		height=0.23611,
		label="Daiara Fernandes de Faria [0]",
		pos="1628.5,200.5",
		width=1.5556];
}
