4684814372046467
5905411845829250
9968341630176283
4084554311427501
3129349941047879
0868903305848659
3334962202023087
5564070407165457
9506208215452597
1172007420164292
4962262512044838
5351112741475859
2132970519544215
2448208406883740
4165942740758206
5437951931586970
6830071155932206
9867207054958657
2181575770746024
6384217594160565
4568078356220240
8884402098293904
1799760868464034
1802874731530665
1748870542229241
7261580907845952
3549703309983900
9452373240772108
3191219725179409
9306576520691089
4325989861878031
0981284061039261
1827208796271666
4844770923390857
5490113416323251
8891067755123118
3922452850648712
7727309984404774
5638976958537764
4617738874394377
9082654844180588
4696494446625139
2914500028522839
4819448229037090
8101589624388403
1403456179574857
5595235187153920
3014449143786237
2123473569899400
7022538633603523
2372824920648597
4509888088195900
6604577647765514
7133902232546645
6739433262645035
5127688686676224
4816120372224000
3734329105674741
8870139306756827
4994001418678704
9378603451905873
5937745797839593
9136354252402479
0769712589853491
0350199524165929
2962241986533938
6340896483716647
0198958917753530
4664995657838406
4725255631207841
0458420816061621
5366157471959981
2651652938562949
8915451085146753
4132400977039625
0436889981384726
4764917317079218
0717652978663522
6622358844439844
6330993034354310
6792645775665809
5306085939552000
9806604188365242
2555159067162318
3842494688644394
7037188590027119
0142402964429258
3953361788965870
8962012106602191
0171183220606416
9098047398813476
5392537400909440
7904492622307333
5580415656301320
6506834501406068
7870852011089143
9607019592844930
2883821939234514
3575112946783340
5600492217697118
2158305626634777
9408246420825354
1018056262605886
5757301340362350
8680290896996778
6139466966758455
9648922160710438
5916605555246902
9410151859448447
4038095453726028
5561452373208490
5774743453219720
5225635552669225
1846610643174443
9969966763588643
4477328585024072
3615688579946805
8468993878111342
7254844415865063
5516755786380532
5725922885925230
4423514772198957
5524099112656342
4460745567162919
4343409634486318
3721984787481481
4716738122185818
3845652334941182
8166906942062834
3726627584259208
3672475581126777
3403870073253245
2617251488980560
4230619783529096
1587784522298749
9948963604030351
7601495863953297
6730543200776161
4593053919626796
1846107658171692
8686162210709224
2722975026882758
2475107243032806
0697745404385888
7783640451236815
5452800042411901
5845787647988303
6215355313315627
1049562361086421
6674641314701279
9133608322839843
3625405520284741
1030086768997057
0136295118090188
5424657077856262
9427568899749852
8964777078079065
0410518220449682
9942344752753235
1259584325937322
8803289673887278
1289269459604333
6695144274146331
4453170456921993
0188966619968322
0112707162125179
9166489765253827
7632136381077866
8824937161445228
3411194478045151
7748905840952989
4524868466523562
5028965179632074
9591890380787390
2311948069875474
9935904551754606
8037324704189596
4430420516583364
5019828060804740
9247934869658763
2696947986908706
2892004017405879
6793424614416296
4676876539693731
0964079839708912
0172837599844991
4441675498423672
0234143276441308
5069035970966078
1080116282138195
9246469540554542
7798489480341402
4045869303392844
5396062363192050
5349946143048909
4294175670856105
9352964275626545
6468269348399715
8921484832631654
1566386847094104
1752838097043388
5707216602922454
0155573729512431
1148015143664756
3913021654935117
1939563647176694
4483159611870919
8094082596932632
8589666863624180
0616388167803999
3861321889149104
5364548256245450
8744303516340572
0971091607543044
4969209121780132
1334546906687521
8212959359349775
2860715926967204
9919324017218756
9277752573629494
7617641689555134
1019669426588483
2299756650712096
7625529163342939
3447486632105708
2127685617528637
7355840050390074
9644388057718842
8147291425757679
0391326266714741
9211890399850624
4210103622262979
0733412979055713
9435253973268969
6783064368837751
6062201353355454
4070515661134942
2572864522562875
3744972422639190
3126322842663013
8224167810562587
2270249882096942
8971883062145088
2112452179827250
3217327624076365
5256359048551589
1630001390710656
6706331696215331
7235779133528714
2148029978989929
2066499849770647
8134152794155977
9250702243182081
8458183356814985
5222548577756463
0781662217686408
6642104626873382
9848495900735681
9728618349304707
4950589696752003
5277049373219591
5538215646258682
0070423938828222
1254713374114780
7417258240533689
0592090783628276
3727435066062319
9094521825320736
7559741986080630
9081528425917959
2166920373780011
4061441582714906
1542955544481274
1858173126338282
9588738213862295
4822303155884764
2725236553945819
3887373209968795
6212973884006114
2085793138125077
5310016505003094
2584892370342597
8890414036391529
2925654570470585
2814445667065624
6559277112268847
1782613515525599
4850725383721292
5901526217806792
7383604855494312
0173019931247960
7021572984942680
5273122625323414
5450546681748597
6602808435828190
1082210851213059
0501665841976934
2442367318386551
1448311183258922
4629835197940139
5035239913124119
5179347704732382
7866042959008307
0775094124722433
7279161524418942
3976797983179797
1828183570576160
8859883555687056
0839974289635014
3382563390871398
8067723036977559
5648866560695815
4446359578874664
4939043777843624
3583921436364162
3989952107793554
3698654266766882
2359137203985173
6255031263155169
3381702157848261
5105694041940501
7204036549727743
0644908916475289
6538083716203576
0068007424688306
8522806920129738
8802071703082477
5236857877249104
3496208463884449
7361357592084220
0218063731351633
8256609331887637
1704946542749907
6744635440061565
2191798202147023
4385307852514638
8246131317396176
6732261702127332
6355650046004754
1022212462337085
9563312407691130
6565572985211879
9872595544846709
7675893952163575
5874298660058703
9976066808523308
8253292050291316
9948843412249193
7209010137484350
8100166323253297
2336069045880547
5787473014054029
6500432536491071
9739499284344715
6118127919872310
5893145382848301
3224661507038003
7279474254883059
0783946412616940
1382646885926011
1016521676754014
8478296926326833
8006865596138564
0250772279715215
5030725457174017
7809574034069828
0915676556857578
2601257921753615
5665684077290869
5283360455322734
7801592791556489
2729279507962346
1925933507634560
7311955082055320
0721596472768877
7463463383362150
7509084995553647
7091334915208635
8756886156388456
4253841830410922
7646839662152612
2248567464602970
9128769784484540
7790879118221264
8669668633454299
3939812040651166
3472158806978666
6664865561270767
2393044553286178
1475081617592277
0220455235490133
2550889443556886
0601216568829240
3302216368941503
7983416507106122
0157452280626031
1668461000184698
2307132758477248
7524873767344311
4042289099915721
9142072988747527
1570496511816970
7993040001672332
2163464217219143
3915273434856862
9343854177039951
2836200313033547
0568059879543919
5105401942011007
8104168896198247
8472128273219574
6742355782070590
6439528230384481
4495009421076870
9179189728013478
6078476427954319
1263782473558717
0253142588060530
8667206350297274
2790158217446989
2640988132889440
1706259684834362
5253502626555247
3882899744220709
7043872805858254
0651805946054722
4464447794114582
9024443034356614
1595267911337018
3604285557454730
5318579562075111
6865897324297954
3246484469878386
8032005973549452
8840366170046573
7910123062908408
9481839351821903
8851564731097828
1724681850499161
5394022232015318
7083152417829070
1374068023850155
4707025505903896
2228214298878397
6727577173229276
9787209999258590
9793560012825214
2427122030368299
7882538227876962
1019750908542342
2741394980043749
0250677650480495
1214598494834938
9190946061926161
0036129846822289
5604755556578767
7125950654350075
2015083410081438
4939782236464429
6527347062678902
4963767276152328
0963653538223399
2784584976313535
1190173194710693
9583944661087776
5393610061344412
8447542483736067
0614414291698391
1606318461538020
7242874526684272
2428718836263341
0419992771135644
4630686694329165
5407524049340599
1796719676504640
4572162205238180
9451594854697590
4304931048580692
5612361618091830
6899188895500282
3742215913200847
9625435294170737
5538992929283356
0179008338008889
8155877248967021
0353659259395529
7683855126014969
5840756311006006
1446226747320996
4365891367994000
7981710837681024
4716270124749211
9568795144178464
8570974822233222
9219087525080389
1277202985083208
5589512332249547
3663976246405654
7687032456399126
9403608604511791
6375951309349167
0872347881917904
1575018006683246
6416764605237795
4307002770052164
9103989779392600
2622295992000262
1814758338598875
0494896676772984
0759911871987668
0672122695696595
8249635469709916
4657268098511444
7186373503896998
7742210303329946
3704305950005564
9900648217984726
1199718503495116
8438755417209250
1288955644688196
2878448197446930
7840852036536201
6157367364142784
2004464849514751
6571492090892651
8484782693209031
5297582066842378
6489175410295508
8145305248470416
1321779073214214
7875549583025499
0619777748177883
2264731136781838
1876482890634213
1337171805613486
1022003330179698
3953032383615445
6253080234363425
0953784691872377
1953501171458794
9952077807379810
3429510646090195
2402781856820629
0415198949492913
0911664582001939
5585486490281012
0580424725988701
4581190939104899
4615437737357529
6135680370248102
5479814788308057
1897375573814602
6064374484819008
4270997561144883
0582730432986922
8991866532100712
9516409536267113
8979796820486762
3657759682534978
3182325621648634
8352049712728334
9388832325351882
6722780896716410
1621277122989412
8862708944989273
4376925001448034
2017050673449501
0886102917962708
6185386868402821
3331067293888348
4032075181616132
4325539741339178
7778098707722175
4908725221368982
8203521665619013
3735656495374081
7710601501267719
8447461394040813
0048934446090342
6875102654106164
2402389313333417
6328006287424473
7478972886588056
5243164930513073
6558729104203301
3041624861243208
9327441355472987
1134724328958937
8716541247535684
5398747312208133
7937368027614414
0515910650937953
1423926067738516
0856820220331859
3866888351512590
8765198589833600
0619064230840166
4153490403731684
1771536732404161
8865164853161020
2946585161094619
3676460678210251
9953503354410892
2970110332151340
4721306623325365
8450740540431236
2012561730080896
0487962221916292
6197213023766700
4725581971338823
0405457113235873
1794219205287737
2483396613424924
1569109918297955
1587943246507081
4877644010565320
7014449029797362
5588269274851789
5161006787984996
6693639512699479
7292308494738835
5131189316971564
7869107089401453
3115413344159037
6766802422371741
9463828354141143
6568102487979051
1810660150249788
4790550301143806
6798457991943647
9250125302396616
9412382812044484
4567696873017245
8541583312771663
4045276932532785
8886217002903392
6826559116244454
2241425930197153
3590347256747976
0932848419485250
6404331228160073
8972593961318825
8909337297437478
6044257725741343
2758555892050519
6126104853334196
4846935782635022
1481561191058235
7996986593453515
9612205756197901
6653073537545212
7467941125542368
9954219816319656
3734644663087353
3284961892472829
0331347686268186
0943270873882966
7194311060866381
6048882623610727
1523191912411152
1755140611499739
0634749666557275
5950460373717058
4956384588693945
7522011546359572
6074272550437361
1018818852094797
8340760574611774
5843713555652120
4497039916876874
3581816157957538
5232543962578832
0803559730916604
1896106488323757
5214025985402003
0890004090272717
8012744965529176
4361216426604340
2604401142857417
7905765098600932
7528283315658986
6346720270200955
9051001122758845
4420704264028661
7728389320504879
3574363885377539
3344195537651909
5722422936076384
6867168420820802
8882084525542926
4802338567982582
8652571610986884
3351519714334193
4745932943641979
1209386477961973
0495174896842304
0561802115181270
0219813089440584
5877540397389603
0452548208924333
2368318010291864
7000254078011331
7467280417733375
0477542519869900
5633378269577999
9149866420312403
4607907676013721
3661779648574360
5910630504241949
8499516846649182
0245365238186836
3135295858402922
9288879758928817
1446498110144175
6619466569259640
3468146890952324
9294713752237494
6252384331411838
1396961290952251
7653379361147439
3429824619075806
4550197393747167
1256434444662328
1843929199299092
0834145228895928
1053594343059225
9607255646013062
1694260923221276
5801193844857063
5721531589684189
8052370131852533
4102001809970889
2659880372946656
7166293319610013
6928148472089105
5206955158181774
5111780678498414
9560375782450931
