artigoEmPeriodico	2014	http://dx.doi.org/10.1016/j.jcp.2013.10.020	A new reconstruction method for the inverse potential problem	Journal of Computational Physics (Print)	A. Canelas ; A. Laurain ; A.A. Novotny	A1	
artigoEmPeriodico	2014	http://dx.doi.org/10.1007/s00158-014-1103-1	Topology design of inductors in electromagnetic casting using level-sets and second order topological derivatives	Structural and Multidisciplinary Optimization (Print)	A. Canelas ; A.A. Novotny ; J.R. Roche	A2	
artigoEmPeriodico	2014		Gain of Regularity for a Benney_Lin Equation Type	Quarterly Journal of Mathematics	ALVES, M. S. ; Munoz Rivera, J.E. ; SEPULVEDA, M. ; VILLAGRAN, O. V.	Qualis nao identificado	Quarterly Journal of Mathematics
artigoEmPeriodico	2014	http://dx.doi.org/10.1137/130923233	The Lack of Exponential Stability in Certain Transmission Problems with Localized Kelvin--Voigt Dissipation	SIAM Journal on Applied Mathematics (Print)	Alves, Margareth ; RIVERA, JAIME MUN'OZ ; Sepúlveda, Mauricio ; Villagrán, Octavio Vera	Qualis nao identificado	SIAM Journal on Applied Mathematics (Print)
artigoEmPeriodico	2014	http://dx.doi.org/10.1002/mana.201200319	The asymptotic behavior of the linear transmission problem in viscoelasticity	Mathematische Nachrichten	Alves, Margareth ; RIVERA, JAIME MUÑOZ ; Sepúlveda, Mauricio ; Villagrán, Octavio Vera ; GARAY, MARÍA ZEGARRA	Qualis nao identificado	Mathematische Nachrichten
artigoEmPeriodico	2014	http://dx.doi.org/10.1016/j.advengsoft.2014.09.015	Ant colony approaches for multiobjective structural optimization problems with a cardinality constraint	Advances in Engineering Software (1992)	ANGELO, JAQUELINE S. ; Bernardino, Heder S. ; BARBOSA, HELIO J.C.	A2	
artigoEmPeriodico	2014	http://dx.doi.org/10.1016/j.procs.2014.05.056	Finite Difference Method for Solving Acoustic Wave Equation Using Locally Adjustable Time-steps	Procedia Computer Science	ANTUNES, ALEXANDRE J.M. ; LEAL-TOLEDO, REGINA C.P. ; FILHO, OTTON TEIXEIRA DA SILVEIRA ; TOLEDO, ELSON MAGALHÃES	C	
artigoEmPeriodico	2014	http://dx.doi.org/10.1007/s10444-014-9343-6	An adaptive residual local projection finite element method for the Navier-Stokes equations	Advances in Computational Mathematics	Araya, Rodolfo ; Poza, Abner H. ; Valentin, Frédéric	A1	
artigoEmPeriodico	2014	http://dx.doi.org/10.1016/j.ejor.2014.08.023	Solving average cost Markov decision processes by means of a two-phase time aggregation algorithm	European Journal of Operational Research	Arruda, E.F. ; Fragoso, M.D.	A1	
artigoEmPeriodico	2014	http://dx.doi.org/10.1017/s0031182014001139	Mitochondrial respiration and genomic analysis provide insight into the influence of the symbiotic bacterium on host trypanosomatid oxygen consumption	Parasitology (Cambridge. Online)	AZEVEDO-MARTINS, A. C. ; MACHADO, A. C. L. ; KLEIN, C. C. ; CIAPINA, L. ; ALMEIDA, L. G. ; VASCONCELOS, A. T. R. ; SAGOT, M. F. ; DE SOUZA, W. ; EINICKER-LAMAS, M. ; GALINA, A. ; MOTTA, M. C. M.	A2	
artigoEmPeriodico	2014	http://dx.doi.org/10.1016/j.cma.2013.11.018	Dealing with uncertainties in engineering problems using only available data	Computer Methods in Applied Mechanics and Engineering	BABU?KA, IVO ; Silva, Renato S.	A1	
artigoEmPeriodico	2014		Policy Iteration Based on Stochastic Factorization	The Journal of Artificial Intelligence Research (Print)	BARRETO, A. M. S.; PINEAU, J. ; PRECUP, D.	Qualis nao identificado	The Journal of Artificial Intelligence Research (Print)
artigoEmPeriodico	2014	http://dx.doi.org/10.1128/genomea.00385-14	Draft Genome Sequence of Mycobacterium tuberculosis Clinical Strain G-12-005	Genome Announcements	BERLAND, J.-L. ; DE CARVALHO, F. M. ; DE ALMEIDA, L. G. P. ; BABLISHVILI, N. ; GAUTHIER, M. ; PARANHOS-BACCALA, G. ; DE VASCONCELOS, A. T. R.	Qualis nao identificado	Genome Announcements
artigoEmPeriodico	2014	http://dx.doi.org/10.1007/s00033-014-0481-y	A contact problem for a thermoelastic Timoshenko beam	Zeitschrift fur Angewandte Mathematik und Physik (Printed ed.)	BERTI, ALESSIA ; Muñoz Rivera, Jaime E. ; Naso, Maria Grazia	Qualis nao identificado	Zeitschrift fur Angewandte Mathematik und Physik (Printed ed.)
artigoEmPeriodico	2014	http://dx.doi.org/10.1007/s10659-013-9445-2	Thermomechanical Multiscale Constitutive Modeling: Accounting for Microstructural Thermal Effects	Journal of Elasticity	BLANCO, PABLO J.; GIUSTI, SEBASTIÁN M.	B1	
artigoEmPeriodico	2014	http://dx.doi.org/10.1007/s10237-014-0574-8	Blood flow distribution in an anatomically detailed arterial network model: criteria and algorithms	Biomechanics and Modeling in Mechanobiology (Print)	BLANCO, PABLO J.; WATANABE, SANSUKE M. ; DARI, ENZO A. ; PASSOS, MARCO AURÉLIO R. F. ; FEIJÓO, RAÚL A.	Qualis nao identificado	Biomechanics and Modeling in Mechanobiology (Print)
artigoEmPeriodico	2014	http://dx.doi.org/10.1103/PhysRevA.90.032324	Renormalization and scaling in quantum walks	Physical Review. A	BOETTCHER, STEFAN ; FALKNER, STEFAN ; Portugal, Renato	A2	
artigoEmPeriodico	2014	http://dx.doi.org/10.1016/j.jnca.2013.04.005	Automatic Services Instantiation Based on a Process Specification	Journal of Network and Computer Applications	BORGES, H. P. ; Neuman de Souza, José ; Schulze, Bruno ; Mury, Antonio	Qualis nao identificado	Journal of Network and Computer Applications
artigoEmPeriodico	2014	http://dx.doi.org/10.1016/j.artmed.2014.10.001	NICeSim: An open-source simulator based on machine learning techniquesto support medical research on prenatal and perinatal care decision making	Artificial Intelligence in Medicine (Print)	CERQUEIRA, FABIO RIBEIRO ; FERREIRA, TIAGO GERALDO ; DE PAIVA OLIVEIRA, ALCIONE ; Augusto, Douglas Adriano ; KREMPSER, EDUARDO ; CORRÊA BARBOSA, HELIO JOSÉ ; DO CARMO CASTRO FRANCESCHINI, SYLVIA ; DE FREITAS, BRUNNELLA ALCANTARA CHAGAS ; GOMES, ANDREIA PATRICIA ; SIQUEIRA-BATISTA, RODRIGO	B1	
artigoEmPeriodico	2014	http://dx.doi.org/10.1109/TSP.2014.2298378	Robust MIMO Equalization for Non-Parametric Channel Model Uncertainty	IEEE Transactions on Signal Processing	CORREA, GILBERTO OLIVEIRA	A2	
artigoEmPeriodico	2014	http://dx.doi.org/10.1016/j.asoc.2013.10.029	A multiple minima genetic algorithm for protein structure prediction	Applied Soft Computing (Print)	CUSTÓDIO, Fábio Lima ; BARBOSA, HELIO J.C. ; Dardenne, Laurent Emmanuel	A2	
artigoEmPeriodico	2014	http://dx.doi.org/10.1108/ec-10-2012-0244	Topology design of plates considering different volume control methods	Engineering Computations	D.E. Campeão ; S.M. Giusti ; A.A. Novotny	B1	
artigoEmPeriodico	2014	http://dx.doi.org/10.1080/17442508.2014.915972	On the differential equation satisfied by the random measure density of a jump-type Fleming-Viot process	Stochastics (Abingdon. Print)	DA SILVA, TELLES TIMÓTEO ; Fragoso, Marcelo Dutra	Qualis nao identificado	Stochastics (Abingdon. Print)
artigoEmPeriodico	2014	http://dx.doi.org/10.1016/j.ins.2014.08.002	A dynamic niching genetic algorithm strategy for docking highly flexible ligands	Information Sciences	DE MAGALHÃES, CAMILA SILVA ; ALMEIDA, DIOGO MARINHO ; BARBOSA, HELIO JOSÉ CORREA ; Dardenne, Laurent Emmanuel	A1	
artigoEmPeriodico	2014	http://dx.doi.org/10.3233/ASY-141229	Stabilization of ternary mixtures with frictional dissipation	Asymptotic Analysis	DELL'ORO, FILIPPO ; J. E. Munoz Rivera	B1	
artigoEmPeriodico	2014	http://dx.doi.org/10.4236/am.2014.53044	Increasing Ventilation by Passive Strategies: Analysis of Indoor Air Circulation Changes through the Utilization of Microclimate Elements	Applied Mathematics	DRACH, PATRICIA R. C. ; KARAM-FILHO, JOSÉ	Qualis nao identificado	Applied Mathematics
artigoEmPeriodico	2014	http://dx.doi.org/10.3934/eect.2014.3.277	An integration model for two different ethnic groups	Evolution Equations and Control Theory	Fabrizio, Mauro ; RIVERA, JAIME MUNÕZ	B3	
artigoEmPeriodico	2014	http://dx.doi.org/10.1016/j.camwa.2014.06.014	Primal stabilized hybrid and DG finite element methods for the linear elasticity problem	Computers & Mathematics with Applications (1987)	FARIA, CRISTIANE O. ; LOULA, ABIMAEL F.D. ; DOS SANTOS, ANTÔNIO J.B.	Qualis nao identificado	Computers & Mathematics with Applications (1987)
artigoEmPeriodico	2014	http://dx.doi.org/10.3233/ASY-131196	Energy decay to Timoshenko?s system with thermoelasticity of type III	Asymptotic Analysis	FATORI, L. H. ; Munoz Rivera, J.E. ; MONTEIRO, R. N.	B1	
artigoEmPeriodico	2014		Polynomial stabilization of magnetoelastic plates	IMA Journal of Applied Mathematics	FU, M. T. ; Munoz Rivera, J.E. ; OQUENDO, H. P. ; SOBRADO SUAREZ, F. M.	B1	
artigoEmPeriodico	2014		Some properties of shallow shells with thermal effects	Advances in Differential Equations	G. Perla Menzala; TRAVESSINI, F.	B1	
artigoEmPeriodico	2014	http://dx.doi.org/10.1002/cpe.3258	Experiences of the Brazilian national high-performance computing network on the rapid prototyping of science gateways	Concurrency and Computation	Gomes, Antonio Tadeu A.; Bastos, Bruno F. ; MEDEIROS, VIVIAN ; MOREIRA, VINICIUS M.	A2	
artigoEmPeriodico	2014		Estimating dielectric permittivity and electric conductivity from simulated multichannel gpr pulses using aco and quasi-newton inversion techniques	Revista Brasileira de Geofísica (Impresso)	GOMES, M. G. ; SOUTO, R. P. ; ATHAYDE, A. S. ; VILHENA, M. T. ; STRIEDER, A. J.	B1	
artigoEmPeriodico	2014		Υ-DB: Managing scientific hypotheses as uncertain data	Proceedings of the VLDB Endowment	Goncalves, B. N. ; Porto, Fabio	A2	
artigoEmPeriodico	2014	http://dx.doi.org/10.1128/genomeA.01114-13	Trypanosoma cruzi Clone Dm28c Draft Genome Sequence	Genome Announcements	GRISARD, E. C. ; TEIXEIRA, S. M. R. ; DE ALMEIDA, L. G. P. ; STOCO, P. H. ; Gerber, A. L. ; TALAVERA-LOPEZ, C. ; LIMA, O. C. ; ANDERSSON, B. ; DE VASCONCELOS, A. T. R.	Qualis nao identificado	Genome Announcements
artigoEmPeriodico	2014	http://dx.doi.org/10.1007/s12551-013-0130-2	Receptor-ligand molecular docking	Biophysical Reviews	GUEDES, ISABELLA A. ; MAGALHÃES, CAMILA S. ; DARDENNE, LAURENT E.	B4	
artigoEmPeriodico	2014	http://dx.doi.org/10.1080/00036811.2014.880779	On the semilinear reaction diffusion system arising from nuclear reactors	Applicable Analysis	JIANG, Feida ; LI, Gang ; ZHU, JIANG	Qualis nao identificado	Applicable Analysis
artigoEmPeriodico	2014	http://dx.doi.org/10.1016/j.jmaa.2014.02.066	Mindlin-Timoshenko systems with Kelvin-Voigt: analyticity and optimal decay rates	Journal of Mathematical Analysis and Applications (Print)	JORGE SILVA, M.A. ; MA, T.F. ; Muñoz Rivera, J.E.	A2	
artigoEmPeriodico	2014	http://dx.doi.org/10.1007/s00382-013-1998-z	The relationship between South Atlantic SST and SACZ intensity and positioning	Climate Dynamics	JORGETTI, Tatiana ; SILVA DIAS, PEDRO LEITE ; FREITAS, EDMILSON DIAS	A1	
artigoEmPeriodico	2014	http://dx.doi.org/10.1371/journal.pone.0107864	Genomic Analyses and Transcriptional Profiles of the Glycoside Hydrolase Family 18 Genes of the Entomopathogenic Fungus Metarhizium anisopliae	Plos One	JUNGES, ÂNGELA ; BOLDO, JULIANO TOMAZZONI ; SOUZA, BÁRBARA KUNZLER ; GUEDES, RAFAEL LUCAS MUNIZ ; SBARAINI, NICOLAU ; KMETZSCH, LÍVIA ; THOMPSON, CLAUDIA ELIZABETH ; STAATS, CHARLEY CHRISTIAN ; DE ALMEIDA, LUIS GONZAGA PAULA ; DE VASCONCELOS, ANA TEREZA RIBEIRO ; VAINSTEIN, MARILENE HENNING ; SCHRANK, AUGUSTO	A1	
artigoEmPeriodico	2014	http://dx.doi.org/10.1109/MCOM.2014.6807941	2013 IEEE Latin America Conference on Cloud Computing and Communications [Global Communications Newsletter]	IEEE Communications Magazine (Print)	KAMIENSKI, C. ; FERNANDES, S. ; GRANVILLE, L. Z. ; Gomes, A.T.	A1	
artigoEmPeriodico	2014	http://dx.doi.org/10.5121/ijcsit.2014.6302	Massive Parallelism With Gpus for Centrality Ranking in Complex Networks	International Journal of Computer Science and Information Technology (Print)	L. CABRAL, FREDERICO ; OSTHOFF, CARLA ; NARDES, RAFAEL ; RAMOS, DANIEL	Qualis nao identificado	International Journal of Computer Science and Information Technology (Print)
artigoEmPeriodico	2014		Efficient Explicit Finite Difference Method for Acoustic Wave Using Locally Adjustable Time-Steps	Lecture Notes in Computer Science	LEAL-TOLEDO, Regina Célia P ; ANTUNES, A. J. M. ; TOLEDO, E. M.	B1	
artigoEmPeriodico	2014	http://dx.doi.org/10.1186/1471-2164-15-236	De novo transcriptome analysis of Hevea brasiliensis tissues by RNA-seq and screening for molecular markers	BMC Genomics	SALGADO, LEONARDO RIPPEL ; KOOP, DANIELA MARTINS ; PINHEIRO, DANIEL GUARIZ ; RIVALLAN, RONAN ; LE GUEN, VINCENT ; NICOLÁS, Marisa Fabiana ; DE ALMEIDA, LUIZ GONZAGA ; ROCHA, VIVIANI RIBEIRO ; MAGALHÃES, MILENA ; GERBER, ALEXANDRA LEHMKUHL ; FIGUEIRA, ANTONIO ; CASCARDO, JÚLIO CÉZAR ; DE VASCONCELOS, ANATEREZA RIBEIRO ; SILVA, WILSON ARAÚJO ; COUTINHO, LUIZ LEHMANN ; GARCIA, DOMINIQUE	A1	
artigoEmPeriodico	2014	http://dx.doi.org/10.1016/j.jcp.2014.07.013	A combined discontinuous Galerkin method for the dipolar Bose-Einstein condensation	Journal of Computational Physics (Print)	LI, X. ; ZHU, J. ; Zhang, Rongpei ; CAO, Shengshan	A1	
artigoEmPeriodico	2014		A Runge Kutta Discontinuous Galerkin Method for Lagrangian Compressible Euler Equations in Two-Dimensions	Communications in Computational Physics (Print)	LI, Z. ; YU, Xijun ; ZHU, J. ; JIA, Z.	B1	
artigoEmPeriodico	2014	http://dx.doi.org/10.1142/S0218202514500304	A hybrid ten-species phase-field model of tumor growth	Mathematical Models and Methods in Applied Sciences	LIMA, E. A. B. F. ; ODEN, J. T. ; R.C. ALMEIDA	A1	
artigoEmPeriodico	2014	http://dx.doi.org/10.1002/num.21934	Analysis and numerical solution of stochastic phase-field models of tumor growth	Numerical Methods for Partial Differential Equations (Print)	LIMA, ERNESTO A. B. F. ; Almeida, Regina C. ; Oden, J. Tinsley	B1	
artigoEmPeriodico	2014	http://dx.doi.org/10.1371/journal.pntd.0002855	Transcriptional and Proteomic Responses to Carbon Starvation in Paracoccidioides	PLoS Neglected Tropical Diseases (Online)	LIMA, PATRÍCIA DE SOUSA ; CASALETTI, LUCIANA ; BAILÃO, ALEXANDRE MELO ; VASCONCELOS, ANA TEREZA RIBEIRO DE ; FERNANDES, GABRIEL DA ROCHA ; SOARES, CÉLIA MARIA DE ALMEIDA	A1	
artigoEmPeriodico	2014	http://dx.doi.org/10.1109/TLA.2014.6868871	Dental R-Ray Image Segmentation Using Texture Recognition	Revista IEEE América Latina	LIRA, PEDRO HENRIQUE MARQUES ; ANTONIO GIRALDI, GILSON ; ANTONIO PEREIRA NEVES, LUIZ ; ANTONINO FEIJOO, RAUL	B1	
artigoEmPeriodico	2014	http://dx.doi.org/10.1128/genomea.01163-13	Draft Genome Sequence of the D-Xylose-Fermenting Yeast Spathaspora arborariae UFMG-HM19.1AT	Genome Announcements	LOBO, F. P. ; GONCALVES, D. L. ; ALVES, S. L. ; Gerber, A. L. ; DE VASCONCELOS, A. T. R. ; BASSO, L. C. ; Franco, G. R. ; SOARES, M. A. ; CADETE, R. M. ; ROSA, C. A. ; STAMBUK, B. U.	Qualis nao identificado	Genome Announcements
artigoEmPeriodico	2014		High-Quality On-Patient Medical Data Visualization in a Markerless Augmented Reality Environment	SBC Journal on 3D Interactive Systems	MACEDO, M. ; APOLINÁRIO JÚNIOR, Antonio Lopes ; SOUZA, A. C. ; GIRALDI, G. A.	B4	
artigoEmPeriodico	2014	http://dx.doi.org/10.2136/vzj2013.06.0107	A Modified Effective Stress Principle for Unsaturated Swelling Clays Derived from Microstructure	Vadose Zone Journal	MAINKA, JULIA ; MURAD, MARCIO A. ; MOYNE, Christian ; LIMA, SIDARTA A.	A2	
artigoEmPeriodico	2014		Previsão de Cheias por Conjunto em Curto Prazo	Revista Brasileira de Recursos Hídricos	MELLER, A. ; COLLISCHONN, W. ; FAN, F. ; BUARQUE, D. C. ; DEPAIVA, R. D. ; DIAS, P. L. S. ; MOREIRA, D. S.	A2	
artigoEmPeriodico	2014	http://dx.doi.org/10.3389/fmicb.2014.00072	Isolation, cultivation and genomic analysis of magnetosome biomineralization genes of a new genus of South-seeking magnetotactic cocci within the Alphaproteobacteria	Frontiers in Microbiology (Online)	MORILLO, VIVIANA ; ABREU, FERNANDA ; ARAUJO, ANA C. ; DE ALMEIDA, LUIZ G. P. ; ENRICH-PRAST, ALEX ; FARINA, MARCOS ; DE VASCONCELOS, ANA T. R. ; BAZYLINSKI, DENNIS A. ; LINS, ULYSSES	B2	
artigoEmPeriodico	2014	http://dx.doi.org/10.1002/mbo3.169	Taxonomic and functional profiles of soil samples from Atlantic forest and Caatinga biomes in northeastern Brazil	MicrobiologyOpen	PACCHIONI, RALFO G. ; CARVALHO, FABÍOLA M. ; THOMPSON, CLAUDIA E. ; FAUSTINO, ANDRÉ L. F. ; NICOLINI, FERNANDA ; PEREIRA, TATIANA S. ; SILVA, RITA C. B. ; CANTÃO, MAURICIO E. ; GERBER, ALEXANDRA ; VASCONCELOS, ANA T. R. ; AGNEZ-LIMA, LUCYMARA F.	Qualis nao identificado	MicrobiologyOpen
artigoEmPeriodico	2014	http://dx.doi.org/10.1016/j.ecocom.2014.10.002	The influence of the trade-off between consumer-foraging and predation risk on tritrophic food chain dynamics	Ecological Complexity (Print)	PAIXÃO, EMANUELLE ARANTES ; COSTA, MICHEL ISKIN DA SILVEIRA ; FARIA, Lucas Del Bianco	A2	
artigoEmPeriodico	2014	http://dx.doi.org/10.1109/TIFS.2014.2363524	Edit Detection in Speech Recordings via Instantaneous Electric Network Frequency Variations	IEEE Transactions on Information Forensics and Security	Paulo A. A. Esquef; APOLINARIO JR., J. A. ; BISCAINHO, L. W. P.	B1	
artigoEmPeriodico	2014	http://dx.doi.org/10.1016/j.jmaa.2013.06.053	Uniform stabilization of a thermo piezoelectric/piezomagnetic model	Journal of Mathematical Analysis and Applications (Print)	PERLA MENZALA, G.; SEJJE SUÁREZ, J.	A2	
artigoEmPeriodico	2014	http://dx.doi.org/10.1186/1471-2164-15-54	Comparative analysis of the complete genome of KPC-2-producing Klebsiella pneumoniae Kp13 reveals remarkable genome plasticity and a wide repertoire of virulence and resistance mechanisms	BMC Genomics	RAMOS, PABLO IVAN ; PICÃO, RENATA C ; ALMEIDA, LUIZ GONZAGA ; LIMA, NICHOLAS COSTA ; GIRARDELLO, RAQUEL ; VIVAN, ANA CAROLINA ; XAVIER, DANILO E ; Barcellos, Fernando G ; PELISSON, MARSILENI ; VESPERO, ELIANA C ; MÉDIGUE, CLAUDINE ; Vasconcelos, Ana Tereza ; GALES, ANA C ; Nicolás, Marisa F	A1	
artigoEmPeriodico	2014	http://dx.doi.org/10.1103/physreva.90.022329	Thermodynamics of <math> <mi>N</mi> </math> -dimensional quantum walks	PHYSICAL REVIEW. A, ATOMIC, MOLECULAR, AND OPTICAL PHYSICS (ONLINE)	ROMANELLI, ALEJANDRO ; DONANGELO, RAUL ; Portugal, Renato ; MARQUEZINO, FRANKLIN DE LIMA	A2	
artigoEmPeriodico	2014	http://dx.doi.org/10.1016/j.jde.2013.12.005	Topological sensitivity analysis for elliptic differential operators of order 2m	Journal of Differential Equations (Print)	S. Amstutz ; A. A. Novotny ; N. Van Goethem	A1	
artigoEmPeriodico	2014	http://dx.doi.org/10.3934/ipi.2014.8.361	Minimal partitions and image classification using a gradient-free perimeter approximation	Inverse Problems and Imaging (Springfield)	S. Amstutz ; A.A. Novotny ; N. Van Goethem	Qualis nao identificado	Inverse Problems and Imaging (Springfield)
artigoEmPeriodico	2014	http://dx.doi.org/10.1007/s11128-013-0672-z	Decoherence in quantum Markov chains	Quantum Information Processing (Dordrecht. Online)	SANTOS, RAQUELINE AZEVEDO MEDEIROS ; Portugal, Renato ; FRAGOSO, MARCELO DUTRA	Qualis nao identificado	Quantum Information Processing (Dordrecht. Online)
artigoEmPeriodico	2014	http://dx.doi.org/10.1371/journal.pgen.1004496	Gene Expansion Shapes Genome Architecture in the Human Pathogen Lichtheimia corymbifera: An Evolutionary Genomics Analysis in the Ancient Terrestrial Mucorales (Mucoromycotina)	PLOS Genetics (Online)	SCHWARTZE, VOLKER U. ; WINTER, SASCHA ; SHELEST, EKATERINA ; MARCET-HOUBEN, MARINA ; HORN, FABIAN ; WEHNER, STEFANIE ; LINDE, JÖRG ; VALIANTE, VITO ; Sammeth, Michael ; RIEGE, KONSTANTIN ; NOWROUSIAN, MINOU ; KAERGER, KERSTIN ; JACOBSEN, ILSE D. ; MARZ, MANJA ; BRAKHAGE, AXEL A. ; GABALDÓN, TONI ; BÖCKER, SEBASTIAN ; VOIGT, KERSTIN	Qualis nao identificado	PLOS Genetics (Online)
artigoEmPeriodico	2014		Formulação e Solução de um Problema Inverso de Difusão Anômala com Técnicas Estocásticas	Ciência e Natura	SILVA, L. G. ; KNUPP, D. C. ; BEVILACQUA, Luiz ; GALEÃO, Augusto Cesar Noronha Rodrigues ; SILVA NETO, A.	B2	
artigoEmPeriodico	2014		Inverse Problem in Anomalous Diffusion with Uncertainty Propagation	Computer Assisted Methods in Engineering and Science	SILVA, L. G. ; KNUPP, D. C. ; BEVILACQUA, Luiz ; GALEÃO, Augusto Cesar Noronha Rodrigues ; SILVA NETO, A.	Qualis nao identificado	Computer Assisted Methods in Engineering and Science
artigoEmPeriodico	2014	http://dx.doi.org/10.1186/1471-2164-15-420	Comparative genomics of Bradyrhizobium japonicum CPAC 15 and Bradyrhizobium diazoefficiens CPAC 7: elite model strains for understanding symbiotic performance with soybean	BMC Genomics	SIQUEIRA, ARTHUR FERNANDES ; ORMEÑO-ORRILLO, ERNESTO ; SOUZA, Rangel Celso ; RODRIGUES, ELISETE PAINS ; ALMEIDA, LUIZ GONZAGA ; BARCELLOS, FERNANDO GOMES ; BATISTA, JESIANE STEFÂNIA ; NAKATANI, ANDRE SHIGUEYOSHI ; MARTÍNEZ-ROMERO, ESPERANZA ; Vasconcelos, Ana Tereza ; HUNGRIA, Mariangela	A1	
artigoEmPeriodico	2014	http://dx.doi.org/10.1371/journal.pone.0110327	Unravelling the Transcriptome Profile of the Swine Respiratory Tract Mycoplasmas	Plos One	SIQUEIRA, FRANCIELE MABONI ; GERBER, ALEXANDRA LEHMKUHL ; GUEDES, RAFAEL LUCAS MUNIZ ; ALMEIDA, L. G. ; SCHRANK, IRENE SILVEIRA ; VASCONCELOS, A. T. R. ; ZAHA, ARNALDO	A1	
artigoEmPeriodico	2014	http://dx.doi.org/10.1186/1471-2164-15-822	Comparative genome analysis of entomopathogenic fungi reveals a complex set of secreted proteins	BMC Genomics	STAATS, CHARLEY CHRISTIAN ; JUNGES, ÂNGELA ; GUEDES, RAFAEL LUCAS ; THOMPSON, CLAUDIA ELIZABETH ; DE MORAIS, GUILHERME LOSS ; BOLDO, JULIANO TOMAZZONI ; DE ALMEIDA, LUIZ GONZAGA ; ANDREIS, FÁBIO CARRER ; GERBER, ALEXANDRA LEHMKUHL ; SBARAINI, NICOLAU ; DA PAIXÃO, RANA LOUISE ; BROETTO, LEONARDO ; LANDELL, MELISSA ; SANTI, LUCÉLIA ; DA SILVA, WALTER ORLANDO ; SILVEIRA, CAROLINA PEREIRA ; SERRANO, THAIANE RISPOLI ; DE OLIVEIRA, EDER SILVA ; KMETZSCH, LÍVIA ; VAINSTEIN, MARILENE HENNING ; De Vasconcelos, Ana Tereza ; SCHRANK, AUGUSTO	A1	
artigoEmPeriodico	2014	http://dx.doi.org/10.1371/journal.pntd.0003176	Genome of the Avirulent Human-Infective Trypanosome-Trypanosoma rangeli	PLoS Neglected Tropical Diseases (Online)	STOCO, PATRÍCIA HERMES WAGNER, GLAUBER TALAVERA-LOPEZ, CARLOS GERBER, ALEXANDRA ZAHA, Arnaldo THOMPSON, CLAUDIA ELIZABETH BARTHOLOMEU, DANIELLA CASTANHEIRA LÜCKEMEYER, DÉBORA DENARDIN BAHIA, DIANA LORETO, ELGION PRESTES, ELISA BEATRIZ LIMA, FÁBIO MITSUO RODRIGUES-LUIZ, GABRIELA VALLEJO, GUSTAVO ADOLFO FILHO, JOSÉ FRANCO DA SILVEIRA SCHENKMAN, SÉRGIO MONTEIRO, KARINA MARIANTE TYLER, KEVIN MORRIS ALMEIDA, LUIZ GONZAGA PAULA DE ORTIZ, MAURO FREITAS CHIURILLO, MIGUEL ANGEL MORAES, MILENE HÖEHR DE CUNHA, OBERDAN DE LIMA MENDONÇA-NETO, RONDON SILVA, ROSANE , et al.TEIXEIRA, SANTUZA MARIA RIBEIRO MURTA, SILVANE MARIA FONSECA SINCERO, THAIS CRISTINE MARQUES MENDES, TIAGO ANTONIO DE OLIVEIRA URMENYI, TURÁN PETER SILVA, VIVIANE GRAZIELLE DAROCHA, WANDERSON DUARTE ANDERSSON, BJÖRN ROMANHA, ÁLVARO JOSÉ STEINDEL, MÁRIO VASCONCELOS, ANA TEREZA RIBEIRO DE GRISARD, EDMUNDO CARLOS ; Genome of the Avirulent Human-Infective Trypanosome-Trypanosoma rangeli	A1	
artigoEmPeriodico	2014	http://dx.doi.org/10.1128/ec.00153-14	'Asexual propagation of a virulent clone complex in human and feline outbreak of sporotrichosis'	Eukaryotic Cell	TEIXEIRA, M. D. M. ; RODRIGUES, A. M. ; TSUI, C. K. M. ; DE ALMEIDA, L. G. P. ; VAN DIEPENINGEN, A. D. ; GERRITS VAN DEN ENDE, B. ; FERNANDES, G. F. ; KANO, R. ; HAMELIN, R. C. ; LOPES-BEZERRA, L. M. ; RIBEIRO VASCONCELOS, A. T. ; DE HOOG, S. ; DE CAMARGO, Z. P. ; FELIPE, M. S. S.	Qualis nao identificado	Eukaryotic Cell
artigoEmPeriodico	2014	http://dx.doi.org/10.1186/1471-2164-15-943	Comparative genomics of the major fungal agents of human and animal Sporotrichosis: Sporothrix schenckii and Sporothrix brasiliensis	BMC Genomics	TEIXEIRA, MARCUS M DE ALMEIDA, LUIZ GP KUBITSCHEK-BARREIRA, PAULA ALVES, FERNANDA L KIOSHIMA, ÉRIKA S ABADIO, ANA KR FERNANDES, LARISSA DERENGOWSKI, LORENA S FERREIRA, KAREN S Souza, Rangel C RUIZ, JERONIMO C DE ANDRADE, NATHALIA C PAES, HUGO C NICOLA, ANDRÉ M ALBUQUERQUE, PATRÍCIA GERBER, ALEXANDRA L MARTINS, VICENTE P PECONICK, LUISA DF NETO, ALAN VIGGIANO CHAUCANEZ, CLAUDIA B SILVA, PATRÍCIA A CUNHA, OBERDAN L DE OLIVEIRA, FABIANA FM DOS SANTOS, TAYNÁ C BARROS, AMANDA LN , et al.SOARES, MARCO A DE OLIVEIRA, LUCIANA M MARINI, MARJORIE M VILLALOBOS-DUNO, HÉCTOR CUNHA, MARCEL ML DE HOOG, SYBREN DA SILVEIRA, JOSÉ F HENRISSAT, BERNARD NIÑO-VEGA, GUSTAVO A CISALPINO, PATRÍCIA S MORA-MONTES, HÉCTOR M ALMEIDA, SANDRO R STAJICH, JASON E LOPES-BEZERRA, LEILA M Vasconcelos, Ana TR FELIPE, MARIA SS ; Comparative genomics of the major fungal agents of human and animal Sporotrichosis: Sporothrix schenckii and Sporothrix brasiliensis	A1	
artigoEmPeriodico	2014	http://dx.doi.org/10.1002/nme.4576	A two-scale failure model for heterogeneous materials: numerical implementation based on the finite element method	International Journal for Numerical Methods in Engineering (Print)	TORO, S. ; SÁNCHEZ, P.J. ; HUESPE, A.E. ; GIUSTI, S.M. ; Blanco, P.J. ; Feijóo, R.A.	A1	
artigoEmPeriodico	2014	http://dx.doi.org/10.1093/nar/gku861	Nova1 is a master regulator of alternative splicing in pancreatic beta cells	Nucleic Acids Research	VILLATE, O. ; TURATSINZE, J.-V. ; MASCALI, L. G. ; GRIECO, F. A. ; NOGUEIRA, T. C. ; CUNHA, D. A. ; NARDELLI, T. R. ; SAMMETH, M. ; SALUNKHE, V. A. ; ESGUERRA, J. L. S. ; ELIASSON, L. ; MARSELLI, L. ; MARCHETTI, P. ; EIZIRIK, D. L.	A1	
artigoEmPeriodico	2014	http://dx.doi.org/10.1186/1756-0500-7-132	STINGRAY: system for integrated genomic resources and analysis	BMC Research Notes	Wagner, G. ; Jardim, R. ; Tschoeke, D. ; Loureiro, D. R. ; OCAÑA, KARY ACS ; Ribeiro, A. C. B. ; Emmel, V. E. ; Probst, C. M. ; Pitaluga, A. N. ; Grisard, E. C. ; Cavalcanti, Maria C ; Campos, M. L. M. ; Mattoso, M. L. Q. ; Davila, A. M. R.	B1	
artigoEmPeriodico	2014	http://dx.doi.org/10.1142/S1793962314500056	A numerical approach for analyzing the transverse vibrations of an axially moving viscoelastic string	International Journal of Modeling, Simulation, and Scientific Computing	WU, Y. ; ZHAO, W. ; ZHU, J.	Qualis nao identificado	International Journal of Modeling, Simulation, and Scientific Computing
artigoEmPeriodico	2014	http://dx.doi.org/10.1016/j.apnum.2014.03.001	A new MMOCAA-MFE method for compressible miscible displacement in porous media	Applied Numerical Mathematics	ZHANG, Jiansong ; Yang, Danping ; SHEN, SHUQIAN ; ZHU, JIANG	A2	
artigoEmPeriodico	2014	http://dx.doi.org/10.1016/j.apm.2013.09.008	Direct discontinuous Galerkin method for nonlinear reaction-diffusion systems in pattern formation	Applied Mathematical Modelling	Zhang, Rongpei ; YU, Xijun ; ZHU, JIANG ; LOULA, ABIMAEL F.D.	A2	
artigoEmPeriodico	2014	http://dx.doi.org/10.2481/dsj.ifpda-04	Conceptual View Representation of the Brazilian Information System on Antarctic Environmental Research	Data Science Journal	ZORRILLA, R ; POLTOSI, M ; GADELHA, L ; PORTO, F ; MOURA, A ; DALTO, A ; LAVRADO, H P ; VALENTIN, Y ; TENÓRIO, M ; XAVIER, E	Qualis nao identificado	Data Science Journal
artigoEmPeriodico	2014	http://dx.doi.org/10.1186/1471-2164-15-535	The complete genome of Burkholderia phenoliruptrix strain BR3459a, a symbiont of Mimosa flocculosa: highlighting the coexistence of symbiotic and pathogenic genes	BMC Genomics	ZULETA, LUIZ FERNANDO ; CUNHA, CLAÚDIO DE ; DE CARVALHO, FABÍOLA MARQUES ; Ciapina, Luciane Prioli ; SOUZA, RANGEL CELSO ; MERCANTE, FÁBIO MARTINS ; DE FARIA, SERGIO MIANA ; BALDANI, JOSÉ IVO ; STRALIOTTO, ROSANGELA ; HUNGRIA, MARIANGELA ; DE VASCONCELOS, ANA TEREZA	A1	
trabalhoCompletoEmCongresso	2014		Topology Optimization in Hyperthermia Therapy	CNMAC2014	A. Amad ; A.F.D. Loula ; Novotny, A. A.		
trabalhoCompletoEmCongresso	2014		A New Method Based on the Topological Derivative for the Cancer Treatment by Hyperthermia	CILAMCE2014	A. Amad ; A.F.D. Loula ; Novotny, A. A.		
trabalhoCompletoEmCongresso	2014		Topological Optimization in Cancer Treatment	CNMAC 2014	AMAD, A. A. S. ; NOVOTNY, A. A. ; LOULA, A.F.D.		
trabalhoCompletoEmCongresso	2014	http://dx.doi.org/10.1109/CEC.2014.6900529	Differential Evolution assisted by a surrogate model for bilevel programming problems	2014 IEEE Congress on Evolutionary Computation (CEC)	ANGELO, JAQUELINE S. ; KREMPSER, EDUARDO ; BARBOSA, HELIO J.C.		
trabalhoCompletoEmCongresso	2014		Implementación de una formulación de bajo orden para materiales incompresibles en hemodinámica	ENIEF 2014	ARANCIAGA, J. ; CABALLERO, D. E. ; AGÜERO PARISI, N. F. ; LOMBERA, G. ; ARES, G. D. ; BLANCO, P. J. ; URQUIZA, S. A.		
trabalhoCompletoEmCongresso	2014		; DIAS, V. ; BANDINI, MATHEUS ; Schulze, Bruno ; Mury, Antonio . N-Clusters: Ferramenta para a Gerência de Ambientes de Computação Massivamente Paralela e Distribuída	XXXII Simposio Brasileiro de Redes de Computadores de Sistemas Distribuidos (SBCR)	Barbosa,		
trabalhoCompletoEmCongresso	2014		Tree-Based On-Line Reinforcement Learning	AAAI Conference on Artificial Intelligence	BARRETO, A. M. S		
trabalhoCompletoEmCongresso	2014		Modelagem Numérica de Escoamentos em Meios Porosos Deformáveis com Descontinuidades Incorporadas	XXXV Iberian Latin-American Congress on Computational Methods in Engineering	BARROSO, J. ; murad m.a. ; Guimaraes L		
trabalhoCompletoEmCongresso	2014		Uma Abordagem Baseada em Padrões para Interoperação de Especificações de Workflows Científicos	Workshop de Teses e Dissertações do CBSoft (WTDSoft)	Bastos, Bruno F. ; BRAGA, R. M. ; Gomes, A. T. A.		
trabalhoCompletoEmCongresso	2014		Topological Derivative-Based Topology Optimization of Structures Subject to Multiple Load-Cases and a von Mises Stress Constraints	CILAMCE2014	C.G. Lopes ; R.B. Santos ; Novotny, A. A.		
trabalhoCompletoEmCongresso	2014		Topology Design of Compliant Mechanisms Based on the Topological Derivative Concept	CILAMCE2014	C.G. Lopes ; R.B. Santos ; Novotny, A. A.		
trabalhoCompletoEmCongresso	2014		Implementação Híbrida MPI/OpenMP do Método HOPMOC na Resolução da Equação de Convecção-Difusão	XXXV Congresso Nacional de Matemática Aplicada e Computacional	CABRAL, F. L. ; Osthoff, C ; BRANDAO, D. ; KISCHINHEVSKY, M.		
trabalhoCompletoEmCongresso	2014		Análise Sistemática do Fenômeno Bufferbloat	XIX Workshop de Gerência e Operação de Redes e Serviços - WGRS 2014	CARDOZO, T. B. ; VIEIRA, A. B. ; ZIVIANI, A. ; SILVA, A. P. C.		
trabalhoCompletoEmCongresso	2014	http://dx.doi.org/10.1109/its.2014.6947975	Bufferbloat systematic analysis	2014 International Telecommunications Symposium (ITS)	CARDOZO, THIAGO B. ; DA SILVA, ANA PAULA C. ; VIEIRA, ALEX B. ; Ziviani, Artur		
trabalhoCompletoEmCongresso	2014		Evaluation of Epidemic Seeding Strategies under Variable Node Costs	XIII Workshop em Desempenho de Sistemas Computacionais e de Comunicação (WPerformance 2014	CHIESSE, R. ; FIGUEIREDO, D. R. ; ROCHA, A. A. A. ; ZIVIANI, A.		
trabalhoCompletoEmCongresso	2014		Análise da Topologia Social do Dropbox	Workshop de Redes P2P	COSTA, E. C. ; COSTA, L. C. ; DRAGO, I. ; VIEIRA, A. B. ; ZIVIANI, A. ; SILVA, A. P. C. ; ALMEIDA, J. M.		
trabalhoCompletoEmCongresso	2014		A New Approach for the H2 control of Markov Jump Linear Systems with Partial Information	19th World Congress of the International Federation of Automatic Control	COSTA, O. L. V. ; FRAGOSO, M. D. ; TODOROV, M. G.		
trabalhoCompletoEmCongresso	2014		Evaluating Grasp-based Cloud Dimensioning for Comparative Genomics: a Practical Approach	Second International Workshop on Parallelism in Bioinformatics	Coutinho, R. ; Drummond, L. ; Frota, Y. ; Oliveira, D. C. M. ; OCAÑA, K.A.C.S.		
trabalhoCompletoEmCongresso	2014		Análise de Estratégias de Acesso a Grandes Volumes de Dados	29 Simpósio Brasileiro de Bancos de Dados	de Oliveira, D. E. M. ; BOERES, C. ; Porto, Fabio		
trabalhoCompletoEmCongresso	2014	http://dx.doi.org/10.1109/SVR.2014.13	A System to Interact with CAVE Applications Using Hand Gesture Recognition from Depth Data	XVI Simpósio de Realidade Virtual e Aumentada (SVR 2014)	Diego Augusto Thomaz Quadrado Leite ; DUARTE, J. C. ; OLIVEIRA, Jauvane C de ; THOMAZ, V. A. ; GIRALDI, G.A.		
trabalhoCompletoEmCongresso	2014		Derivada Topológica de Primeira e Segunda Ordem no Problema de Tomografia por Impedância Elétrica	CNMAC2014	FERREIRA, A. D. ; Novotny, A. A.		
trabalhoCompletoEmCongresso	2014	http://dx.doi.org/10.1109/escience.2014.61	NACluster: A Non-supervised Clustering Algorithm for Matching Multi Catalogues	2014 IEEE 10th International Conference on eScience (eScience)	FREIRE, VINICIUS PIRES DE MOURA ; PORTO, FABIO ANDRE MACHADO ; MACEDO, JOSE ANTONIO FERNANDES DE ; AKBARINIA, REZA		
trabalhoCompletoEmCongresso	2014		Aplicação de uma Programação Genética Gramatical na Inferência da Máxima Deformação Longitudinal de Dutos com Amassamento	XXXV Iberian Latin-American Congress on Computational Methods in Engineering	FREITAS, J. M. ; SILVA, M. V. ; BERNARDINO, H. S. ; GUERREIRO, J. N. C. ; BARBOSA, H. J. C.		
trabalhoCompletoEmCongresso	2014		Applying Provenance to Protect Attribution in Distributed Computational Scientific Experiments	5th International Provenance and Annotation Workshop (IPAW 2014)	GADELHA JR., L. M. R.; MATTOSO, M.		
trabalhoCompletoEmCongresso	2014		SiBBr: Uma Infraestrutura para Coleta, Integração e Análise de Dados sobre a Biodiversidade Brasileira	VIII Brazilian e-Science Workshop (BRESCI 2014)	Gadelha Jr., Luiz M.R.; GUIMARAES, P. ; MOURA, A. M. ; DRUCKER, D. ; DALCIN, E. ; GALL, G. ; TAVARES JR., J. ; PALAZZI, D. ; POLTOSI, M. ; PORTO, F. ; MOURA, F. ; LEO, W. V.		
trabalhoCompletoEmCongresso	2014		Um Estudo Sobre Autenticação Federada no Acesso a Recursos Computacionais por Terminal Remoto Seguro	Workshop de Gestão de Identidades Digitais (WGID)	Gomes, Antônio Tadeu A.; GALHEIGO, M. M.		
trabalhoCompletoEmCongresso	2014		A genetic algorithm for optimization of spatial trusses considering self-weight loads	EngOpt - 4 th International Conference on Engineering Optimization	HALLAK, P. H. ; LEMONGE, A. C. C. ; BARBOSA, H. J. C. ; FONSECA, L. G.		
trabalhoCompletoEmCongresso	2014		A New hybridized mixed finite element method for heterogeneous porous media flow	CILAMCE 2014	IGREJA, I. H. A. ; FARIA, C. O. ; LOULA, A. F. D.		
trabalhoCompletoEmCongresso	2014		Estudo de Convergência de Aproximações por Elementos Finitos Híbridos Estabilizados para o Problema de Stokes	CNMAC 2014	IGREJA, I. H. A. ; FARIA, C. O. ; LOULA, A.F.D.		
trabalhoCompletoEmCongresso	2014		On the Control of Power Consumption in Server Farms via Heavy Traffic Approximation	53rd Conference on Decision and Control3rd Conference on Decision and Control	Leite, S. C. ; Fragoso, M.D.		
trabalhoCompletoEmCongresso	2014		Um metamodelo evolucionário para problemas de otimização estrutural não-linear geométrica	XI SIMMEC - Simpósio de Mecânica Computacional	LOUREIRO, M. M. S. ; LEMONGE, A. C. C. ; BARBOSA, H. J. C.		
trabalhoCompletoEmCongresso	2014		A Semi-Automatic Markerless Augmented Reality Approach for On-Patient Volumetric Medical Data Visualization	Fifth International Conference on Intelligent Systems Design and Engineering Applications	MACEDO, M. ; A. Apolinário ; SOUZA, A. C. ; GIRALDI, GILSON ANTONIO		
trabalhoCompletoEmCongresso	2014		A markerless augmented reality environment for medical data visualization	XIV Workshop de Informática Médica (WIM 2014)	MACEDO, M. ; SACRAMENTO, C. ; SOUZA, A. C. ; SILVA, Josildo P. ; A. Apolinário ; GIRALDI, G.A.		
trabalhoCompletoEmCongresso	2014		Hybrid metaheuristics for optimization using a parallel islands model	XXXV Iberian Latin-American Congress on Computational Methods in Engineering	MAGALHAES, T. T. ; NASCIMENTO, L. H. C. ; Krempser, E. ; Augusto, Douglas A. ; BARBOSA, H. J. C.		
trabalhoCompletoEmCongresso	2014	http://dx.doi.org/10.1109/CEC.2014.6900565	Optimization of combinational logic circuits through decomposition of truth table and evolution of sub-circuits	2014 IEEE Congress on Evolutionary Computation (CEC)	MANFRINI, FRANCISCO ; BARBOSA, HELIO J.C. ; Bernardino, Heder S.		
trabalhoCompletoEmCongresso	2014	http://dx.doi.org/10.1109/CDC.2014.7040047	New metthods for mode-independent robust control of Markov jump linear systems	53rd Conference on Decision and Control3rd Conference on Decision and Control	Marcos G. Todorov ; Fragoso, Marcelo D.		
trabalhoCompletoEmCongresso	2014		Detailed reconstruction for coronary arteries integrating angiographies and IVUS studies	WIM 2014	MASO TALOU, G. D. ; BLANCO, P. J. ; LARRABIDE, I. ; GUEDES BEZERRA, C. ; LEMOS, P. A. ; FEIJÓO, R. A.		
trabalhoCompletoEmCongresso	2014		Decomposition of IVUS studies in cardiac phases	BSA 2014	MASO TALOU, G. D. ; LARRABIDE, I. ; LEMOS, P. A. ; BLANCO, P. J. ; FEIJÓO, R. A.		
trabalhoCompletoEmCongresso	2014	http://dx.doi.org/10.1007/978-3-642-14788-3_37	Computational Modeling of Cytoskeleton Dynamics through Particle-In-Cell	XVII Convención Científica de Ingeniería y Architectura	MOURA, C. A. ; Kritz, MV ; LEAL, T. F. ; PROKOP, A.		
trabalhoCompletoEmCongresso	2014		Bridging Between Macroscopic Behavior of Shale Gas Reservoirs and Confined Fluids in Nanopores	14th European Conference on the Mathematics of Oil Recovery ECMOR XIV	MURAD, M.A.; LE, T.D. ; PEREIRA, P. C. ; Boutin Claude ; Sidarta A. Lima		
trabalhoCompletoEmCongresso	2014		Exploring Large Scale Receptor-Ligand Pairs in Molecular Docking Workflows in HPC Clouds	13th IEEE International Workshop on High Performance Computational Biology (HiComb 2014)	OCAÑA, K.A.C.S.; Benza, S. ; Oliveira, D. C. M. ; Dias, J. ; Mattoso, M. L. Q.		
trabalhoCompletoEmCongresso	2014		Exploiting the Parallel Execution of Homology Workflow Variants in HPC Compute Clouds	4th International Workshop on Cloud Computing and Scientific Applications (CCSA 2014)	OCAÑA, K.A.C.S.; Oliveira, D. C. M. ; Silva, V. ; Benza, S. ; Mattoso, M. L. Q.		
trabalhoCompletoEmCongresso	2014		Debugging Scientific Workflows with Provenance: Achievements and Lessons Learned	XXIX Simpósio Brasileiro de Banco de Dados	Oliveira, D. C. M. ; Costa, F. ; Silva, V. ; OCAÑA, K.A.C.S. ; Mattoso, M. L. Q.		
trabalhoCompletoEmCongresso	2014		Captura e Consulta a Dados de Proveniência Retrospectiva Implícita Intra-Atividade	XXIX Simpósio Brasileiro de Banco de Dados	Oliveira, W. ; Neves, V. ; OCAÑA, K.A.C.S. ; Murta, L. ; Oliveira, D. C. M. ; Braganholo, V.		
trabalhoCompletoEmCongresso	2014		Simulation of Quantum Walks using HPC	Conference of Computational Interdisciplinary Science	P. C. S. Lara ; A.B. Leão ; R. Portugal		
trabalhoCompletoEmCongresso	2014		Comparação entre abordagens multiobjetivo e mono-objetivo para o problema de programação em máquinas paralelas não relacionadas com tempos de preparação dependentes da sequência e datas de liberação	XXI Simpósio de Engenharia de Produção	PEREIRA, A. A. S. ; Bernardino, Heder S. ; BARBOSA, H. J. C.		
trabalhoCompletoEmCongresso	2014		Aplicação do Algoritmo de Otimização por Enxame de Partículas ao Problema de Otimização de Máquinas Paralelas Não-relacionadas com Penalidades por Adiantamento e Atraso	XXXV Iberian Latin-American Congress on Computational Methods in Engineering	PEREIRA, A. A. S. ; CARVALHO, E. C. R. ; BERNARDINO, H. S. ; BARBOSA, H. J. C.		
trabalhoCompletoEmCongresso	2014		Ciência de Dados	3o. Seminário de Grandes Desafios da Computação no Brasil	PORTO, F. A. M. ; ZIVIANI, A.		
trabalhoCompletoEmCongresso	2014		Derivada Topológica em um Problema Inverso de Reconstrução	CNMAC2014	ROCHA, S. ; Novotny, A. A.		
trabalhoCompletoEmCongresso	2014		Implementação e Experimentação de Políticas de Escalonamento Baseadas na Aleatoriedade e nos Estados dos Recursos	Simpósio em Sistemas Computacionais de Alto Desempenho (WSCAD)	RODRIGUES, I. M. ; ISHII, R. P. ; Gomes, A. T. A. ; REIS, V. Q.		
trabalhoCompletoEmCongresso	2014		Finite element simulations to miscible displacements in highly heterogeneous porous media	XXXV Iberian Latin American Congress on Computational Methods in Engineering	NUNEZ, Y. R. ; LOULA, ABIMAEL F.D. ; MALTA, Sandra Mara Cardoso ; FARIA, C. O.		
trabalhoCompletoEmCongresso	2014		Evolução Gramatical Massivamente Paralela com OpenCL via Compilação dos Modelos Candidatos	XXXV Iberian Latin-American Congress on Computational Methods in Engineering	RUSSO, I. L. S. ; BERNARDINO, H. S. ; BARBOSA, H. J. C.		
trabalhoCompletoEmCongresso	2014		Derivada Topológica Associada ao Modelo de Placas de Reissner-Mindlin	CNMAC2014	SALES, V. ; Novotny, A. A.		
trabalhoCompletoEmCongresso	2014		A Discrete Monitoring Method for Pricing Brazilian Interest Rate Options and a New Finite Difference Implicit Scheme	14º ENCONTRO BRASILEIRO DE FINANÇAS	SILVA, A. J. ; Baczynski, J. ; VICENTE, J. V. M.		
trabalhoCompletoEmCongresso	2014		Inverse Problem in Anomalous Diffusion with Uncertainty Propagation	International Conference on Inverse Problems in Engineering: Theory and Practice	SILVA, L. G. ; KNUPP, D. C. ; BEVILACQUA, Luiz ; GALEÃO, Augusto Cesar Noronha Rodrigues ; SILVA NETO, A.		
trabalhoCompletoEmCongresso	2014		Estimação de Parâmetros do Modelo de Difusão Anômala Assimétrica Empregando Inferência Bayesiana com Método de Monte Carlo via Cadeia de Markov	Encontro Nacional de Modelagem Computacional	SILVA, L. G. ; KNUPP, D. C. ; LIanes Santiago, O. ; Câmara, L. D. T. ; SILVA NETO, A. ; GALEÃO, Augusto Cesar Noronha Rodrigues ; BEVILACQUA, Luiz		
trabalhoCompletoEmCongresso	2014		Uma Versão Modificada do Método Evolução Diferencial para Estimativa de Parâmetros do Modelo de Difusão Anômala Assimétrica	Congresso Nacional de Matemática Aplicada e Computacional	SILVA, L. G. ; KNUPP, D. C. ; SILVA NETO, A. ; Câmara, L. D. T. ; BEVILACQUA, Luiz ; GALEÃO, Augusto Cesar Noronha Rodrigues ; LIanes Santiago, O.		
trabalhoCompletoEmCongresso	2014		Aplicação dos Métodos Evolução Diferencial e Algoritmo de Colisão de Partículas na Estimativa de Parâmetros do Modelo de Difusão Anômala	Congresso de Matemática Aplicada e Computacional da Região Sul (I CMAC-Sul)	SILVA, L. G. ; SILVA NETO, A. ; GALEÃO, Augusto Cesar Noronha Rodrigues ; KNUPP, D. C. ; BEVILACQUA, Luiz		
trabalhoCompletoEmCongresso	2014		Um Novo Método de Reconstrução de Fontes Concentradas	CNMAC2014	T.J. Machado ; Novotny, A. A.		
trabalhoCompletoEmCongresso	2014		Using MDD to the Automatic Synthesis of Graphical User Interfaces for Health Information Systems	Ibero-American Conference on Software Engineering (CIbSE)	TEIXEIRA, I. M. ; BRAGA, R. M. ; GOMES, A. T. A.		
trabalhoCompletoEmCongresso	2014		Segmentacao espacial nao uniforme aplicada ao reconhecimento de genero e expressoes faciais	11th Encontro Nacional de Inteligencia Artificial (ENIAC 2014)	Vagner Amaral ; GIRALDI, GILSON ANTONIO ; C.E. Thomaz		
trabalhoCompletoEmCongresso	2014		TIME INTEGRATION SCHEMES FOR A MULTISCALE FINITE ELEMENT FORMULATION TO SOLVE TRANSIENT ADVECTION-DIFFUSION-REACTION PROBLEMS	XXXV Iberian Latin American Congress on Computational Methods in Engineering	VALLI, A. M. P. ; CATABRIGA, L. ; Almeida, R. C. ; SANTOS, I. P.		
trabalhoCompletoEmCongresso	2014		Análise do desempenho de algoritmos baseados em Evolução Diferencial acoplados a uma técnica de penalização adaptativa em problemas de otimização estrutural multiobjetivo com restrições	XI SIMMEC - Simpósio de Mecânica Computacional	VARGAS, DENIS E. C. ; LEMONGE, A. C. C. ; BARBOSA, H. J. C. ; Bernardino, Heder S.		
trabalhoCompletoEmCongresso	2014		Derivada Topológica na Otimização de Estruturas Submetidas à Pressão Hidrostática	CILAMCE2014	XAVIER, M. ; Novotny, A. A.		
trabalhoCompletoEmCongresso	2014		Naegling: Um Sistema para Implementação e Administração de Clusters e Submissão de Tarefas	XXXII Simpósio Brasileiro de Redes de Computadores e Sistemas Distribuídos (SBRC)	Yokoyama, D. ; Kloh, Henrique ; Schulze, Bruno ; Mury, Antonio		
trabalhoCompletoEmCongresso	2014	http://dx.doi.org/10.1007/978-3-540-75999-7_61	A combined direct discontinuous Galerkin and hybrid mixed finite element method for chemotaxis problem	XXXV CILAMCE	ZHANG, R. ; LOULA, Abimael F D ; ZHU, JIANG ; YU, Xijun		
resumoExpandidoEmCongresso	2014	Starting to Uncover the Relationship Between Stochastic Factorization and Hidden Markov Models	Neural Information Processing Systems, 2014, Montreal. Advances in Neural Information Processing Systems	BARRETO, A. M. S.; PIGEM, B. B. ; PINEAU, J. ; PRECUP, D.		
resumoExpandidoEmCongresso	2014	Execução de Workflows Científicos de Bioinformática na Nuvem: Experiências e Desafios	BRESCI - VIII Brazilian e-Science Workshop, 2014, Brasília. BRESCI - VIII Brazilian e-Science Workshop	Benza, S. ; OCAÑA, K.A.C.S. ; Mattoso, M. L. Q.		
resumoExpandidoEmCongresso	2014	Morphological characterization and comparison of coronary arterial trees	WIM 2014, Workshop de Informática Médica, 2014, Brasília. Anais do WIM 2014, Workshop de Informática Médica	BULANT, C. A. ; BLANCO, P. J. ; ASSUNCAO JR, A. N. ; LIBERATO, G. ; LIMA, T. P. ; PARGA FILHO, J. R. ; LEMOS, P. A. ; AVILA, L. F. R. ; FEIJÓO, R. A.		
resumoExpandidoEmCongresso	2014	MPI/OpenMP/OpenACC implementations for the solution of convection-diffusion equations with the HOPMOC Method	The 14th International Conference on Computational Science and Its Applications 2014, 2014, Porto. The 14th International Conference on Computational Science and Its Applications (ICCSA 2014)	CABRAL, F. L. ; KISCHINHEVSKY, M. ; BRANDAO, D. ; Osthoff, C		
resumoExpandidoEmCongresso	2014	Towards Supporting Provenance Gathering and Querying in Different Database Approaches	International Provenance and Annotation Workshop (IPAW), 2014, Cologne. Proc. of the 5th Intl. Provenance and Annotation Workshop	Costa, F. ; Silva, V. ; Oliveira, D. C. M. ; OCAÑA, K.A.C.S. ; Mattoso, M. L. Q.		
resumoExpandidoEmCongresso	2014	AICoH 3D: Atlas Interativo do Corpo Humano	Symposium on Virtual and Augmented reality, 2014, Salvador, BA. Anais do XVI Symposion on Virtual and Augmented Reality. Porto Alegre, RS: SBC	Cruz, L. C. ; THOMAZ, V. ; OLIVEIRA, J. C.		
resumoExpandidoEmCongresso	2014	Characterizing the Workload Dynamics of a Mobile Phone Network During the FIFA 2014 World Cup	IEEE International Performance Computing and Communications Conference (IPCCC 2014), 2014, Austin, TX, EUA. Poster no IEEE International Performance Computing and Communications Conference (IPCCC 2014)	CURTO, H. ; CAETANO, J. ; ALMEIDA, J. M. ; ZIVIANI, A. ; MALAB, C. H. S. ; MARQUES-NETO, H. T.		
resumoExpandidoEmCongresso	2014	Constructive algorithm of optimized arterial networks	CLAIB 2014, VI Latin American Conference on Biomedical Engineering, 2014, Paraná. Proceedings of the CLAIB 2014, VI Latin American Conference on Biomedical Engineering	QUEIROZ, R. A. B. ; BLANCO, P. J. ; FEIJÓO, R. A. ; ULYSSES, J. N.		
resumoExpandidoEmCongresso	2014	A Strategy for Opportunistic Cognitive Channel Allocation in Wireless Internet of Things	IFIP Wireless Days 2014, 2014, Rio de Janeiro, RJ. Proceedings of the IFIP Wireless Days 2014	SHIGUETA, R. ; FONSECA, M. S. P. ; VIANA, A. C. ; ZIVIANI, A. ; MUNARETTO, A.		
resumoExpandidoEmCongresso	2014	Unfitted MHDG method for elliptic interface problems	WCCM XI, 2014, Barcelona. 11th World Congress on Computational Mechanics. Barcelona: IACM	ZHU, J.; VARGAS, H.		
