ID_Lattes|MATRICULA|NOME|CH|mail|LP_1|PROGRAMA_1|CATEG_1|Periodo_Inicio_1|Periodo_Fim_1|Resp_prog|Resp_LP1
K4774938J4|99999|UMBERTO CELLI JUNIOR|40|USP@USP.br|USP|USP|P|2013|2016|USP|USP
K4787812J9|99999|LISBETH RUTH REBOLLO GONCALVES|40|USP@USP.br|USP|USP|P|2013|2016||
K4783260Y2|99999|CREMILDA CELESTE DE ARAUJO MEDINA|40|USP@USP.br|USP|USP|P|2013|2016||
K4281650D7|99999|MARCO AURELIO GUMIERI VALERIO|40|USP@USP.br|USP|USP|P|2013|2016||
K4780967H7|99999|MARILENE PROENCA REBELLO DE SOUZA|40|USP@USP.br|USP|USP|P|2013|2016||
K4785755H1|99999|JULIO MANUEL PIRES|40|USP@USP.br|USP|USP|P|2013|2016||
K4362882Z6|99999|JOSE MAURICIO CONTI|40|USP@USP.br|USP|USP|P|2013|2016||
K4211147Y6|99999|GUSTAVO ALBERTO ARCE|40|USP@USP.br|USP|USP|P|2013|2016||
K4763208T3|99999|ELIZABETH BALBACHEVSKY|40|USP@USP.br|USP|USP|P|2013|2016||
K4721446E4|99999|DILMA DE MELO SILVA|40|USP@USP.br|USP|USP|P|2013|2016||
K4220888J3|99999|DENNIS DE OLIVEIRA|40|USP@USP.br|USP|USP|P|2013|2016||
K4773890A8|99999|CLAUDIA FAZZOLARI|40|USP@USP.br|USP|USP|P|2013|2016||
K4739977E1|99999|CHARLES PEREIRA PENNAFORTE|40|USP@USP.br|USP|USP|P|2013|2016||
NOK|99999|VIRGINIA PARENTE DE BARROS|40|USP@USP.br|USP|USP|P|2013|2016||
K4780150Y2|99999|SUANI TEIXEIRA COELHO|40|USP@USP.br|USP|USP|P|2013|2016||
K4727938T5|99999|SONIA SEGER PEREIRA MERCEDES|40|USP@USP.br|USP|USP|P|2013|2016||
NOK|99999|CARLOS ANTONIO ROMERO MENDEZ|40|USP@USP.br|USP|USP|P|2013|2016||
K4763736U3|99999|ANDRE ROBERTO MARTIN|40|USP@USP.br|USP|USP|P|2013|2016||
K4782807A7|99999|AMAURY PATRICK GREMAUD|40|USP@USP.br|USP|USP|P|2013|2016||
K4765312A2|99999|GLADYS BEATRIZ BARREYRO|40|USP@USP.br|USP|USP|P|2013|2016||
K4894919H2|99999|RENATO DA SILVA QUEIROZ|40|USP@USP.br|USP|USP|P|2013|2016||
K4786442J3|99999|ALBERTO DO AMARAL JUNIOR|40|USP@USP.br|USP|USP|P|2013|2016||
K4785417T1|99999|AFRANIO MENDES CATANI|40|USP@USP.br|USP|USP|P|2013|2016||
K4783583T5|99999|SEDI HIRANO|40|USP@USP.br|USP|USP|P|2013|2016||
K4796154H5|99999|RICARDO LUIS CHAVES FEIJO|40|USP@USP.br|USP|USP|P|2013|2016||
K4791930H9|99999|RENATO BRAZ OLIVEIRA DE SEIXAS|40|USP@USP.br|USP|USP|P|2013|2016||
K4768137D4|99999|PAULO BORBA CASELLA|40|USP@USP.br|USP|USP|P|2013|2016||
K4718526U9|99999|MARCO ANTONIO BETTINE DE ALMEIDA|40|USP@USP.br|USP|USP|P|2013|2016||
K4761217Z1|99999|JORGE ALBERTO SILVA MACHADO|40|USP@USP.br|USP|USP|P|2013|2016||
NOK|99999|HERVE EMILIEN RENE THERY|40|USP@USP.br|USP|USP|P|2013|2016||
K4767332P9|99999|GERARDO KUNTSCHIK|40|USP@USP.br|USP|USP|P|2013|2016||
K4226657D5|99999|ELIZABETE FRANCO CRUZ|40|USP@USP.br|USP|USP|P|2013|2016||
K4761669H5|99999|MAURICIO CARDOSO|40|USP@USP.br|USP|USP|P|2013|2016||
K4894919H2|99999|RENATO DA SILVA QUEIROZ|40|USP@USP.br|USP|USP|P|2013|2016||
K4423020H0|99999|MARGARIDA MARIA MOURA|40|USP@USP.br|USP|USP|P|2013|2016||
K4768265A4|99999|SILVANA DE SOUZA NASCIMENTO|40|USP@USP.br|USP|USP|P|2013|2016||
NOK|99999|SERGIO BAIRON BLANCO SANT ANNA|40|USP@USP.br|USP|USP|P|2013|2016||
K4718124D5|99999|SANDRA REGINA CHAVES NUNES|40|USP@USP.br|USP|USP|P|2013|2016||
K4760690Y4|99999|SAMUEL FELDBERG|40|USP@USP.br|USP|USP|P|2013|2016||
K4214882Y5|99999|PAULO CESAR ENDO|40|USP@USP.br|USP|USP|P|2013|2016||
K4208658E3|99999|MARIA DAS GRACAS DE SOUZA|40|USP@USP.br|USP|USP|P|2013|2016||
K4467597Y5|99999|FERNANDO FAGUNDES FERREIRA|40|USP@USP.br|USP|USP|P|2013|2016||
K4783120H5|99999|CANDIDO FERREIRA XAVIER DE MENDONCA NETO|40|USP@USP.br|USP|USP|P|2013|2016||
K4785978J6|99999|DIAMANTINO ALVES CORREIA PEREIRA|40|USP@USP.br|USP|USP|P|2013|2016||
K4220888J3|99999|DENNIS DE OLIVEIRA|40|USP@USP.br|USP|USP|P|2013|2016||
K4782399T5|99999|BERNARDO MANCANO FERNANDES|40|USP@USP.br|USP|USP|P|2013|2016||
K4708983J2|99999|AUREA MARIA ZOLLNER IANNI|40|USP@USP.br|USP|USP|P|2013|2016||
NOK|99999|ANDREA VIUDE CASTANHO|40|USP@USP.br|USP|USP|P|2013|2016||
K4774871A3|99999|ANDREA CAVICCHIOLI|40|USP@USP.br|USP|USP|P|2013|2016||
K4796238P0|99999|ANA PAULA FRACALANZA|40|USP@USP.br|USP|USP|P|2013|2016||
K4421612A5|99999|URSULA DIAS PERES|40|USP@USP.br|USP|USP|P|2013|2016||
K4760815Y6|99999|SORAIA ANSARA|40|USP@USP.br|USP|USP|P|2013|2016||
K4785578J2|99999|SILVIA HELENA ZANIRATO|40|USP@USP.br|USP|USP|P|2013|2016||
K4796348D4|99999|WALTER GARCIA DA SILVEIRA JUNIOR|40|USP@USP.br|USP|USP|P|2013|2016||
K4782816D8|99999|VANDERLI CUSTODIO|40|USP@USP.br|USP|USP|P|2013|2016||
K4788508P3|99999|THEREZINHA APPARECIDA PORTO ANCONA LOPEZ|40|USP@USP.br|USP|USP|P|2013|2016||
K4780042D6|99999|LUIZ BARCO|40|USP@USP.br|USP|USP|P|2013|2016||
K4793985J8|99999|TERUMI OKADA OZAWA|40|USP@USP.br|USP|USP|P|2013|2016||
K8643463E9|99999|SIMONE SOARES|40|USP@USP.br|USP|USP|P|2013|2016||
K4792558Y6|99999|ROSELI MARIA ZECHI|40|USP@USP.br|USP|USP|P|2013|2016||
K4183577P3|99999|RENATO YASSUTAKA FARIA YAEDU|40|USP@USP.br|USP|USP|P|2013|2016||
K4780104A3|99999|RENATA PACIELLO YAMASHITA|40|USP@USP.br|USP|USP|P|2013|2016||
K4723346U9|99999|NANCY MIZUE KOKITSU NAKATA|40|USP@USP.br|USP|USP|P|2013|2016||
K4723163E0|99999|MARIZA RIBEIRO FENIMAN|40|USP@USP.br|USP|USP|P|2013|2016||
K4797415D2|99999|LUCILENE ARILHO RIBEIRO BICUDO|40|USP@USP.br|USP|USP|P|2013|2016||
K4708737J6|99999|HEDIO TATIZAWA|40|USP@USP.br|USP|USP|P|2013|2016||
K4792660U1|99999|FERNANDO SELLES RIBEIRO|40|USP@USP.br|USP|USP|P|2013|2016||
K4793504Z6|99999|EDMILSON MOUTINHO DOS SANTOS|40|USP@USP.br|USP|USP|P|2013|2016||
K4783565Y4|99999|COLOMBO CELSO GAETA TASSINARI|40|USP@USP.br|USP|USP|P|2013|2016||
K4789651E0|99999|MARIA LEINE GUION DE ALMEIDA|40|USP@USP.br|USP|USP|P|2013|2016||
K4781084Z9|99999|MARIA INES PEGORARO_KROOK|40|USP@USP.br|USP|USP|P|2013|2016||
K4700270U5|99999|MARIA DE LOURDES MERIGHI TABAQUIM|40|USP@USP.br|USP|USP|P|2013|2016||
K4793984P8|99999|MARCIA RIBEIRO GOMIDE|40|USP@USP.br|USP|USP|P|2013|2016||
K4707505Z6|99999|LUCIMARA TEIXEIRA DAS NEVES|40|USP@USP.br|USP|USP|P|2013|2016||
K4721292P0|99999|ADNEI MELGES DE ANDRADE|40|USP@USP.br|USP|USP|P|2013|2016||
K4756004H3|99999|RODRIGO CRISTIANO QUEIROZ|40|USP@USP.br|USP|USP|P|2013|2016||
K4737552U4|99999|RICARDO NASCIMENTO FABBRINI|40|USP@USP.br|USP|USP|P|2013|2016||
K4762040Y8|99999|PERCIVAL TIRAPELI|40|USP@USP.br|USP|USP|P|2013|2016||
K4789452P2|99999|MARTA HELOISA LEUBA SALUM|40|USP@USP.br|USP|USP|P|2013|2016||
K4783207H7|99999|MARIA HELENA ROLIM CAPELATO|40|USP@USP.br|USP|USP|P|2013|2016||
K4700881Y7|99999|ALEXANDRE PIANTINI|40|USP@USP.br|USP|USP|P|2013|2016||
K4787438U9|99999|ARTUR MATUCK|40|USP@USP.br|USP|USP|P|2013|2016||
K4775984D3|99999|ARTHUR HUNOLD LARA|40|USP@USP.br|USP|USP|P|2013|2016||
K4774894Z4|99999|ANDERSON VINICIUS ROMANINI|40|USP@USP.br|USP|USP|P|2013|2016||
K4433792Z7|99999|ANA GONCALVES MAGALHAES|40|USP@USP.br|USP|USP|P|2013|2016||
K4795331Z7|99999|LUCIANA PAULA MAXIMINO|40|USP@USP.br|USP|USP|P|2013|2016||
K4721441D6|99999|KATIA FLORES GENARO|40|USP@USP.br|USP|USP|P|2013|2016||
K4708018U0|99999|JOSE ROBERTO PEREIRA LAURIS|40|USP@USP.br|USP|USP|P|2013|2016||
K4706646Y0|99999|JOAO HENRIQUE NOGUEIRA PINTO|40|USP@USP.br|USP|USP|P|2013|2016||
K4793955Y8|99999|JENIFFER DE CASSIA RILLO DUTKA|40|USP@USP.br|USP|USP|P|2013|2016||
K4735220H2|99999|IVY KIEMLE TRINDADE SUEDAM|40|USP@USP.br|USP|USP|P|2013|2016||
K4787002T6|99999|INGE ELLY KIEMLE TRINDADE|40|USP@USP.br|USP|USP|P|2013|2016||
K4785562A5|99999|ILZA LAZARINI MARQUES|40|USP@USP.br|USP|USP|P|2013|2016||
K4779311A9|99999|GISELE DA SILVA DALBEN|40|USP@USP.br|USP|USP|P|2013|2016||
K4706423E6|99999|DANIELA GAMBA GARIB CARREIRA|40|USP@USP.br|USP|USP|P|2013|2016||
K4777115H8|99999|ALEXANDRE PANOSSO NETTO|40|USP@USP.br|USP|USP|P|2013|2016||
K4220697P5|99999|ADRIANO SCHWARTZ|40|USP@USP.br|USP|USP|P|2013|2016||
K4768154T4|99999|SIDNEI RAIMUNDO|40|USP@USP.br|USP|USP|P|2013|2016||
K4727703P9|99999|SALVADOR ANTONIO MIRELES SANDOVAL|40|USP@USP.br|USP|USP|P|2013|2016||
K4799481T6|99999|PATRICIA JUNQUEIRA GRANDINO|40|USP@USP.br|USP|USP|P|2013|2016||
NOK|99999|MARIA ELISA MATTOSINHO BERNARDES|40|USP@USP.br|USP|USP|P|2013|2016||
K4761144T2|99999|MARCOS BERNARDINO DE CARVALHO|40|USP@USP.br|USP|USP|P|2013|2016||
NOK|99999|EDEGAR LUIZ TOMAZZONI|40|USP@USP.br|USP|USP|P|2013|2016||
K4790869U1|99999|ANTONIO RIBEIRO DE ALMEIDA JUNIOR|40|USP@USP.br|USP|USP|P|2013|2016||
K8541254U3|99999|GISLENE APARECIDA DOS SANTOS|40|USP@USP.br|USP|USP|P|2013|2016||
K4701182A1|99999|GILSON SCHWARTZ|40|USP@USP.br|USP|USP|P|2013|2016||
K4559066H6|99999|VIVIAN GRACE FERNANDEZ DAVILA URQUIDI|40|USP@USP.br|USP|USP|P|2013|2016||
K4734884J6|99999|VERONICA MARCELA GURIDI|40|USP@USP.br|USP|USP|P|2013|2016||
K4767233H1|99999|VALERIA CAZETTA|40|USP@USP.br|USP|USP|P|2013|2016||
K4799690A6|99999|THOMAS AUGUSTO SANTORO HADDAD|40|USP@USP.br|USP|USP|P|2013|2016||
K4766807U0|99999|ROGERIO MONTEIRO DE SIQUEIRA|40|USP@USP.br|USP|USP|P|2013|2016||
K8279506J6|99999|RICARDO SOUZA DE CARVALHO|40|USP@USP.br|USP|USP|P|2013|2016||
K4795272Z5|99999|PABLO ORTELLADO|40|USP@USP.br|USP|USP|P|2013|2016||
K4706978D1|99999|MARIO PEDRAZZOLI NETO|40|USP@USP.br|USP|USP|P|2013|2016||
K4792593P0|99999|MARIA ELENA INFANTE MALACHIAS|40|USP@USP.br|USP|USP|P|2013|2016||
K4780033Z2|99999|LUIZ SILVEIRA MENNA BARRETO|40|USP@USP.br|USP|USP|P|2013|2016||
K4706272H2|99999|LUIZ GONZAGA GODOI TRIGO|40|USP@USP.br|USP|USP|P|2013|2016||
K4785101P0|99999|MARTA INEZ MEDEIROS MARQUES|40|USP@USP.br|USP|USP|P|2013|2016||
K4780868J8|99999|EUCENIR FREDINI ROCHA|40|USP@USP.br|USP|USP|P|2013|2016||
K4728180H5|99999|MARIA CRISTINA CORTEZ WISSENBACH|40|USP@USP.br|USP|USP|P|2013|2016||
K4782186D5|99999|ANGELA MARIA MACHADO DE LIMA HUTCHISON|40|USP@USP.br|USP|USP|P|2013|2016||
K4792547J3|99999|SARA ALBIERI|40|USP@USP.br|USP|USP|P|2013|2016||
K4774156Z2|99999|MARCELO ARNO NERLING|40|USP@USP.br|USP|USP|P|2013|2016||
K4783039U8|99999|MARA SELAIBE|40|USP@USP.br|USP|USP|P|2013|2016||
K4768514D4|99999|LUIS GUILHERME GALEAO DA SILVA|40|USP@USP.br|USP|USP|P|2013|2016||
K4780085H8|99999|JOSE CARLOS SEBE BOM MEIHY|40|USP@USP.br|USP|USP|P|2013|2016||
K4760827Z8|99999|JOSE ANTONIO VASCONCELOS|40|USP@USP.br|USP|USP|P|2013|2016||
K4265920T8|99999|FRANCIONE OLIVEIRA CARVALHO|40|USP@USP.br|USP|USP|P|2013|2016||
K4787933D5|99999|FATIMA CORREA OLIVER|40|USP@USP.br|USP|USP|P|2013|2016||
K4795025T3|99999|SILGIA APARECIDA DA COSTA|40|USP@USP.br|USP|USP|P|2013|2016||
NOK|99999|WALDENIR CALDAS|40|USP@USP.br|USP|USP|P|2013|2016||
K4766700E3|99999|SUZANA HELENA DE AVELAR GOMES|40|USP@USP.br|USP|USP|P|2013|2016||
K4771103Y0|99999|SIRLENE MARIA DA COSTA|40|USP@USP.br|USP|USP|P|2013|2016||
NOK|99999|REGINA APARECIDA SANCHES ROSSI|40|USP@USP.br|USP|USP|P|2013|2016||
K4792506D6|99999|MAURICIO DE CAMPOS ARAUJO|40|USP@USP.br|USP|USP|P|2013|2016||
K4786636H5|99999|MARIA SILVIA BARROS DE HELD|40|USP@USP.br|USP|USP|P|2013|2016||
K4787451U1|99999|ZILDA MARCIA GRICOLI IOKOI|40|USP@USP.br|USP|USP|P|2013|2016||
K4799160E4|99999|MARIA CONSTANCA PERES PISSARRA|40|USP@USP.br|USP|USP|P|2013|2016||
K4772699J5|99999|LUIS PAULO DE CARVALHO PIASSI|40|USP@USP.br|USP|USP|P|2013|2016||
K4798555U8|99999|VALERIA BARBOSA DE MAGALHAES|40|USP@USP.br|USP|USP|P|2013|2016||
K4763355D6|99999|REGIA CRISTINA OLIVEIRA|40|USP@USP.br|USP|USP|P|2013|2016||
K4267909Z6|99999|MADALENA PEDROSO AULICINO|40|USP@USP.br|USP|USP|P|2013|2016||
K4787912D6|99999|JOSE CARLOS GARCIA DURAND|40|USP@USP.br|USP|USP|P|2013|2016||
K4761354P8|99999|JEFFERSON AGOSTINI MELLO|40|USP@USP.br|USP|USP|P|2013|2016||
K4770868D5|99999|GRAZIELA SERRONI PEROSA|40|USP@USP.br|USP|USP|P|2013|2016||
K4799483T8|99999|LUCIANA MARIA VIVIANI|40|USP@USP.br|USP|USP|P|2013|2016||
K4138906U4|99999|DARIA GORETE JAREMTCHUK|40|USP@USP.br|USP|USP|P|2013|2016||
K4784478P6|99999|CARLOS HENRIQUE BARBOSA GONCALVES|40|USP@USP.br|USP|USP|P|2013|2016||
K4774871A3|99999|ANDREA CAVICCHIOLI|40|USP@USP.br|USP|USP|P|2013|2016||
K4771695H7|99999|ANA LAURA GODINHO LIMA|40|USP@USP.br|USP|USP|P|2013|2016||
K4297164H8|99999|MARCOS ALEXANDRE COELHO ZILLI|40|USP@USP.br|USP|USP|P|2013|2016||
K4253569U4|99999|FABIO RAMAZZINI BECHARA|40|USP@USP.br|USP|USP|P|2013|2016||
NOK|99999|CYRO RODRIGO MONTOYA ROJAS|40|USP@USP.br|USP|USP|P|2013|2016||
K4133683H8|99999|CLAUDIA MORAES DE SOUZA|40|USP@USP.br|USP|USP|P|2013|2016||
NOK|99999|STELIO ALESSANDRO MARRAS|40|USP@USP.br|USP|USP|P|2013|2016||
K4799652Y6|99999|PAULO TEIXEIRA IUMATTI|40|USP@USP.br|USP|USP|P|2013|2016||
K4756936Y3|99999|MONICA DUARTE DANTAS|40|USP@USP.br|USP|USP|P|2013|2016||
K4791544Z6|99999|MAYRA LAUDANNA|40|USP@USP.br|USP|USP|P|2013|2016||
K4794809D7|99999|MARCOS ANTONIO DE MORAES|40|USP@USP.br|USP|USP|P|2013|2016||
K4761207H2|99999|LUIZ ARMANDO BAGOLIN|40|USP@USP.br|USP|USP|P|2013|2016||
K4782255H0|99999|JAIME TADEU OLIVA|40|USP@USP.br|USP|USP|P|2013|2016||
K4784736Y9|99999|FLAVIA CAMARGO TONI|40|USP@USP.br|USP|USP|P|2013|2016||
NOK|99999|FERNANDO AUGUSTO MAGALHAES PAIXAO|40|USP@USP.br|USP|USP|P|2013|2016||
K4728916J7|99999|ANA PAULA CAVALCANTI SIMIONI|40|USP@USP.br|USP|USP|P|2013|2016||
K8434660U7|99999|ALEXANDRE DE FREITAS BARBOSA|40|USP@USP.br|USP|USP|P|2013|2016||
K4794323H9|99999|FERNANDO DE SOUZA COELHO|40|USP@USP.br|USP|USP|P|2013|2016||
K4761812J5|99999|PAULO ANTONIO DE ALMEIDA SINISGALLI|40|USP@USP.br|USP|USP|P|2013|2016||
K4797756Z1|99999|LUIS CLAUDIO PORTUGAL DO NASCIMENTO|40|USP@USP.br|USP|USP|P|2013|2016||
K4711341U3|99999|ISABEL CRISTINA ITALIANO|40|USP@USP.br|USP|USP|P|2013|2016||
K4730720A6|99999|FRANCISCO JAVIER SEBASTIAN MENDIZABAL ALVAREZ|40|USP@USP.br|USP|USP|P|2013|2016||
K4607167A8|99999|FRANCISCA DANTAS MENDES|40|USP@USP.br|USP|USP|P|2013|2016||
K4763681J6|99999|FERNANDO AUIL|40|USP@USP.br|USP|USP|P|2013|2016||
K4776649A3|99999|ELIAS FREDERICO|40|USP@USP.br|USP|USP|P|2013|2016||
K4709826J6|99999|DIB KARAM JUNIOR|40|USP@USP.br|USP|USP|P|2013|2016||
K4246188D3|99999|CLAUDIA REGINA GARCIA|40|USP@USP.br|USP|USP|P|2013|2016||
K4708100P2|99999|JULIA BARUQUE RAMOS|40|USP@USP.br|USP|USP|P|2013|2016||
K4783604D1|99999|JOSE JORGE BOUERI FILHO|40|USP@USP.br|USP|USP|P|2013|2016||
K4716418Y8|99999|ANTONIO TAKAO KANAMARU|40|USP@USP.br|USP|USP|P|2013|2016||
K4704391H1|99999|JOAO PAULO PEREIRA MARCICANO|40|USP@USP.br|USP|USP|P|2013|2016||
K4768935H3|99999|MASAYUKI OKA HASE|40|USP@USP.br|USP|USP|P|2013|2016||
K4796528H4|99999|JOSE RICARDO GONCALVES DE MENDONCA|40|USP@USP.br|USP|USP|P|2013|2016||
K4730720A6|99999|FRANCISCO JAVIER SEBASTIAN MENDIZABAL ALVAREZ|40|USP@USP.br|USP|USP|P|2013|2016||
K4779634P2|99999|FLAVIA MORI SARTI|40|USP@USP.br|USP|USP|P|2013|2016||
K4707930T5|99999|ESTEBAN FERNANDEZ TUESTA|40|USP@USP.br|USP|USP|P|2013|2016||
K4706351U7|99999|DIEGO ANTONIO FALCETA GONCALVES|40|USP@USP.br|USP|USP|P|2013|2016||
K4721644P7|99999|CRISTINA ADAMS|40|USP@USP.br|USP|USP|P|2013|2016||
K4282472Y3|99999|CARLOS DE BRITO PEREIRA|40|USP@USP.br|USP|USP|P|2013|2016||
K4766676U7|99999|CARLA MORSELLO|40|USP@USP.br|USP|USP|P|2013|2016||
K4780120H9|99999|CAMILO RODRIGUES NETO|40|USP@USP.br|USP|USP|P|2013|2016||
K4793977E4|99999|ANDRE CAVALCANTI ROCHA MARTINS|40|USP@USP.br|USP|USP|P|2013|2016||
K4727356U1|99999|ANA AMELIA BENEDITO SILVA|40|USP@USP.br|USP|USP|P|2013|2016||
K4767718Y3|99999|DEUSIVANIA VIEIRA DA SILVA FALCAO|40|USP@USP.br|USP|USP|P|2013|2016||
NOK|99999|BIBIANA GRAEFF CHAGAS PINTO FABRE|40|USP@USP.br|USP|USP|P|2013|2016||
K4772951E6|99999|BEATRIZ APARECIDA OZELLO GUTIERREZ|40|USP@USP.br|USP|USP|P|2013|2016||
K4787975T5|99999|ANITA LIBERALESSO NERI|40|USP@USP.br|USP|USP|P|2013|2016||
K4457925D1|99999|ANDREA LOPES|40|USP@USP.br|USP|USP|P|2013|2016||
K4336283A6|99999|ALEXANDRE FERREIRA RAMOS|40|USP@USP.br|USP|USP|P|2013|2016||
K4790783U6|99999|VANESSA MARTINS VALENTE GUIMARAES|40|USP@USP.br|USP|USP|P|2013|2016||
K4771222Z8|99999|SAMILA SATHLER TAVARES BATISTONI|40|USP@USP.br|USP|USP|P|2013|2016||
K4762980Y5|99999|RUTH CALDEIRA DE MELO|40|USP@USP.br|USP|USP|P|2013|2016||
K4775839E7|99999|ROSA YUKA SATO|40|USP@USP.br|USP|USP|P|2013|2016||
K4797128T6|99999|MONICA SANCHES YASSUDA|40|USP@USP.br|USP|USP|P|2013|2016||
K4266828U2|99999|MEIRE CACHIONI|40|USP@USP.br|USP|USP|P|2013|2016||
NOK|99999|MARISA ACCIOLY RODRIGUES DA COSTA DOMINGUES|40|USP@USP.br|USP|USP|P|2013|2016||
K4700686E6|99999|HUMBERTO MIGUEL GARAY MALPARTIDA|40|USP@USP.br|USP|USP|P|2013|2016||
K8211930Z9|99999|GUILHERME ASSIS DE ALMEIDA|40|USP@USP.br|USP|USP|P|2013|2016||
K4791116Z6|99999|FRANCISCO LUCIANO PONTES JUNIOR|40|USP@USP.br|USP|USP|P|2013|2016||
K8034322P9|99999|BEATRIZ COSTA|40|USP@USP.br|USP|USP|P|2013|2016||
K4783676T6|99999|ANTONIO RICHIERI DA COSTA|40|USP@USP.br|USP|USP|P|2013|2016||
K4767936P5|99999|ANA PAULA FUKUSHIRO|40|USP@USP.br|USP|USP|P|2013|2016||
K4763854T3|99999|ANA LUCIA POMPEIA FRAGA DE ALMEIDA|40|USP@USP.br|USP|USP|P|2013|2016||
K4782836H6|99999|MARIA CRISTINA MACHADO FREIRE|40|USP@USP.br|USP|USP|P|2013|2016||
K4742029Y0|99999|LIVIA MARIA ARMENTANO KOENIGSTEIN ZAGO|40|USP@USP.br|USP|USP|P|2013|2016||
K4787812J9|99999|LISBETH RUTH REBOLLO GONCALVES|40|USP@USP.br|USP|USP|P|2013|2016||
K4734393H9|99999|THAIS MARCHINI DE OLIVEIRA|40|USP@USP.br|USP|USP|P|2013|2016||
K4787862D7|99999|KATIA CANTON MONTEIRO|40|USP@USP.br|USP|USP|P|2013|2016||
K4787417H4|99999|JOAO AUGUSTO FRAYZE PEREIRA|40|USP@USP.br|USP|USP|P|2013|2016||
K4401141D9|99999|JANE APARECIDA MARQUES|40|USP@USP.br|USP|USP|P|2013|2016||
K4790173Z2|99999|IRENE DE ARAUJO MACHADO|40|USP@USP.br|USP|USP|P|2013|2016||
K4796524Y4|99999|HELOUISE LIMA COSTA|40|USP@USP.br|USP|USP|P|2013|2016||
K4783231A8|99999|ELZA MARIA AJZENBERG|40|USP@USP.br|USP|USP|P|2013|2016||
K4780140Y4|99999|ELIANE DIAS DE CASTRO|40|USP@USP.br|USP|USP|P|2013|2016||
K4721132E9|99999|EDSON ROBERTO LEITE|40|USP@USP.br|USP|USP|P|2013|2016||
K4721446E4|99999|DILMA DE MELO SILVA|40|USP@USP.br|USP|USP|P|2013|2016||
K4781734H4|99999|DENISE DIAS BARROS|40|USP@USP.br|USP|USP|P|2013|2016||
K4787896P0|99999|DAISY VALLE MACHADO PECCININI|40|USP@USP.br|USP|USP|P|2013|2016||
K4792790J9|99999|CARMEN SYLVIA GUIMARAES ARANHA|40|USP@USP.br|USP|USP|P|2013|2016||
K4728243E1|99999|BEATRIZ PICCOLOTTO SIQUEIRA BUENO|40|USP@USP.br|USP|USP|P|2013|2016||
K4795687D4|99999|CELIO BERMANN|40|USP@USP.br|USP|USP|P|2013|2016||
K4798561J3|99999|ARNALDO GAKIYA KANASHIRO|40|USP@USP.br|USP|USP|P|2013|2016||
K4792660H9|99999|GERALDO FRANCISCO BURANI|40|USP@USP.br|USP|USP|P|2013|2016||
K4774754U9|99999|HIRDAN KATARINA DE MEDEIROS COSTA|40|USP@USP.br|USP|USP|P|2013|2016||
K4728494H6|99999|ILDO LUIS SAUER|40|USP@USP.br|USP|USP|P|2013|2016||
K4787331Y1|99999|OSVALDO LUIS ANGEL COGGIOLA|40|USP@USP.br|USP|USP|P|2013|2016||
K4781751T7|99999|MARIA LUCIA LAMOUNIER|40|USP@USP.br|USP|USP|P|2013|2016||
K8650244T6|99999|ANDRE FELIPE SIMOES|40|USP@USP.br|USP|USP|P|2013|2016||
K4708025E8|99999|PATRICIA HELENA LARA DOS SANTOS MATAI|40|USP@USP.br|USP|USP|P|2013|2016||
K4761822A5|99999|SERGIO ALMEIDA PACCA|40|USP@USP.br|USP|USP|P|2013|2016||
K4781487P4|99999|ROBERTO ZILLES|40|USP@USP.br|USP|USP|P|2013|2016||
K4791400J0|99999|MURILO TADEU WERNECK FAGA|40|USP@USP.br|USP|USP|P|2013|2016||
K4788524U5|99999|JOSE ROBERTO SIMOES MOREIRA|40|USP@USP.br|USP|USP|P|2013|2016||
K4235303D6|99999|JOSE ROBERTO MOREIRA|40|USP@USP.br|USP|USP|P|2013|2016||
K4727217T5|99999|JOSE GOLDEMBERG|40|USP@USP.br|USP|USP|P|2013|2016||
K4781259Z6|99999|MARIA CRISTINA CACCIAMALI|40|USP@USP.br|USP|USP|P|2013|2016||
K4783236H1|99999|MARGARIDA MARIA KROHLING KUNSCH|40|USP@USP.br|USP|USP|P|2013|2016||
K4799675A0|99999|MARCIO BOBIK BRAGA|40|USP@USP.br|USP|USP|P|2013|2016||
K4753918T4|99999|LUIZ ANTONIO LINDO|40|USP@USP.br|USP|USP|P|2013|2016||
K4790118T6|99999|LUCIA EMILIA NUEVO BARRETO BRUNO|40|USP@USP.br|USP|USP|P|2013|2016||
K4767063A6|99999|WAGNER TADEU IGLECIAS|40|USP@USP.br|USP|USP|P|2013|2016||
K4559066H6|99999|VIVIAN GRACE FERNANDEZ DAVILA URQUIDI|40|USP@USP.br|USP|USP|P|2013|2016||
