4785631459929035
5554521673242197
7323208655095786
6882548794489901
3163615920051354
0446643015157093
6863147508230737
9632409046763256
3581140143386171
1687762820299841
2954830416817871
1112267139974300
7562128593261814
0103007276004318
5457685717818972
7462836318959519
8785084711227475
5319016786437596
8355996722722760
6331616929001470
5022093326416720
5040223382381229
0020325122211962
0896060959622431
3979196299911690
4753625269613971
3238555337515281
6104324016617272
4153684635603288
3881871836797116
7434834118689893
4433454379646222
5753425860064151
1641169433303169
9295156379317498
6880602655569729
5205312713550726
