8656259486979143
9171690007212041
4687521701781735
2266103198034845
8756197722397278
1389825754483128
3964371281672065
3945991870627440
2185858940513067
3850817367861711
6880696447532558
2608583610949216
1661935150054196
0829505317241223
4251936710939364
4366472400277640
