artigoEmPeriodico	2013		Games e educação: desvendando o labirinto da pesquisa	REVISTA FAEEBA	ALVES, L. R. G	B1	
artigoEmPeriodico	2013		Games e interatividade: mapeando possibilidades	OBRA DIGITAL: JOURNAL OF COMMUNICATION AND TECHNOLOGY	ALVES, L. R. G	B3	
artigoEmPeriodico	2013		Games: delineando novos percursos de interação	INTERSEMIOSE - REVISTA DIGITAL	ALVES, L. R. G.; Rios, v ; Calbo, Thiago	Qualis nao identificado	INTERSEMIOSE - REVISTA DIGITAL
artigoEmPeriodico	2013		A colaboração em comunidades científicas interdisciplinares: análise de projetos de pesquisa com auxílio da teoria de redes	E.T.C. Educação, Tecnologia e Cultura	Andrade, M. T. T. ; ROCHA, E. C. ; Ribeiro, N. M. ; PEREIRA, H. B. B.	B4	
artigoEmPeriodico	2013		APCM: An Auto-Parallellism Computational Model. Increasing the performance of MPI applications in multi-core environments	Journal of Computer Science and Technology (La Plata. En línea)	André Luiz Lima da Costa ; SOUZA, J. R.	B1	Journal of Computer Science and Technology
artigoEmPeriodico	2013	http://dx.doi.org/10.3895/S1808-04482013000300003	DESENVOLVIMENTO DE UMA METODOLOGIA DE INTEGRAÇÃO DA TECNOLOGIA RFID PARA A CADEIA DE SUPRIMENTOS DAS EMPRESAS MONTADORAS DE MICROCOMPUTADORES NO PÓLO DE INFORMÁTICA DE ILHÉUS/BA	Revista Gestão Industrial	ARAUJO FILHO, F. W. C. ; Travassos, Lucas ; PASSOS, F.U.	B3	
artigoEmPeriodico	2013		A financial viability analysis of a RFID system in the microcomputer supply chain	GEPROS. Gestão da Produção, Operações e Sistemas	CASTRO FILHO, F. W. ; Figueiredo, P. S. ; TRAVASSOS, X. L.	B4	
artigoEmPeriodico	2013	http://dx.doi.org/10.1590/S0103-37862013000200007	Records management: a basis for organizational learning and innovation	Transinformação	CUNHA, F. J. A. Pedroza ; Ribeiro, N. M. ; PEREIRA, H. B. B.	B1	
artigoEmPeriodico	2013		Química sem fronteiras: O desafio da energia	Química Nova (Impresso)	da Rocha, Gisele O. ; de Andrade, Jailson B. ; Guarieiro A.L.N. ; GUARIEIRO, L.L.N. ; RAMOS, L. P.	A2	
artigoEmPeriodico	2013	http://dx.doi.org/10.1016/j.physa.2013.01.055	A network approach based on cliques	Physica. A (Print)	FADIGAS, Inácio de Sousa ; PEREIRA, H. B. B.	A2	
artigoEmPeriodico	2013		Digital games and assistive technology: improvement of communication of children with cerebral palsy	International Journal of Special Education	FERREIRA, M. I. J. ; Travassos, X. L. ; ALVES, L. R. G. ; SAMPAIO, R. R. ; Pereira-Guizzo, C. S.	A1	International Journal of Science Education
artigoEmPeriodico	2013	http://dx.doi.org/10.1590/S0102-77862013000400001	A solution of nonlinear equation for the gravity wave spectra from Adomian decomposition method: a first approach	Revista Brasileira de Meteorologia (Impresso)	GOULART, A. G. ; MOREIRA, D.M. ; PIMENTEL, L. C. G. ; PEREZ-GUERRERO, J. S.	A2	
artigoEmPeriodico	2013	http://dx.doi.org/10.1504/IJSOI.2013.059377	A discrete simulation model for incorporating RFID technology into the Brazilian postal service	International Journal of Services Operations and Informatics	JORIS, J. J. ; TRAVASSOS, X. L. ; Figueiredo, P. S.	Qualis nao identificado	International Journal of Services Operations and Informatics
artigoEmPeriodico	2013		Processo integrado de projeto, aquisição e execução de sistemas de impermeabilização em edifícios residenciais	Ambiente Construído (Online)	LIMA, J. L. A. ; PASSOS, F. U. ; COSTA, D. B.	B1	
artigoEmPeriodico	2013	http://dx.doi.org/10.1364/OE.21.025010	Femtosecond spatial pulse shaping at the focal plane	Optics Express	MARTÍNEZ-MATOS, Ó. ; VAVELIUK, P. ; IZQUIERDO, J. G. ; LORIOT, V.	A1	
artigoEmPeriodico	2013		Fatores de Decisão Quanto à Localização de Fornecedores no Setor Automotivo Nacional	Ciências Sociais em Perspectiva (Impresso)	MENEZES, B. L. S. ; PISANU, L. ; MIURA, M. N. ; SAMPAIO, R. R. ; SENNA, V.	B3	
artigoEmPeriodico	2013	http://dx.doi.org/10.3895/s1808-04482013000300012	REDES DE INDÚSTRIAS DE AUTOPEÇAS: ASPECTOS DAS EXPORTAÇÕES NACIONAIS	Revista Gestão Industrial	MENEZES, B. L. S. ; PISANU, L. ; Senna, V. ; SAMPAIO, R. R. ; MIURA, M. N.	B3	
artigoEmPeriodico	2013	http://dx.doi.org/10.1590/S0102-77862013000400003	A model employing integral transform method to simulate pollutant dispersion in atmosphere	Revista Brasileira de Meteorologia (Impresso)	MOREIRA, D.M.; GOULART, A. G. ; Moraes, M.R.	A2	
artigoEmPeriodico	2013	http://dx.doi.org/10.1007/s00170-012-4474-8	Process optimization for PA12/MWCNT nanocomposite manufacturing by selective laser sintering	International Journal of Advanced Manufacturing Technology (Internet)	PAGGI, R. A. ; Beal, V. E. ; SALMORIA, G. V.	B2	
artigoEmPeriodico	2013		Melhorias operacionais de processos contínuos acompanhadas por ferramentas da produção enxuta - estudo de caso em uma petroquímica brasileira	REGE Revista de Gestao	PASSOS, F.U.; ARAGAO, I.	Qualis nao identificado	REGE Revista de Gestao
artigoEmPeriodico	2013		Dimensional management practices to improve product development: application at a brazilian automotive plant	Product (IGDP)	PASSOS, F.U.; CERQUEIRA, R. C.	B1	
artigoEmPeriodico	2013		Redes Sociais e Complexas: Aplicações em Difusão do Conhecimento	Academia de Ciências da Bahia: Memória	PEREIRA, H. B. B	Qualis nao identificado	Academia de Ciências da Bahia: Memória
artigoEmPeriodico	2013	http://dx.doi.org/10.1016/j.physa.2013.07.034	Nonextensivity and entropy of astrophysical sources	Physica. A (Print)	PRADO, Antonio Cezar ; JESUS, José Carlos Oliveira de ; Moret, M.A.	A2	
artigoEmPeriodico	2013		TECNOLOGIA ASSISTIVA ? UMA REVISÃO DO TEMA	HOLOS (NATAL. ONLINE)	RODRIGUES, P. R. ; ALVES, L. R. G.	B2	
artigoEmPeriodico	2013		Fluxos de informação e conhecimento no desenvolvimento de produto na indústria automotiva - uma comparação entre as redes formal e informal	Revista Produção Online	SAMPAIO, R. R. ; MORAES, M. ; PASSOS, F. U.	B2	
artigoEmPeriodico	2013	http://dx.doi.org/10.4236/act.2013.22008	Accuracy of Rapid Prototyping Biomodels Plotted by Three Dimensional Printing Technique: <i>Ex Vivo</i> Study	Advances in Computed Tomography	SARMENTO, Viviane Almeida ; BASTOS, L. C. ; SAFIRA, L. C. ; Beal, Valter Estevão ; FRANCISCHONE, C. E. ; AZEVEDO, R. A.	Qualis nao identificado	Advances in Computed Tomography
artigoEmPeriodico	2013		O GAME IN SITU E A APRENDIZAGEM EXPERIENCIAL DO JOGAR: DESVENDANDO SEU POTENCIAL DIDÁTICO-PEDAGÓGICO (THE GAME IN SITU LEARNING AND EXPERIENTIAL PLAY: UNWEAVING POTENTIAL DIDACTIC-PEDAGOGIC)	REVISTA METÁFORA EDUCACIONAL	SOUZA, C. R. T. ; SILVA, MARCO C. ; ALVES, L. R. G.	Qualis nao identificado	REVISTA METÁFORA EDUCACIONAL
artigoEmPeriodico	2013		Professores e os jogos digitais: um olhar sobre as possibilidades pedagógicas destas mídias	A COR DAS LETRAS (UEFS)	Torres, Velda ; ALVES, L. R. G.	B1	
artigoEmPeriodico	2013	http://dx.doi.org/10.2528/PIER13050606	FEATURES OF THE GOUY PHASE OF NONDIFFRACTING BEAMS	Electromagnetic Waves (Cambridge Online)	VAVELIUK, P.; MARTINEZ MATOS, O. ; TORCHIA, G. A.	Qualis nao identificado	Electromagnetic Waves (Cambridge Online)
artigoEmPeriodico	2013	http://dx.doi.org/10.1016/j.physa.2013.01.011	DCCA cross-correlation coefficient differentiation: Theoretical and practical approaches	Physica. A (Print)	Zebende, G.F.; DA SILVA, M.F. ; Machado Filho, A.	A2	
trabalhoCompletoEmCongresso	2013		Utilizing remote sensing instruments to evaluate WRF-CMAQ model in urban environment	AGU Meeting of the Americas	ALBUQUERQUE, T. T. A. ; Salvador, N. ; Nascimento, E. S. ; Reis Jr, Neyval ; Santos, J.M. ; MOREIRA, D.M.		
trabalhoCompletoEmCongresso	2013		CMAQ validation of optical parameters and PM10 concentrations based on LIDAR experimental campaign in the Metropolitan Area of Vitoria - Brazil	12th Annual CMAS Conference	ALBUQUERQUE, T. T. A. ; SHANKAR, U. ; Nascimento, E. S. ; Salvador, N. ; Loriato, A.G. ; LANDULFO, E. ; HELD, G. ; REIS, NEYVAL C. JR. ; MOREIRA, D.M.		
trabalhoCompletoEmCongresso	2013		Signos e Códigos Visuais da Fôrma de Calçados: uma Leitura Ergonômica dos Pinos de Cor	ENEGEP 2013 - XX Encontro Nacional de Engenharia de Produção	ALMEIDA, A. R. S. ; CAVALCANTI, M. S. M. ; ARAUJO FILHO, W. R. ; SAMPAIO, R. R. ; BARBOSA, J. D. V.		
trabalhoCompletoEmCongresso	2013		Jogos digitais e aprendizagem	I Jornadas Iberoamericanas de Difusión y Capacitación sobre Aplicaciones y Usabilidad de la Televisión Digital Interactiva	ALVES, L. R. G. ; NEVES, I. B. ; SOUZA, J. R.		
trabalhoCompletoEmCongresso	2013		Análise da disfagia através da autocorrelação e correlação cruzada: Modelo computacional para a deglutição	IV encontro de pesquisa operacional do norte nordeste	CASTRO, A. P. N. ; ZEBENDE, G. F. ; SILVA FILHO, A. M.		
trabalhoCompletoEmCongresso	2013		Design for dimensional control in product development - a management application at a brazilian automotive industry plant	IAMOT 2013 - 22nd Conference of International Association on Management of Technology	CERQUEIRA, R. C. ; PASSOS, F. U.		
trabalhoCompletoEmCongresso	2013		Avaliação do Conhecimento em Propriedade Intelectual e Inovação de Alunos Iniciantes de um Mestrado Profissionalizante	VIII Congresso Norte Nordeste de Pesquisa e Inovação	CERQUEIRA, V. B. ; PEREIRA-GUIZZO, C. S. ; TRAVASSOS, X. L.		
trabalhoCompletoEmCongresso	2013		Redes de títulos de artigos científicos variáveis no tempo	XXXIII CONGRESSO DA SOCIEDADE BRASILEIRA DE COMPUTAÇÃO	CUNHA, M. V. ; ROSA, M. G. ; FADIGAS, Inácio de Sousa ; MIRANDA, J. G. V. ; PEREIRA, H. B. B.		
trabalhoCompletoEmCongresso	2013		Análise de redes de coautoria por meio de redes semânticas uniformes	XXXIII CONGRESSO DA SOCIEDADE BRASILEIRA DE COMPUTAÇÃO	FADIGAS, Inácio de Sousa ; CUNHA, M. V. ; ROSA, M. G. ; PEREIRA, H. B. B.		
trabalhoCompletoEmCongresso	2013		Avaliação heurística como método potencial para avaliar a eficiência	IX Seminário de Jogos eletrônicos	FUENTES, L. ; JULIANO, M. ; ALVES, L. R. G.		
trabalhoCompletoEmCongresso	2013		A solution of nonlinear equation for the gravity wave spectra in middle atmosphere from decomposition method	1st Annual CMAS South America Conference	GOULART, A. G. ; MOREIRA, D.M.		
trabalhoCompletoEmCongresso	2013		Guardiões da Floresta Mundo 1	IX Seminário de Jogos eletrônicos	GUIMARAES, J. ; ALVES, L. R. G. ; NEVES, I. B.		
trabalhoCompletoEmCongresso	2013		Fast Object Search In Home Environments using Saliency Detection and Color Signature Matching	IX Workshop de Visão Computacional (WVC 2013)	Jose Grimaldo ; SILVA, A. D. G. ; SAPUCAIA, F. ; SOUZA, J. R. ; SIMÕES, Marco Antonio Costa		
trabalhoCompletoEmCongresso	2013		A new analytical solution of the advection-diffusion equation for a ground-level finite area source	1st Annual CMAS South America Conference	Leite, M. F. ; MOREIRA, D.M. ; GOULART, A. G.		
trabalhoCompletoEmCongresso	2013		Avaliação do processo integrado de projeto, aquisição e execução de sistemas de impermeabilização em edifícios residenciais	SIBRAGEC 2013 - 8o. Simpósio Brasileiro de Gestão e Economia da Construção	LIMA, J. L. A. ; PASSOS, F.U. ; COSTA, D. B.		
trabalhoCompletoEmCongresso	2013		Significado de Corresidência a partir da análise de uma rede social de idosos	XXXIII CONGRESSO DA SOCIEDADE BRASILEIRA DE COMPUTAÇÃO	LOPES, C. R. S. ; RODRIGUES, A. A. A. O. ; ROSA, M. G. ; Andrade, M. T. T. ; FADIGAS, Inácio de Sousa ; VILELA, A. B. A. ; PEREIRA, H. B. B.		
trabalhoCompletoEmCongresso	2013		Análise Cognitiva da Difusão de Conhecimento em Humanização na Saúde: Uma Estratégia a partir das Redes Semânticas	I Seminário Conhecimento	LOPES, C. R. S. ; RODRIGUES, A. A. A. O. ; VILELA, A. B. A. ; PEREIRA, H. B. B.		
trabalhoCompletoEmCongresso	2013		Avaliação de ações e resultados de gestão da tecnologia: estudo de caso em um centro de pesquisa da Embrapa	XV ALTEC 2013 - XV Congresso Latino-Iberoamericano de Gestão da Tecnologia	MACHADO, L. C. R. ; PASSOS, F. U.		
trabalhoCompletoEmCongresso	2013		Face recognition model applied to the missing people problem	8ª Conferência Ibérica de Sistemas e Tecnologias de Informação (CISTI 2013)	Marcos Batista Figueredo ; SOUZA, J. R.		
trabalhoCompletoEmCongresso	2013		Efeito do Tipo de Solvente na Morfologia do Compósito WC-Co	ABM International Annual Congress - 68th	MELLO, P. S. ; Beal, V. E. ; SILVA, A. ; CARDOSO, M. A.		
trabalhoCompletoEmCongresso	2013		A mathematical model to simulate rocket exhaust clouds in Alcantara Launch Center	21st ESA Symposium on European Rocket Balloon Programmes and related Research	MOREIRA, D.M.; Nascimento, E. S. ; ALBUQUERQUE, T. T. A. ; FISCH, G. ; BUSKE, D. ; QUADROS, R.S.		
trabalhoCompletoEmCongresso	2013		A numerical study of the contaminants dispersion in Alcantara Launch Center	1st Annual CMAS South America Conference	Nascimento, E. S. ; MOREIRA, D.M. ; ALBUQUERQUE, T. T. A. ; FISCH, G.		
trabalhoCompletoEmCongresso	2013		Modeling the impact of emissions of HCL during rocket launch events in the region of Alacantara Launch Center	12th Annual CMAS Conference	Nascimento, E. S. ; MOREIRA, D.M. ; FISCH, G. ; ALBUQUERQUE, T. T. A.		
trabalhoCompletoEmCongresso	2013		A mathematical scheme to analytically solve the atmospheric diffusion equation with non-Fickian closure	1st Annual CMAS South America Conference	PANTOJA, P. H. B. ; MOREIRA, D.M. ; GOULART, A. G.		
trabalhoCompletoEmCongresso	2013		O design como agente integrador das atividades de projeto e fabricação de produtos industriais	Congresso Brasileiro de Engenharia de Fabricação	PINA, Suzana Angélica da S. M. ; Beal, V. E. ; MACHADO, A. M.		
trabalhoCompletoEmCongresso	2013		Avaliação de amortecedores veiculares remanufaturados segundo alguns critérios da Norma ABNT NBR 13308	XXI Simpósio Internacional de Engenharia Automotiva	PISANU, L. ; GUARIEIRO, L.L.N. ; SOARES, A. B. J. ; BARRETO, M. O. ; REZENDE, R. F. ; TURRINI, J. R.		
trabalhoCompletoEmCongresso	2013		Teoria de Redes e Análise de Documentos: Análise das atividades desenvolvidas e da interação entre os atores no programa de educação pelo trabalho para a saúde	I Seminário Conhecimento	RODRIGUES, A. A. A. O. ; LOPES, C. R. S. ; SOUZA, Eliane Santos ; PEREIRA, H. B. B.		
trabalhoCompletoEmCongresso	2013		Modelagem e simulação computacional para o balanceamento de linhas de montagem de eletrônicos	ENEGEP 2013 - XXXIII Encontro Nacional de Engenharia de Produção	RUSSEL, R. O. M. ; PASSOS, F. U.		
trabalhoCompletoEmCongresso	2013		Energy balance and sizing of refrigeration cascade system of 4 stages of applied to liquefaction of petrochemical inputs using carbon dioxide (co2) in one of stages	COBEM - Brazilian Congress of Mechanical Engineering	SACRAMENTO JUNIOR, G. ; SANTOS, A. A. B. ; TOFANELI, L. A.		
trabalhoCompletoEmCongresso	2013		Sensitivity of the Weather Research and Forecasting (WRF) model using different domain settings	1st Annual CMAS South America Conference	Salvador, N. ; ALBUQUERQUE, T. T. A. ; MOREIRA, D.M. ; Loriato, A.G. ; Reis Jr, Neyval		
trabalhoCompletoEmCongresso	2013		Difusão do Conhecimento e Inovação em Sistemas Locais de Produção: Uma modelagem baseada na Dinâmica de Sistemas	XXXVII EnANPAD	SAMPAIO, R. R.; ALBUQUERQUE, J. C. M.		
trabalhoCompletoEmCongresso	2013		Proposição de uma Carta Prosoporrecognográfica: Biometria, Imagem e Identificação Humana	I Seminário Conhecimento	SANTOS FILHO, E. F. ; PEREIRA, H. B. B.		
trabalhoCompletoEmCongresso	2013		CAVITAÇÃO EM BOMBAS CENTRIFUGAS: ANÁLISE DAS TÉCNICAS DE MEDIÇÃO	28° Congresso Brasileiro e 5° Mundial de Manutenção e Gestão de Ativos	SANTOS, C. M. ; Silva, Valeria L. da		
trabalhoCompletoEmCongresso	2013		Gestão dos Cursos Técnicos e Tecnológicos Ofertados Pelos Campi dos IFBA's Recém Inaugurados: Perspectivas dos Discentes	VIII CONNEPI - Congresso Norte Nordeste de Pesquisa e Inovação	SANTOS, M. ; Pereira-Guizzo, C. S. ; SAMPAIO, R. R.		
trabalhoCompletoEmCongresso	2013		Uso do Espaço ?Ba? para Resolução de um Problema de Manutenção Crônico em uma Empresa de Petróleo e Gás na Região da Bahia	ENGENHARIA DE PRODUÇÃO OBJETIVOS DE DESENVOLVIMENTO DO MILÊNIO	SANTOS, R. C. R. ; SAMPAIO, R. R. ; SANTOS, I. B.		
trabalhoCompletoEmCongresso	2013		Projeto Fox: Um Game Voltado Para Mediação Do Ensino Da Matemática	VIII SMAT - Simpósio de Matemática da FCT-UNESP	SANTOS, W. S. ; ALVES, L. R. G.		
trabalhoCompletoEmCongresso	2013		A experiência de aplicação da Aprendizagem Baseada em Problemas no processo de construção e representação do conhecimento de deficientes visuais	III Congreso Internacional del Conocimiento	SENA, Cláudia Pinto Pereira ; CASAS, Trazíbulo Henrique Pardo ; Pereira, Hernane B. de Barros		
trabalhoCompletoEmCongresso	2013		Bahia RT - Team Description for IEEE Open League 2013	Competição Brasileira de Robótica 2013	SILVA, A. D. G. ; JESUS, L. S. ; SAPUCAIA, F. ; SOUZA, J. R.		
trabalhoCompletoEmCongresso	2013		Sistema de representação de conhecimento para pessoas com deficiência visual: etapas iniciais	XIII ERBASE - Escola Regional de Computação Bahia	SILVA, D. F. ; SENA, Cláudia Pinto Pereira ; CARVALHO, R. S. ; CASAS, Trazíbulo Henrique Pardo ; PEREIRA, H. B. B.		
trabalhoCompletoEmCongresso	2013		Estudo Comparativo da Eletroerosão de Geometrias Utilizando um Eletrodo Único e um Conjunto de Eletrodos	Congresso Brasileiro de Engenharia de Fabricação	Silveira, Solano C. ; Beal, Valter Estevão ; SOUZA, G. O.		
trabalhoCompletoEmCongresso	2013		O Uso do Rastreador Ocular (Eye-Tracking) como instrumento de investigação	VIII Congresso Norte Nordeste de Pesquisa e Inovação	SOUZA, M. L. ; PEREIRA-GUIZZO, C. S. ; SANTOS, A. A. B.		
trabalhoCompletoEmCongresso	2013		'A voz da experiência' a importância da gestão do conhecimento para a gestão da manutenção	28o CBM ABRAMAN	Souza, M.L. ; FIGUEROA FILHO, C. L. S. ; PIMENTEL, C. F. ; SANTOS, A. A. B.		
trabalhoCompletoEmCongresso	2013		O uso do rastreador ocular (eye - tracking) como instrumento de investigação e aplicação na indústria	Congresso norte e nordeste de pesquisa e inovação	Souza, M.L. ; Guizzo, C.S.P. ; SANTOS, A. A. B.		
trabalhoCompletoEmCongresso	2013		Análise de desempenho e eficiência de um cluster de computadores e interconexão de redes utilizando bibliotecas matemáticas	Escola Regional de Alto Desempenho - Região Nordeste (ERAD 2013)	ZACARIAS, F. V. ; SOUZA, J. R.		
trabalhoCompletoEmCongresso	2013		Avaliação de Desempenho do cluster Gabi	ERBASE 2013	ZACARIAS, F. V. ; SOUZA, J. R. ; MOREIRA JUNIOR, A. L. ; OLIVEIRA, P. M.		
resumoExpandidoEmCongresso	2013	Impacto do uso de combustíveis oxigenados na distribuição de número tamanho de partículas emitidas na exaustão de motores diesel	17o Encontro Nacional de Química Analítica, 2013, Belo Horizonte. 17o Encontro Nacional de Química Analítica. Belo Horizonte: ENQA	GUERREIRO, E. T. A. ; AMPARO, K. K. S. ; REGIS, A. C. D. ; SANTOS, A. G. ; FERREIRA, V. P. ; LEAO, D. J. ; GUARIEIRO, L.L.N. ; ANDRADE, J. B. ; TORRES, E. A.		
