2699196515879292
1348339517901277
8444233927942764
0925321719024140
8200282913635713
9615242685505657
6535849579850035
4762940910820774
9257679689413129
4630203406071626
0826147739353493
3608337314955861
1913450752136533
8452695309949645
7984956973544220
7253800571271613
