
PB0:2015,33;
PB1:2015,3;
PB2:2015,5;
PB3:*itens sem ano,3;
PB4:2015,54;
PB5:2015,1;
PB7:2015,1;
PB8:2015,2;
PB9:2015,1;
PT4:2015,3;
OA0:2017,2;
OA1:2012,1;2013,2;2014,7;2015,3;2016,8;2017,5;
OA2:2015,2;2016,9;2017,1;
OA4:2012,1;2014,1;2015,3;2016,3;2017,2;
OA5:2015,2;2016,5;2017,3;
OA6:2016,3;2017,1;
OC0:2015,2;
OC1:2015,4;
OC2:2015,8;
OC3:2015,2;
OC4:2015,22;
OC5:2015,12;
OC6:2015,2;
Pm:2015,3;
Pj:2005,1;2006,1;2007,1;2008,1;2009,1;2010,3;2011,4;2012,17;2013,11;2014,14;2015,10;
PB:*itens sem ano,3;2015,100;
PT:2015,3;
OA:2012,2;2013,2;2014,8;2015,10;2016,28;2017,14;
OC:2015,52;
Ep:2015,12;
Eo:2015,4;