9324359705337165
1050746618632869
3199715225291891
6475578211223027
9077368946506327
8300604408079168
4823015255570780
5806335987370985
5966620282197803
4223023515340697
7830368617720691
2182469523085517
7033790503322903
5489716147268941
1668612075931292
7797591412467454
7026286906608794
5148738006361781
3600717156221610
4197765292133708
1064024354986457
7553730484942713
5869134586322420
0225181120381785
6168856791855771
4676152385114515
8753645048719661
9363662363558629
9630354933622470
0892700525174165
4302739691438115
0329680299677101
9562911881045203
4172627271304008
6643220835395053
1999072996132654
1751541641131615
3563388199116708
5766592315448911
9639478438049837
6952287901292567
3636446089150807
4347472265310068
8948736724490274
6689337073298410
5741265672918991
2115528633747994
8106394597196826
7260617202713011
4106650809852082
3941230416605264
4498921794690866
5460563167125298
1696410872979041
2318952982140062
6503437643971055
0000136496931211
9691158946757119
9785824475798098
5730724148619281
0684197852429199
8509299951934973
0941327169911953
0863968043431148
7826389991864785
4792955482152100
4432795912918439
1146961135029213
1067613933542183
9407781743023052
8728269747799638
0365017664358426
3457359052617472
8741348818224482
7336856031963507
8951119580894280
7213071452586511
6601368978577012
7328915770509368
7148278938710201
9552800287943943
3547563467278445
3431733379964662
0318613661791321
6100382011052492
9249762467927503
8971480998826687
1838276397621049
0067454249660429
8203775174455802
7307238902576135
9949095344927048
9308644794847698
6417401108821012
9222099862516722
1314103727012428
5795686040144018
5474375266161250
6669992155373315
8531997680500054
9634798722030132
7942236784762872
1138886981164516
9611390222968763
2908589410457132
6779440880272510
2043142641394519
4151047705720605
1161317972489632
3441663371947837
4708472912137052
0543546857869709
9541007270626249
2805938218973544
2072178311397599
6371816276381906
3486694358849656
0868641613829716
0145732751364477
5655543840075429
8954452060507230
8219040433135438
7462703432059206
5898851138882202
5174723144800716
9802541551771948
7632384762890959
5337976093923686
2946188832376054
8458559657676452
0037384367302439
1950252722273276
4523248341892791
2761265043297482
6725653281197187
3399621063210711
4606323653368522
5756386679108092
2997104571590784
4226375515310772
3250828790957748
3728820959678712
2030376534946806
2008628524865125
8094921112175699
0109837868064895
7999549075230676
8056607124807055
7586275285433094
4796921913434370
7841856756691485
3351408490818921
0608816393004565
7324264366851331
9833601447849479
6967843545999365
3185811599308597
2974805638656106
9481167576028723
9655772685355986
5258170521479781
5621408950724946
7882646067575607
3706003646448210
2624165654851359
5759364958802333
8936078410527761
9935262790232584
9802635232762865
9933203379443559
1924793275344587
6670564418850381
3110423356650397
5707564608312497
4589985881310274
2499667880913574
4202425451110063
1294795998541584
5219013163859829
2013862971682689
4373078440619206
3367716058360951
3333564230397157
5408802153017996
2341184189645578
2171233099903452
3907435267083360
4160029697609616
5788517777425593
9732945233432684
2870594474248181
1377022547816780
7710576432746865
8151916136602713
8563112446681030
6680742566331144
7183851351375986
9433217226192168
5036564341996991
7450433597868881
6860112313500088
3041067031974241
0888188783738720
7720745281276961
3474494395008338
1253432326873186
3267229946452849
5270449921166938
7536688336883949
9883717994679157
5415588200464028
0595743044953231
7717614144848477
9401814864083219
3603202046788146
8552395643522359
1106609472179988
9237713158265249
0165098232296847
8276146532011163
4945360224887149
8636427420690720
8689033273198737
9617425761648334
5682061083005668
4195594302858278
8286592186084379
8575407941797498
5723601524585562
5615616911271371
4177609760494723
9877644934852884
1120680635238742
8362665118581372
0315210533272570
6202668326517008
2255074072390583
8973059166150107
7076469780980629
9361889281000326
6090334823327910
9446444136737484
3768771535631844
3297441878828757
3329203465610170
2405261330251349
8744906868209575
9605924283751409
6802508689972103
3913405030821087
5021924487846716
0120399213525992
7987813860992687
3395535465429876
9177185874271719
4301479038166394
8928414093493138
2437533314886489
3704231514428206
3502913245055077
0940966067627095
7385942137403019
7623387678165519
5494459022670775
2782789004421615
1800091585796128
7733597096168092
6382816131483581
4575397883675980
8050918384749839
4069029801323676
2081510870046163
6664398749484422
0017232511307846
7712250134404053
4944213325519789
6855479157881680
4303756562067099
7662929784136459
6711736622467754
8492357600025098
2105606778953371
5229070595111885
6101413720736829
4930983389346351
5852835874411535
1827042213170077
4743119796895342
3916209435594204
8559550666210154
1392335366884977
7534201995446779
5530638975120211
4991764535879111
2817862240744528
0653907218397044
7215067259768975
7752682405672423
9481076970240115
8236220628868533
1508105634503621
7397346060264511
6624498430663692
7445031966618983
7980512405604760
3583921436364162
1743826010794846
1627016864213973
6538583680300405
7643891683704204
8690926504635230
5305286128985659
0581412073128121
2528969625695006
3124816623748836
2098309961147496
4441832944622649
1125112096913203
4325138532466897
6171612484179623
3404921714552476
1400563863971755
1351666144171457
6308970470903341
7870846190699057
0530700765360178
5686274460664884
8670994369210141
2370717228259133
9227678599102832
6597447489234947
9845641477918054
2311166437742092
3465680874418435
9561665589595461
6209504580928538
0002035835815084
4320367144812616
4140908385855725
6141644158691024
5466849608773643
6930010050985541
4334477266470595
1187656682344250
8613164875025286
7950388015437635
2032834036613391
2564752284276585
2020022456258895
0873865581940415
8980115502042564
7923179672918454
9490312100572373
1680024679466520
1939530661449967
3771260793334689
2612393585609762
2979257267430728
7522248950477961
6272872215125680
4795291231005974
2671095794007515
5018072793043957
2300941781787906
6898268616224305
7226228571158486
5883317325439133
1434593874580278
2545833113017441
3321947327740091
4096682046982653
8054560718905990
0301740293561579
6637016543996687
7274851313427808
8141875611393566
7801741654726440
