ID_Lattes|MATRICULA|NOME|CH|mail|LP_1|PROGRAMA_1|CATEG_1|Periodo_Inicio_1|Periodo_Fim_1|Resp_prog|Resp_LP1
K4781788P0|99999|ALICE THERESINHA CYBIS PEREIRA|40|UFSC@UFSC.br|UFSC|UFSC|P|2013|2016|UFSC|UFSC
K4767747A0|99999|ALEXANDRE LEOPOLDO GONCALVES|40|UFSC@UFSC.br|UFSC|UFSC|P|2013|2016||
K4797472J5|99999|AIRES JOSE ROVER|40|UFSC@UFSC.br|UFSC|UFSC|P|2013|2016||
NOK|99999|PATRICIA DE SÁ FREIRE|40|UFSC@UFSC.br|UFSC|UFSC|P|2013|2016||
K4176421A6|99999|NERI DOS SANTOS|40|UFSC@UFSC.br|UFSC|UFSC|P|2013|2016||
K4761699H4|99999|MARIO ANTONIO RIBEIRO DANTAS|40|UFSC@UFSC.br|UFSC|UFSC|P|2013|2016||
K4773916T5|99999|MARIA JOSE BALDESSAR|40|UFSC@UFSC.br|UFSC|UFSC|P|2013|2016||
K4831877D5|99999|MARCIO VIEIRA DE SOUZA|40|UFSC@UFSC.br|UFSC|UFSC|P|2013|2016||
K4769778E8|99999|MARCELO MACEDO|40|UFSC@UFSC.br|UFSC|UFSC|P|2013|2016||
K4773155A4|99999|LUCIANE MARIA FADEL|40|UFSC@UFSC.br|UFSC|UFSC|P|2013|2016||
K4795846Z4|99999|LIA CAETANO BASTOS|40|UFSC@UFSC.br|UFSC|UFSC|P|2013|2016||
K4790054T0|99999|JOSE LEOMAR TODESCO|40|UFSC@UFSC.br|UFSC|UFSC|P|2013|2016||
K4773819Z3|99999|MYRIAM RAQUEL MITJAVILA|40|UFSC@UFSC.br|UFSC|UFSC|P|2013|2016||
K4787366J4|99999|MIRIAM PILLAR GROSSI|40|UFSC@UFSC.br|UFSC|UFSC|P|2013|2016||
K4797473Z5|99999|MARIA DEL CARMEN CORTIZO|40|UFSC@UFSC.br|UFSC|UFSC|P|2013|2016||
K4791180E3|99999|MARIA BERNARDETE RAMOS FLORES|40|UFSC@UFSC.br|UFSC|UFSC|P|2013|2016||
K4780223H0|99999|MARCOS FABIO FREIRE MONTYSUMA|40|UFSC@UFSC.br|UFSC|UFSC|P|2013|2016||
K4797735Y7|99999|MARA COELHO DE SOUZA LAGO|40|UFSC@UFSC.br|UFSC|UFSC|P|2013|2016||
K4781918P4|99999|LUZINETE SIMOES MINELLA|40|UFSC@UFSC.br|UFSC|UFSC|P|2013|2016||
K4751454H5|99999|RENATO CISLAGHI|40|UFSC@UFSC.br|UFSC|UFSC|P|2013|2016||
K4751025Y2|99999|RAFAEL TEZZA|40|UFSC@UFSC.br|UFSC|UFSC|P|2013|2016||
NOK|99999|SILVANA LIGIA VINCENZI BORTOLOTTI|40|UFSC@UFSC.br|UFSC|UFSC|P|2013|2016||
K4784507E6|99999|RONALDO DOS SANTOS MELLO|40|UFSC@UFSC.br|UFSC|UFSC|P|2013|2016||
K4761453D1|99999|KATIA CILENE RODRIGUES MADRUGA|40|UFSC@UFSC.br|UFSC|UFSC|P|2013|2016||
K4772124T1|99999|JUAREZ BENTO DA SILVA|40|UFSC@UFSC.br|UFSC|UFSC|P|2013|2016||
K4788906D6|99999|JOAO BOSCO DA MOTA ALVES|40|UFSC@UFSC.br|UFSC|UFSC|P|2013|2016||
K4782543U9|99999|GIOVANI MENDONCA LUNARDI|40|UFSC@UFSC.br|UFSC|UFSC|P|2013|2016||
K4706545H1|99999|FERNANDO JOSE SPANHOL|40|UFSC@UFSC.br|UFSC|UFSC|P|2013|2016||
K4770153P7|99999|ELIANE POZZEBON|40|UFSC@UFSC.br|UFSC|UFSC|P|2013|2016||
K4777778Z6|99999|SIMONE MEISTER SOMMER BILESSIMO|40|UFSC@UFSC.br|UFSC|UFSC|P|2013|2016||
K4742109P2|99999|RODERVAL MARCELINO|40|UFSC@UFSC.br|UFSC|UFSC|P|2013|2016||
K4556726D8|99999|PAULO CESAR LEITE ESTEVES|40|UFSC@UFSC.br|UFSC|UFSC|P|2013|2016||
K4708780A1|99999|PATRICIA JANTSCH FIUZA|40|UFSC@UFSC.br|UFSC|UFSC|P|2013|2016||
K4736670U6|99999|OLGA YEVSEYEVA|40|UFSC@UFSC.br|UFSC|UFSC|P|2013|2016||
K4831877D5|99999|MARCIO VIEIRA DE SOUZA|40|UFSC@UFSC.br|UFSC|UFSC|P|2013|2016||
K4764597D9|99999|LUCIANA BOLAN FRIGO|40|UFSC@UFSC.br|UFSC|UFSC|P|2013|2016||
K4727351J1|99999|ROBSON RODRIGUES LEMOS|40|UFSC@UFSC.br|UFSC|UFSC|P|2013|2016||
K4792839E8|99999|ANDREA CRISTINA TRIERWEILLER|40|UFSC@UFSC.br|UFSC|UFSC|P|2013|2016||
K4773078T9|99999|ANDERSON LUIZ FERNANDES PEREZ|40|UFSC@UFSC.br|UFSC|UFSC|P|2013|2016||
K4767747A0|99999|ALEXANDRE LEOPOLDO GONCALVES|40|UFSC@UFSC.br|UFSC|UFSC|P|2013|2016||
K4139904D9|99999|VILSON GRUBER|40|UFSC@UFSC.br|UFSC|UFSC|P|2013|2016||
K4760448A2|99999|SANTIAGO PICH|40|UFSC@UFSC.br|UFSC|UFSC|P|2013|2016||
K4799800J3|99999|SANDRA NOEMI CUCURULLO DE CAPONI|40|UFSC@UFSC.br|UFSC|UFSC|P|2013|2016||
K4723070Y6|99999|ROSANA DE CARVALHO MARTINELLI FREITAS|40|UFSC@UFSC.br|UFSC|UFSC|P|2013|2016||
K4781178J6|99999|LUIZ FERNANDO SCHEIBE|40|UFSC@UFSC.br|UFSC|UFSC|P|2013|2016||
K4798590Y3|99999|JULIA SILVIA GUIVANT|40|UFSC@UFSC.br|UFSC|UFSC|P|2013|2016||
K4783046D7|99999|JOAO EDUARDO PINTO BASTO LUPI|40|UFSC@UFSC.br|UFSC|UFSC|P|2013|2016||
K4780737A2|99999|JOANA MARIA PEDRO|40|UFSC@UFSC.br|UFSC|UFSC|P|2013|2016||
K4735900A6|99999|JAVIER IGNACIO VERNAL|40|UFSC@UFSC.br|UFSC|UFSC|P|2013|2016||
K4787848A1|99999|REINALDO MATIAS FLEURI|40|UFSC@UFSC.br|UFSC|UFSC|P|2013|2016||
K4783934A1|99999|PAULO JOSE DUVAL DA SILVA KRISCHKE|40|UFSC@UFSC.br|UFSC|UFSC|P|2013|2016||
K4783205Z0|99999|PAULO HENRIQUE FREIRE VIEIRA|40|UFSC@UFSC.br|UFSC|UFSC|P|2013|2016||
K4788906D6|99999|JOAO BOSCO DA MOTA ALVES|40|UFSC@UFSC.br|UFSC|UFSC|P|2013|2016||
K4784943A0|99999|JOAO ARTUR DE SOUZA|40|UFSC@UFSC.br|UFSC|UFSC|P|2013|2016||
K4781008J1|99999|GREGORIO JEAN VARVAKIS RADOS|40|UFSC@UFSC.br|UFSC|UFSC|P|2013|2016||
K4797055P9|99999|GERTRUDES APARECIDA DANDOLINI|40|UFSC@UFSC.br|UFSC|UFSC|P|2013|2016||
K4796559Z6|99999|FRANCISCO ANTONIO PEREIRA FIALHO|40|UFSC@UFSC.br|UFSC|UFSC|P|2013|2016||
K4706545H1|99999|FERNANDO JOSE SPANHOL|40|UFSC@UFSC.br|UFSC|UFSC|P|2013|2016||
K4786441T6|99999|FERNANDO ALVARO OSTUNI GAUTHIER|40|UFSC@UFSC.br|UFSC|UFSC|P|2013|2016||
K4402862U9|99999|EDUARDO MOREIRA DA COSTA|40|UFSC@UFSC.br|UFSC|UFSC|P|2013|2016||
K4781485D1|99999|EDUARDO JUAN SORIANO SIERRA|40|UFSC@UFSC.br|UFSC|UFSC|P|2013|2016||
K4763068H1|99999|SILVIO SERAFIM DA LUZ FILHO|40|UFSC@UFSC.br|UFSC|UFSC|P|2013|2016||
K4787765U8|99999|ROSA MARIA VICARI|40|UFSC@UFSC.br|UFSC|UFSC|P|2013|2016||
K4788210U6|99999|ROGERIO CID BASTOS|40|UFSC@UFSC.br|UFSC|UFSC|P|2013|2016||
K4785379U6|99999|MARCIA GRISOTTI|40|UFSC@UFSC.br|UFSC|UFSC|P|2013|2016||
K4769763U3|99999|MARTA INEZ MACHADO VERDI|40|UFSC@UFSC.br|UFSC|UFSC|P|2013|2016||
K4785586A6|99999|TERESA KLEBA LISBOA|40|UFSC@UFSC.br|UFSC|UFSC|P|2013|2016||
K4780895U6|99999|SONIA WEIDNER MALUF|40|UFSC@UFSC.br|UFSC|UFSC|P|2013|2016||
K4785761Y8|99999|SERGIO LUIS BOEIRA|40|UFSC@UFSC.br|UFSC|UFSC|P|2013|2016||
K4783092P1|99999|SELVINO JOSE ASSMANN|40|UFSC@UFSC.br|UFSC|UFSC|P|2013|2016||
K4763530P2|99999|HELIO RAYMUNDO SANTOS SILVA|40|UFSC@UFSC.br|UFSC|UFSC|P|2013|2016||
K4781751D1|99999|EUNICE SUELI NODARI|40|UFSC@UFSC.br|UFSC|UFSC|P|2013|2016||
K4766985P0|99999|CRISTINA SCHEIBE WOLFF|40|UFSC@UFSC.br|UFSC|UFSC|P|2013|2016||
K4783996Z0|99999|CARMEN SILVIA RIAL|40|UFSC@UFSC.br|UFSC|UFSC|P|2013|2016||
K4791768A4|99999|ALEXANDRE FERNANDEZ VAZ|40|UFSC@UFSC.br|UFSC|UFSC|P|2013|2016||
K4799801H0|99999|VANIA RIBAS ULBRICHT|40|UFSC@UFSC.br|UFSC|UFSC|P|2013|2016||
K4704019T5|99999|TARCISIO VANZIN|40|UFSC@UFSC.br|UFSC|UFSC|P|2013|2016||
K4783890T7|99999|EDIS MAFRA LAPOLLI|40|UFSC@UFSC.br|UFSC|UFSC|P|2013|2016||
K4798728D2|99999|MARINA KEIKO NAKAYAMA|40|UFSC@UFSC.br|UFSC|UFSC|P|2013|2016||
K4787453J6|99999|CRISTIANO JOSE CASTRO DE ALMEIDA CUNHA|40|UFSC@UFSC.br|UFSC|UFSC|P|2013|2016||
K4762632A6|99999|DENILSON SELL|40|UFSC@UFSC.br|UFSC|UFSC|P|2013|2016||
NOK|99999|LUIZ OTÁVIO PIMENTEL|40|UFSC@UFSC.br|UFSC|UFSC|P|2013|2016||
K4798469E3|99999|ANDREA VALERIA STEIL|40|UFSC@UFSC.br|UFSC|UFSC|P|2013|2016||
K4130983T2|99999|CLARISSA STEFANI TEIXEIRA|40|UFSC@UFSC.br|UFSC|UFSC|P|2013|2016||
K4793930Z5|99999|CARLOS AUGUSTO MONGUILHOTT REMOR|40|UFSC@UFSC.br|UFSC|UFSC|P|2013|2016||
K4708600H5|99999|ARACI HACK CATAPAN|40|UFSC@UFSC.br|UFSC|UFSC|P|2013|2016||
K4707936A6|99999|ANA MARIA BENCCIVENI FRANZONI|40|UFSC@UFSC.br|UFSC|UFSC|P|2013|2016||
K4728714T4|99999|ROBERTO CARLOS DOS SANTOS PACHECO|40|UFSC@UFSC.br|UFSC|UFSC|P|2013|2016||
K4704042E0|99999|RICHARD PERASSI LUIZ DE SOUSA|40|UFSC@UFSC.br|UFSC|UFSC|P|2013|2016||
K4793253A4|99999|RICARDO AZAMBUJA SILVEIRA|40|UFSC@UFSC.br|UFSC|UFSC|P|2013|2016||
K4783810U8|99999|PAULO MAURICIO SELIG|40|UFSC@UFSC.br|UFSC|UFSC|P|2013|2016||
K4727979H1|99999|VINICIUS MEDINA KERN|40|UFSC@UFSC.br|UFSC|UFSC|P|2013|2016||
K4789776E6|99999|PEDRO ALBERTO BARBETTA|40|UFSC@UFSC.br|UFSC|UFSC|P|2013|2016||
K4728912A5|99999|MARCELO MENEZES REIS|40|UFSC@UFSC.br|UFSC|UFSC|P|2013|2016||
K4457217Z8|99999|LIZANDRA DA SILVA|40|UFSC@UFSC.br|UFSC|UFSC|P|2013|2016||
K4786441T6|99999|FERNANDO ALVARO OSTUNI GAUTHIER|40|UFSC@UFSC.br|UFSC|UFSC|P|2013|2016||
K4783330A4|99999|DILVO ILVO RISTOFF|40|UFSC@UFSC.br|UFSC|UFSC|P|2013|2016||
K4780721U5|99999|DALTON FRANCISCO DE ANDRADE|40|UFSC@UFSC.br|UFSC|UFSC|P|2013|2016||
K4792298Y6|99999|ALEXANDRE MORAES RAMOS|40|UFSC@UFSC.br|UFSC|UFSC|P|2013|2016||
K4706347E3|99999|ADRIANO FERRETI BORGATTO|40|UFSC@UFSC.br|UFSC|UFSC|P|2013|2016||
K4788738U6|99999|SILVIA MODESTO NASSAR|40|UFSC@UFSC.br|UFSC|UFSC|P|2013|2016||
K4788210U6|99999|ROGERIO CID BASTOS|40|UFSC@UFSC.br|UFSC|UFSC|P|2013|2016||
