strict graph grafo1 {
	graph [bb="0,0,1965.5,71",
		id=grafo1,
		overlap=False
	];
	node [fontsize=8,
		label="\N",
		shape=rectangle,
		style=filled
	];
	0	 [URL="http://lattes.cnpq.br/3569271948805982",
		color="#17272B",
		fontcolor="#FFFFFF",
		height=0.23611,
		label="Mirco Ragni [1]",
		pos="54.5,62.5",
		width=0.94444];
	2	 [URL="http://lattes.cnpq.br/3206145669430720",
		color="#17272B",
		fontcolor="#FFFFFF",
		height=0.23611,
		label="Paulo C. da Rocha Poppe [1]",
		pos="54.5,8.5",
		width=1.5139];
	0 -- 2	 [pos="54.5,53.827 54.5,43.996 54.5,27.051 54.5,17.204"];
	1	 [URL="http://lattes.cnpq.br/8080697890419252",
		color="#17272B",
		fontcolor="#FFFFFF",
		height=0.23611,
		label="Germano Pinto Guedes [0]",
		pos="157.5,62.5",
		width=1.4167];
	3	 [URL="http://lattes.cnpq.br/5036651780388149",
		color="#17272B",
		fontcolor="#FFFFFF",
		height=0.23611,
		label="João B. da Rocha Junior [0]",
		pos="279.5,62.5",
		width=1.4722];
	4	 [URL="http://lattes.cnpq.br/6032273849847285",
		color="#17272B",
		fontcolor="#FFFFFF",
		height=0.23611,
		label="Michele Fúlvia Angelo [2]",
		pos="401.5,62.5",
		width=1.4167];
	12	 [URL="http://lattes.cnpq.br/0704248561279452",
		color="#17272B",
		fontcolor="#FFFFFF",
		height=0.23611,
		label="Angelo Conrado Loula [2]",
		pos="401.5,8.5",
		width=1.4167];
	4 -- 12	 [pos="401.5,53.827 401.5,43.996 401.5,27.051 401.5,17.204"];
	5	 [URL="http://lattes.cnpq.br/2772680929789725",
		color="#17272B",
		fontcolor="#FFFFFF",
		height=0.23611,
		label="Gracinete Bastos de Souza [0]",
		pos="527.5,62.5",
		width=1.5694];
	6	 [URL="http://lattes.cnpq.br/6148546666142551",
		color="#17272B",
		fontcolor="#FFFFFF",
		height=0.23611,
		label="Roberto Almeida Bittencourt [0]",
		pos="662.5,62.5",
		width=1.6806];
	7	 [URL="http://lattes.cnpq.br/2755740550497444",
		color="#17272B",
		fontcolor="#FFFFFF",
		height=0.23611,
		label="Joao Bosco Gertrudes [0]",
		pos="790.5,62.5",
		width=1.3611];
	8	 [URL="http://lattes.cnpq.br/5306570350415091",
		color="#17272B",
		fontcolor="#FFFFFF",
		height=0.23611,
		label="Edgar S. Nunes Junior [0]",
		pos="907.5,62.5",
		width=1.3889];
	9	 [URL="http://lattes.cnpq.br/7112745645895347",
		color="#17272B",
		fontcolor="#FFFFFF",
		height=0.23611,
		label="Eduardo Brescansin de Amôres [0]",
		pos="1040.5,62.5",
		width=1.7917];
	10	 [URL="http://lattes.cnpq.br/1644931272174401",
		color="#17272B",
		fontcolor="#FFFFFF",
		height=0.23611,
		label="Iranderly Fernandes de Fernandes [0]",
		pos="1191.5,62.5",
		width=1.8889];
	11	 [URL="http://lattes.cnpq.br/8821536792042504",
		color="#17272B",
		fontcolor="#FFFFFF",
		height=0.23611,
		label="Angelo Amâncio Duarte [0]",
		pos="1330.5,62.5",
		width=1.4722];
	13	 [URL="http://lattes.cnpq.br/3697401408315559",
		color="#17272B",
		fontcolor="#FFFFFF",
		height=0.23611,
		label="Carlos A. de Freitas Rodrigues [0]",
		pos="1465.5,62.5",
		width=1.7639];
	14	 [URL="http://lattes.cnpq.br/5222182427171497",
		color="#17272B",
		fontcolor="#FFFFFF",
		height=0.23611,
		label="Artur T. Lopo de Queiroz [0]",
		pos="1602.5,62.5",
		width=1.5278];
	15	 [URL="http://lattes.cnpq.br/7696000869833399",
		color="#17272B",
		fontcolor="#FFFFFF",
		height=0.23611,
		label="Antônio D. Conceição de Jesus [0]",
		pos="1739.5,62.5",
		width=1.7778];
	16	 [URL="http://lattes.cnpq.br/3398684577876218",
		color="#17272B",
		fontcolor="#FFFFFF",
		height=0.23611,
		label="Daniel A. S. Gouveia Dias-da-Costa [0]",
		pos="1893.5,62.5",
		width=2];
}
