strict graph grafo1 {
	graph [bb="0,0,1047.5,233",
		id=grafo1,
		overlap=False
	];
	node [fontsize=8,
		label="\N",
		shape=rectangle,
		style=filled
	];
	0	 [URL="http://lattes.cnpq.br/1149445153608393",
		color="#17272B",
		fontcolor="#FFFFFF",
		height=0.23611,
		label="Marcirio Silveira Chaves [0]",
		pos="134,224.5",
		width=1.5];
	1	 [URL="http://lattes.cnpq.br/4754764003480925",
		color="#17272B",
		fontcolor="#FFFFFF",
		height=0.23611,
		label="Luc Quoniam [2]",
		pos="62,170.5",
		width=1];
	9	 [URL="http://lattes.cnpq.br/3138898469532698",
		color="#17272B",
		fontcolor="#FFFFFF",
		height=0.23611,
		label="Wonder Alexandre Luz Alves [8]",
		pos="62,116.5",
		width=1.7222];
	1 -- 9	 [pos="62,161.83 62,152 62,135.05 62,125.2"];
	10	 [URL="http://lattes.cnpq.br/2542529753132844",
		color="#17272B",
		fontcolor="#FFFFFF",
		height=0.23611,
		label="Sidnei Alves de Araújo [7]",
		pos="142,62.5",
		width=1.4306];
	9 -- 10	 [pos="73.804,107.83 89.017,97.939 115.3,80.856 130.41,71.035"];
	12	 [URL="http://lattes.cnpq.br/9938713955885093",
		color="#17272B",
		fontcolor="#FFFFFF",
		height=0.23611,
		label="Pedro H. Triguis Schimit [4]",
		pos="102,8.5",
		width=1.5];
	9 -- 12	 [pos="63.981,107.74 67.099,95.875 73.565,72.593 81,53.5 86.098,40.407 93.415,25.793 97.929,17.136"];
	10 -- 12	 [pos="136.1,53.827 128.54,43.996 115.5,27.051 107.93,17.204"];
	2	 [URL="http://lattes.cnpq.br/0646085361798175",
		color="#17272B",
		fontcolor="#FFFFFF",
		height=0.23611,
		label="Ivanir Costa [2]",
		pos="240,224.5",
		width=0.93056];
	6	 [URL="http://lattes.cnpq.br/2147386441758156",
		color="#17272B",
		fontcolor="#FFFFFF",
		height=0.23611,
		label="Cleber Gustavo Dias [5]",
		pos="277,170.5",
		width=1.3056];
	2 -- 6	 [pos="245.46,215.83 252.45,206 264.51,189.05 271.52,179.2"];
	7	 [URL="http://lattes.cnpq.br/3569470521730110",
		color="#17272B",
		fontcolor="#FFFFFF",
		height=0.23611,
		label="Andre F. Henriques Librantz [4]",
		pos="202,116.5",
		width=1.6667];
	2 -- 7	 [pos="236.37,215.82 232.34,207.12 225.77,192.46 221,179.5 213.93,160.27 207.31,137.05 204.07,125.23"];
	6 -- 7	 [pos="265.93,161.83 251.75,152 227.31,135.05 213.11,125.2"];
	8	 [URL="http://lattes.cnpq.br/3678668865183045",
		color="#17272B",
		fontcolor="#FFFFFF",
		height=0.23611,
		label="Alessandro Melo de Ana [2]",
		pos="334,116.5",
		width=1.5];
	6 -- 8	 [pos="285.41,161.83 296.19,152 314.76,135.05 325.55,125.2"];
	8 -- 10	 [pos="306.08,107.94 269.68,98.08 206.37,80.934 169.95,71.07"];
	3	 [URL="http://lattes.cnpq.br/6722335489800535",
		color="#17272B",
		fontcolor="#FFFFFF",
		height=0.23611,
		label="Henrique M. Rodrigues de Freitas [0]",
		pos="360,224.5",
		width=1.9028];
	4	 [URL="http://lattes.cnpq.br/3024335982373707",
		color="#17272B",
		fontcolor="#FFFFFF",
		height=0.23611,
		label="Fábio Henrique Gil Pereira [0]",
		pos="504,224.5",
		width=1.5972];
	5	 [URL="http://lattes.cnpq.br/3981753537745216",
		color="#17272B",
		fontcolor="#FFFFFF",
		height=0.23611,
		label="Dirceu da Silva Daieira [0]",
		pos="631,224.5",
		width=1.4306];
	11	 [URL="http://lattes.cnpq.br/8750334661789610",
		color="#17272B",
		fontcolor="#FFFFFF",
		height=0.23611,
		label="Renato José Sassi [0]",
		pos="743,224.5",
		width=1.1806];
	13	 [URL="http://lattes.cnpq.br/8169041532397235",
		color="#17272B",
		fontcolor="#FFFFFF",
		height=0.23611,
		label="Marcos V. Pimentel Cardoso [0]",
		pos="864,224.5",
		width=1.6806];
	14	 [URL="http://lattes.cnpq.br/4932899223077405",
		color="#17272B",
		fontcolor="#FFFFFF",
		height=0.23611,
		label="Marcos Antonio Gaspar [0]",
		pos="995,224.5",
		width=1.4583];
}
