strict digraph grafo3 {
	graph [bb="0,0,686.5,401",
		id=grafo3,
		overlap=False
	];
	node [fontsize=8,
		label="\N",
		shape=rectangle,
		style=filled
	];
	0	 [URL="http://lattes.cnpq.br/5358851504202129",
		color="#17272B",
		fontcolor="#FFFFFF",
		height=0.23611,
		label="Paulo Sérgio Sausen [9]",
		pos="128,392.5",
		width=1.3056];
	2	 [URL="http://lattes.cnpq.br/9722354090220021",
		color="#17272B",
		fontcolor="#FFFFFF",
		height=0.23611,
		label="Manuel Osorio Binelo [7]",
		pos="304,328.5",
		width=1.375];
	0 -> 2	 [arrowhead=normal,
		arrowsize=0.75,
		fontsize=8,
		label=0.06,
		lp="234.5,360.5",
		penwidth=0.68,
		pos="e,282.52,337.07 149.58,383.9 181.2,372.76 240.18,351.98 275.38,339.58"];
	3	 [URL="http://lattes.cnpq.br/1570902612226384",
		color="#17272B",
		fontcolor="#FFFFFF",
		height=0.23611,
		label="Manuel M. Pérez Reimbold [5]",
		pos="60,72.5",
		width=1.625];
	0 -> 3	 [arrowhead=normal,
		arrowsize=0.75,
		fontsize=8,
		label=0.17,
		lp="7.5,232.5",
		penwidth=1.01,
		pos="e,44.236,81.169 80.701,387.52 44.239,381.56 0,366.66 0,329.5 0,329.5 0,329.5 0,135.5 0,113.02 20.621,95.589 37.685,85.014"];
	10	 [URL="http://lattes.cnpq.br/9534086378993774",
		color="#17272B",
		fontcolor="#FFFFFF",
		height=0.23611,
		label="Airam T. Z. Romcy Sausen [13]",
		pos="150,136.5",
		width=1.6667];
	0 -> 10	 [arrowhead=normal,
		arrowsize=0.75,
		fontsize=8,
		label=0.78,
		lp="91.5,264.5",
		penwidth=2.84,
		pos="e,131.97,145.08 117.79,383.93 104.8,373.32 84,352.73 84,329.5 84,329.5 84,329.5 84,199.5 84,175.98 106.55,158.77 125.28,148.53"];
	2 -> 0	 [arrowhead=normal,
		arrowsize=0.75,
		fontsize=8,
		label=0.07,
		lp="274.5,360.5",
		penwidth=0.71,
		pos="e,175.05,384.9 293.89,337.27 282.74,345.46 264,358.18 246,365.5 225.92,373.66 202.83,379.47 182.43,383.5"];
	2 -> 10	 [arrowhead=normal,
		arrowsize=0.75,
		fontsize=8,
		label=0.07,
		lp="144.5,232.5",
		penwidth=0.71,
		pos="e,147.25,145.22 254.4,324.19 219.39,318.98 174.66,305.93 151,273.5 124.51,237.2 136.85,179.71 144.93,152.6"];
	1	 [URL="http://lattes.cnpq.br/1173194566549997",
		color="#17272B",
		fontcolor="#FFFFFF",
		height=0.23611,
		label="Oleg Khatchatourian [4]",
		pos="515,264.5",
		width=1.3194];
	2 -> 1	 [arrowhead=normal,
		arrowsize=0.75,
		fontsize=8,
		label=0.57,
		lp="439.5,296.5",
		penwidth=2.21,
		pos="e,491.73,273.08 333.07,319.94 352.15,314.9 377.62,308.03 400,301.5 428.81,293.09 461.45,282.8 484.58,275.38"];
	5	 [URL="http://lattes.cnpq.br/7034421658733755",
		color="#17272B",
		fontcolor="#FFFFFF",
		height=0.23611,
		label="José A. Gonzalez da Silva [5]",
		pos="306,200.5",
		width=1.5556];
	2 -> 5	 [arrowhead=normal,
		arrowsize=0.75,
		fontsize=8,
		label=0.21,
		lp="283.5,264.5",
		penwidth=1.13,
		pos="e,300.18,209.01 297.46,319.71 287.36,306.71 269.74,279.65 276,255.5 279.84,240.68 288.72,225.6 295.83,215.16"];
	8	 [URL="http://lattes.cnpq.br/3894445999140917",
		color="#17272B",
		fontcolor="#FFFFFF",
		height=0.23611,
		label="Antonio Carlos Valdiero [7]",
		pos="396,264.5",
		width=1.4861];
	2 -> 8	 [arrowhead=normal,
		arrowsize=0.75,
		fontsize=8,
		label=0.07,
		lp="363.5,296.5",
		penwidth=0.71,
		pos="e,384.04,273.15 314.69,319.96 325.16,312.61 341.59,301.17 356,291.5 363.02,286.79 370.79,281.71 377.61,277.3"];
	3 -> 0	 [arrowhead=normal,
		arrowsize=0.75,
		fontsize=8,
		label=0.3,
		lp="43.5,232.5",
		penwidth=1.4,
		pos="e,97.279,383.98 55.334,81.213 48.876,92.641 38,114.94 38,135.5 38,329.5 38,329.5 38,329.5 38,356.35 65.508,372.46 90.108,381.5"];
	3 -> 10	 [arrowhead=normal,
		arrowsize=0.75,
		fontsize=8,
		label=0.7,
		lp="120.5,104.5",
		penwidth=2.6,
		pos="e,140.01,127.85 72.342,81.02 80.556,86.1 91.535,93.033 101,99.5 112.19,107.14 124.48,116.18 133.95,123.28"];
	10 -> 0	 [arrowhead=normal,
		arrowsize=0.75,
		fontsize=8,
		label=0.54,
		lp="180.5,264.5",
		penwidth=2.12,
		pos="e,138.44,383.98 154.88,145.18 161.63,156.58 173,178.83 173,199.5 173,329.5 173,329.5 173,329.5 173,349.62 157.29,367.6 144.44,378.96"];
	10 -> 2	 [arrowhead=normal,
		arrowsize=0.75,
		fontsize=8,
		label=0.04,
		lp="244.5,232.5",
		penwidth=0.62,
		pos="e,294.99,319.77 163.26,145.08 170.77,149.77 180.02,156.27 187,163.5 237.87,216.17 230.33,245.08 277,301.5 280.76,306.05 285.25,310.64 \
289.48,314.67"];
	10 -> 3	 [arrowhead=normal,
		arrowsize=0.75,
		fontsize=8,
		label=0.27,
		lp="89.5,104.5",
		penwidth=1.31,
		pos="e,62.903,81.131 117.58,127.89 105.48,123.88 92.204,117.99 82,109.5 75.217,103.86 69.947,95.558 66.268,88.348"];
	10 -> 5	 [arrowhead=normal,
		arrowsize=0.75,
		fontsize=8,
		label=0.15,
		lp="289.5,168.5",
		penwidth=0.95,
		pos="e,299.95,191.91 210.14,144.6 229.07,148.46 249.58,154.38 267,163.5 277.59,169.04 287.46,178.21 294.62,185.9"];
	1 -> 2	 [arrowhead=normal,
		arrowsize=0.75,
		fontsize=8,
		label=1.0,
		lp="494.5,296.5",
		penwidth=3.5,
		pos="e,353.39,327.01 508.45,273.25 500.85,281.68 487.49,294.84 473,301.5 437.89,317.63 394.8,324.08 360.91,326.52"];
	5 -> 2	 [arrowhead=normal,
		arrowsize=0.75,
		fontsize=8,
		label=0.3,
		lp="311.5,264.5",
		penwidth=1.4,
		pos="e,304.12,320 305.88,209.12 305.56,229.44 304.67,285.16 304.24,312.28"];
	5 -> 10	 [arrowhead=normal,
		arrowsize=0.75,
		fontsize=8,
		label=0.4,
		lp="257.5,168.5",
		penwidth=1.7,
		pos="e,176.24,145.1 291.39,191.89 276.27,184.18 251.84,172.18 230,163.5 214.98,157.53 197.99,151.86 183.54,147.35"];
	5 -> 8	 [arrowhead=normal,
		arrowsize=0.75,
		fontsize=8,
		label=0.3,
		lp="379.5,232.5",
		penwidth=1.4,
		pos="e,390.18,255.8 326.98,209.02 337.96,213.49 351.3,219.79 362,227.5 370.65,233.73 378.9,242.38 385.11,249.63"];
	8 -> 2	 [arrowhead=normal,
		arrowsize=0.75,
		fontsize=8,
		label=0.07,
		lp="388.5,296.5",
		penwidth=0.71,
		pos="e,334.33,319.95 392.43,273.12 388.31,281.18 380.8,293.78 371,301.5 362.4,308.27 351.83,313.45 341.65,317.34"];
	8 -> 5	 [arrowhead=normal,
		arrowsize=0.75,
		fontsize=8,
		label=0.21,
		lp="350.5,232.5",
		penwidth=1.13,
		pos="e,312.5,209.11 377.05,255.95 366.56,251.35 353.56,244.94 343,237.5 333.73,230.97 324.58,222.09 317.7,214.79"];
	4	 [URL="http://lattes.cnpq.br/3774236764847974",
		color="#17272B",
		fontcolor="#FFFFFF",
		height=0.23611,
		label="Luiz Antônio Rasia [6]",
		pos="440,200.5",
		width=1.25];
	8 -> 4	 [arrowhead=normal,
		arrowsize=0.75,
		fontsize=8,
		label=0.71,
		lp="422.5,232.5",
		penwidth=2.63,
		pos="e,431.49,209.18 399.22,255.98 402.61,248.44 408.38,236.67 415,227.5 418.25,223 422.25,218.5 426.09,214.53"];
	4 -> 8	 [arrowhead=normal,
		arrowsize=0.75,
		fontsize=8,
		label=0.83,
		lp="446.5,232.5",
		penwidth=2.99,
		pos="e,412.8,255.91 440.4,209.29 440.43,217.03 439.45,228.95 434,237.5 430.35,243.22 424.95,248 419.36,251.84"];
	14	 [URL="http://lattes.cnpq.br/1091943486026876",
		color="#17272B",
		fontcolor="#FFFFFF",
		height=0.23611,
		label="Sandro Sawicki [21]",
		pos="440,136.5",
		width=1.1389];
	4 -> 14	 [arrowhead=normal,
		arrowsize=0.75,
		fontsize=8,
		label=0.17,
		lp="429.5,168.5",
		penwidth=1.01,
		pos="e,432.94,145.02 432.18,191.8 425.96,184.71 418.79,173.77 422,163.5 423.35,159.18 425.7,154.94 428.26,151.18"];
	14 -> 4	 [arrowhead=normal,
		arrowsize=0.75,
		fontsize=8,
		label=0.05,
		lp="447.5,168.5",
		penwidth=0.65,
		pos="e,440,191.9 440,145.16 440,154.86 440,171.8 440,184.19"];
	6	 [URL="http://lattes.cnpq.br/6392597835724138",
		color="#17272B",
		fontcolor="#FFFFFF",
		height=0.23611,
		label="Fabricia C. Roos Frantz [23]",
		pos="438,8.5",
		width=1.5];
	14 -> 6	 [arrowhead=normal,
		arrowsize=0.75,
		fontsize=8,
		label=0.45,
		lp="416.5,72.5",
		penwidth=1.85,
		pos="e,431.23,17.273 433.72,127.68 426.14,117.67 413.79,99.466 409,81.5 403.45,60.687 416.14,37.795 426.45,23.534"];
	11	 [URL="http://lattes.cnpq.br/3644027876437753",
		color="#17272B",
		fontcolor="#FFFFFF",
		height=0.23611,
		label="Rafael Zancan Frantz [24]",
		pos="503,72.5",
		width=1.4028];
	14 -> 11	 [arrowhead=normal,
		arrowsize=0.75,
		fontsize=8,
		label=0.5,
		lp="465.5,104.5",
		penwidth=2.0,
		pos="e,486.06,81.115 442.86,127.88 446.09,120.04 451.96,107.84 460,99.5 465.54,93.753 472.61,88.793 479.42,84.791"];
	6 -> 14	 [arrowhead=normal,
		arrowsize=0.75,
		fontsize=8,
		label=0.41,
		lp="435.5,72.5",
		penwidth=1.73,
		pos="e,437.76,127.9 435.71,17.049 432.02,30.141 425.41,57.916 428,81.5 429.47,94.889 432.93,109.82 435.76,120.58"];
	6 -> 11	 [arrowhead=normal,
		arrowsize=0.75,
		fontsize=8,
		label=0.59,
		lp="493.5,40.5",
		penwidth=2.27,
		pos="e,498.52,63.72 451.87,17.081 459.75,21.774 469.5,28.274 477,35.5 483.66,41.918 489.79,50.229 494.42,57.249"];
	11 -> 14	 [arrowhead=normal,
		arrowsize=0.75,
		fontsize=8,
		label=0.44,
		lp="491.5,104.5",
		penwidth=1.82,
		pos="e,451.98,127.81 497.96,81.153 492.73,88.794 484.06,100.64 475,109.5 469.94,114.45 463.92,119.24 458.3,123.35"];
	11 -> 6	 [arrowhead=normal,
		arrowsize=0.75,
		fontsize=8,
		label=0.56,
		lp="465.5,40.5",
		penwidth=2.18,
		pos="e,440.82,17.156 484.82,63.819 475.95,59.416 465.59,53.22 458,45.5 452.04,39.435 447.3,31.232 443.93,24.189"];
	7	 [URL="http://lattes.cnpq.br/9457849435452537",
		color="#17272B",
		fontcolor="#FFFFFF",
		height=0.23611,
		label="Daniel C. de Mendonça Müller [0]",
		pos="257,392.5",
		width=1.7778];
	9	 [URL="http://lattes.cnpq.br/5842111762354706",
		color="#17272B",
		fontcolor="#FFFFFF",
		height=0.23611,
		label="Alexandre C. Cruz Oliveira [0]",
		pos="397,392.5",
		width=1.6111];
	12	 [URL="http://lattes.cnpq.br/2492016128750803",
		color="#17272B",
		fontcolor="#FFFFFF",
		height=0.23611,
		label="Rafael Corchuelo [0]",
		pos="515,392.5",
		width=1.1667];
	13	 [URL="http://lattes.cnpq.br/4682111639797585",
		color="#17272B",
		fontcolor="#FFFFFF",
		height=0.23611,
		label="Vitor M. Basto Fernandes [0]",
		pos="631,392.5",
		width=1.5417];
}
