5358851504202129
1173194566549997
9722354090220021
1570902612226384
3774236764847974
7034421658733755
6392597835724138
9457849435452537
3894445999140917
5842111762354706
9534086378993774
3644027876437753
2492016128750803
4682111639797585
1091943486026876
