9061294064223770
4730728276213666
9600322657151582
6066036778785137
6057786496252191
1994819710029365
5097499395613895
6723952614607082
2440614529345924
7611407832193396
4128418911260513
4863318065551221
9691936279245790
4229317394755159
5717675257150655
1969733264813192
5000143365122255
8701536338267221
2212790934134878
9950007997056231
