0593058472942217
5542866107144940
8524376717056625
7124512644512019
8582867831317500
1564224041415405
0762754534759707
3898266364903687
4769493614598164
9824160382801079
4626655391830745
2637620180748770
5989369319913962
3485276600118386
6097244731872200
5962306335524096
2949452791604297
0632912481397728
1067410443144841
7455666541294961
2834949105605020
6924482573958200
4401914954487585
8270704766128406
1912197785087128
3711065195044871
3753995378173363
6317408425320526
2321059443128660
0294676847895948
5856755029682909
2267551757585717
0461451015026948
6569676932142134
9119358938655886
6682756108334164
9432813151588512
3986461691816820
4590960119128483
5040964173105364
4038930548278283
2730003530587322
6113675218570628
3988665388879183
3007333699204096
9544789094536733
9724703168940206
3661403978447628
0424913487212209
4376162809236924
6149361322467903
8491007298512691
4578658799634346
1603167127953225
0991303257564060
8787784443554068
9937385143601337
9791287750217096
2967731651217225
8342145256265052
7735490624385849
7288728943944810
8630191321945178
3616216472785697
4816903915196046
5588600593216123
4540379437306605
3464161814032047
5787793296456206
1549739934623931
1568670993429995
3155464612131925
5341431436245618
4236604656682781
9148354106985023
7096228449228489
3733962472211532
6118325967319836
5321503129467150
8061304604806868
8539946335852637
7228783590339066
8369464483722617
2047789442363175
9747659043350305
9981794300222499
6730543200776161
3916542418374036
8972540207861201
6880348154073236
2654191856781393
4943655471147347
4883664851804366
8966789984120067
8139627239707745
8585377473433843
5771309284349109
9959872053260157
6742187277587463
2044712425436446
8871814033806258
0585051132094289
1998238493819332
0466178579226533
6610032894400072
3478230611350302
5230444845006546
6043519606697073
9669532724764871
4614914625381770
7631747660769764
5084308743488985
9231270931245394
2483881220030496
6748178495030590
8180859738646919
9492735438923965
9438292906838128
9342074717900720
9589902245570797
3876063802001763
9539052795319409
3892097876321708
1293727353670814
5424781102486268
1772201365260604
0043170642194780
2311121099883170
6229434599232057
0216229039021964
4810490576907495
6613941431352859
2658293749597671
7992827773890772
9709310054895048
9510131226367723
4851548247475082
2707954141446275
4911087156577247
7769547194874833
3697269160935176
2413654264944712
5074916955025756
2059106275042599
9344334978929808
7962647591307707
3655963915122876
4617062300231128
7586955305848168
5491779945529060
6449987900688958
2208398035461946
8867708267053410
9041429608835546
1255886531297639
0958677185311955
3320327570429539
7743497482690176
1316229584267011
7295627262762993
8891470007723484
1953715888498824
8904588007184815
3551738516917290
5046425201703340
8814193608151838
2758220563481311
0095837105766986
4226890123085329
0335891985492453
3454004547074775
9762313785594487
1744092111753368
7461437118914206
1216234757318996
2211018099470275
8901498333813231
7426592963217111
2828275725697220
1726515355080815
9317836039988664
8122216066711317
5269711866444667
5151376336033127
2136087994222814
1899130163424931
8056075455762617
9285800994370514
7599652290612173
9226092143444741
3195406678542565
7814534710550639
3157048369943444
2841481027214107
0492284280872060
1463689214287494
3133096026129861
3098645048522631
6629435081393931
2786395352926762
1324132789176127
6467199163608345
1367227325248750
0751602493084429
0510829636907031
1888940152771113
3308129552342670
4238460044638673
7561087745337771
5741002411130036
8617148416611035
9066392392678813
9080897577096609
2296154154165296
8705890921402021
5086323726798873
1091835213173208
8537824513641643
5820606948533146
2695960444082696
1274917989022216
9829666358844767
3940543577818673
4988274484383332
4832026841264240
3726839467177985
9555695216917617
5440854176015363
8659496864305621
1412260545035778
8507568936413287
5011065439508733
0614452506859779
3132107478587633
0057439787136295
5464023129390042
5998038395436082
6642503680426310
4838255668891542
4985662354572444
2734203117778600
6424652558098121
4301721255586074
6521700934368848
1333492927266447
2782262776744934
2865282329757428
4515344457117900
2417424087790287
5809961609784365
1897375573814602
8804161658881787
2274673890742373
2445434448138385
4355986399321269
4465855224123551
9660818519853135
0807348821461118
7674863764458535
9013003064232933
2719066011395417
5153951650965699
4663540728791886
1330459547253908
7126226977101724
9072077597762581
7968345731091212
5913855602825540
4205054324087361
9072332484355315
2467159617627119
1760343634540309
3440875124323497
2015844025143092
8976902901816349
3107128880946249
2574500927333808
5941247644505291
5848423626868491
0961445036100348
5754508285188233
9756129883797502
4423974424500178
9246879554920774
7642043789034070
0302689027695014
3241415945486691
0733355985380403
6470299151910215
3253388431817086
9015401653501831
2170670973375218
3874243004616213
5464243969092412
9846018023731358
7916345216282767
0664333625453411
1554954938519345
3008972872111623
4478191386305454
8243497871129180
8969448190393364
8976306450816308
1433426629868073
2124701139933346
2667551347677576
6362024713729514
4516525359791439
5406483331494130
1973380332593901
6404705658032178
0930437681438877
0314977130631834
8948264943492897
9117926289626712
1673752149250286
0790440583912196
6403427750833514
0429133467110423
4157657444019805
0031138801011243
5431203157672972
8023086266925988
0241724988833416
6094379265028380
0280121582234738
6202091854898347
3695730442961159
1705430650855494
6472253452766061
2482060270236527
0353007465754386
3826360349871138
5649236321441309
3278673527641737
1595358007418855
2810864273439126
4888841210784551
6969855749872267
1897874219199092
5936788643053126
1165242542295220
6993417476915791
8903519386737300
8393832133973349
6004547577932290
7444315991802380
6847795121765024
6240166399877123
2925411598516202
8159707137225290
0063459671702666
8683074456901597
0386805742968055
9919135586409472
1472189758236876
6220653216917460
1082673498143996
7447728871029352
9315651796512424
8213371495151651
0977453259767928
9789066854769114
6242108193427997
2869680994075940
3126650540091174
1034449975741992
3795098752283255
6564786735646403
1552453739678173
7639713789458294
7481402628291219
2219715726030575
2618374563932861
9866858833240787
6894949104612197
5290628721224008
9415505337410092
2380503979433086
4491637152133117
3131349943712572
3660503715109916
8618891960964827
4386869871472133
9561147367264986
9600864539112064
7421096523152034
5341317535477702
0411138933370845
2855671095187615
2763225808991916
3127269239302157
7609038441256063
6823998544968373
0578253829444920
4232211079314096
7890676927592894
6462801566642820
8089868139121682
8638188729470366
8006958226999489
1255270110503523
4781713824390016
0908944990624682
9324906986142829
2584366080619497
7927390127612277
4155839482955433
2116385891422259
7789024715762694
3380029745378780
9982051066384373
2030366223948624
0234977100867589
3351408490818921
2580807303907150
7643455343569444
8502725871109827
3680708550265511
3300376974424875
6850621388960763
2413034112726774
6263423673441922
3088614870244298
3781800363861947
8647177991425240
7355830943970933
3141473958495223
1578212353079715
8515220936282964
7250869672208600
6898785902606565
5156205327629139
4674453482516502
1345781867765758
9981984419027348
9457183337692067
7241793454105608
0176020585396338
5736260321177710
0005095067087601
5906908106600486
7206664999934534
4714846336997997
8054503791451688
3732462071366905
7077726886548870
5542159213271489
0220830488629637
5133908054482037
2924634223083790
8368469162867277
0929509693313719
2129359947528992
9093673413525113
1193509910731517
7387849390654555
5658045390605912
1685325495189156
4541131108793140
9209310504711138
1270632097868269
1567203380079070
3746080400449810
8706588837124678
6321646353733190
6611558584487547
8308983281636531
5505277659734432
6468706350142002
9783560852644016
0221220703324031
3517670872686938
7050638697696950
2580883238684755
1397602256989803
4691893433367918
4715497489782023
2007219982397054
0176904550618260
7050514045595802
8973534977251583
5227872378838215
4322998812629427
5067896351287890
8711506872040687
5126547270872842
5795351029075729
6052239712915301
3927892593585823
6835909130761518
8778713382135771
2373407116594350
1352553431031800
2552702000658008
4796821875626762
4997676623693254
0136013175597644
3867785406383961
4067472270997374
2504192710037935
0134821761458628
9425556823276996
6515157922804908
7293796905144204
0101777160876872
6835793740243577
5617477203263874
8555938548955913
4480861342602532
2086301050707005
9040477316617481
9517030460820076
2797288070744892
3996385621553357
3832637610584105
8557989163692309
7529829607627118
2178305101977911
8976612631694154
7637861168588376
2093381591211315
4060381761290405
5873603202109804
3991806977400577
8327426637106845
8801299423520104
1196598265007214
4764567803713647
4541345315317130
0737720586420784
4489641178548782
6738427402148495
4786006015500598
8881422396759615
2690785986570082
8855066238851126
0531670128651511
6311194187641325
1180024092914443
1998562777983687
0987355219242506
0828459962168729
9340082326893212
5545830416236785
3418771917406518
5827448968991642
0975649799467639
1406990347404326
3254982250412607
8174906526130941
5960205051335912
0013537445441609
4204512120532252
7324869293866597
3860685994688714
9613768164238097
5833660171437989
4432660032449203
2575554403814311
3048535727259604
9160728811650330
3739169267521003
4701747734714994
5415221996976886
6774999817156218
6796259458334447
6506744224041777
3100489373766124
4104472546614981
0717161560405537
4414445639192028
5750649785773773
4569220072493357
1277712298559876
8989199088323836
6493753884132616
3733894993884127
8087938468221123
4961976945101495
2130409610898177
6697354215628897
0140567049496913
8838824320883256
3255060531838427
1755987387907910
1767981476630272
4562039166351650
5637230378599476
3365782338927185
3431499086755077
0019265067855569
4709958581193166
7908336330788281
5971828123374709
5698458492859059
5452385625669684
6269743468643923
0920157664643243
2399271609726003
3473903684822728
6040333497171664
0599337060580753
2185386793799722
7788849877426960
5248622466343519
9737543228759171
4795468481007632
2792865766795939
6673322487449113
1988992187665430
2205520487265749
4307527806558637
5552501908956305
8692762060973151
7314484317284848
3090843945257382
1756280546568120
0706356412303657
8598274096498065
6801270542810402
8110038415332609
3542379839367052
4072017320812072
5908750068991298
5145855428221370
6274103110776799
7838002456270697
5113656623817587
8164824986522829
0385787852910227
0533357429795905
9861081561303546
8997745775645416
7850538654155426
3477269475651042
6261928164195145
9739881530109528
7089231795367245
2905360231586712
8765918680262938
0812029571209602
2177843199047112
4772718471325000
4503603092517892
8669668633454299
5548804788102914
4806648093018829
1766817719164505
3916535995785654
5397825086420928
7610691318634782
4260111082051182
4838624435019937
3831079415816622
5157319552317651
4119973158338453
8635869679854231
7977703126433975
4555801131055371
5420063080842309
2236817553316086
1780625138295201
4434965360286741
2278867979291401
0061106995455595
2774121360271830
4384009511154490
1465526203054126
3181695167717042
5472791804246357
7605953220468113
8204497386080465
3782047171624466
1422659203855402
9601444390623597
6983202213580621
4895351468821828
3028610543885438
2741617746925944
0175656684802985
5311560340084408
1459644159552226
2262645179322854
1552220402943995
9002981704526120
1132066424944271
0527265252284963
8972789547941543
1485558694377532
3744314317387685
7715101334947994
1569614985704317
9319476038303563
2233712877882459
0599914922920980
0431681822629752
6121696025910161
0805599101682606
7582431391025408
2479803195343972
0551966696070668
0008711714817809
7563215701999185
9724437647898787
4506726961295435
1096917372337617
7273258985517270
6047967144025586
6790866614021989
1966949412209486
0960398662960668
9540466031424455
6464993141431276
8324876286301734
2995730633362604
1935852974589951
8895774247923540
8388181041362942
9484871854546287
6245899482930836
2198420901829162
5847787136001573
9893440344739146
1781353673140920
8886217002903392
4900030715141575
9278588817304198
0382006790594287
8228010543041248
6614821404457684
3049721573449880
0657076855028096
2987052330959897
8949600201342464
3115552632681116
7427351060535332
9256260957640098
9535587162526226
7842003450054774
6379068345836967
5839043594908917
9324746378248704
7035532974733783
8497263774509119
4130946174967344
2941691353203495
7945899934601567
4989251399905728
1966912521325118
2691398124753941
5333932210812299
7670510809972412
0582418434279005
6845244029728904
9637951128805835
1505814835374901
2622042969388126
6994276385438253
5132071359802549
2584028342156200
0115124958520241
7399947651945314
2564511433554475
4724644479889950
6815223599762852
5622821499186041
5479961385636219
5581172635334890
6507510242075051
8232117564743182
1925868226636086
8397704680574705
9757708390518979
5193149437979818
0808718962226560
9121022613112821
9950186604432191
0623270388098929
1057875101441626
3041686206689904
3502947749280550
3035374199466563
0224847522645375
3103794428634196
9033957482568348
9019676465089655
0551264684005488
7562128593261814
7992694643607149
6830993024983648
1221925976589428
3002913768267662
7627341680778347
0606837709262358
3664534045908975
3583407735335848
7612104033806948
5120226711617568
0304903579550927
6744789031079665
0082031464426215
5619434483163612
9643480795392658
5813298178028013
7267153365676204
3817905517557913
6730063247770231
9078602057716749
7188256029141170
0080556850353422
4450215325612176
8003006447156785
1620217097643293
1020172528021230
7716423349207719
1133302125160725
0453819762712407
7274814941767456
2349286017142647
1152828531273019
4643726016474396
6708153299878939
5284295521212505
6251579975847506
6580089254529584
6145387247750733
6294677150428030
3557676521634907
1328127213991175
9658281542168371
1214716137780644
6070379384924181
4782388761219226
5160817149255422
7961045252231766
5490031389817518
6682074601211769
4028993334703256
6116132707419686
2866220375481897
8161787603180761
4120028148250522
7711750033120371
4948454257738077
3545257559534992
1190292525097613
1533608416789504
6139696711310984
4258165069300232
2699190136695057
5264344768707605
1598206078326173
1937249766650179
3491513954357544
4990968421738051
9749362030564958
6274005654929092
3491836142954364
