artigoEmPeriodico	Gerd Bruno da Rocha	2013	http://dx.doi.org/10.1021/ct3009683	Sparse projected-gradient method as a linear-scaling low-memory alternative to diagonalization in self-consistent field electronic structure calculations	Journal of Chemical Theory and Computation	BIRGIN, ERNESTO GOLDBERG ; MARTÍNEZ, JOSÉ MARIO ; MARTINEZ, LEANDRO ; Rocha, Gerd Bruno	Qualis nao identificado	Journal of Chemical Theory and Computation
artigoEmPeriodico	Gerd Bruno da Rocha	2013	http://dx.doi.org/10.1039/c3ra41406j	Sparkle/RM1 Parameters for the Semiempirical Quantum Chemical Calculation of Lanthanide Complexes.	RSC Advances: an international journal to further the chemical sciences	MACHADO FILHO, MANOEL ALVES ; DUTRA, JOSÉ DIOGO L. ; Rocha, Gerd Bruno ; Freire, Ricardo Oliveira ; SIMAS, Alfredo Mayall	B2	
artigoEmPeriodico	Gerd Bruno da Rocha	2013	http://dx.doi.org/10.1007/s00894-013-1974-x	Performance assessment of semiempirical molecular orbital methods in the structural prediction of Sb(III) and Bi(III) complexes	Journal of Molecular Modeling (Print)	Martins, Evandro P. S. ; Rocha, Gerd B.	B1	
artigoEmPeriodico	Gerd Bruno da Rocha	2013	http://dx.doi.org/10.1021/ct301012h	Sparkle/PM7 Lanthanide Parameters for the Modeling of Complexes and Materials	Journal of Chemical Theory and Computation	DUTRA, JOSÉ DIOGO L. ; FILHO, MANOEL A.M. ; Rocha, Gerd Bruno ; Freire, Ricardo Oliveira ; SIMAS, Alfredo Mayall ; STEWART, JAMES J. P.	Qualis nao identificado	Journal of Chemical Theory and Computation
artigoEmPeriodico	Alexandre de Bustamante Simas	2013	http://dx.doi.org/10.1214/11-BJPS157	The exp-$G$ family of probability distributions	Brazilian Journal of Probability and Statistics	Barreto-Souza, W. ; Simas, Alexandre B.	B1	
artigoEmPeriodico	Guido Lemos de Souza Filho	2013		Accessibility as a Service: Augmenting Multimedia Content with Sign Language Video Tracks	Journal of Research and Practice in Information Technology	ARAÚJO, T. M. U. ; FERREIRA, F. L. S. ; SILVA, D. A. N. ; FALCÃO, E. L. ; DANTAS. L. ; Domingues, L. A. ; Lopes, L. H. ; Sato, Y. ; LIMA, H. R. G. ; DUARTE, A. N. ; DUARTE, A. ; SOUZA FILHO, G. L.	Qualis nao identificado	Journal of Research and Practice in Information Technology
artigoEmPeriodico	Guido Lemos de Souza Filho	2013		Produção de conteúdos interativos: uma referência do projeto estação-escola de televisão Digital/LAVID/XTPA.LAB	Revista de RadioDifusão	ALVES, K. C. ; LULA, M. M. M. ; TAVARES, Tatiana Aires ; SOUZA FILHO, G. L.	B5	
artigoEmPeriodico	Guido Lemos de Souza Filho	2013	http://dx.doi.org/10.1016/j.future.2012.12.021	Analyzing the impact of elasticity on the profit of cloud computing providers	Future Generation Computer Systems	COSTA, R. E. O. ; BRASILEIRO, F. ; SOUZA FILHO, G. L. ; SOUSA, D. M. T.	A2	
artigoEmPeriodico	Guido Lemos de Souza Filho	2013	http://dx.doi.org/10.1109/mmul.2012.56	A Software-Based Solution for Distributing and Displaying 3D UHD Films	IEEE Multimedia	SILVA NETO, M. G. ; AQUINO JUNIOR, L. L. ; GOMES, R. D. ; DUARTE, A. N. ; COSTA, R. E. O. ; SOUZA FILHO, G. L.	B1	
artigoEmPeriodico	Guido Lemos de Souza Filho	2013		A Formal Language to Describe and Animate Signs in Brazilian Sign Language	SBC Journal on 3D Interactive Systems	SILVA, D. A. N. S. ; ARAÚJO, T. M. U. ; OLIVEIRA, L. D. ; MARTINS, V. F. ; NOBREGA, Y. S. ; LIMA, H. R. G. ; SOUZA FILHO, G. L.	B4	
trabalhoCompletoEmCongresso	Guido Lemos de Souza Filho	2013		Experiences with Arthron for Live Surgery Transmission in Brazilian Telemedicine University Network	15th International Conference on Human-Computer Interaction	TAVARES, T.A. ; MOTTA, G. H. M. B. ; SOUZA FILHO, G. L. ; MELO, E. A. G.		
trabalhoCompletoEmCongresso	Guido Lemos de Souza Filho	2013		Redação integrada: desafios e perspectivas da convergência	V Congreso Internacional Ciberperiodismo y Web 2.0	MOURA, S. R. ; SOUZA FILHO, G. L. ; CARNEIRO, A. G. O. L.		
trabalhoCompletoEmCongresso	Guido Lemos de Souza Filho	2013		Um Estudo sobre o Uso de Marcações Autocontidas em Vídeo para Promoção de Interação Sensível ao Conteúdo em Múltiplos Contextos	19th Brazilian Symposium on Multimedia and the Web - Webmedia´13	Costa, R. E. O. ; ARAUJO, T. M. U. ; BOTELHO NETO, G. P. ; SILVA, D. A. N. S. ; Kulesza, R. ; SOUZA FILHO, G. L.		
trabalhoCompletoEmCongresso	Guido Lemos de Souza Filho	2013		Sobre o Uso de Dispositivos de Alta Granularidade, Alta Volatilidade e Alta Dispersao em Just in Time Clouds	XXXI Simpósio Brasileiro de Redes de Computadores e Sistemas Distribuídos - SBRC2013	Costa, R. E. O. ; VIEIRA, D. ; BRASILEIRO, F. V. ; SOUSA, D. M. T. ; SOUZA FILHO, G. L.		
trabalhoCompletoEmCongresso	Antônio José Boness dos Santos	2013		Stabilized hybridized finite element methods for incompressible and nearly incompressible elasticity	CILAMCE	FARIA, C. O. ; SANTOS, A. J. B. ; LOULA, A. F. D.		
artigoEmPeriodico	Hugo Leonardo Davi de Souza Cavalcante	2013	http://dx.doi.org/10.1103/PhysRevLett.111.198701	Predictability and Suppression of Extreme Events in a Chaotic System	Physical Review Letters (Print)	de S. Cavalcante, Hugo L. D.; Oriá, Marcos ; SORNETTE, DIDIER ; OTT, EDWARD ; Gauthier, Daniel J.	A1	
artigoEmPeriodico	Hugo Leonardo Davi de Souza Cavalcante	2013	http://dx.doi.org/10.1103/physreva.88.063818	Measurement of the Kerr nonlinear refractive index of Cs vapor	Physical Review. A	ARAÚJO, MICHELLE ; de S.Cavalcante, Hugo L. D. ; Oriá, Marcos ; Chevrollier, Martine ; DE SILANS, THIERRY PASSERAT ; CASTRO, ROMEU ; MORETTI, DANIEVERTON	A2	
trabalhoCompletoEmCongresso	Hugo Leonardo Davi de Souza Cavalcante	2013	http://dx.doi.org/10.5540/03.2013.001.01.0126	Effect of attractor on the desynchronization events in coupled chaotic circuits	DINCON 2013 - Conferência Brasileira de Dinâmica	JUNIOR, GILSON F. DE O. ; CAVALCANTE, HUGO L. D. DE S. ; LORENZO, ORLANDO DI ; Chevrollier, Martine ; SILANS, THIERRY PASSERAT DE ; Oriá, Marcos		
trabalhoCompletoEmCongresso	Hugo Leonardo Davi de Souza Cavalcante	2013	http://dx.doi.org/10.5540/03.2013.001.01.0062	Condições para biestabilidade em frequência de laser semicondutor sob realimentação ótica ortogonal	DINCON 2013 - Conferência Brasileira de Dinâmica	ALVES, SAMUEL B. ; Chevrollier, Martine ; SILANS, THIERRY PASSERAT DE ; CAVALCANTE, HUGO L. D. DE S. ; Oriá, Marcos		
artigoEmPeriodico	Waldir Leite Roque	2013	http://dx.doi.org/10.1109/TBME.2012.2234457	Mechanical Competence of Bone: A New Parameter to Grade Trabecular Bone Fragility From Tortuosity and Elasticity	IEEE Transactions on Biomedical Engineering (Print)	ROQUE, W. L.; ARCARO, K. ; ALBERICH-BAYARRI, A.	A2	
artigoEmPeriodico	Waldir Leite Roque	2013	http://dx.doi.org/10.1103/PhysRevE.88.023011	Influence of granular packing on porosity and tortuosity	Physical Review. E, Statistical, Nonlinear, and Soft Matter Physics (Print)	ROQUE, W. L.; FREYTAG, I.	A1	
trabalhoCompletoEmCongresso	Waldir Leite Roque	2013		MODELAGEM MATEMÁTICA E COMPUTACIONAL COMO INSTRUMENTO PARA O DESENVOLVIMENTO SUSTENTÁVEL	VI Colóquio de História e Tecnologia no Ensino de Matemática	ROQUE, W. L		
trabalhoCompletoEmCongresso	Waldir Leite Roque	2013		Mechanical Characterization of Trabecular Bone Applied to MRI Examinations: In Vivo Results from 100 Patients	Computational Vision and Medical Image Processing	ALBERICH-BAYARRI, A. ; ROQUE, W. L. ; ARCARO, K. ; PEREZ, M. A.		
trabalhoCompletoEmCongresso	Waldir Leite Roque	2013		An Investigation of the Mechanical Competence Parameter to Grade the Trabecular Bone Fragility	Computational Vision and Medical Image Processing	ROQUE, W. L.; ARCARO, K. ; ALBERICH-BAYARRI, A. ; TABOR, Z.		
trabalhoCompletoEmCongresso	Kely Diana Villacorta Villacorta	2013		Um método proximal para problemas de otimização multiobjetivo quase-convexa	XLV Simpósio Brasileiro de Pesquisa Operacional	APOLINARIO, H. C. F ; VILLACORTA, KELY D. V. ; OLIVEIRA, PAULO R.		
artigoEmPeriodico	Jose Mauricio Alves de Matos Gurgel	2013	http://dx.doi.org/10.1016/j.ijrefrig.2012.12.012	Energy and exergy analysis applied to the evaporative cooling process in air washers	International Journal of Refrigeration	Santos, J.C. ; BARROS, G.D.T. ; GURGEL, J.M. ; MARCONDES, F.	B1	
artigoEmPeriodico	Jose Mauricio Alves de Matos Gurgel	2013	http://dx.doi.org/10.1615/jpormedia.v16.i6.30	EXPERIMENTAL SORPTION DYNAMIC IN PACKED BED OF SILICA GEL	Journal of Porous Media	AMORIM, JOSELMA A. ; Vieira, H. M. ; ANDRADE, CICERO H. T. ; MEDEIROS, J. M. ; SANTOS, J. C. ; GURGEL, JOSE MAURICIO	B1	
