ID_Lattes|MATRICULA|NOME|CH|mail|LP_1|PROGRAMA_1|CATEG_1|Periodo_Inicio_1|Periodo_Fim_1|Resp_prog|Resp_LP1
K8077068J3|99999|SERGIO ALONSO MUOZ|40|UFJF@UFJF.br|MC|MC|P|2013|2016|MC|MC
K4758014Z7|99999|SAUL DE CASTRO LEITE|40|UFJF@UFJF.br|MC|MC|P|2013|2016||
K4791692Z6|99999|RODRIGO WEBER DOS SANTOS|40|UFJF@UFJF.br|MC|MC|P|2013|2016||
K4756213U7|99999|RAFAEL ALVES BONFIM DE QUEIROZ|40|UFJF@UFJF.br|MC|MC|P|2013|2016||
K4769880Y0|99999|LUCIANA CONCEICAO DIAS CAMPOS|40|UFJF@UFJF.br|MC|MC|P|2013|2016||
K4707790H6|99999|PRISCILA VANESSA ZABALA CAPRILES GOLIATT|40|UFJF@UFJF.br|MC|MC|P|2013|2016||
K4796518E6|99999|PATRICIA HABIB HALLAK|40|UFJF@UFJF.br|MC|MC|P|2013|2016||
K4700206Z7|99999|MICHELE CRISTINA RESENDE FARAGE|40|UFJF@UFJF.br|MC|MC|P|2013|2016||
K4763963U7|99999|MARCELO LOBOSCO|40|UFJF@UFJF.br|MC|MC|P|2013|2016||
K4209688D7|99999|FLAVIO DE SOUZA BARBOSA|40|UFJF@UFJF.br|MC|MC|P|2013|2016||
K4786482Y2|99999|RAUL FONSECA NETO|40|UFJF@UFJF.br|MC|MC|P|2013|2016||
K4771799H1|99999|LEONARDO GOLIATT DA FONSECA|40|UFJF@UFJF.br|MC|MC|P|2013|2016||
K4728257U5|99999|CARLOS CRISTIANO HASENCLEVER BORGES|40|UFJF@UFJF.br|MC|MC|P|2013|2016||
K4282082E0|99999|BERNARDO MARTINS ROCHA|40|UFJF@UFJF.br|MC|MC|P|2013|2016||
K4742449Y6|99999|ALEXANDRE ABRAHAO CURY|40|UFJF@UFJF.br|MC|MC|P|2013|2016||
K4707594U9|99999|AFONSO CELSO DE CASTRO LEMONGE|40|UFJF@UFJF.br|MC|MC|P|2013|2016||
K4782250Z1|99999|HENRIQUE STEINHERZ HIPPERT|40|UFJF@UFJF.br|MC|MC|P|2013|2016||
K4795632H5|99999|CIRO DE BARROS BARBOSA|40|UFJF@UFJF.br|MC|MC|P|2013|2016||
K4758482J8|99999|GRIGORI CHAPIRO|40|UFJF@UFJF.br|MC|MC|P|2013|2016||
K4700363A9|99999|FLAVIA DE SOUZA BASTOS|40|UFJF@UFJF.br|MC|MC|P|2013|2016||
K4784786U4|99999|WILHELM PASSARELLA FREIRE|40|UFJF@UFJF.br|MC|MC|P|2013|2016||
K4783425Y7|99999|ELSON MAGALHAES TOLEDO|40|UFJF@UFJF.br|MC|MC|P|2013|2016||
K4735838Z8|99999|FELIPE DOS SANTOS LOUREIRO|40|UFJF@UFJF.br|MC|MC|P|2013|2016||
K4781805Y9|99999|HELIO JOSE CORREA BARBOSA|40|UFJF@UFJF.br|MC|MC|P|2013|2016||
K4782989Z6|99999|LUIS PAULO DA SILVA BARRA|40|UFJF@UFJF.br|MC|MC|P|2013|2016||
K4742940J5|99999|HEDER SOARES BERNARDINO|40|UFJF@UFJF.br|MC|MC|P|2013|2016||
