ID_Lattes|MATRICULA|NOME|CH|mail|LP_1|PROGRAMA_1|CATEG_1|Periodo_Inicio_1|Periodo_Fim_1|Resp_prog|Resp_LP1
K4700452Y4|99999|DORA INES KOZUSNY|40|UNICASTELO@UNICASTELO.br|UNICASTELO|UNICASTELO|P|2013|2016|UNICASTELO|UNICASTELO
K4799219H7|99999|GABRIEL MAURICIO PERUCA DE MELO|40|UNICASTELO@UNICASTELO.br|UNICASTELO|UNICASTELO|P|2013|2016||
K4728016E2|99999|GISELE HERBST|40|UNICASTELO@UNICASTELO.br|UNICASTELO|UNICASTELO|P|2013|2016||
K4783136Z6|99999|RENATO AMARO ZANGARO|40|UNICASTELO@UNICASTELO.br|UNICASTELO|UNICASTELO|P|2013|2016||
K4770493A8|99999|LUIZ SERGIO VANZELA|40|UNICASTELO@UNICASTELO.br|UNICASTELO|UNICASTELO|P|2013|2016||
K4763108H9|99999|ANDREA CRISTIANE SANCHES|40|UNICASTELO@UNICASTELO.br|UNICASTELO|UNICASTELO|P|2013|2016||
K4758007A3|99999|VANDO EDESIO SOARES|40|UNICASTELO@UNICASTELO.br|UNICASTELO|UNICASTELO|P|2013|2016||
K4785864U9|99999|ROBERTO ANDREANI JUNIOR|40|UNICASTELO@UNICASTELO.br|UNICASTELO|UNICASTELO|P|2013|2016||
K4732114J3|99999|DENISE REGINA DA COSTA AGUIAR|40|UNICASTELO@UNICASTELO.br|UNICASTELO|UNICASTELO|P|2013|2016||
K4183564Y4|99999|DANILA FERNANDA RODRIGUES FRIAS|40|UNICASTELO@UNICASTELO.br|UNICASTELO|UNICASTELO|P|2013|2016||
K4739728D4|99999|LIANDRA MARIA ABAKER BERTIPAGLIA|40|UNICASTELO@UNICASTELO.br|UNICASTELO|UNICASTELO|P|2013|2016||
K4294734D1|99999|KATHERY BRENNECKE|40|UNICASTELO@UNICASTELO.br|UNICASTELO|UNICASTELO|P|2013|2016||
K4102621P8|99999|LEONICE DOMINGOS DOS SANTOS CINTRA LIMA|40|UNICASTELO@UNICASTELO.br|UNICASTELO|UNICASTELO|P|2013|2016||
