ID_Lattes|MATRICULA|NOME|CH|mail|LP_1|PROGRAMA_1|CATEG_1|Periodo_Inicio_1|Periodo_Fim_1|Resp_prog|Resp_LP1
K4445027T7|99999|TIAGO PEREIRA DA SILVA|40|UFABC@UFABC.br|UFABC|UFABC|P|2013|2016|UFABC|UFABC
K4211711E6|99999|TATIANA LIMA FERREIRA|40|UFABC@UFABC.br|UFABC|UFABC|P|2013|2016||
K4763859D8|99999|RUTH FERREIRA GALDUROZ|40|UFABC@UFABC.br|UFABC|UFABC|P|2013|2016||
K4766807T5|99999|RONALDO CRISTIANO PRATI|40|UFABC@UFABC.br|UFABC|UFABC|P|2013|2016||
K4700747U5|99999|RAQUEL VECCHIO FORNARI|40|UFABC@UFABC.br|UFABC|UFABC|P|2013|2016||
K4760893E1|99999|RAPHAEL YOKOINGAWA DE CAMARGO|40|UFABC@UFABC.br|UFABC|UFABC|P|2013|2016||
K4509893H6|99999|PETER MAURICE ERNA CLAESSENS|40|UFABC@UFABC.br|UFABC|UFABC|P|2013|2016||
K4762306T6|99999|ALEXANDRE REILY ROCHA|40|UFABC@UFABC.br|UFABC|UFABC|P|2013|2016||
K4794722A6|99999|ANTONIO ALVARO RANHA NEVES|40|UFABC@UFABC.br|UFABC|UFABC|P|2013|2016||
K4761390E0|99999|ANDRE SARTO POLO|40|UFABC@UFABC.br|UFABC|UFABC|P|2013|2016||
K4795301D8|99999|ALEXANDRE JOSE DE CASTRO LANFREDI|40|UFABC@UFABC.br|UFABC|UFABC|P|2013|2016||
K4792974U1|99999|HUMBERTO NAOYUKI YOSHIMURA|40|UFABC@UFABC.br|UFABC|UFABC|P|2013|2016||
K8059474Z0|99999|WENDEL ANDRADE ALVES|40|UFABC@UFABC.br|UFABC|UFABC|P|2013|2016||
K4760587P2|99999|SYDNEY FERREIRA SANTOS|40|UFABC@UFABC.br|UFABC|UFABC|P|2013|2016||
K4792010A2|99999|SANDRA ANDREA CRUZ|40|UFABC@UFABC.br|UFABC|UFABC|P|2013|2016||
K4799879P8|99999|ROOSEVELT DROPPA JUNIOR|40|UFABC@UFABC.br|UFABC|UFABC|P|2013|2016||
K4797574H7|99999|RONEI MIOTTO|40|UFABC@UFABC.br|UFABC|UFABC|P|2013|2016||
K4703638H2|99999|RENATO ALTOBELLI ANTUNES|40|UFABC@UFABC.br|UFABC|UFABC|P|2013|2016||
K4796908T6|99999|GERSON LUIZ MANTOVANI|40|UFABC@UFABC.br|UFABC|UFABC|P|2013|2016||
K4791831H8|99999|EVERALDO CARLOS VENANCIO|40|UFABC@UFABC.br|UFABC|UFABC|P|2013|2016||
K4789679Z4|99999|DERVAL DOS SANTOS ROSA|40|UFABC@UFABC.br|UFABC|UFABC|P|2013|2016||
K4265304U0|99999|DEMETRIO JACKSON DOS SANTOS|40|UFABC@UFABC.br|UFABC|UFABC|P|2013|2016||
K4764559T6|99999|DANILO JUSTINO CARASTAN|40|UFABC@UFABC.br|UFABC|UFABC|P|2013|2016||
K4728590A4|99999|DANIEL ZANETTI DE FLORIO|40|UFABC@UFABC.br|UFABC|UFABC|P|2013|2016||
K4780529Z3|99999|MARIA ALICE DE MATOS PIMENTA PARENTE|40|UFABC@UFABC.br|UFABC|UFABC|P|2013|2016||
K4799064J4|99999|MARISELMA FERREIRA|40|UFABC@UFABC.br|UFABC|UFABC|P|2013|2016||
K4767948T3|99999|LUIS ALBERTO MARTINEZ RIASCOS|40|UFABC@UFABC.br|UFABC|UFABC|P|2013|2016||
K4764194A8|99999|FRANK NELSON CRESPILHO|40|UFABC@UFABC.br|UFABC|UFABC|P|2013|2016||
K4483159J1|99999|FLAVIO LEANDRO DE SOUZA|40|UFABC@UFABC.br|UFABC|UFABC|P|2013|2016||
K4799172E2|99999|FABIO FURLAN FERREIRA|40|UFABC@UFABC.br|UFABC|UFABC|P|2013|2016||
K4184296D7|99999|CEDRIC ROCHA LEAO|40|UFABC@UFABC.br|UFABC|UFABC|P|2013|2016||
K4761849Z9|99999|CARLOS TRIVENO RIOS|40|UFABC@UFABC.br|UFABC|UFABC|P|2013|2016||
K4763175E6|99999|CARLOS HENRIQUE SCURACCHIO|40|UFABC@UFABC.br|UFABC|UFABC|P|2013|2016||
K4764261D6|99999|PAULA AYAKO TIBA|40|UFABC@UFABC.br|UFABC|UFABC|P|2013|2016||
K4266654D6|99999|MARIA TERESA CARTHERY|40|UFABC@UFABC.br|UFABC|UFABC|P|2013|2016||
K4787815Y7|99999|MARIA MARTHA BERNARDI|40|UFABC@UFABC.br|UFABC|UFABC|P|2013|2016||
K4230216J2|99999|MARIA CAMILA ALMEIDA|40|UFABC@UFABC.br|UFABC|UFABC|P|2013|2016||
K4233758P4|99999|MARCOS DUARTE|40|UFABC@UFABC.br|UFABC|UFABC|P|2013|2016||
K4701874H7|99999|MARCELO SALVADOR CAETANO|40|UFABC@UFABC.br|UFABC|UFABC|P|2013|2016||
K4767128J5|99999|MARCELO BUSSOTTI REYES|40|UFABC@UFABC.br|UFABC|UFABC|P|2013|2016||
K4761086D8|99999|MARCELA BERMUDEZ ECHEVERRY|40|UFABC@UFABC.br|UFABC|UFABC|P|2013|2016||
K4783025P2|99999|LUIZ ROBERTO GIORGETTI DE BRITTO|40|UFABC@UFABC.br|UFABC|UFABC|P|2013|2016||
K4762477D5|99999|JOAO RICARDO SATO|40|UFABC@UFABC.br|UFABC|UFABC|P|2013|2016||
K4709505H8|99999|GILBERTO MARCOS ANTONIO RODRIGUES|40|UFABC@UFABC.br|UFABC|UFABC|P|2013|2016||
K4789823Y4|99999|EMMA CADEMARTORI SILIPRANDI|40|UFABC@UFABC.br|UFABC|UFABC|P|2013|2016||
K4732376U1|99999|ELIAS DAVID MORALES MARTINEZ|40|UFABC@UFABC.br|UFABC|UFABC|P|2013|2016||
K4756423P9|99999|PAULO HENRIQUE DE MELLO SANT ANA|40|UFABC@UFABC.br|UFABC|UFABC|P|2013|2016||
K4761127Y8|99999|PATRICIA TEIXEIRA LEITE ASANO|40|UFABC@UFABC.br|UFABC|UFABC|P|2013|2016||
K4792584Z6|99999|MARAT RAFIKOV|40|UFABC@UFABC.br|UFABC|UFABC|P|2013|2016||
K4788584U6|99999|JULIO CARLOS TEIXEIRA|40|UFABC@UFABC.br|UFABC|UFABC|P|2013|2016||
K4787633Y7|99999|JOSE RUBENS MAIORINO|40|UFABC@UFABC.br|UFABC|UFABC|P|2013|2016||
K4780866H0|99999|JOAO MANOEL LOSADA MOREIRA|40|UFABC@UFABC.br|UFABC|UFABC|P|2013|2016||
K4707040H5|99999|JESUS FRANKLIN ANDRADE ROMERO|40|UFABC@UFABC.br|UFABC|UFABC|P|2013|2016||
K4784777Z4|99999|IVAN ROBERTO SANTANA CASELLA|40|UFABC@UFABC.br|UFABC|UFABC|P|2013|2016||
K4756106U7|99999|IGOR FUSER|40|UFABC@UFABC.br|UFABC|UFABC|P|2013|2016||
K4338953U9|99999|HERLANDER DA MATA FERNANDES LIMA|40|UFABC@UFABC.br|UFABC|UFABC|P|2013|2016||
K4769688U0|99999|JULIANA TOFANO DE CAMPOS LEITE|40|UFABC@UFABC.br|UFABC|UFABC|P|2013|2016||
K4792725D2|99999|DANIEL PANSARELLI|40|UFABC@UFABC.br|UFABC|UFABC|P|2013|2016||
K4771936Z9|99999|CLAUDIO LUIS DE CAMARGO PENTEADO|40|UFABC@UFABC.br|UFABC|UFABC|P|2013|2016||
K4703194U7|99999|CECILIA OLIVIERI|40|UFABC@UFABC.br|UFABC|UFABC|P|2013|2016||
K4765284Z0|99999|CAMILA CALDEIRA NUNES|40|UFABC@UFABC.br|UFABC|UFABC|P|2013|2016||
K4739366Z9|99999|ANAPATRICIA DE OLIVEIRA MORALES VILHA|40|UFABC@UFABC.br|UFABC|UFABC|P|2013|2016||
K4790223P1|99999|ANA KEILA MOSCA PINEZI|40|UFABC@UFABC.br|UFABC|UFABC|P|2013|2016||
K4430172H5|99999|ALESSANDRA TEIXEIRA|40|UFABC@UFABC.br|UFABC|UFABC|P|2013|2016||
K4792107Z3|99999|ADRIANA CAPUANO DE OLIVEIRA|40|UFABC@UFABC.br|UFABC|UFABC|P|2013|2016||
K4261264U5|99999|VITOR EDUARDO SCHINCARIOL|40|UFABC@UFABC.br|UFABC|UFABC|P|2013|2016||
K4703661H9|99999|GIORGIO ROMANO SCHUTTE|40|UFABC@UFABC.br|UFABC|UFABC|P|2013|2016||
K4164735E7|99999|GILBERTO MARINGONI DE OLIVEIRA|40|UFABC@UFABC.br|UFABC|UFABC|P|2013|2016||
K4795589T9|99999|CAETANO RODRIGUES MIRANDA|40|UFABC@UFABC.br|UFABC|UFABC|P|2013|2016||
K4736566U9|99999|FRANCISCO CARLOS NATHER|40|UFABC@UFABC.br|UFABC|UFABC|P|2013|2016||
K4760868P8|99999|SIDNEY JARD DA SILVA|40|UFABC@UFABC.br|UFABC|UFABC|P|2013|2016||
K4771093E6|99999|SERGIO AMADEU DA SILVEIRA|40|UFABC@UFABC.br|UFABC|UFABC|P|2013|2016||
K4204070U1|99999|RICARDO BATISTA POLITI|40|UFABC@UFABC.br|UFABC|UFABC|P|2013|2016||
K4792621H4|99999|RAMON VICENTE GARCIA FERNANDEZ|40|UFABC@UFABC.br|UFABC|UFABC|P|2013|2016||
K4221921P6|99999|PARIS YEROS|40|UFABC@UFABC.br|UFABC|UFABC|P|2013|2016||
K4709041A4|99999|NEUSA SERRA|40|UFABC@UFABC.br|UFABC|UFABC|P|2013|2016||
K4435959Y1|99999|FABIO MARQUES SIMOES DE SOUZA|40|UFABC@UFABC.br|UFABC|UFABC|P|2013|2016||
K4184072U5|99999|DAVID CORREA MARTINS JUNIOR|40|UFABC@UFABC.br|UFABC|UFABC|P|2013|2016||
K4762156D9|99999|DANIEL CARNEIRO CARRETTIERO|40|UFABC@UFABC.br|UFABC|UFABC|P|2013|2016||
K4792255Z2|99999|CRISTIANE OTERO REIS SALUM|40|UFABC@UFABC.br|UFABC|UFABC|P|2013|2016||
K4723428D5|99999|ANDRE RICARDO OLIVEIRA DA FONSECA|40|UFABC@UFABC.br|UFABC|UFABC|P|2013|2016||
K4771810P8|99999|ANDRE MASCIOLI CRAVO|40|UFABC@UFABC.br|UFABC|UFABC|P|2013|2016||
K4778856H4|99999|ALEXANDRE HIROAKI KIHARA|40|UFABC@UFABC.br|UFABC|UFABC|P|2013|2016||
K4739808J3|99999|ALESSANDRO JACQUES RIBEIRO|40|UFABC@UFABC.br|UFABC|UFABC|P|2013|2016||
K4787071Y2|99999|ESPER ABRAO CAVALHEIRO|40|UFABC@UFABC.br|UFABC|UFABC|P|2013|2016||
K4795773H7|99999|FULVIO RIELI MENDES|40|UFABC@UFABC.br|UFABC|UFABC|P|2013|2016||
K4771453D2|99999|ELIZABETH TEODOROV|40|UFABC@UFABC.br|UFABC|UFABC|P|2013|2016||
K4721170D1|99999|SILVIA CRISTINA DOTTA|40|UFABC@UFABC.br|UFABC|UFABC|P|2013|2016||
K4780213H5|99999|MARILDA APARECIDA DE MENEZES|40|UFABC@UFABC.br|UFABC|UFABC|P|2013|2016||
K4784177D7|99999|MARIA GABRIELA SILVA MARTINS CUNHA MARINHO|40|UFABC@UFABC.br|UFABC|UFABC|P|2013|2016||
K4795089D8|99999|MARCOS VINICIUS PO|40|UFABC@UFABC.br|UFABC|UFABC|P|2013|2016||
K4761118E3|99999|MARCO ANTONIO CORNACIONI SAVIO|40|UFABC@UFABC.br|UFABC|UFABC|P|2013|2016||
K4700504J9|99999|ISABELA FADUL DE OLIVEIRA|40|UFABC@UFABC.br|UFABC|UFABC|P|2013|2016||
K4777252T7|99999|GRAZIELLA COLATO ANTONIO|40|UFABC@UFABC.br|UFABC|UFABC|P|2013|2016||
K4713533J5|99999|GILBERTO MARTINS|40|UFABC@UFABC.br|UFABC|UFABC|P|2013|2016||
K4701778D5|99999|FRANCISCO DE ASSIS COMARU|40|UFABC@UFABC.br|UFABC|UFABC|P|2013|2016||
K4771936Z9|99999|CLAUDIO LUIS DE CAMARGO PENTEADO|40|UFABC@UFABC.br|UFABC|UFABC|P|2013|2016||
K4767903U2|99999|ARILSON DA SILVA FAVARETO|40|UFABC@UFABC.br|UFABC|UFABC|P|2013|2016||
K4708372J8|99999|ANTONIO GARRIDO GALLEGO|40|UFABC@UFABC.br|UFABC|UFABC|P|2013|2016||
K4219827Z3|99999|FERNANDO GASI|40|UFABC@UFABC.br|UFABC|UFABC|P|2013|2016||
K4701237Y5|99999|FEDERICO BERNARDINO MORANTE TRIGOSO|40|UFABC@UFABC.br|UFABC|UFABC|P|2013|2016||
K4792810T4|99999|DOUGLAS ALVES CASSIANO|40|UFABC@UFABC.br|UFABC|UFABC|P|2013|2016||
K4701979J9|99999|ANA MARIA PEREIRA NETO|40|UFABC@UFABC.br|UFABC|UFABC|P|2013|2016||
K4774120A6|99999|ALFEU JOAOZINHO SGUAREZI FILHO|40|UFABC@UFABC.br|UFABC|UFABC|P|2013|2016||
K4744276Y3|99999|AHDA PIONKOSKI GRILO PAVANI|40|UFABC@UFABC.br|UFABC|UFABC|P|2013|2016||
K4708495T5|99999|GRACIELA DE SOUZA OLIVER|40|UFABC@UFABC.br|UFABC|UFABC|P|2013|2016||
K4732525T6|99999|JOSE BLANES SALA|40|UFABC@UFABC.br|UFABC|UFABC|P|2013|2016||
K4138649Z1|99999|JOSE PAULO GUEDES PINTO|40|UFABC@UFABC.br|UFABC|UFABC|P|2013|2016||
K4751613Y9|99999|JULIO FRANCISCO BLUMETTI FACO|40|UFABC@UFABC.br|UFABC|UFABC|P|2013|2016||
K4790539A8|99999|MARCOS DE ABREU AVILA|40|UFABC@UFABC.br|UFABC|UFABC|P|2013|2016||
K4763345U9|99999|MARCIO TEIXEIRA DO NASCIMENTO VARELLA|40|UFABC@UFABC.br|UFABC|UFABC|P|2013|2016||
K4798015E6|99999|MARCIA TSUYAMA ESCOTE|40|UFABC@UFABC.br|UFABC|UFABC|P|2013|2016||
K4788406E0|99999|MARCIA APARECIDA DA SILVA SPINACE|40|UFABC@UFABC.br|UFABC|UFABC|P|2013|2016||
K4796724E8|99999|JULIANA MARCHI|40|UFABC@UFABC.br|UFABC|UFABC|P|2013|2016||
K4707942U6|99999|JOSE FERNANDO QUEIRUGA REY|40|UFABC@UFABC.br|UFABC|UFABC|P|2013|2016||
K4203499H3|99999|JOSE ANTONIO SOUZA|40|UFABC@UFABC.br|UFABC|UFABC|P|2013|2016||
K4776906H3|99999|JORGE DIEGO MARCONI|40|UFABC@UFABC.br|UFABC|UFABC|P|2013|2016||
K4707646E2|99999|JEVERSON TEODORO ARANTES JUNIOR|40|UFABC@UFABC.br|UFABC|UFABC|P|2013|2016||
K4721210P6|99999|ISELI LOURENCO NANTES|40|UFABC@UFABC.br|UFABC|UFABC|P|2013|2016||
K4795088P2|99999|HERCULANO DA SILVA MARTINHO|40|UFABC@UFABC.br|UFABC|UFABC|P|2013|2016||
K4706334J2|99999|GUSTAVO MARTINI DALPIAN|40|UFABC@UFABC.br|UFABC|UFABC|P|2013|2016||
K4764578P3|99999|ADRIANO VIANA ENSINAS|40|UFABC@UFABC.br|UFABC|UFABC|P|2013|2016||
K4787378Y5|99999|SINCLAIR MALLET GUY GUERRA|40|UFABC@UFABC.br|UFABC|UFABC|P|2013|2016||
K4783610E5|99999|SILVIA AZUCENA NEBRA DE PEREZ|40|UFABC@UFABC.br|UFABC|UFABC|P|2013|2016||
K4138020Z2|99999|SERGIO RICARDO LOURENCO|40|UFABC@UFABC.br|UFABC|UFABC|P|2013|2016||
K8045013D6|99999|MARCELO MODESTO DA SILVA|40|UFABC@UFABC.br|UFABC|UFABC|P|2013|2016||
K4320655U2|99999|REYNALDO PALACIOS BERECHE|40|UFABC@UFABC.br|UFABC|UFABC|P|2013|2016||
K4594254P6|99999|SERGIO HENRIQUE FERREIRA DE OLIVEIRA|40|UFABC@UFABC.br|UFABC|UFABC|P|2013|2016||
K4784233J7|99999|SERGIO BROCHSZTAIN|40|UFABC@UFABC.br|UFABC|UFABC|P|2013|2016||
K4706386E0|99999|ROSELI FREDERIGI BENASSI|40|UFABC@UFABC.br|UFABC|UFABC|P|2013|2016||
K4780464E5|99999|RICARDO DE SOUSA MORETTI|40|UFABC@UFABC.br|UFABC|UFABC|P|2013|2016||
K4708741A2|99999|RICARDO CANELOI DOS SANTOS|40|UFABC@UFABC.br|UFABC|UFABC|P|2013|2016||
K4787595Y0|99999|PEDRO CARAJILESCOV|40|UFABC@UFABC.br|UFABC|UFABC|P|2013|2016||
K4905538A6|99999|CARLOS ALBERTO DA SILVA|40|UFABC@UFABC.br|UFABC|UFABC|P|2013|2016||
K4792718D3|99999|YOSSI ZANA|40|UFABC@UFABC.br|UFABC|UFABC|P|2013|2016||
