ID_Lattes|MATRICULA|NOME|CH|mail|LP_1|PROGRAMA_1|CATEG_1|Periodo_Inicio_1|Periodo_Fim_1|Resp_prog|Resp_LP1
K4266210P6|99999|CARLOS CESAR GARCIA FREITAS|40|UNICENTRO@UNICENTRO.br|UNICENTRO|UNICENTRO|P|2013|2016|UNICENTRO|UNICENTRO
K4784140U8|99999|CARLOS ALBERTO MARCAL GONZAGA|40|UNICENTRO@UNICENTRO.br|UNICENTRO|UNICENTRO|P|2013|2016||
K4792377J7|99999|ANCELMO SCHORNER|40|UNICENTRO@UNICENTRO.br|UNICENTRO|UNICENTRO|P|2013|2016||
K4701554P3|99999|SERGIO LUIS DIAS DOLIVEIRA|40|UNICENTRO@UNICENTRO.br|UNICENTRO|UNICENTRO|P|2013|2016||
K4750002T5|99999|RONALDO FERREIRA MAGANHOTTO|40|UNICENTRO@UNICENTRO.br|UNICENTRO|UNICENTRO|P|2013|2016||
K4582663E0|99999|RAQUEL DORIGAN DE MATOS|40|UNICENTRO@UNICENTRO.br|UNICENTRO|UNICENTRO|P|2013|2016||
K4792012Y1|99999|CRISTIANA MAGNI|40|UNICENTRO@UNICENTRO.br|UNICENTRO|UNICENTRO|P|2013|2016||
K4707295E2|99999|CLAUDIO SHIGUEKI SUZUKI|40|UNICENTRO@UNICENTRO.br|UNICENTRO|UNICENTRO|P|2013|2016||
K4704718E2|99999|CESAR REY XAVIER|40|UNICENTRO@UNICENTRO.br|UNICENTRO|UNICENTRO|P|2013|2016||
K4701320D3|99999|CARLOS RICARDO MANECK MALFATTI|40|UNICENTRO@UNICENTRO.br|UNICENTRO|UNICENTRO|P|2013|2016||
K4706792J2|99999|RAFAEL SIQUEIRA DE GUIMARAES|40|UNICENTRO@UNICENTRO.br|UNICENTRO|UNICENTRO|P|2013|2016||
K4756210A1|99999|POLIANA FABIULA CARDOZO|40|UNICENTRO@UNICENTRO.br|UNICENTRO|UNICENTRO|P|2013|2016||
K4775935Z2|99999|PLINIO MARCO DE TONI|40|UNICENTRO@UNICENTRO.br|UNICENTRO|UNICENTRO|P|2013|2016||
K4702743T9|99999|MARIA FERNANDA BAGAROLLO|40|UNICENTRO@UNICENTRO.br|UNICENTRO|UNICENTRO|P|2013|2016||
K4774672U8|99999|LUIS PAULO GOMES MASCARENHAS|40|UNICENTRO@UNICENTRO.br|UNICENTRO|UNICENTRO|P|2013|2016||
K4776352Z5|99999|CRISTINA IDE FUJINAGA|40|UNICENTRO@UNICENTRO.br|UNICENTRO|UNICENTRO|P|2013|2016||
K4761716U0|99999|LUCIANA ROSAR FORNAZARI KLANOVICZ|40|UNICENTRO@UNICENTRO.br|UNICENTRO|UNICENTRO|P|2013|2016||
K4777770H8|99999|KHALED OMAR MOHAMAD EL TASSA|40|UNICENTRO@UNICENTRO.br|UNICENTRO|UNICENTRO|P|2013|2016||
K4771835P5|99999|JULIANA FERREIRA MARCOLINO GALLI|40|UNICENTRO@UNICENTRO.br|UNICENTRO|UNICENTRO|P|2013|2016||
K4706207J5|99999|JO KLANOVICZ|40|UNICENTRO@UNICENTRO.br|UNICENTRO|UNICENTRO|P|2013|2016||
K4764750T3|99999|JAIMA PINHEIRO DE OLIVEIRA|40|UNICENTRO@UNICENTRO.br|UNICENTRO|UNICENTRO|P|2013|2016||
K4718836E0|99999|GUSTAVO ZAMBENEDETTI|40|UNICENTRO@UNICENTRO.br|UNICENTRO|UNICENTRO|P|2013|2016||
K4795902D1|99999|GILMAR DE CARVALHO CRUZ|40|UNICENTRO@UNICENTRO.br|UNICENTRO|UNICENTRO|P|2013|2016||
K4775320T9|99999|ERIVELTON FONTANA DE LAAT|40|UNICENTRO@UNICENTRO.br|UNICENTRO|UNICENTRO|P|2013|2016||
K4704307J6|99999|EMERSON LUIS VELOZO|40|UNICENTRO@UNICENTRO.br|UNICENTRO|UNICENTRO|P|2013|2016||
K4737349T9|99999|EMERSON CARRARO|40|UNICENTRO@UNICENTRO.br|UNICENTRO|UNICENTRO|P|2013|2016||
K4594269Z3|99999|DAVID LIVINGSTONE ALVES FIGUEIREDO|40|UNICENTRO@UNICENTRO.br|UNICENTRO|UNICENTRO|P|2013|2016||
K4771016T5|99999|DAIANA NOVELLO|40|UNICENTRO@UNICENTRO.br|UNICENTRO|UNICENTRO|P|2013|2016||
