
PB0:2013,42;
PB1:2013,3;
PB2:2013,1;
PB3:*itens sem ano,2;2013,1;
PB4:*itens sem ano,1;2013,8;
PB5:2013,8;
PB6:2013,172;
PB7:2013,1;
PB8:2013,47;
PT4:2013,8;
PT5:2013,9;
OA1:2013,4;2014,5;2015,10;2016,7;2017,10;
OA2:2015,6;2016,7;2017,14;
OA4:2017,1;
OA5:2013,2;2015,3;2016,12;2017,16;
OA6:2017,10;
OC1:2013,1;
OC2:2013,18;
OC3:2013,6;
OC4:2013,11;
OC5:2013,13;
OC6:2013,1;
Pm:2013,10;
Pj:2005,1;2006,3;2007,3;2008,2;2009,1;2010,5;2011,15;2012,10;2013,15;
PB:*itens sem ano,3;2013,283;
PT:2013,17;
OA:2013,6;2014,5;2015,19;2016,26;2017,51;
OC:2013,50;
Ep:2013,49;
Eo:2013,11;