ID_Lattes|MATRICULA|NOME|CH|mail|LP_1|PROGRAMA_1|CATEG_1|Periodo_Inicio_1|Periodo_Fim_1|Resp_prog|Resp_LP1
K4721656U9|99999|LUCIANA APARECIDA CARLINI GARCIA|40|IBSP@IBSP.br|IBSP|IBSP|P|2013|2016|IBSP|IBSP
K4757322P2|99999|ALESSANDRA FIGUEIREDO DE CASTRO NASSAR|40|IBSP@IBSP.br|IBSP|IBSP|P|2013|2016||
K4707230A1|99999|ELIANA SCARCELLI PINHEIRO|40|IBSP@IBSP.br|IBSP|IBSP|P|2013|2016||
K4783123U9|99999|EDVIGES MARISTELA PITUCO|40|IBSP@IBSP.br|IBSP|IBSP|P|2013|2016||
K4700972A4|99999|EDLAYNE GONCALEZ|40|IBSP@IBSP.br|IBSP|IBSP|P|2013|2016||
K4797951J8|99999|CLAUDIA DEL FAVA|40|IBSP@IBSP.br|IBSP|IBSP|P|2013|2016||
K4202079T6|99999|ANTONIO BATISTA FILHO|40|IBSP@IBSP.br|IBSP|IBSP|P|2013|2016||
K4728595U9|99999|ANA EUGENIA DE CARVALHO CAMPOS|40|IBSP@IBSP.br|IBSP|IBSP|P|2013|2016||
K4788838E7|99999|ADDOLORATA COLARICCIO|40|IBSP@IBSP.br|IBSP|IBSP|P|2013|2016||
K4783335Y3|99999|ADALTON RAGA|40|IBSP@IBSP.br|IBSP|IBSP|P|2013|2016||
K4783106Z6|99999|YARA MARIA CHAGAS DE CARVALHO|40|IBSP@IBSP.br|IBSP|IBSP|P|2013|2016||
K4723152H6|99999|SUZETE APARECIDA LANZA DESTEFANO|40|IBSP@IBSP.br|IBSP|IBSP|P|2013|2016||
K4721236D3|99999|RICARDO HARAKAVA|40|IBSP@IBSP.br|IBSP|IBSP|P|2013|2016||
K4784446D8|99999|MIGUEL FRANCISCO DE SOUZA FILHO|40|IBSP@IBSP.br|IBSP|IBSP|P|2013|2016||
K4797182Y7|99999|MARIO EIDI SATO|40|IBSP@IBSP.br|IBSP|IBSP|P|2013|2016||
K4787583Y3|99999|MARCIO HIPOLITO|40|IBSP@IBSP.br|IBSP|IBSP|P|2013|2016||
K4795202Z4|99999|MARCELO EIRAS|40|IBSP@IBSP.br|IBSP|IBSP|P|2013|2016||
K4786965Z6|99999|LUIZ CARLOS LUCHINI|40|IBSP@IBSP.br|IBSP|IBSP|P|2013|2016||
K4727994U6|99999|LUIS REYNALDO FERRACCIU ALLEONI|40|IBSP@IBSP.br|IBSP|IBSP|P|2013|2016||
K4780073P6|99999|LUIS OTAVIO SAGGION BERIAM|40|IBSP@IBSP.br|IBSP|IBSP|P|2013|2016||
K4760229A2|99999|LUIS GARRIGOS LEITE|40|IBSP@IBSP.br|IBSP|IBSP|P|2013|2016||
