ID_Lattes|MATRICULA|NOME|CH|mail|LP_1|PROGRAMA_1|CATEG_1|Periodo_Inicio_1|Periodo_Fim_1|Resp_prog|Resp_LP1
K4777989P9|99999|DEBORA ZUMKELLER SABONARO|40|UNISO@UNISO.br|UNISO|UNISO|P|2013|2016|UNISO|UNISO
K4760533U4|99999|DANIEL BERTOLI GONCALVES|40|UNISO@UNISO.br|UNISO|UNISO|P|2013|2016||
K4893833A4|99999|JOSE MARTINS DE OLIVEIRA JUNIOR|40|UNISO@UNISO.br|UNISO|UNISO|P|2013|2016||
K4162890J5|99999|DENISE GROTTO|40|UNISO@UNISO.br|UNISO|UNISO|P|2013|2016||
K4761977Z2|99999|WELBER SENTEIO SMITH|40|UNISO@UNISO.br|UNISO|UNISO|P|2013|2016||
K4723133E4|99999|WALDEMAR BONVENTI JUNIOR|40|UNISO@UNISO.br|UNISO|UNISO|P|2013|2016||
K4975852D6|99999|VITOR MANUEL CARDOSO FIGUEIREDO BALCAO|40|UNISO@UNISO.br|UNISO|UNISO|P|2013|2016||
K4723186J1|99999|THOMAZ AUGUSTO GUISARD RESTIVO|40|UNISO@UNISO.br|UNISO|UNISO|P|2013|2016||
K4422130Y4|99999|RENATA DE LIMA|40|UNISO@UNISO.br|UNISO|UNISO|P|2013|2016||
K4795226U8|99999|NORBERTO ARANHA|40|UNISO@UNISO.br|UNISO|UNISO|P|2013|2016||
K4707269E9|99999|MARCO VINICIUS CHAUD|40|UNISO@UNISO.br|UNISO|UNISO|P|2013|2016||
K4795586D7|99999|LUCIANO AVALLONE BUENO|40|UNISO@UNISO.br|UNISO|UNISO|P|2013|2016||
K4737420H6|99999|ANGELA FAUSTINO JOZALA|40|UNISO@UNISO.br|UNISO|UNISO|P|2013|2016||
