8689137959988831
5800797359773255
9314227578871945
2250275801796804
5630274221749189
9904927102011911
6089287551555329
1960233874164060
6515341000378515
0573677979512967
2003673719899206
6492018476375095
0921292653701906
7586955305848168
8667081632601181
2218064963579721
0573818157092394
8485796147369478
8551048513174462
3769018368187346
3683357029229928
8292844935525017
7987540753293070
9504134414855841
8103217219290241
5354208144022114
4257594561432768
9512651268518603
9171192196186603
9992919427224997
2510627553982858
2139814271237417
2092735974889850
4365859482673439
0024879542709777
0332602373133734
9229021843167268
1454767270220104
4155929903647877
1830125077368638
8732208457285522
1729487902904332
3330571667106194
9274090078877419
5528312291747035
9706489297442715
6916803941615951
9359574441239238
5374334579123950
7533123391752654
0151660833349474
2559117122403017
8352049712728334
3985962314627782
9730537381037655
0484238355618252
0949815449877300
9117580271037568
8579051478703901
4410477675430653
6612142353718315
8710662749475790
9270231270884490
1212643899634170
0515934038658933
7139732412584648
4761545951933790
5017545423319001
8364369192283433
4127510935840786
8482352185762027
0604137114629084
4254915335068847
7296507091888547
2119623792508533
8364157886947408
5727625323313221
7261511502653024
9515868229218114
1433426629868073
3772375204809379
2866898592114470
0852243918381426
1757106083168250
3977660018939385
4249504075130204
6849540373837535
0088486051411442
9928919918556540
0576596830087727
6981678819163384
5243162128451251
5134026980035802
0996772367289753
4637343101152374
3106464250447710
1098173593483788
5778644217572142
4187556392512820
6557279163560811
0568453821070131
3279388938557575
7817354483081775
9118325366063270
6345440666273561
7788142213502114
7411854798834917
6634425824711803
2862541276328123
9143280752409727
4933496207020816
1931827279473834
9364481932838561
9463081364597021
