artigoEmPeriodico	2013	http://dx.doi.org/10.1590/S1020-49892013000200002	Measuring evolution of income-related inequalities in health and health care utilization in selected Latin American and Caribbean countries	Revista Panamericana de Salud Publica (Print)	ALMEIDA, G. ; SARTI, F. M.	A2	
artigoEmPeriodico	2013	http://dx.doi.org/10.1590/s1020-49892013000200003	Analysis of the evolution and determinants of income-related inequalities in the Brazilian health system, 1998 - 2008	Revista Panamericana de Salud Publica (Print)	ALMEIDA, G. ; SARTI, F. M. ; FERREIRA, F. F. ; DIAZ, M. D. M. ; CAMPINO, A. C. C.	A2	
artigoEmPeriodico	2013	http://dx.doi.org/10.1007/s00421-012-2415-8	Free-running circadian rhythms of muscle strength, reaction time, and body temperature in totally blind people	European Journal of Applied Physiology (Print)	Ana Amélia Benedito-Silva; SQUARCINI, Camila Fabiana Rossi ; PIRES, Maria Laura Nogueira ; Lopes, Cleide ; ESTEVES, Andrea Maculano ; CORNELISSEN-GUILLAUME, GERMAINE ; MATARAZZO, CAROLINA ; GARCIA, DANILO ; SILVA, MARIA STELLA PECCIN ; Tufik, Sergio ; DE MELLO, M. T. or MELLO, M.T.	A2	
artigoEmPeriodico	2013	http://dx.doi.org/10.1016/j.ptsp.2012.12.002	Profiling the isokinetic shoulder rotator muscle strength in 13- to 36-year-old male and female handball players	Physical Therapy in Sport	Andrade, Marilia Dos Santos ; De Lira, Claudio Andre Barbosa ; VANCINI, RODRIGO LUIZ ; DE ALMEIDA, ALEXANDRE APARECIDO ; BENEDITO-SILVA, ANA AMÉLIA ; Da Silva, Antonio Carlos	Qualis nao identificado	Physical Therapy in Sport
artigoEmPeriodico	2013	http://dx.doi.org/10.1371/journal.pone.0080159	Influence of Maternal Height and Weight on Low Birth Weight: A Cross-Sectional Study in Poor Communities of Northeastern Brazil	Plos One	BRITTO, REVILANE PARENTE DE ALENCAR ; FLORÊNCIO, TELMA MARIA TOLEDO ; BENEDITO SILVA, ANA AMELIA ; SESSO, RICARDO ; CAVALCANTE, JAIRO CALADO ; SAWAYA, ANA LYDIA	A1	
artigoEmPeriodico	2013	http://dx.doi.org/10.1590/S1984-92302013000300003	Do auge à retração: análise de um dos estágios de construção do ensino de Administração pública no Brasil (1966-1982)	ORGANIZAÇÕES & SOCIEDADE (ONLINE)	COELHO, F. S.; NICOLINI, A. M.	B1	
artigoEmPeriodico	2013	http://dx.doi.org/10.1007/s10479-013-1357-9	A heuristic algorithm based on multi-assignment procedures for nurse scheduling	Annals of Operation Research	CONSTANTINO, ADEMIR APARECIDO ; LANDA-SILVA, DARIO ; MELO, E. L. ; MENDONÇA, C. F. X. ; RIZZATO, DOUGLAS BARONI ; ROMÃO, WESLEY	A2	
artigoEmPeriodico	2013	http://dx.doi.org/10.1093/mnras/stt485	On the theory of mass-loss in dwarf galaxies - I. Basic equations and the case of wave/thermal driven winds	Monthly Notices of the Royal Astronomical Society (Print)	FALCETA-GONCALVES, D	A1	
artigoEmPeriodico	2013		Integrated Communication in retail fashion: a study of integration between advertising and communication at the point of sale	Journal of arts & Humanities	FAVERO, M. B. ; ALVAREZ, F. J. S. M. ou MENDIZABAL ALVAREZ, FJ.S.M	Qualis nao identificado	Journal of arts & Humanities
artigoEmPeriodico	2013	http://dx.doi.org/10.5433/2236-2207.2013v4n1p65	Marcas de moda e a percepção dos consumidores	Projética	FAVERO, MARCELA ; ALVAREZ, FRANCISCO ; VIEIRA, FRACISCO GIOVANNI	B5	
artigoEmPeriodico	2013		O legado para a democratização da comunicação	OBSERVATÓRIO DA IMPRENSA (SÃO PAULO)	Fernando Fagundes ; FERREIRA, F. F.	B5	
artigoEmPeriodico	2013	http://dx.doi.org/10.1098/rstb.2012.0166	A social and ecological assessment of tropical land uses at multiple scales: the Sustainable Amazon Network	Philosophical Transactions - Royal Society. Biological Sciences (Print)	GARDNER, T	A1	
artigoEmPeriodico	2013		A sucessão florestal em roças em pousio: a natureza está fora da lei?	Scientia Forestalis (IPEF)	GOMES, E. P. C. ; SUGIYAMA, M. ; ADAMS, C. ; PRADO, H. M. ; OLIVEIRA JR., C. J. F.	B1	
artigoEmPeriodico	2013	http://dx.doi.org/10.4322/nutrire.2013.009	Evolução da alimentação escolar no município de São Paulo-SP	Nutrire (São Paulo)	MAGNO, M. S. O. ; CYRILLO, D. C. ; SARTI, F. M.	B3	
artigoEmPeriodico	2013	http://dx.doi.org/10.1016/j.physleta.2013.07.007	Trust in the CODA model: Opinion Dynamics and the reliability of other agents	Physics Letters. A (Print)	Martins, André C R	A2	
artigoEmPeriodico	2013	http://dx.doi.org/10.1103/PhysRevE.87.042807	Building up of individual inflexibility in opinion dynamics	Physical Review. E, Statistical, Nonlinear, and Soft Matter Physics (Print)	Martins, André C. R.; Galam, Serge	A1	
artigoEmPeriodico	2013	http://dx.doi.org/10.1016/j.physa.2013.10.009	Discrete opinion models as a limit case of the CODA model	Physica. A (Print)	Martins, André C.R	A2	
artigoEmPeriodico	2013	http://dx.doi.org/10.1088/1751-8113/46/29/295001	Exact eigenspectrum of the symmetric simple exclusion process on the complete, complete bipartite and related graphs	Journal of Physics. A, Mathematical and Theoretical (Print)	MENDONÇA, J. R. G	A2	
artigoEmPeriodico	2013	http://dx.doi.org/10.1016/j.lindif.2013.03.005	Do schooling and exposure to the dominant society through travel experiences is associated with the monetary income of ethnic minorities? A case study among three remote Amazonian indigenous groups	Learning and Individual Differences	MORSELLO, CARLA; RUIZ-MALLÉN, ISABEL	A1	
artigoEmPeriodico	2013		A estrutura de custos e a composição de insumos no tratamento de pacientes HIV no Brasil	Informações FIPE (Impresso)	NISHIJIMA, M. ; SARTI, F. M. ; CYRILLO, D. C. ; CAMPINO, A. C. C.	B5	
artigoEmPeriodico	2013	http://dx.doi.org/10.1088/0004-637X/777/2/112	MAGNETIC FIELD COMPONENTS ANALYSIS OF THE SCUPOL 850micron POLARIZATION DATA CATALOG	THE ASTROPHYSICAL JOURNAL	POIDEVIN, F. ; FALCETA-GONCALVES, D. ; Kowal, G. ; de Gouveia dal Pino, E. M. ; MAGALHAES, A. M.	A1	
artigoEmPeriodico	2013	http://dx.doi.org/10.2993/0278-0771-33.2.180	Complementary Viewpoints: Scientific and Local Knowledge of Ungulates in the Brazilian Atlantic Forest	Journal of Ethnobiology	PRADO, H. M. ; Murrieta, R. S. S. ; ADAMS, C. ; BRONDIZIO, E.	B1	
artigoEmPeriodico	2013	http://dx.doi.org/10.1590/s1981-81222013000300013	The impacts of shifting cultivation on tropical forest soil: a review	Boletim do Museu Paraense Emílio Goeldi. Ciências Humanas	RIBEIRO FILHO, A. A. ; ADAMS, C. ; MURRIETA, R. S. S.	A2	
artigoEmPeriodico	2013		Evolução do panorama da saúde no município de São Paulo na década de 2000 a 2010: Mortalidade infantil e infraestrutura de saúde	Informações FIPE (Impresso)	RODRIGUES, M. O. ; SARTI, F. M. ; NISHIJIMA, M.	B5	
artigoEmPeriodico	2013	http://dx.doi.org/10.1093/mnras/sts425	The mass-loss process in dwarf galaxies from 3D hydrodynamical simulations: the role of dark matter and starbursts	Royal Astronomical Society. Monthly Notices	Ruiz, L. O. ; FALCETA-GONCALVES, D. ; LANFRANCHI, G. A. ; Caproni, A.	Qualis nao identificado	Royal Astronomical Society. Monthly Notices
artigoEmPeriodico	2013	http://dx.doi.org/10.1016/j.lindif.2012.12.012	Children's use of time and traditional ecological learning. A case study in two Amazonian indigenous societies	Learning and Individual Differences	RUIZ-MALLÉN, ISABEL ; MORSELLO, CARLA ; REYES-GARCÍA, VICTORIA ; DE FARIA, RENATA BARROS MARCONDES	A1	
artigoEmPeriodico	2013		Entrepreneurial decision-making using the knightian uncertainty approach	RAUSP-e (São Paulo)	Saes, M. S. M. ; Martins, André C.R. ; SCHNAIDER, P. S. B.	B2	
artigoEmPeriodico	2013		Análise custo-efetividade aplicada a políticas públicas de segurança alimentar e nutricional no Brasil: Uma avaliação do Programa Cozinhas Comunitárias	Revista Gestão & Políticas Públicas	SARTI, F. M. ; MARCHIONI, D. M. L. ; BANDONI, D. H. ; FIGUEIREDO, I. C. R. ; BRASIL, B. G.	B3	
artigoEmPeriodico	2013	http://dx.doi.org/10.1098/rstb.2012.0378	Pesticide use and biodiversity conservation in the Amazonian agricultural frontier	PHILOSOPHICAL TRANSACTIONS OF THE ROYAL SOCIETY B-BIOLOGICAL SCIENCES	SCHIESARI, L. ; WAICHMAN, A. ; BROCK, T. ; ADAMS, C. ; GRILLITSCH, B.	A1	
artigoEmPeriodico	2013	http://dx.doi.org/10.1080/08941920.2013.820813	-Slash and Burn- and -Shifting- Cultivation Systems in Forest Agriculture Frontiers From the Brazilian Amazon	Society & Natural Resources	van Vliet, Nathalie ; Adams, Cristina ; VIEIRA, IMA CÉLIA GUIMARÃES ; Mertz, Ole	B1	
artigoEmPeriodico	2013	http://dx.doi.org/10.1590/s0034-8910.2013047004073	Evolucao dos precos relativos de grupos alimentares entre 1939 e 2010, em Sao Paulo, SP	Revista de Saúde Pública (Impresso)	YUBA, T. Y. ; CARMO, H. C. E. ; SARTI, F. M. ; CAMPINO, A. C. C.	A2	
trabalhoCompletoEmCongresso	2013		Avaliação da Política Nacional de Saúde Bucal: Uma análise de indicadores relativos ao eixo ?promoção e proteção? da saúde oral no Brasil	VI Congresso CONSAD de Gestão Pública	CARACA, B. G. ; SARTI, F. M.		
trabalhoCompletoEmCongresso	2013		Complexidades da Gestão de Pessoas no Setor Público	Gestão Pública dos Entes Federativos	COELHO, F. S		
trabalhoCompletoEmCongresso	2013		Turbulence and dynamo interlinks	IAU Symposium 294	de Gouveia dal Pino, E. M. ; LIMA, R. ; Kowal, G ; FALCETA-GONCALVES, D.		
trabalhoCompletoEmCongresso	2013		A micro e pequena empresa e as redes sociais	Semana do Administrador SEMAD 2013	FAVERO, M. B. ; ALVAREZ, F. J. S. M. ou MENDIZABAL ALVAREZ, FJ.S.M		
trabalhoCompletoEmCongresso	2013		Varejo de Moda e Comunicação de Marketing: um estudo de caso da rede de varejo Riachuelo	Encontro Nacional de Pesquisa em Moda	FAVERO, M. B. ; ALVAREZ, F. J. S. M. ou MENDIZABAL ALVAREZ, FJ.S.M		
trabalhoCompletoEmCongresso	2013		Louis Vuitton: o alto luxo e as redes sociais	9o. Coloquio de Moda	FAVERO, M. B. ; ALVAREZ, F. J. S. M. ou MENDIZABAL ALVAREZ, FJ.S.M		
trabalhoCompletoEmCongresso	2013		Pegada Hídrica da Bovinicultura de corte no Brasil - uma comparação entre produção em pastagem manejada e não manejada	XX Simpósio Brasileiro de Recursos Hídricos	MENDONCA, C. B. ; TADEU, N. D. ; SINISGALLI, P.A.A.		
trabalhoCompletoEmCongresso	2013		A produção científica em administração pública no Brasil: Descrição e análise de alguns resultados de uma investigação para o período 2000-2010	XXXVII Encontro da Associação Nacional de Pós-Graduação e Pesquisa em Administração (EnANPAD)	CORRÊA SILVA, V. ; TROTTMANN, P. ; COELHO, F. S. ; SARTI, F. M.		
trabalhoCompletoEmCongresso	2013		IMPACTOS HÍDRICOS DE LA PRODUCCIÓN DE MADERA DE EUCALIPTO EN AREA DE MATA ATLÂNTICA EN LA CUENCA DEL RIO PARAIBA DO SUL, SÃO PAULO, BRASIL	VI Jornadas de la Asociación Argentino Uruguaya de Economía Ecológica (ASAUEE)	TADEU, N. D. ; SINISGALLI, P.A.A.		
trabalhoCompletoEmCongresso	2013		A análise de campos do saber a partir da utilização de redes: Uma proposta de abordagem qualitativo-quantitativa	IV Encontro de Ensino e Pesquisa em Administração e Contabilidade (EnEPQ)	TROTTMANN, P. ; CORRÊA SILVA, V. ; COELHO, F. S. ; SARTI, F. M.		
resumoExpandidoEmCongresso	2013	Eta Carinae seen by ALMA	Massive Stars: From α to Ω, 2013, Rhodes. Massive Stars from alpha to omega	ABRAHAM, Z. ; FALCETA-GONÇALVES, D. ; BEAKLINI, P.		
resumoExpandidoEmCongresso	2013	Agent-Based Modeling as a tool for policy making towards common-pool resources: palm heart harvesting and traditional communities in Brazil	14th Global Conference of the International Association for the Study of the Commons, 2013, Kita Fuji. Digital Library of the Commons	LIMA, R. V. A. ; ADAMS, C. ; RAIMBERT, C. ; FERREIRA, F. F.		
resumoExpandidoEmCongresso	2013	Impacto sobre a disponibilidade hídrica quantitativa do consumo de água da produção de madeira de eucalipto produzido em área de Mata Atlântica	X Encontro da Sociedade Brasileira de Economia Ecológica, 2013, Vitória. Anais do X Encontro da Sociedade Brasileira de Economia Ecológica	TADEU, N. D. ; SINISGALLI, P.A.A.		
