0.15
0.15
1.4765
0.15
0.871668
1.14825
1.369
0.603165
1.42467
0.15
0.15
0.15
0.15
0.15
0.15
0.810588
0.15
0.15
1.0
0.831386
1.0
0.15
0.892502
1.25666
0.873137
0.831386
1.06343
0.15
0.15
1.06343
0.15
0.15
1.52664
0.603165
0.871668
0.482749
