6347649521254709
2362415146548766
6594386239267558
0396534654044270
6223538827801940
7502800737011469
5258115172634066
4809436251402460
9257912040339745
7280286511214010
4166922845507601
3807603064705018
5509322247278150
9061294064223770
0061105125478244
1513117897139822
2973582366436613
1301478454424902
7371131120808017
5135469799155511
4649943061707468
7850733691236910
9011663690459023
4403086334271874
5234033191054309
3081778023137787
0896679424053917
9712711180172104
1281510800855866
5098953950067992
5588088764137963
5000143365122255
1546226857029733
4560148363510585
9691936279245790
4642561875024341
6601820078249638
4547973782986883
8721187139726277
7400382999422243
0307717396092778
2693759912446687
7121133805508400
4406428679110963
8809703063314679
5717675257150655
9439416101626260
3139160860095096
2807136078042891
3952637837352801
6723952614607082
8701536338267221
7648527564953939
2822547977701311
2921116177152577
8317821729275486
1435492124601475
0779353999771479
6066036778785137
4834577102652217
7248125430532031
8640714459401865
9876854767810413
1717112851429708
1260589791657138
0400232298849115
6660106753991539
9950674050703908
5546283101446300
3311065182330509
7731779012126665
8323271870704785
8202575210363471
8545979938040256
7632564247461717
8172124241767828
0598019611032119
2255749648827182
1398733763837178
8103793618305651
1341076398575131
1685352910710244
4229317394755159
7176978413811531
4275817652253513
0143302513779218
8094980534649690
1649386769442153
1247721504657205
9982487720126506
4251936710939364
3457862410041180
5705449480152992
1890938071126782
7733232231918582
1831413841898146
5284290648658007
3752232046564780
8959074137995686
5687602185597238
9064784358893538
5097499395613895
1435405686437314
6513019095119383
3556608249739580
8298720623327498
1538297597653299
8585150733748686
4687363695453133
6269014469999617
9391740966673420
7852421613213269
7686475549861635
4128418911260513
4863318065551221
7541399131195077
8549364227012605
0412329455637007
5841309767497448
1788068339190340
5399268772894807
5436717142184166
8839975019798210
6030266240746143
6230924567408318
6159042833362242
2174722554516780
1058846722790485
5297074319265251
1994819710029365
2575222192602586
9600322657151582
7572729626385216
3388750064285917
0684318770321413
6448044628010889
8250832800932125
9760545412379637
7888191553838017
4315847159217401
4292559242413613
3294212520805128
1733131049925875
8736019206126135
7363039723790177
5510237509217432
0878410768350416
1559292514654215
4516182332908538
4541651895660086
8880662777800845
6306373558437127
6818628123587050
1608673584881629
5078553366285896
2929826612236114
4179444121729414
6738366464597912
3314896079637664
9216692816351555
0837640723204741
3187818030612587
3897795649348376
2645256881125504
1808368824068028
9751628701749396
2834821219284523
1184149396454450
0412755877897123
0861723476901307
8275939437273764
2414347035031276
1681098403582083
5839201884386740
4216079175587835
1231141260610815
4081542032696682
8018788492846096
2500858511584576
6019746533960915
7910133462131658
2189307346017892
4524013741486821
3692153936729463
8411841137021906
6486396974708485
1187992322475657
4512281451584488
2243004942022530
1089580734117273
7246554526271622
1731757205683551
5114643785938969
6375749355117140
6480829809158927
5271157397202980
4358832555314934
8288593763692015
6057786496252191
6070935209565672
6760927867024062
9726158248555104
1039119409652211
9950007997056231
3324077413522687
7281717489355607
7628995541951517
7718816128860614
8199908295825645
4544412193057759
4628948732531356
8594637607405428
1532321688210484
1622598786506098
1292168620771604
2729131215468247
9734599774173773
7940297809849482
8600401135679947
9762867342695846
3979454625416654
6231933294943022
7238774538784649
7562586543877346
7710248564242460
0908432080314075
6936403740310206
7611407832193396
6987439622263692
5426952514175141
7061629222981715
3860172079417937
6100181729636815
3673396355707963
7488424043174420
1740467499247374
8806604431531229
7427004794277015
7095576389800366
8120052694655393
7021090049088581
9783062612438250
5482106459540298
1969733264813192
9366289922712482
2212790934134878
5165887325498375
6447275696744449
9455726822044709
7006786061277133
0437216229384474
5731213234468142
5114262498944083
2214266569251290
5978684124962276
5055126579468463
7396027282542595
6560950666794913
3556572281528948
0235956165366786
5957304130023927
4244205836006671
2390652334127898
7327293655433139
0604410963473665
0134792761198343
7573006791125205
8607171759049558
0299266693381297
1822018629207688
6269525393139517
2158997398909483
1818141849282887
0382320131730616
3003708984857129
3171494977842769
3043383569693989
4283126175158861
9743515855736574
4222031676613261
8478621011631880
6333884743570245
5410927608982362
9249989812146284
1023951613536333
9747023756965277
1555421362755131
9349353406617020
7410154526031351
2440614529345924
7189047185126427
4730728276213666
4325716768519626
0600658876707949
2533613935930600
1916020145542042
5499683067192427
0695317579443094
1143839141724633
2715327692589453
5436743692886779
2215329612129225
