4451111077660870
4587299173539062
8042108246632060
4461273355568982
6688041530466410
0705172159762950
0560633898748135
3801901177718984
5788034885236304
3423133876430218
9237713158265249
3844823051682851
1071813211114795
1183201737914250
2825302557451331
6741026914548492
9799870668339275
3793156690673506
4364303980383808
8275296252934547
5799445358880614
2317714197108593
7315592936477868
0375745110240885
5654886463998722
4682380099012723
6402361744624287
