strict graph grafo1 {
	graph [bb="0,0,1775.1,125",
		id=grafo1,
		overlap=False
	];
	node [fontsize=8,
		label="\N",
		shape=rectangle,
		style=filled
	];
	0	 [URL="http://lattes.cnpq.br/6099942406051896",
		color="#17272B",
		fontcolor="#FFFFFF",
		height=0.23611,
		label="Paulo E. Maciel de Almeida [26]",
		pos="70.601,116.5",
		width=1.6944];
	6	 [URL="http://lattes.cnpq.br/2550201329788172",
		color="#17272B",
		fontcolor="#FFFFFF",
		height=0.23611,
		label="Gray Farias Moita [19]",
		pos="70.601,62.5",
		width=1.25];
	0 -- 6	 [pos="70.601,107.83 70.601,97.996 70.601,81.051 70.601,71.204"];
	10	 [URL="http://lattes.cnpq.br/2243256075052322",
		color="#17272B",
		fontcolor="#FFFFFF",
		height=0.23611,
		label="Elizabeth Fialho Wanner [10]",
		pos="317.6,62.5",
		width=1.5556];
	0 -- 10	 [pos="106.25,107.99 153.14,98.122 235.07,80.874 281.96,71.003"];
	18	 [URL="http://lattes.cnpq.br/5174842920583671",
		color="#17272B",
		fontcolor="#FFFFFF",
		height=0.23611,
		label="Rodrigo T. Nogueira Cardoso [7]",
		pos="252.6,8.5",
		width=1.7083];
	0 -- 18	 [pos="55.512,107.96 34.297,96.389 0,73.483 16.601,53.5 38.407,27.252 128.88,16.581 191.24,12.298"];
	6 -- 18	 [pos="97.065,53.939 131.57,44.08 191.58,26.934 226.1,17.07"];
	10 -- 18	 [pos="308.01,53.827 295.72,43.996 274.54,27.051 262.23,17.204"];
	17	 [URL="http://lattes.cnpq.br/0460460352086325",
		color="#17272B",
		fontcolor="#FFFFFF",
		height=0.23611,
		label="Rogério Martins Gomes [4]",
		pos="582.6,8.5",
		width=1.4583];
	10 -- 17	 [pos="355.85,53.994 406.16,44.122 494.06,26.874 544.36,17.003"];
	1	 [URL="http://lattes.cnpq.br/0824886862509279",
		color="#17272B",
		fontcolor="#FFFFFF",
		height=0.23611,
		label="José L. Acebal Fernandes [2]",
		pos="188.6,62.5",
		width=1.5278];
	1 -- 18	 [pos="198.04,53.827 210.14,43.996 231,27.051 243.12,17.204"];
	2	 [URL="http://lattes.cnpq.br/6078945717558464",
		color="#17272B",
		fontcolor="#FFFFFF",
		height=0.23611,
		label="Marcone J. Freitas Souza [0]",
		pos="652.6,116.5",
		width=1.5139];
	3	 [URL="http://lattes.cnpq.br/6579355215659091",
		color="#17272B",
		fontcolor="#FFFFFF",
		height=0.23611,
		label="Leonardo Lima dos Santos [0]",
		pos="782.6,116.5",
		width=1.5833];
	4	 [URL="http://lattes.cnpq.br/7536181384159078",
		color="#17272B",
		fontcolor="#FFFFFF",
		height=0.23611,
		label="José G. Peixoto de Faria [3]",
		pos="526.6,116.5",
		width=1.4722];
	7	 [URL="http://lattes.cnpq.br/7555708910723173",
		color="#17272B",
		fontcolor="#FFFFFF",
		height=0.23611,
		label="Giancarlo Queiroz Pellegrino [2]",
		pos="598.6,62.5",
		width=1.6944];
	4 -- 7	 [pos="537.22,107.83 550.84,97.996 574.3,81.051 587.93,71.204"];
	13	 [URL="http://lattes.cnpq.br/6122907819049400",
		color="#17272B",
		fontcolor="#FFFFFF",
		height=0.23611,
		label="Arthur R. Bosco de Magalhães [2]",
		pos="455.6,62.5",
		width=1.7639];
	4 -- 13	 [pos="516.12,107.83 502.7,97.996 479.56,81.051 466.12,71.204"];
	13 -- 18	 [pos="426.08,53.939 387.59,44.08 320.66,26.934 282.15,17.07"];
	5	 [URL="http://lattes.cnpq.br/6447512644654475",
		color="#17272B",
		fontcolor="#FFFFFF",
		height=0.23611,
		label="Henrique Elias Borges [2]",
		pos="727.6,62.5",
		width=1.3889];
	5 -- 17	 [pos="706.52,53.939 679.02,44.08 631.21,26.934 603.71,17.07"];
	8	 [URL="http://lattes.cnpq.br/6545115051079964",
		color="#17272B",
		fontcolor="#FFFFFF",
		height=0.23611,
		label="Flávio L. Cardeal Pádua [5]",
		pos="848.6,62.5",
		width=1.4722];
	8 -- 18	 [pos="795.52,54.487 792.5,54.14 789.51,53.808 786.6,53.5 615.69,35.442 413.35,20.532 313.95,13.631"];
	15	 [URL="http://lattes.cnpq.br/6813736989856243",
		color="#17272B",
		fontcolor="#FFFFFF",
		height=0.23611,
		label="Adriano C. Machado Pereira [5]",
		pos="908.6,8.5",
		width=1.6667];
	8 -- 15	 [pos="857.45,53.827 868.8,43.996 888.35,27.051 899.71,17.204"];
	9	 [URL="http://lattes.cnpq.br/7224855414322463",
		color="#17272B",
		fontcolor="#FFFFFF",
		height=0.23611,
		label="Fernando A. Campos Gomide [0]",
		pos="919.6,116.5",
		width=1.7222];
	11	 [URL="http://lattes.cnpq.br/5249973626810280",
		color="#17272B",
		fontcolor="#FFFFFF",
		height=0.23611,
		label="Cristina Duarte Murta [1]",
		pos="968.6,62.5",
		width=1.3611];
	11 -- 15	 [pos="959.75,53.827 948.4,43.996 928.85,27.051 917.49,17.204"];
	12	 [URL="http://lattes.cnpq.br/7962146839706796",
		color="#17272B",
		fontcolor="#FFFFFF",
		height=0.23611,
		label="Breno R. Lamaghere Galvão [0]",
		pos="1059.6,116.5",
		width=1.6667];
	14	 [URL="http://lattes.cnpq.br/4216801992845696",
		color="#17272B",
		fontcolor="#FFFFFF",
		height=0.23611,
		label="Allbens A. Picardi Faria [0]",
		pos="1190.6,116.5",
		width=1.4722];
	16	 [URL="http://lattes.cnpq.br/9832733706852720",
		color="#17272B",
		fontcolor="#FFFFFF",
		height=0.23611,
		label="Thiago Gomes de Mattos [0]",
		pos="1316.6,116.5",
		width=1.5139];
	19	 [URL="http://lattes.cnpq.br/2530445511170734",
		color="#17272B",
		fontcolor="#FFFFFF",
		height=0.23611,
		label="Vinicius Fernandes dos Santos [0]",
		pos="1452.6,116.5",
		width=1.75];
	20	 [URL="http://lattes.cnpq.br/0923310420440204",
		color="#17272B",
		fontcolor="#FFFFFF",
		height=0.23611,
		label="Thiago Rodrigues de Souza [0]",
		pos="1591.6,116.5",
		width=1.6111];
	21	 [URL="http://lattes.cnpq.br/8136976170403371",
		color="#17272B",
		fontcolor="#FFFFFF",
		height=0.23611,
		label="Ricardo Sérgio de Souza [0]",
		pos="1721.6,116.5",
		width=1.4861];
}
