4451111077660870
4364303980383808
6685666727183074
6688041530466410
4448540530244733
3801901177718984
6902095526533812
3423133876430218
7107831728330169
2825302557451331
5646449640720212
4484563500611177
5799445358880614
2317714197108593
7315592936477868
0375745110240885
5788034885236304
0675202049455102
1660272156108142
3521570166594082
4682380099012723
8854891343941445
6402361744624287
