
PB0:2014,91;
PB1:2014,3;
PB2:2014,8;
PB3:*itens sem ano,4;
PB4:*itens sem ano,1;2014,60;
PB5:2014,1;
PB6:2014,22;
PB7:2014,1;
PB8:2014,7;
PT3:*itens sem ano,2;2014,3;
PT4:2014,7;
PT5:*itens sem ano,2;2014,11;
OA0:2013,1;2016,1;2017,5;
OA1:2007,1;2011,4;2012,10;2013,15;2014,18;2015,16;2016,19;2017,6;
OA2:2010,2;2012,2;2013,1;2014,4;2015,15;2016,22;2017,14;
OA4:2017,3;
OA5:2013,2;2015,1;2016,7;2017,7;
OA6:2016,1;2017,5;
OC0:2014,5;
OC1:2014,13;
OC2:2014,24;
OC4:2014,22;
OC5:2014,41;
OC6:2014,1;
Pm:2014,12;
Pj:1994,1;2000,1;2001,1;2002,2;2003,7;2004,14;2005,3;2006,1;2007,3;2008,5;2009,8;2010,8;2011,12;2012,20;2013,18;2014,8;
PB:*itens sem ano,5;2014,193;
PT:*itens sem ano,4;2014,21;
OA:2007,1;2010,2;2011,4;2012,12;2013,19;2014,22;2015,32;2016,50;2017,40;
OC:2014,106;
Ep:2014,13;
Eo:2014,10;