strict graph grafo2 {
	graph [bb="0,0,1998,145",
		id=grafo2,
		overlap=False
	];
	node [fontsize=8,
		label="\N",
		shape=rectangle,
		style=filled
	];
	0	 [URL="http://lattes.cnpq.br/6099942406051896",
		color="#17272B",
		fontcolor="#FFFFFF",
		height=0.23611,
		label="Paulo E. Maciel de Almeida [6]",
		pos="235.5,136.5",
		width=1.6389];
	6	 [URL="http://lattes.cnpq.br/2550201329788172",
		color="#17272B",
		fontcolor="#FFFFFF",
		height=0.23611,
		label="Gray Farias Moita [3]",
		pos="235.5,72.5",
		width=1.1944];
	0 -- 6	 [fontsize=8,
		label=3.0,
		lp="241,104.5",
		pos="235.5,127.9 235.5,116 235.5,93.102 235.5,81.165"];
	10	 [URL="http://lattes.cnpq.br/2243256075052322",
		color="#17272B",
		fontcolor="#FFFFFF",
		height=0.23611,
		label="Elizabeth Fialho Wanner [5]",
		pos="350.5,72.5",
		width=1.5];
	0 -- 10	 [fontsize=8,
		label=2.0,
		lp="306,104.5",
		pos="249.6,127.9 271.67,116 314.14,93.102 336.28,81.165"];
	18	 [URL="http://lattes.cnpq.br/5174842920583671",
		color="#17272B",
		fontcolor="#FFFFFF",
		height=0.23611,
		label="Rodrigo T. Nogueira Cardoso [3]",
		pos="163.5,8.5",
		width=1.7083];
	0 -- 18	 [fontsize=8,
		label=1.0,
		lp="178,72.5",
		pos="221.81,127.98 206.95,119.02 183.82,102.56 172.5,81.5 161.17,60.418 161.7,30.969 162.73,17.186"];
	10 -- 18	 [fontsize=8,
		label=1.0,
		lp="274,40.5",
		pos="327.57,63.898 291.58,51.966 222.25,28.978 186.32,17.068"];
	17	 [URL="http://lattes.cnpq.br/0460460352086325",
		color="#17272B",
		fontcolor="#FFFFFF",
		height=0.23611,
		label="Rogério Martins Gomes [3]",
		pos="441.5,8.5",
		width=1.4583];
	10 -- 17	 [fontsize=8,
		label=2.0,
		lp="407,40.5",
		pos="361.66,63.898 379.12,51.998 412.73,29.102 430.25,17.165"];
	1	 [URL="http://lattes.cnpq.br/0824886862509279",
		color="#17272B",
		fontcolor="#FFFFFF",
		height=0.23611,
		label="José L. Acebal Fernandes [0]",
		pos="367.5,136.5",
		width=1.5278];
	2	 [URL="http://lattes.cnpq.br/6078945717558464",
		color="#17272B",
		fontcolor="#FFFFFF",
		height=0.23611,
		label="Marcone J. Freitas Souza [0]",
		pos="495.5,136.5",
		width=1.5139];
	3	 [URL="http://lattes.cnpq.br/6579355215659091",
		color="#17272B",
		fontcolor="#FFFFFF",
		height=0.23611,
		label="Leonardo Lima dos Santos [0]",
		pos="625.5,136.5",
		width=1.5833];
	4	 [URL="http://lattes.cnpq.br/7536181384159078",
		color="#17272B",
		fontcolor="#FFFFFF",
		height=0.23611,
		label="José G. Peixoto de Faria [1]",
		pos="63.5,136.5",
		width=1.4722];
	13	 [URL="http://lattes.cnpq.br/6122907819049400",
		color="#17272B",
		fontcolor="#FFFFFF",
		height=0.23611,
		label="Arthur R. Bosco de Magalhães [2]",
		pos="63.5,72.5",
		width=1.7639];
	4 -- 13	 [fontsize=8,
		label=1.0,
		lp="69,104.5",
		pos="63.5,127.9 63.5,116 63.5,93.102 63.5,81.165"];
	13 -- 18	 [fontsize=8,
		label=1.0,
		lp="125,40.5",
		pos="75.762,63.898 94.955,51.998 131.88,29.102 151.14,17.165"];
	5	 [URL="http://lattes.cnpq.br/6447512644654475",
		color="#17272B",
		fontcolor="#FFFFFF",
		height=0.23611,
		label="Henrique Elias Borges [1]",
		pos="472.5,72.5",
		width=1.3889];
	5 -- 17	 [fontsize=8,
		label=1.0,
		lp="465,40.5",
		pos="468.7,63.898 462.75,51.998 451.3,29.102 445.33,17.165"];
	7	 [URL="http://lattes.cnpq.br/7555708910723173",
		color="#17272B",
		fontcolor="#FFFFFF",
		height=0.23611,
		label="Giancarlo Queiroz Pellegrino [0]",
		pos="761.5,136.5",
		width=1.6944];
	8	 [URL="http://lattes.cnpq.br/6545115051079964",
		color="#17272B",
		fontcolor="#FFFFFF",
		height=0.23611,
		label="Flávio L. Cardeal Pádua [1]",
		pos="893.5,136.5",
		width=1.4722];
	15	 [URL="http://lattes.cnpq.br/6813736989856243",
		color="#17272B",
		fontcolor="#FFFFFF",
		height=0.23611,
		label="Adriano C. Machado Pereira [1]",
		pos="893.5,72.5",
		width=1.6667];
	8 -- 15	 [fontsize=8,
		label=1.0,
		lp="899,104.5",
		pos="893.5,127.9 893.5,116 893.5,93.102 893.5,81.165"];
	9	 [URL="http://lattes.cnpq.br/7224855414322463",
		color="#17272B",
		fontcolor="#FFFFFF",
		height=0.23611,
		label="Fernando A. Campos Gomide [0]",
		pos="1026.5,136.5",
		width=1.7222];
	11	 [URL="http://lattes.cnpq.br/5249973626810280",
		color="#17272B",
		fontcolor="#FFFFFF",
		height=0.23611,
		label="Cristina Duarte Murta [0]",
		pos="1155.5,136.5",
		width=1.3611];
	12	 [URL="http://lattes.cnpq.br/7962146839706796",
		color="#17272B",
		fontcolor="#FFFFFF",
		height=0.23611,
		label="Breno R. Lamaghere Galvão [0]",
		pos="1282.5,136.5",
		width=1.6667];
	14	 [URL="http://lattes.cnpq.br/4216801992845696",
		color="#17272B",
		fontcolor="#FFFFFF",
		height=0.23611,
		label="Allbens A. Picardi Faria [0]",
		pos="1413.5,136.5",
		width=1.4722];
	16	 [URL="http://lattes.cnpq.br/9832733706852720",
		color="#17272B",
		fontcolor="#FFFFFF",
		height=0.23611,
		label="Thiago Gomes de Mattos [0]",
		pos="1539.5,136.5",
		width=1.5139];
	19	 [URL="http://lattes.cnpq.br/2530445511170734",
		color="#17272B",
		fontcolor="#FFFFFF",
		height=0.23611,
		label="Vinicius Fernandes dos Santos [0]",
		pos="1675.5,136.5",
		width=1.75];
	20	 [URL="http://lattes.cnpq.br/0923310420440204",
		color="#17272B",
		fontcolor="#FFFFFF",
		height=0.23611,
		label="Thiago Rodrigues de Souza [0]",
		pos="1814.5,136.5",
		width=1.6111];
	21	 [URL="http://lattes.cnpq.br/8136976170403371",
		color="#17272B",
		fontcolor="#FFFFFF",
		height=0.23611,
		label="Ricardo Sérgio de Souza [0]",
		pos="1944.5,136.5",
		width=1.4861];
}
