strict graph grafo1 {
	graph [bb="0,0,1989,125",
		id=grafo1,
		overlap=False
	];
	node [fontsize=8,
		label="\N",
		shape=rectangle,
		style=filled
	];
	0	 [URL="http://lattes.cnpq.br/6099942406051896",
		color="#17272B",
		fontcolor="#FFFFFF",
		height=0.23611,
		label="Paulo E. Maciel de Almeida [6]",
		pos="226.5,116.5",
		width=1.6389];
	6	 [URL="http://lattes.cnpq.br/2550201329788172",
		color="#17272B",
		fontcolor="#FFFFFF",
		height=0.23611,
		label="Gray Farias Moita [3]",
		pos="226.5,62.5",
		width=1.1944];
	0 -- 6	 [pos="226.5,107.83 226.5,97.996 226.5,81.051 226.5,71.204"];
	10	 [URL="http://lattes.cnpq.br/2243256075052322",
		color="#17272B",
		fontcolor="#FFFFFF",
		height=0.23611,
		label="Elizabeth Fialho Wanner [5]",
		pos="341.5,62.5",
		width=1.5];
	0 -- 10	 [pos="243.47,107.83 265.34,97.939 303.12,80.856 324.84,71.035"];
	18	 [URL="http://lattes.cnpq.br/5174842920583671",
		color="#17272B",
		fontcolor="#FFFFFF",
		height=0.23611,
		label="Rodrigo T. Nogueira Cardoso [3]",
		pos="155.5,8.5",
		width=1.7083];
	0 -- 18	 [pos="214,107.95 202.18,100.2 184.79,87.099 174.5,71.5 163.1,54.207 158.27,29.743 156.46,17.35"];
	10 -- 18	 [pos="314.45,53.939 279.19,44.08 217.86,26.934 182.58,17.07"];
	17	 [URL="http://lattes.cnpq.br/0460460352086325",
		color="#17272B",
		fontcolor="#FFFFFF",
		height=0.23611,
		label="Rogério Martins Gomes [3]",
		pos="402.5,8.5",
		width=1.4583];
	10 -- 17	 [pos="350.5,53.827 362.03,43.996 381.91,27.051 393.46,17.204"];
	1	 [URL="http://lattes.cnpq.br/0824886862509279",
		color="#17272B",
		fontcolor="#FFFFFF",
		height=0.23611,
		label="José L. Acebal Fernandes [0]",
		pos="358.5,116.5",
		width=1.5278];
	2	 [URL="http://lattes.cnpq.br/6078945717558464",
		color="#17272B",
		fontcolor="#FFFFFF",
		height=0.23611,
		label="Marcone J. Freitas Souza [0]",
		pos="486.5,116.5",
		width=1.5139];
	3	 [URL="http://lattes.cnpq.br/6579355215659091",
		color="#17272B",
		fontcolor="#FFFFFF",
		height=0.23611,
		label="Leonardo Lima dos Santos [0]",
		pos="616.5,116.5",
		width=1.5833];
	4	 [URL="http://lattes.cnpq.br/7536181384159078",
		color="#17272B",
		fontcolor="#FFFFFF",
		height=0.23611,
		label="José G. Peixoto de Faria [1]",
		pos="63.5,116.5",
		width=1.4722];
	13	 [URL="http://lattes.cnpq.br/6122907819049400",
		color="#17272B",
		fontcolor="#FFFFFF",
		height=0.23611,
		label="Arthur R. Bosco de Magalhães [2]",
		pos="63.5,62.5",
		width=1.7639];
	4 -- 13	 [pos="63.5,107.83 63.5,97.996 63.5,81.051 63.5,71.204"];
	13 -- 18	 [pos="77.075,53.827 94.569,43.939 124.79,26.856 142.17,17.035"];
	5	 [URL="http://lattes.cnpq.br/6447512644654475",
		color="#17272B",
		fontcolor="#FFFFFF",
		height=0.23611,
		label="Henrique Elias Borges [1]",
		pos="463.5,62.5",
		width=1.3889];
	5 -- 17	 [pos="454.5,53.827 442.97,43.996 423.09,27.051 411.54,17.204"];
	7	 [URL="http://lattes.cnpq.br/7555708910723173",
		color="#17272B",
		fontcolor="#FFFFFF",
		height=0.23611,
		label="Giancarlo Queiroz Pellegrino [0]",
		pos="752.5,116.5",
		width=1.6944];
	8	 [URL="http://lattes.cnpq.br/6545115051079964",
		color="#17272B",
		fontcolor="#FFFFFF",
		height=0.23611,
		label="Flávio L. Cardeal Pádua [1]",
		pos="884.5,116.5",
		width=1.4722];
	15	 [URL="http://lattes.cnpq.br/6813736989856243",
		color="#17272B",
		fontcolor="#FFFFFF",
		height=0.23611,
		label="Adriano C. Machado Pereira [1]",
		pos="884.5,62.5",
		width=1.6667];
	8 -- 15	 [pos="884.5,107.83 884.5,97.996 884.5,81.051 884.5,71.204"];
	9	 [URL="http://lattes.cnpq.br/7224855414322463",
		color="#17272B",
		fontcolor="#FFFFFF",
		height=0.23611,
		label="Fernando A. Campos Gomide [0]",
		pos="1017.5,116.5",
		width=1.7222];
	11	 [URL="http://lattes.cnpq.br/5249973626810280",
		color="#17272B",
		fontcolor="#FFFFFF",
		height=0.23611,
		label="Cristina Duarte Murta [0]",
		pos="1146.5,116.5",
		width=1.3611];
	12	 [URL="http://lattes.cnpq.br/7962146839706796",
		color="#17272B",
		fontcolor="#FFFFFF",
		height=0.23611,
		label="Breno R. Lamaghere Galvão [0]",
		pos="1273.5,116.5",
		width=1.6667];
	14	 [URL="http://lattes.cnpq.br/4216801992845696",
		color="#17272B",
		fontcolor="#FFFFFF",
		height=0.23611,
		label="Allbens A. Picardi Faria [0]",
		pos="1404.5,116.5",
		width=1.4722];
	16	 [URL="http://lattes.cnpq.br/9832733706852720",
		color="#17272B",
		fontcolor="#FFFFFF",
		height=0.23611,
		label="Thiago Gomes de Mattos [0]",
		pos="1530.5,116.5",
		width=1.5139];
	19	 [URL="http://lattes.cnpq.br/2530445511170734",
		color="#17272B",
		fontcolor="#FFFFFF",
		height=0.23611,
		label="Vinicius Fernandes dos Santos [0]",
		pos="1666.5,116.5",
		width=1.75];
	20	 [URL="http://lattes.cnpq.br/0923310420440204",
		color="#17272B",
		fontcolor="#FFFFFF",
		height=0.23611,
		label="Thiago Rodrigues de Souza [0]",
		pos="1805.5,116.5",
		width=1.6111];
	21	 [URL="http://lattes.cnpq.br/8136976170403371",
		color="#17272B",
		fontcolor="#FFFFFF",
		height=0.23611,
		label="Ricardo Sérgio de Souza [0]",
		pos="1935.5,116.5",
		width=1.4861];
}
