
PB0:2015,21;
PB2:2015,4;
PB4:2015,54;
PB5:2015,3;
PB6:2015,4;
PB8:2015,11;
PT4:2015,15;
PT5:2015,2;
OA0:2017,1;
OA1:2009,1;2012,2;2013,15;2014,19;2015,5;2016,12;2017,14;
OA2:2013,1;2014,4;2015,6;2016,21;2017,15;
OA4:2016,1;2017,2;
OA5:2014,4;2015,1;2016,6;2017,10;
OC1:2015,1;
OC2:2015,16;
OC3:2015,1;
OC4:2015,9;
OC5:2015,15;
OC6:2015,2;
Pm:2015,4;
Pj:2001,1;2002,1;2003,4;2004,1;2005,3;2006,3;2007,1;2008,2;2009,5;2010,4;2011,7;2012,3;2013,15;2014,4;2015,8;
PB:2015,97;
PT:2015,17;
OA:2009,1;2012,2;2013,16;2014,27;2015,12;2016,40;2017,42;
OC:2015,44;
Ep:2015,14;
Eo:2015,1;