artigoEmPeriodico	Paulo Eduardo Maciel de Almeida	2015	http://dx.doi.org/10.1016/j.asoc.2015.07.014	Correcting geometric deviations of CNC Machine-Tools: An approach with Artificial Neural Networks	Applied Soft Computing (Print)	DE OLIVEIRA LEITE, WANDERSON ; CARLOS CAMPOS RUBIO, JUAN ; GILBERTO DUDUCH, JAIME ; DE ALMEIDA, PAULO EDUARDO MACIEL	A2	
artigoEmPeriodico	Paulo Eduardo Maciel de Almeida	2015		Application of Evolutionary Multiobjective Algorithms for solving the problem of Energy Dispatch in Hydroelectric Power Plants	Lecture Notes in Computer Science	MARCELINO, C. G. ; CARVALHO, L. M. ; WANNER, E. F. ; ALMEIDA, P. E. M. ; MIRANDA, V.	B1	
trabalhoCompletoEmCongresso	Paulo Eduardo Maciel de Almeida	2015		Application of Evolutionary Multiobjective Algorithms for solving the problem of Energy Dispatch in Hydroelectric Power Plants	8th International Conference on Evolutionary Multi-Criterion Optimization	ALMEIDA, P. E. M.; MARCELINO, C. G. ; WANNER, E. F. ; CARVALHO, L. M. ; MIRANDA, V.		
trabalhoCompletoEmCongresso	Paulo Eduardo Maciel de Almeida	2015		ABORDAGEM ERGONÔMICA DA MOVIMENTAÇÃO HUMANA: o diagrama fundamental pedestre em condições de normalidade	1o Encontro Interestadual de Engenharia de Produção	BRAGA, HENRIQUE COSTA ; MOITA, G. F. ; ALMEIDA, P. E. M.		
trabalhoCompletoEmCongresso	Paulo Eduardo Maciel de Almeida	2015		REDUÇÃO DOS RISCOS DE ACIDENTES NA MOVIMENTAÇÃO HUMANA: efeito do distanciamento das saídas de emergência	1o Encontro Interestadual de Engenharia de Produção	BRAGA, H. C. ; MOITA, G. F. ; ALMEIDA, P. E. M.		
trabalhoCompletoEmCongresso	Paulo Eduardo Maciel de Almeida	2015		ANÁLISE COMPARATIVA DE ALGORITMOS DE BUSCA PARA SIMULAÇÃO E MODELAGEM DO MELHOR CAMINHO INICIAL DE PERCURSO EM UM AMBIENTE CONSTRUÍDO	1o Encontro Interestadual de Engenharia de Produção	BRAGA, HENRIQUE COSTA ; MOITA, G. F. ; ALMEIDA, P. E. M.		
trabalhoCompletoEmCongresso	Paulo Eduardo Maciel de Almeida	2015		Aplicação de um Índice Multi-Escala para Avaliação da Confiabilidade em Redes de Distribuição	Congresso Brasileiro de Qualidade da Energia Elétrica	TORRES, VICTOR HUGO XAVIER ; COSTA, B. C. ; HORTA, G. L. ; BORGES, Henrique Elias ; ALMEIDA, P. E. M. ; CARDOSO, R. T. N.		
trabalhoCompletoEmCongresso	Paulo Eduardo Maciel de Almeida	2015		A Scalable Methodology to Measure Power Distribution Networks Reliability	28th Canadian Conference on Electrical and Computer Engineering	TORRES, VICTOR HUGO XAVIER ; COSTA, B. C. ; HORTA, G. L. ; BORGES, Henrique Elias ; ALMEIDA, P. E. M. ; CARDOSO, R. T. N.		
trabalhoCompletoEmCongresso	Paulo Eduardo Maciel de Almeida	2015		Aplicação da metaheurística DEEPSO a problemas de otimização global em larga escala	Simpósio Brasileiro de Pesquisa Operacional	MARCELINO, C. G. ; ALMEIDA, P. E. M. ; WANNER, E. F. ; CARVALHO, L. M. ; MIRANDA, V.		
trabalhoCompletoEmCongresso	José Luiz Acebal Fernandes	2015	http://dx.doi.org/10.5540/03.2016.004.01.0088	Validação de modelo entomológico com dependência da pluviosidade para o Aedes aegypti	DINCON 2015 Conferência Brasileira de Dinâmica	BARSANTE, LILLIA DOS SANTOS ; VER''SSIMO, FERNANDA SOARES ; CARDOSO, RODRIGO NOGUEIRA ; Acebal, José Luiz ; SILVA, CARLOS ALEXANDRE ; Eiras, Álvaro Eduardo		
trabalhoCompletoEmCongresso	José Luiz Acebal Fernandes	2015		Análise de Variância para o Fator Fracionário da Equação de Difusão	XVIII Encontro Nacional de Modelagem Computacional	PEREIRA, A. P. P. ; FERNANDES, J. P. ; ACEBAL, J.L.		
trabalhoCompletoEmCongresso	José Luiz Acebal Fernandes	2015		Modelo entomológico para o Aedes aegypti com efeito de variáveis meteorológicas: Temperatura e Pluviosidade	XVIII Encontro Nacional de Modelagem Computacional	CORDEIRO, F. S. ; BARSANTE, L. S. ; ACEBAL, J.L. ; EIRAS, A. E.		
artigoEmPeriodico	Marcone Jamilson Freitas Souza	2015	http://dx.doi.org/10.1016/j.endm.2014.11.027	A hybrid variable neighborhood search algorithm for targeted offers in direct marketing	Electronic Notes in Discrete Mathematics	OLIVEIRA, T.A. ; COELHO, V.N. ; Souza, M.J.F. ; BOAVA, D.L.T. ; BOAVA, F. ; COELHO, I.M. ; COELHO, B.N.	B2	
artigoEmPeriodico	Marcone Jamilson Freitas Souza	2015	http://dx.doi.org/10.1080/00207543.2015.1035811	An integrated CPU-GPU heuristic inspired on variable neighbourhood search for the single vehicle routing problem with deliveries and selective pickups	International Journal of Production Research (Print)	COELHO, I.M. ; MUNHOZ, P.L.A. ; OCHI, L.S. ; Souza, M.J.F. ; BENTES, C. ; FARIAS, R.	B1	
trabalhoCompletoEmCongresso	Marcone Jamilson Freitas Souza	2015	http://dx.doi.org/10.5540/03.2015.003.01.0412	Um algoritmo heurístico para resolver o problema de sequenciamento em máquinas paralelas não-relacionadas com tempos de preparação dependentes da sequência	XXXV CNMAC Congresso Nacional de Matemática Aplicada e Computacional	COTA, LUCIANO PERDIGÃO ; HADDAD, MATHEUS NOHRA ; Souza, Marcone Jamilson Freitas ; MARTINS, ALEXANDRE XAVIER		
trabalhoCompletoEmCongresso	Marcone Jamilson Freitas Souza	2015		SA-LTF: Um Algoritmo baseado em Simulated Annealing para distribuição de forças em um laminador de tiras a frio	XLVII Simpósio Brasileiro de Pesquisa Operacional - SBPO 2015	OLIVEIRA, M. R. S. ; Souza, Marcone J.F.		
trabalhoCompletoEmCongresso	Marcone Jamilson Freitas Souza	2015		HPBL: um algoritmo híbrido para a resolução de problemas binários	XLVII Simpósio Brasileiro de Pesquisa Operacional - SBPO 2015	REZENDE, J. C. V. ; SILVA, R. I. ; Souza, Marcone J.F.		
trabalhoCompletoEmCongresso	Marcone Jamilson Freitas Souza	2015		Uma Estrategia Heurística para o Problema de Roteamento de Veículos com Coleta e Entrega Fracionadas Um-para-um	XLVII Simpósio Brasileiro de Pesquisa Operacional - SBPO 2015	Haddad, Matheus N. ; VIDAL, T. ; Ochi, Luiz S. ; HARTL, R. ; Souza, Marcone J.F.		
trabalhoCompletoEmCongresso	Marcone Jamilson Freitas Souza	2015		HGVPRLB: a hybrid algorithm for solving binary problems	XLI Latin American Computing Conference (CLEI 2015)	REZENDE, J. C. V. ; Souza, Marcone J.F. ; SILVA, R. I.		
trabalhoCompletoEmCongresso	Marcone Jamilson Freitas Souza	2015		A Multi-agent Metaheuristic Optimization Framework with Cooperation	4th Brazilian Conference on Intelligent Systems (BRACIS 2015)	SILVA, M. A. L. ; DE SOUZA, SERGIO R. ; Souza, Marcone J.F. ; OLIVEIRA, S. M.		
artigoEmPeriodico	José Geraldo Peixoto de Faria	2015	http://dx.doi.org/10.1016/j.physleta.2015.04.023	Quantum erasure in the presence of a thermal bath: The effects of system-environment microscopic correlations	Physics Letters. A (Print)	Bosco de Magalhães, A.R. ; Peixoto de Faria, J.G. ; Rossi, R.	A2	
trabalhoCompletoEmCongresso	Henrique Elias Borges	2015		Effects of Cooperation in a Bioinspired Multi-agent Autonomous System for Solving Optimization Problems	Artificial Evolution	SANTOS, Marcus R. A. ; Souza, Denise ; BORGES, Henrique E. ; GOMES, Rogério M. ; Siarry, Patrick		
trabalhoCompletoEmCongresso	Henrique Elias Borges	2015		A concurrent, minimalist model for an embodied nervous system	International Brazilian Meeting on Cognitive Science	CAMPOS, Luciana Maria de Assis ; Dickman, Ronald ; GRAEFF, F. G. ; BORGES, Henrique E.		
artigoEmPeriodico	Gray Farias Moita	2015	http://dx.doi.org/10.19132/1808-5245212.140-161	A Method for Identification of Collaborations in Large Scientific Databases	Em Questão	DIAS, T. M. R. ; MOITA, G. F.	B1	
artigoEmPeriodico	Gray Farias Moita	2015	http://dx.doi.org/10.1186/s40563-015-0035-3	Influence of fibre reinforced polymers in the rehabilitation of damaged masonry wallettes	Applied Adhesion Science	CHAGAS, Júnia Soares Nogueira ; MOITA, G. F.	Qualis nao identificado	Applied Adhesion Science
artigoEmPeriodico	Gray Farias Moita	2015	http://dx.doi.org/10.5752/P.2316-9451.2015v3n2p3	On the Validation of a Specific Development Process for Scientific Software using the Inspection Technique	Abakós	Gomes, J.O. ; MOITA, G. F.	Qualis nao identificado	Abakós
trabalhoCompletoEmCongresso	Gray Farias Moita	2015		The use of fibre reinforced polymers in the rehabilitation of damaged masonry wallettes	1st International Symposium on Building Pathology ISBP-2015	CHAGAS, Júnia Soares Nogueira ; MOITA, G. F.		
trabalhoCompletoEmCongresso	Gray Farias Moita	2015		Abordagem ergonômica da movimentação humana: o diagrama fundamental pedestre em condições de normalidade	1o EINEPRO - Encontro Interestadual de Engenharia de Produção	BRAGA, H. C. ; MOITA, G. F. ; ALMEIDA, Paulo Eduardo Maciel de		
trabalhoCompletoEmCongresso	Gray Farias Moita	2015		Redução dos riscos de acidentes na movimentação humana: efeito do distanciamento das saídas de emergência	1o EINEPRO - Encontro Interestadual de Engenharia de Produção	BRAGA, H. C. ; MOITA, G. F. ; ALMEIDA, Paulo Eduardo Maciel de		
trabalhoCompletoEmCongresso	Gray Farias Moita	2015		Análise comparativa de algoritmos de busca para simulação e modelagem do melhor caminho inicial de percurso em um ambiente construído	1o EINEPRO - Encontro Interestadual de Engenharia de Produção	BRAGA, H. C. ; MOITA, G. F. ; ALMEIDA, Paulo Eduardo Maciel de		
trabalhoCompletoEmCongresso	Gray Farias Moita	2015		Data mining techniques in pattern recognition	12th International Conference on Information Systems Technology Management (CONTECSI)	BARBOSA, P. C. ; DIAS, T. M. R. ; Dias, P. M. ; MOITA, G. F.		
trabalhoCompletoEmCongresso	Gray Farias Moita	2015		Plataforma de Redes Sociais como Ferramenta de Ensino a Distância	Congress on Numerical Methods in Engineering - CMN 2015	DIAS, T. M. R. ; RABELO, E. ; Dias, P. M. ; MOITA, G. F.		
trabalhoCompletoEmCongresso	Gray Farias Moita	2015	http://dx.doi.org/10.20906/CPS/CILAMCE2015-0610	Estudo e Análise Bibliométrica dos Pesquisadores Brasileiros que Atuam com Métodos Computacionais	XXXVI Iberian Latin American Congress on Computational Methods in Engineering	DIAS, THIAGO MAGELA RODRIGUES ; Moita, Gray Farias ; DIAS, PATRÍCIA MASCARENHAS		
trabalhoCompletoEmCongresso	Gray Farias Moita	2015	http://dx.doi.org/10.20906/CPS/CILAMCE2015-0591	Identificação do Perfil dos Pesquisadores de Produtividade em Pesquisa do CNPq utilizando Dados da Plataforma Lattes	XXXVI Iberian Latin American Congress on Computational Methods in Engineering	SANTOS, LEANDRO ROBERTO FERREIRA ; DIAS, THIAGO MAGELA RODRIGUES ; MOREIRA, TALES HENRIQUE JOSÉ ; Moita, Gray Farias		
trabalhoCompletoEmCongresso	Gray Farias Moita	2015	http://dx.doi.org/10.20906/CPS/CILAMCE2015-0390	Uma Proposta Baseada em Meta-Heurísticas para Solução do Problema de Sequenciamento de Máquinas Não-Relacionadas	XXXVI Iberian Latin American Congress on Computational Methods in Engineering	OLIVEIRA, JHONATAN ; DIAS, THIAGO ; MOITA, GRAY		
trabalhoCompletoEmCongresso	Gray Farias Moita	2015	http://dx.doi.org/10.20906/CPS/CILAMCE2015-0096	A distância média a ser percorrida pelos ocupantes até a saída de emergência como um parâmetro complementar de segurança de edificações	XXXVI Iberian Latin American Congress on Computational Methods in Engineering	BRAGA, HENRIQUE ; MOITA, GRAY ; ALMEIDA, PAULO		
trabalhoCompletoEmCongresso	Gray Farias Moita	2015	http://dx.doi.org/10.20906/CPS/CILAMCE2015-0097	Algoritmo para geração do menor caminho discreto suave a ser percorrido até a saída de um ambiente	XXXVI Iberian Latin American Congress on Computational Methods in Engineering	BRAGA, HENRIQUE ; MOITA, GRAY ; ALMEIDA, PAULO		
artigoEmPeriodico	Flávio Luis Cardeal Pádua	2015		Multimodal Approach for Automatic Emotion Recognition Applied to the Tension Levels Study in TV Newscasts	Brazilian Journalism Research (Online)	PEREIRA, M. H. R. ; PÁDUA, F. L. C. ; SILVA, G. D.	B1	
artigoEmPeriodico	Flávio Luis Cardeal Pádua	2015		Análise Semiodiscursiva de Níveis de Tensão em Vídeos Televisivos por meio da Inferência Automática de Emoções	Acta Semiótica et Linguística	PEREIRA, M. H. R. ; PÁDUA, F. L. C. ; SILVA, G. D.	B2	
artigoEmPeriodico	Flávio Luis Cardeal Pádua	2015	http://dx.doi.org/10.1007/s10044-013-0362-6	Evaluating cluster detection algorithms and feature extraction techniques in automatic classification of fish species	PATTERN ANALYSIS AND APPLICATIONS	RODRIGUES, MARCO T. A. ; FREITAS, MÁRIO H. G. ; PÁDUA, FLÁVIO L. C. ; GOMES, ROGÉRIO M. ; CARRANO, EDUARDO G.	A2	
artigoEmPeriodico	Flávio Luis Cardeal Pádua	2015	http://dx.doi.org/10.1007/s11042-014-2311-9	SAPTE: A multimedia information system to support the discourse analysis and information retrieval of television programs	MULTIMEDIA TOOLS AND APPLICATIONS	PEREIRA, MOISÉS H. R. ; DE SOUZA, CELSO L. ; PÁDUA, FLÁVIO L. C. ; SILVA, GIANI D. ; DE ASSIS, GUILHERME T. ; PEREIRA, ADRIANO C. M.	B1	
trabalhoCompletoEmCongresso	Flávio Luis Cardeal Pádua	2015	http://dx.doi.org/10.1109/SIBGRAPI.2015.10	Particle Filter-Based Predictive Tracking of Futsal Players from a Single Stationary Camera	2015 28th SIBGRAPI Conference on Graphics	DE PADUA, PEDRO H.C. ; PADUA, FLAVIO L.C. ; SOUSA, MARCO T.D. ; PEREIRA, MARCONI DE A.		
resumoExpandidoEmCongresso	Flávio Luis Cardeal Pádua	2015	Multimodal Sentiment Analysis for Automatic Estimation of Polarity Tension of TV News in TV Newscasts Videos	the 21st Brazilian Symposium, 2015	PEREIRA, MOISÉS ; PÁDUA, Flávio Luis Cardeal ; PEREIRA, ADRIANO CESAR MACHADO ; SILVA, GIANI DAVID ; SOUZA, FABRÍCIO BENEVENUTO DE		
artigoEmPeriodico	Elizabeth Fialho Wanner	2015	http://dx.doi.org/10.1016/j.engappai.2014.10.016	Feedback-control operators for improved Pareto-set description: Application to a polymer extrusion process	Engineering Applications of Artificial Intelligence	Carrano, Eduardo G. ; GOUVEIA COELHO, DAYANNE ; GASPAR-CUNHA, ANTÓNIO ; Wanner, Elizabeth F. ; TAKAHASHI, RICARDO H.C.	A1	
artigoEmPeriodico	Elizabeth Fialho Wanner	2015		A multiobjective optimization approach for combating Aedes aegypti using chemical and biological alternated step-size control	Mathematical Biosciences	DIAS, W. O. ; WANNER, E. F. ; CARDOSO, R. T. N.	A2	
trabalhoCompletoEmCongresso	Elizabeth Fialho Wanner	2015		Quadro de Horários Escolar: Uso de Algoritmo Memético para Acelerar a Convergência do Método Evolutivo	XLVII Simpósio Brasileiro de Pesquisa Opracional	SA, M. A. C. ; WANNER, E. F. ; SARUBBI, J. F. M.		
trabalhoCompletoEmCongresso	Elizabeth Fialho Wanner	2015		Uma abordagem híbrida para resolver problemas com duas restrições não lineares de igualdade	XLVII Simpósio Brasileiro de Pesquisa Opracional	FONSECA, C. H. ; MARTINS, F. V. C. ; WANNER, E. F.		
trabalhoCompletoEmCongresso	Elizabeth Fialho Wanner	2015		Aplicação da metaheurística DEEPSO a problemas de otimização global em larga escala	XLVII Simpósio Brasileiro de Pesquisa Opracional	Marcelino, C. G. ; CARVALHO, L. M. ; ALMEIDA, P. E. M. ; WANNER, E. F. ; MIRANDA, V. H. B. P.		
trabalhoCompletoEmCongresso	Elizabeth Fialho Wanner	2015		Application of Evolutionary Multiobjective Algorithms for Solving the Problem of Energy Dispatch in Hydroelectric Power Plants	8th International Conference on Evolutionary Multi-Criterion Optimization	Marcelino, C. G. ; CARVALHO, L. M. ; ALMEIDA, P. E. M. ; WANNER, E. F. ; MIRANDA, V. H. B. P.		
trabalhoCompletoEmCongresso	Elizabeth Fialho Wanner	2015		SIMULAÇÃO DE UMA MÁQUINA DE ENSAIO DE TRAÇÃO PARA O AÇO AISI 430 E ATRAVÉS DE REDES NEURAIS ARTIFICIAIS	XII Simposio Brasileiro de Automação Inteligente	PRESOTI, M. ; MARTINS, F. V. C. ; WANNER, E. F.		
trabalhoCompletoEmCongresso	Elizabeth Fialho Wanner	2015		MODELAGEM E SIMULAÇÃO COMPUTACIONAL DO PROCESSO DE FABRICAÇÃO DE ELETRODOS REVESTIDOS	XII Simposio Brasileiro de Automação Inteligente	NASCIMENTO, D. H. A. ; GOMES, R. M. ; WANNER, E. F.		
trabalhoCompletoEmCongresso	Elizabeth Fialho Wanner	2015		Modeling soft constraints in DEEPSO: a statistical analysis for the SCOPF problem	Intelligent Systems Application to Power Systems	CARVALHO, L. M. ; LOUREIRO, F. ; SUMAILI, J. A. ; KEKO, H. ; MIRANDA, V. H. B. P. ; Marcelino, C. G. ; WANNER, E. F.		
trabalhoCompletoEmCongresso	Elizabeth Fialho Wanner	2015		Perfil da Curva de Índice de Encruamento do Aço AISI 430 E: simulação via Redes Neurais Artificiais	12o Congresso Brasileiro em Inteligência Computacional	PRESOTI, M. ; LOPES, W. ; NASCIMENTO, D. H. A. ; WANNER, ELIZABETH FIALHO ; MARTINS, F. V. C.		
trabalhoCompletoEmCongresso	Elizabeth Fialho Wanner	2015		Algoritmo Genético para Elaboração de Cardápios Nutricionais para Alimentação Escolar	12o Congresso Brasileiro em Inteligência Computacional	MOREIRA, R. P. C. ; WANNER, E. F. ; MARTINS, F. V. C.		
trabalhoCompletoEmCongresso	Elizabeth Fialho Wanner	2015		Um Modelo de Redes Neurais Artificiais para Predição do Limite Mínimo de Gols em uma Partida de Futebo	12o Congresso Brasileiro em Inteligência Computacional	FERNANDES, F. A. P. ; MOREIRA, R. P. C. ; WANNER, E. F. ; MARTINS, F. V. C.		
trabalhoCompletoEmCongresso	Elizabeth Fialho Wanner	2015		Otimização Multiobjetivo do Processo de Fabricação de Eletrodos Revestidos	12o Congresso Brasileiro em Inteligência Computacional	NASCIMENTO, D. H. A. ; PRESOTI, M. ; GOMES, R. M. ; WANNER, E. F.		
trabalhoCompletoEmCongresso	Elizabeth Fialho Wanner	2015		Metaheurísticas Aplicadas ao Roteamento de Veículos para Transporte Reativo a Demanda	12o Congresso Brasileiro em Inteligência Computacional	MIRANDA, D. S. ; MENDES, R. S. ; SANTOS, A. G. ; WANNER, E. F.		
trabalhoCompletoEmCongresso	Elizabeth Fialho Wanner	2015		Resolução de Problemas de Conversão Irreversível por Meio de Algoritmos Genéticos	12o Congresso Brasileiro em Inteligência Computacional	AMARAL, A. A. T. ; SANTOS, V. F. ; WANNER, E. F.		
trabalhoCompletoEmCongresso	Elizabeth Fialho Wanner	2015		Abordagem Multiobjetivo para o Problema de Roteamento de Veículos com Transporte Reativo a Demanda	12o Congresso Brasileiro em Inteligência Computacional	MENDES, R. S. ; MIRANDA, D. S. ; WANNER, E. F.		
artigoEmPeriodico	Breno Rodrigues Lamaghere Galvão	2015	http://dx.doi.org/10.1063/1.4919743	The effect of intersystem crossings in N(2D) + H2 collisions	The Journal of Chemical Physics	GALVÃO, B. R. L. ; POVEDA, L. A.	A1	
artigoEmPeriodico	Breno Rodrigues Lamaghere Galvão	2015	http://dx.doi.org/10.1016/j.cplett.2015.09.016	Exploring the MP2 Energy Surface of nanoalloy clusters with a Genetic Algorithm: Application to Sodium-Potassium	Chemical Physics Letters (Print)	SILVA, F.T. ; GALVÃO, B.R.L. ; VOGA, G.P. ; SILVA, M.X. ; RODRIGUES, D.D.C. ; BELCHIOR, J.C.	A2	
artigoEmPeriodico	Breno Rodrigues Lamaghere Galvão	2015	http://dx.doi.org/10.1021/jp512671q	Modeling Cusps in Adiabatic Potential Energy Surfaces	The Journal of Physical Chemistry. A	GALVÃO, BRENO R. L.; MOTA, VINÍCIUS C. ; VARANDAS, ANTÓNIO J.C.	A2	
artigoEmPeriodico	Breno Rodrigues Lamaghere Galvão	2015	http://dx.doi.org/10.1021/acs.jpca.5b09615	Correction to -Exploring the Utility of Many-Body Expansions: A Consistent Set of Accurate Potentials for the Lowest Quartet and Doublet States of the Azide Radical with Revisited Dynamics-	The Journal of Physical Chemistry. A	VARANDAS, A. J. C. ; B. R. L. Galvão	A2	
artigoEmPeriodico	Arthur Rodrigo Bosco de Magalhães	2015	http://dx.doi.org/10.1016/j.physleta.2015.04.023	Quantum erasure in the presence of a thermal bath: The effects of system-environment microscopic correlations	Physics Letters. A (Print)	Bosco de Magalhães, A.R. ; Peixoto de Faria, J.G. ; Rossi, R.	A2	
trabalhoCompletoEmCongresso	Arthur Rodrigo Bosco de Magalhães	2015		Previsão de tendência de retornos de ativos: um modelo inspirado em sistema de equações diferenciais lineares	Conferência Brasileira de Dinâmica	RESENDE, C. C. ; BOSCO DE MAGALHÃES, A. R. ; CARDOSO, R. T. N.		
artigoEmPeriodico	Allbens Atman Picardi Faria	2015	http://dx.doi.org/10.1103/physreve.91.052407	Generalized model for solid-on-solid interface growth	Physical Review. E, Statistical, Nonlinear, and Soft Matter Physics (Print)	ATMAN, A. P. F.; RICHELE, M. F.	A1	
artigoEmPeriodico	Allbens Atman Picardi Faria	2015	http://dx.doi.org/10.1103/PhysRevLett.115.238301	Experimental Validation of a Nonextensive Scaling Law in Confined Granular Media	Physical Review Letters (Print)	COMBE, Gaël ; RICHEFEU, VINCENT ; STASIAK, MARTA ; ATMAN, ALLBENS P.'F.	A1	
trabalhoCompletoEmCongresso	Allbens Atman Picardi Faria	2015		Agent based Amino Acid Elongation Model: Influence of Ribosome Abundance on Polysome Formation	NEW DEVELOPMENTS in BIOLOGY	SEMENCHENKO, A. ; ATMAN, A. P. F.		
trabalhoCompletoEmCongresso	Allbens Atman Picardi Faria	2015	http://dx.doi.org/10.5540/03.2015.003.01.0348	Estudo tridimensional do crescimento de superfícies rugosas utilizando autômatos celulares probabilísticos	XXXV CNMAC Congresso Nacional de Matemática Aplicada e Computacional	FERREIRA, MARCELA R. ; FARIA, ALLBENS ATMAN P.		
artigoEmPeriodico	Adriano Cesar Machado Pereira	2015	http://dx.doi.org/10.1007/s11042-014-2311-9	SAPTE: A multimedia information system to support the discourse analysis and information retrieval of television programs	Multimedia Tools and Applications	PEREIRA, MOISÉS H. R. ; DE SOUZA, CELSO L. ; PÁDUA, FLÁVIO L. C. ; SILVA, GIANI D. ; DE ASSIS, GUILHERME T. ; PEREIRA, ADRIANO C. M.	B1	
trabalhoCompletoEmCongresso	Adriano Cesar Machado Pereira	2015		A Binary Ensemble Classifier for High Frequency Trading	International Joint Conference on Neural Networks (IJCNN)	SILVA, E. J. ; BRANDAO, H. ; BRAZ, D. C. ; PEREIRA, ADRIANO C. M.		
trabalhoCompletoEmCongresso	Adriano Cesar Machado Pereira	2015		Improving Financial Time Series Prediction Through Output Classification by a Neural Network Ensemble	International Conference on Database and Expert Systems Applications (DEXA 2015)	GIACOMEL, F. ; GALANTE, Renata ; PEREIRA, ADRIANO C. M.		
trabalhoCompletoEmCongresso	Adriano Cesar Machado Pereira	2015		Uma Abordagem Multilíngue para Análise de Sentimentos	Brazilian Workshop on Social Network Analysis and Mining (BraSNAM)	REIS, J. ; GONCALVES, P. ; ARAUJO, M. ; PEREIRA, ADRIANO C. M. ; BENEVENUTO, Fabricio		
trabalhoCompletoEmCongresso	Adriano Cesar Machado Pereira	2015		Uma Visão do Mercado Brasileiro de Ações a partir de Dados do Twitter	Brazilian Workshop on Social Network Analysis and Mining (BraSNAM)	SANTOS, H. ; LAENDER, Alberto ; PEREIRA, ADRIANO C. M.		
trabalhoCompletoEmCongresso	Adriano Cesar Machado Pereira	2015		A Twitter View of the Brazilian Stock Exchange Market	16th International Conference on Electronic Commerce and Web Technologies (EC-Web)	SANTOS, H. ; LAENDER, Alberto ; PEREIRA, ADRIANO C. M.		
trabalhoCompletoEmCongresso	Adriano Cesar Machado Pereira	2015		An Algorithmic Trading Agent based on a Neural Network Ensemble: a Case of Study in North American and Brazilian Stock Markets	IEEE/WIC/ACM Intelligent Agent Technology Conference (IAT 2015)	GIACOMEL, F. ; GALANTE, Renata ; PEREIRA, ADRIANO C. M.		
trabalhoCompletoEmCongresso	Adriano Cesar Machado Pereira	2015		Observatório do Investimento - Uma plataforma computacional para coleta, tratamento, mineração, análise, distribuição e visualização de dados de mídias Web para o mercado de capitais brasileiro	Congresso Brasileiro de Software: Teoria e Prática (CBSoft)	UTSCH, R. ; MIRANDA, A. ; CORDEIRO JUNIOR, Z. ; PEREIRA, ADRIANO C. M.		
trabalhoCompletoEmCongresso	Adriano Cesar Machado Pereira	2015		One approach to sentiment analysis of web applications in Portuguese	21o Simpósio Brasileiro de Sistemas Multimídia e Web (WebMedia)	MARTINS, R. F. ; PEREIRA, ADRIANO C. M. ; BENEVENUTO, FABRÍCIO		
trabalhoCompletoEmCongresso	Adriano Cesar Machado Pereira	2015		Proposta e Implementação de Novas Estratégias de Negociação em Bolsa de Valores Usando Dados de Redes Sociais e da Web	21o Simpósio Brasileiro de Sistemas Multimídia e Web (WebMedia)	JABBUR, E. M. ; PEREIRA, ADRIANO C. M. ; BRAZ, D. C. ; SILVA, E. J. ; BRANDAO, H.		
trabalhoCompletoEmCongresso	Adriano Cesar Machado Pereira	2015	http://dx.doi.org/10.1109/WI-IAT.2015.13	A Fraud Detection Model Based on Feature Selection and Undersampling Applied to Web Payment Systems	2015 IEEE / WIC / ACM International Conference on Web Intelligence and Intelligent Agent Technology (WIIAT)	LIMA, RAFAEL FRANCA ; PEREIRA, Adriano Cesar Machado		
resumoExpandidoEmCongresso	Adriano Cesar Machado Pereira	2015	A modeling approach for credit card fraud detection in electronic payment services	the 30th Annual ACM Symposium, 2015, Salamanca. Proceedings of the 30th Annual ACM Symposium on Applied Computing - SAC '15. New York: ACM Press	SANTIAGO, GABRIEL PRETI ; PEREIRA, ADRIANO C. M. ; HIRATA, ROBERTO		
resumoExpandidoEmCongresso	Adriano Cesar Machado Pereira	2015	Modelos computacionais baseados em Feature Selection e Undersampling para detecção de fraudes eletrônicas	30th BRAZILIAN SYMPOSIUM ON DATABASES (SBBD 2015), 2015, Petropolis. Proceedings of the 30th BRAZILIAN SYMPOSIUM ON DATABASES	LIMA, R. A. F. ; PEREIRA, ADRIANO C. M.		
artigoEmPeriodico	Thiago Gomes de Mattos	2015	http://dx.doi.org/10.1103/PhysRevE.91.042304	Three-body critical Casimir forces	Physical Review. E, Statistical, Nonlinear, and Soft Matter Physics (Print)	MATTOS, T. G.; HARNAU, L. ; DIETRICH, S.	A1	
trabalhoCompletoEmCongresso	Rogério Martins Gomes	2015		Otimização Multiobjetivo do Processo de Fabricação de Eletrodos Revestidos	12º Congresso Brasileiro em Inteligência Computacional	NASCIMENTO, D. H. A. ; PRESOTI, M. ; GOMES, Rogério M. ; Wanner, E. F.		
trabalhoCompletoEmCongresso	Rogério Martins Gomes	2015		Modelagem e Simulação Computacional do Processo de Fabricação de Eletrodos Revestidos	XII Simposio Brasileiro de Automação Inteligente	NASCIMENTO, D. H. A. ; PRESOTI, M. ; GOMES, Rogério M. ; Wanner, E. F.		
trabalhoCompletoEmCongresso	Rogério Martins Gomes	2015		Effects of Cooperation in a Bioinspired Multi-agent Autonomous System for Solving Optimization Problems	Artificial Evolution - EA 2015	SANTOS, Marcus R. A. ; Souza, Denise ; BORGES, Henrique E. ; GOMES, Rogério M. ; Siarry, Patrick		
artigoEmPeriodico	Rodrigo Tomás Nogueira Cardoso	2015	http://dx.doi.org/10.1016/j.mbs.2015.08.019	A multiobjective optimization approach for combating Aedes aegypti using chemical and biological alternated step-size control	Mathematical Biosciences	DIAS, W. O. ; WANNER, E. F. ; CARDOSO, R. T. N.	A2	
trabalhoCompletoEmCongresso	Rodrigo Tomás Nogueira Cardoso	2015	http://dx.doi.org/10.5540/03.2015.003.01.0082	Controle da dengue na estação seca da cidade de Curvelo-MG através de um modelo preditivo	XXXV CNMAC Congresso Nacional de Matemática Aplicada e Computacional	BARSANTE, LILLIA S. ; CORDEIRO, FLÁVIA S. ; Cardoso, Rodrigo T. N. ; ACEBAL, JOSÉ L. ; PAIXÃO, KELLY S. ; EIRAS, ÁLVARO E.		
trabalhoCompletoEmCongresso	Rodrigo Tomás Nogueira Cardoso	2015	http://dx.doi.org/10.1109/ccece.2015.7129161	A scalable methodology to measure power distribution networks reliability	2015 IEEE 28th Canadian Conference on Electrical and Computer Engineering (CCECE)	TORRES, VICTOR H. X. ; COSTA, BRENO C. ; HORTA, GUSTAVO L. ; BORGES, HENRIQUE E. ; ALMEIDA, PAULO E. M. ; Cardoso, Rodrigo T. N.		
trabalhoCompletoEmCongresso	Rodrigo Tomás Nogueira Cardoso	2015		Composição de carteiras de investimentos através da otimização combinatória do modelo CVaR multiobjetivo restrito	XLVII Simpósio Brasileiro de Pesquisa Operacional	HANAOKA, G. P. ; CARDOSO, R. T. N. ; PAIVA, F. D.		
trabalhoCompletoEmCongresso	Rodrigo Tomás Nogueira Cardoso	2015		PREVISÃO DE TENDÊNCIA DE RETORNOS DE ATIVOS: um modelo inspirado em sistema de equa ções diferenciais lineares	Conferência Brasileira de Dinâmica	RESENDE, C. C. ; BOSCO DE MAGALHÃES, A. R. ; CARDOSO, R. T. N.		
