artigoEmPeriodico	2014		Confiança e Transitividade em Redes Sociais Acadêmicas: um estudo de caso utilizando o Currículo Lattes	Revista Eletrônica Argentina-Brasil de Tecnologias da Informação e da Comunicação	ADAMATTI, D. F.; CASTELFRANCHI, C.	Qualis nao identificado	Revista Eletrônica Argentina-Brasil de Tecnologias da Informação e da Comunicação
artigoEmPeriodico	2014	http://dx.doi.org/10.1590/2238-1031.jtl.v8n4a4	Um modelo heurístico baseado em localização-designação aplicado ao estacionamento rotativo	Journal of Transport Literature	ANTIQUEIRA, L. ; PEREIRA, E. C. ; MACHADO, C.M.S.	B2	
artigoEmPeriodico	2014		Preliminary study about the wave influence on the ship hydrodynamics	Marine Systems & Ocean Technology	ARMUDI, A. ; Marques, Wiliam C. ; BRAVO, L. S. ; SANTOS, J. F. C. ; FERNANDES, E. H. ; Guimarães, P. V.	Qualis nao identificado	Marine Systems & Ocean Technology
artigoEmPeriodico	2014		Simulação numérica de placas de aço em estruturas navais e offshore	Vetor - Revista de Ciências Exatas e Engenharia	BAPTISTA, L.G. ; REAL, M. V.	B5	Revista de Ciências Exatas
artigoEmPeriodico	2014		Desenvolvimento de um jogo sério para modelagem, operação e manutenção de plantas industriais	Revista Junior de Iniciação Científica em Ciências Exatas e Engenharia	BARBAT, M. M. ; ADAMATTI, D. F. ; WERHLI, A. V.	C	
artigoEmPeriodico	2014		A Serious Game to teach modeling, operating and maintenance of industrial plants	International Journal of Computer and Information Technology	BARBAT, M. M. ; DUTRA JUNIOR, N. C. S. ; WERHLI, A. V. ; ADAMATTI, D. F.	Qualis nao identificado	International Journal of Computer and Information Technology
artigoEmPeriodico	2014	http://dx.doi.org/10.4236/ijg.2014.59080	Influence of the Freshwater Discharge on the Hydrodynamics of Patos Lagoon, Brazil	International Journal of Geosciences	Barros, G ; Wiliam Correa Marques ; KIRINUS, E. P.	B3	
artigoEmPeriodico	2014		ANALYTICAL MODELING AND 1 NUMERICAL OPTIMIZATION OF THE BIOSURFACTANTS PRODUCTION IN SOLID-STATE FERMENTATION BYAspergillus fumigatus	Acta Scientiarum. Technology (Impresso)	CASTIGLIONI, Gabriel Luis ; STANESCU, G. ; ROCHA, L. A. O. ; COSTA, Jorge Alberto Vieira	B1	
artigoEmPeriodico	2014	http://dx.doi.org/10.4028/www.scientific.net/ddf.348.232	Numerical Study of the Effect of the Relative Depth on the Overtopping Wave Energy Converters According to Constructal Design	Defect and Diffusion Forum	dos SANTOS, E. D. ; MACHADO, B. N. ; ZANELLA, M. M ; GOMES, M. N. ; Souza, Jeferson A. ; Isoldi, Liércio A. ; Rocha, Luiz A. O.	Qualis nao identificado	Defect and Diffusion Forum
artigoEmPeriodico	2014	http://dx.doi.org/10.1007/s40430-013-0075-1	A numerical study of combined convective and radiative heat transfer in non-reactive turbulent channel flows with several optical thicknesses: a comparison between LES and RANS	JOURNAL OF THE BRAZILIAN SOCIETY OF MECHANICAL SCIENCES AND ENGINEERING (ONLINE)	DOS SANTOS, ELIZALDO D.; ISOLDI, LIÉRCIO A. ; PETRY, ADRIANE P. ; FRANÇA, FRANCIS H. R.	B1	Journal of the Brazilian Society of Mechanical Sciences and Engineering (Impresso)
artigoEmPeriodico	2014	http://dx.doi.org/10.1115/1.4029868	CONSTRUCTAL DESIGN ASSOCIATED TO GENECTIC ALGORITHM OF ASYMMETRIC V-SHAPED PATHWAYS	Journal of Heat Transfer	ESTRADA, E. S. D. ; FAGUNDES, TADEU M. ; ISOLDI, LIÉRCIO A. ; Domingues dos Santos, Elizaldo ; XIE, GONGNAN ; Rocha, Luiz A. O.	A2	
artigoEmPeriodico	2014	http://dx.doi.org/10.14488/1676-1901.v14i2.1592	Utilização de controle estatístico de processo na avaliação do desempenho acadêmico	Revista Produção Online	GAUTÉRIO, EZEQUIEL GIBBON ; MATTOS, VIVIANE LEITE DIAS DE	B2	
artigoEmPeriodico	2014		Numerical Analysis of an Oscillating Water Column Converter Considering a Physical Constraint in the Chimney Outlet	Marine Systems & Ocean Technology	GOMES, M. das N. ; SEIBT, F. M. ; ROCHA, L. A. O. ; DOS SANTOS, E. D. ; L. A. ISOLDI	Qualis nao identificado	Marine Systems & Ocean Technology
artigoEmPeriodico	2014		Variabilidade temporal do perfil de dunas na Praia do Cassino, RS, com auxílio de videomonitoramento Argus	Pesquisas em Geociências (Online)	GUIMARAES, P. ; PEREIRA, P. S. ; CALLIARI, L. J. ; KRUSCHE, N.	B2	
artigoEmPeriodico	2014	http://dx.doi.org/10.4028/www.scientific.net/DDF.348.245	Constructal Design of Y-Shaped Conductive Pathways for Cooling a Heat-Generating Body	Defect and Diffusion Forum	Horbach, C. dos S. ; Dos Santos, E. D. ; ISOLDI, L. A. ; ROCHA, L. A. O.	Qualis nao identificado	Defect and Diffusion Forum
artigoEmPeriodico	2014		COLMEIAS: Uma Estratégia Didático-Pedagógica que Interliga as Aprendizagens Móvel, Colaborativa e Significativa	RENOTE. Revista Novas Tecnologias na Educação	IANHKE, S. ; BOTELHO, S. S. C. ; FERREIRA, A.	B3	
artigoEmPeriodico	2014		Insight into the usage of turbine current converters on the Southern Brazilian Shelf	Marine Systems & Ocean Technology	KIRINUS, E. P. ; Wiliam Correa Marques ; MATZENAUER, H. B.	Qualis nao identificado	Marine Systems & Ocean Technology
artigoEmPeriodico	2014	http://dx.doi.org/10.1007/s40430-014-0153-z	Automatic control of a ROV for inspection of underwater structures using a low-cost sensing	Journal of the Brazilian Society of Mechanical Sciences and Engineering (Impresso)	KUHN, VINÍCIUS NIZOLLI ; DREWS, PAULO LILLES JORGE ; GOMES, SEBASTIÃO C. PINHEIRO ; CUNHA, Mauro André Barbosa ; BOTELHO, SILVIA SILVA DA COSTA	B1	
artigoEmPeriodico	2014		CONSTRUCTAL DESIGN OF A X-SHAPED CAVITY COOLED BY CONVECTION	Engenharia Térmica	Link, F. B. ; Dos Santos, E. D. ; ISOLDI, L. A. ; ROCHA, L. A. O.	B2	
artigoEmPeriodico	2014	http://dx.doi.org/10.1016/j.ijthermalsci.2014.04.011	Constructal design of T-shaped assemblies of fins cooling a cylindrical solid body	International Journal of Thermal Sciences	Lorenzini, Giulio ; Biserni, Cesare ; CORREA, R. L. ; DOS SANTOS, E. D. ; ISOLDI, L. A. ; ROCHA, L. A. O.	B1	Journal of Thermal Science
artigoEmPeriodico	2014	http://dx.doi.org/10.1115/1.4027195	Constructal Design of Convective Y-Shaped Cavities by Means of Genetic Algorithm	Journal of Heat Transfer	Lorenzini, G. ; Biserni, C. ; ESTRADA, E. D. ; ISOLDI, L. A. ; Dos Santos, E. D. ; ROCHA, L. A. O.	A2	
artigoEmPeriodico	2014	http://dx.doi.org/10.1115/1.4027421	Genetic Algorithm Applied to Geometric Optimization of Isothermal Y-Shaped Cavities	Journal of Electronic Packaging	Lorenzini, Giulio ; Biserni, Cesare ; DA SILVA DIAZ ESTRADA, EMANUEL ; Domingues dos Santos, Elizaldo ; ANDRÉ ISOLDI, LIÉRCIO ; OLIVEIRA ROCHA, LUIZ ALBERTO	B1	
artigoEmPeriodico	2014	http://dx.doi.org/10.2298/TSCI120804005L	Constructal design of isothermal X-shaped cavities	THERM SCI	LORENZINI, G ; Biserni, Cesare ; Garcia, F.L. ; dos Santos, E. D. ; Isoldi, L.A. ; ROCHA, L. A. O.	Qualis nao identificado	THERM SCI
artigoEmPeriodico	2014	http://dx.doi.org/10.1016/j.ijheatmasstransfer.2014.01.055	Geometric optimization of X-shaped cavities and pathways according to Bejan-s theory: Comparative analysis	International Journal of Heat and Mass Transfer	LORENZINI, G. ; BISERNI, C. ; Rocha, L.A.O.	A1	
artigoEmPeriodico	2014	http://dx.doi.org/10.1134/S1810232814020027	Convective analysis of constructal T-shaped fins	J ENG THERMOPHYS-RUS	LORENZINI, G. ; MEDICI, M. ; ROCHA, L. A. O.	Qualis nao identificado	J ENG THERMOPHYS-RUS
artigoEmPeriodico	2014	http://dx.doi.org/10.1590/S1983-41952014000300007	Statistical analysis and conformity testing of concrete in port construction work	Revista IBRACON de Estruturas e Materiais	MAGALHÃES, F. C. ; REAL, M. V.	B2	
artigoEmPeriodico	2014		The Exchange processes of the Patos Lagoon estuary - Brazil: a typical El Niño year versus a normal meteorological conditions year	Advances in Water Resource and Protection	MARQUES, W. C.; STRINGARI, C. E. ; Eidt R. T.	Qualis nao identificado	Advances in Water Resource and Protection
artigoEmPeriodico	2014		O Modelo Multicritério de Avaliação de Alternativas Construído para a Implantação do Parque de Conversores de Energia de Correntes Marinhas em Energia Elétrica I: Procedimentos Metodológicos e análise de resultados	Revista Brasileira de Recursos Hídricos	MATZENAUER, H. B. ; MARQUES, W. C. ; KIRINUS, E. P.	A2	
artigoEmPeriodico	2014		A operacionalidade do modelo multicritério de avaliação de alternativas no plano da bacia hidrográfica do Rio dos Sinos, Rs, Brasil	REGA. Revista de Gestão de Águas da América Latina	MATZENAUER, H. B. ; MARQUES, W. C. ; KIRINUS, E. P.	B3	
artigoEmPeriodico	2014	http://dx.doi.org/10.1016/j.atmosenv.2013.10.045	A contribution to solve the atmospheric diffusion equation with eddy diffusivity depending on source distance	Atmospheric Environment (1994)	MOREIRA, Davidson Martins ; MORAES, AMILTON CRAVO ; Goulart, Antonio Gledson ; DE ALMEIDA ALBUQUERQUE, TACIANA TOLEDO	A1	
artigoEmPeriodico	2014	http://dx.doi.org/10.4028/www.scientific.net/ddf.353.44	Resin Transfer Molding Process: A Numerical Analysis	Defect and Diffusion Forum	OLIVEIRA, I. R. ; AMICO, SANDRO CAMPOS ; Souza, Jeferson A. ; LIMA, A. G. B.	Qualis nao identificado	Defect and Diffusion Forum
artigoEmPeriodico	2014		Proposta de um Arcabouço Metodológico para a Autoria de Conteúdo em Ambientes Imersivos de Ensino	RENOTE. Revista Novas Tecnologias na Educação	OLIVEIRA, L. ; ESPÍNDOLA, Danúbia Bueno ; Barwaldt, R. ; AMARAL, M. A. ; BOTELHO, S. S. C.	B3	
artigoEmPeriodico	2014	http://dx.doi.org/10.4236/ijg.2014.513126	Exploring the Project Potential of Marine Current Turbines: A Case Study in the Southern Brazilian Shelf Region	International Journal of Geosciences (On line)	PEREIRA, JULIANA TAVORA BERTAZO ; KIRINUS, EDUARDO DE PAULA ; MARQUES, WILIAM CORREA ; GANDRA, TIAGO BORGES RIBEIRO ; BARROS, GUSTAVO PESSOA DE ; MATZENAUER, HELENA BARRETO	B5	
artigoEmPeriodico	2014	http://dx.doi.org/10.1063/1.4874220	Vascular design for reducing hot spots and stresses	Journal of Applied Physics	ROCHA, L. A. O.; LORENTE, S. ; Bejan, A.	A2	
artigoEmPeriodico	2014		Um estudo da fluência digital entre crianças e adultos na resolução de algoritmos	RENOTE. Revista Novas Tecnologias na Educação	SANTIN, M. M. ; BOTELHO, S. S. C. ; SILVA, J. A.	B3	
artigoEmPeriodico	2014		Desenvolvimento do pensamento lógico utilizando o TOPOBO	Sensos-e Journal	SANTIN, M. M. ; SILVA, J. A. ; BOTELHO, S. S. C.	Qualis nao identificado	Sensos-e Journal
artigoEmPeriodico	2014	http://dx.doi.org/10.1007/s13344-014-0056-x	Numerical study on the effect of submerged depth on the horizontal plate wave energy converter	China Ocean Engineering	SEIBT, FLÁVIO MEDEIROS ; COUTO, EDUARDO COSTA ; DOS SANTOS, ELIZALDO DOMINGUES ; Isoldi, Liércio André ; ROCHA, LUIZ ALBERTO OLIVEIRA ; TEIXEIRA, PAULO ROBERTO DE FREITAS	Qualis nao identificado	China Ocean Engineering
artigoEmPeriodico	2014	http://dx.doi.org/10.1615/computthermalscien.2014010456	Numerical Analysis of the Fluid-Dynamic Behavior of a Submerged Plate Wave Energy Converter	Computational Thermal Sciences: An International Journal	Seibt F.M. ; COUTO, E. C. ; Teixeira, P. R. F. ; dos Santos, Elizaldo Domingues ; ROCHA, LUIZ ALBERTO OLIVEIRA ; ISOLDI, LIÉRCIO ANDRÉ	B3	
artigoEmPeriodico	2014	http://dx.doi.org/10.1007/s13344-014-0056-x	NUMERICAL STUDY OF THE EFFECT OF THE DEPTH ON SUBMERGED PLATE WAVE ENERGY CONVERTER	China Ocean Engineering	SEIBT, F. M. ; dos Santos, E. D. ; ISOLDI, L.A. ; ROCHA, L. A. O. ; Teixeira, P. R. F.	Qualis nao identificado	China Ocean Engineering
artigoEmPeriodico	2014		Computational Modeling Applied to the Study of Wave Energy Converters (WEC)	Marine Systems & Ocean Technology	SEIBT, F. M. ; LETZOW, M. ; GOMES, M. N. ; Souza, Jeferson A. ; ROCHA, L. A. O. ; dos SANTOS, E. D. ; Isoldi, Liércio A.	Qualis nao identificado	Marine Systems & Ocean Technology
artigoEmPeriodico	2014		Numerical analyses of wave propagation over the inner shelf and shoreface of the southern Brazilian coast: from Torres to Mostardas	Pesquisas em Geociências (UFRGS. Impresso)	SILVA, Jair Vignolle da ; Teixeira, P. R. F. ; CALLIARI, L. J.	B2	
artigoEmPeriodico	2014		Um Modelo de Suporte a Comunicação de Agentes Utilizando Ontologias e Sinônimos	Revista INNOVER	SPEROTTO, F. A. ; ADAMATTI, D. F.	B4	Revista Innovare
artigoEmPeriodico	2014		Application of Telemac - ECOS modelling system at the Southern Brazilian Shelf: Influence of Coastal Currents in Tramandai Oil Spilll	Marine Systems & Ocean Technology	STRINGARI, C. E. ; Marques, Wiliam C. ; MELLO, L. F. ; Eidt R. T.	Qualis nao identificado	Marine Systems & Ocean Technology
artigoEmPeriodico	2014	http://dx.doi.org/10.14393/19834071.2014.26140	Study of the gaussian distribution heat source model applied to numerical thermal simulations of TIG welding processes	Ciência & Engenharia (UFU. Impresso)	TEIXEIRA, PAULO ROBERTO DE FREITAS; DE ARAÚJO, DOUGLAS BEZERRA ; DA CUNHA, LUIZ ANTÔNIO BRAGANÇA	B2	
artigoEmPeriodico	2014	http://dx.doi.org/10.1016/j.enbuild.2013.12.009	An experimental study on the use of Earth-Air Heat Exchangers (EAHE)	Energy and Buildings	VAZ, JOAQUIM ; SATTLER, MIGUEL A. ; BRUM, RUTH DA S. ; DOS SANTOS, ELIZALDO D. ; ISOLDI, LIÉRCIO A.	A1	
artigoEmPeriodico	2014	http://dx.doi.org/10.1016/j.applthermaleng.2014.05.027	Constructal wavy-fin channels of a compact heat exchanger with heat transfer rate maximization and pressure losses minimization	Applied Thermal Engineering	XIE, G. ; ASADI, M. ; SONG, Y. ; ROCHA, L. A. O.	A1	
artigoEmPeriodico	2014		Rede Neural para a Previsão de Raios na Região Sudeste do Brasil	Ciência e Natura	ZEPKA, Gisele dos Santos ; GOMES, S. C. P.	B2	
artigoEmPeriodico	2014	http://dx.doi.org/10.1177/0037549714553812	Three-dimensional launch simulation and active cooling analysis of a single-shot electromagnetic railgun	Simulation (San Diego, Calif.)	ZHAO, H. ; SOUZA, J. A. ; Ordonez, J.	B1	
trabalhoCompletoEmCongresso	2014		Estudo experimental e computacional de um compressor de refrigeração operando sob condições controladas em uma câmara calorimétrica	VI Conferência Sul em Modelagem Computacional (MCSul)	ACUNHA Jr., I. C. ; POHLMANN, S. S. ; SILVEIRA, L. S. ; RAHN, M. A. S. ; PORTE, A. F. ; DOS SANTOS, E. D. ; ISOLDI, L. A. ; RODRIGUES, M. K.		
trabalhoCompletoEmCongresso	2014		INVESTIGAÇÃO COMPUTACIONAL DO APROVEITAMENTO DO POTENCIAL ENERGÉTICO SOLO - AR PARA OPERAR UM CICLO DE RANKINE PARA CONVERSÃO DE POTÊNCIA	VI Seminário e Workshop em Engenharia Oceânica (SEMENGO)	ACUNHA Jr., I. C. ; REBELATO, M. M. ; RODRIGUES, M. K. ; RAHN, M. A. S. ; PORTE, A. F. ; DOS SANTOS, E. D. ; L.A., ISOLDI ; SCHNEIDER, P. S.		
trabalhoCompletoEmCongresso	2014		Modelagem computacional aplicada à flambagem elástica de colunas	VI Conferência Sul em Modelagem Computacional (MCSul)	ALONSO, R. C. A. ; LIMA, D. S. ; GOMES, M. ; REAL, M. V. ; Dos Santos, E. D. ; ISOLDI, L. A.		
trabalhoCompletoEmCongresso	2014		MODELAGEM COMPUTACIONAL APLICADA À FLAMBAGEM ELÁSTICA DE COLUNAS PERFURADAS	VI Seminário e Workshop em Engenharia Oceânica (SEMENGO)	ALONSO, R. C. A. ; LIMA, D. S. ; GOMES, M. N. ; REAL, M. V. ; Dos Santos, E. D. ; ISOLDI, L. A.		
trabalhoCompletoEmCongresso	2014		Estudo numérico de escoamentos turbulentos com convecção forçada em cavidades cilíndricas: comparação entre LES e RANS. In: VI Conferência Sul em Modelagem Computacional	VI Conferência Sul em Modelagem Computacional (MCSul)	ANDRADE, T. S. V. C. ; RODRIGUES, M. P. ; Isoldi, Liércio A. ; Souza, Jeferson A. ; CENTENO, F. R. ; ROCHA, L. A. O. ; FRANCA, F. H. R. ; dos SANTOS, E. D.		
trabalhoCompletoEmCongresso	2014	http://dx.doi.org/10.1109/NAVCOMP.2014.12	Analysis of Drag Forces Contribution for Oil Ship Behavior	2014 Symposium on Automation and Computation for Naval	ARMUDI, AMANDA ; Marques, Wiliam C. ; BRAVO, LUCAS S. ; MENDONCA, SUZIELI M.		
trabalhoCompletoEmCongresso	2014		Desenvolvimento de um jogo sério para ensino sobre a elaboração, operação e manutenção de plantas industriais	Congresso Sul Brasileiro de Modelagem Computacional	BARBAT, M. M. ; DUTRA JUNIOR, N. C. S. ; WERHLI, A. V. ; ADAMATTI, D. F.		
trabalhoCompletoEmCongresso	2014		Influência da Convecção Mista sobre a Otimização Geométrica de um Arranjo Triangular de Cilindros em Escoamentos Laminares	VI Conferência Sul em Modelagem Computacional (MCSul)	BARROS, G. M. ; DO CARMO, D. M. ; CEMIN, R. ; GALARCA, M. M. ; ISOLDI, L. A. ; ROCHA, L. A. O. ; Dos Santos, E. D.		
trabalhoCompletoEmCongresso	2014		CONSTRUCTAL DESIGN DE CAMINHOS NÃO-UNIFORME DE ALTA CONDUTIVIDADE TÉRMICA EM FORMA DE 'Y' PARA A REFRIGERAÇÃO DE CORPOS GERADORES DE CALOR	Congresso Nacional de Engenharia Mecânica (CONEM)	BECKEL, C. C. ; Horbach, C. dos S. ; ISOLDI, L. A. ; Dos Santos, E. D. ; ROCHA, L. A. O.		
trabalhoCompletoEmCongresso	2014		NUMERICAL STUDY OF HIGH CONDUCTIVITY Y-SHAPED PATHWAYS TO COOL HEAT GENERATING BODIES BY CONDUCTION	15th Brazilian Congress of Thermal Sciences and Engineering (ENCIT)	BECKEL, C. C. ; Horbach, C. dos S. ; ISOLDI, L. A. ; Dos Santos, E. D. ; ROCHA, L. A. O.		
trabalhoCompletoEmCongresso	2014		Constructal Design de caminhos condutivos não uniformes em forma de ?T? para a refrigeração de corpos geradores de calor	VI Conferência Sul em Modelagem Computacional (MCSul)	BECKEL, C. C. ; ISOLDI, L. A. ; Dos Santos, E. D. ; ROCHA, L. A. O.		
trabalhoCompletoEmCongresso	2014		A Constructuve heuristic for gem cut: packing of ellipses in an irregular polygon	Conference on Engineering and Applied Sciences Optimization (OPT-i),	BECKEL, C. C. ; ORO, N. ; Emmendorfer, Leonardo Ramos		
trabalhoCompletoEmCongresso	2014		Análise da influência de parâmetros construtivos no funcionamento de um equipamento de infusão mecanizada	VI Conferência Sul em Modelagem Computacional (MCSul)	Bonow, V. T. ; MACEDO, F. J. ; Dos Santos, E. D. ; Santos, F. B. F. ; MELLO, F. B. ; ISOLDI, L. A.		
trabalhoCompletoEmCongresso	2014		Gerenciamento de semáforos e análise do impacto da dispersão de poluentes utilizando o simulador SUMO	Congresso Sul Brasileiro de Modelagem Computacional	BORN, M. B. ; AGUIAR, M. S. ; ADAMATTI, D. F.		
trabalhoCompletoEmCongresso	2014		INCLUDING OPERATOR'S SKILL AND ENVIRONMENT CONDITIONS IN AN IMS	12th International Conference on Industrial Informatics	BOTELHO, S. ; FILHO, N.L.D. ; ESPINDOLA, D. B. ; BICHET, M. A. A. ; Emmendorfer, Leonardo Ramos ; SANTOS, R. A. P. ; FRAZZON, E. M. ; HENRIQUES, R. V. B. ; PEREIRA, C. E.		
trabalhoCompletoEmCongresso	2014		Estudo preliminar sobre a contribuição das forças de arrasto para o comportamento de navios	VI SEMENGO - SEMINÁRIO E WORKSHOP EM ENGENHARIA OCEÂNICA	BRAVO, L. S. ; Wiliam Correa Marques ; MENDONCA, S. M. ; ARMUDI, A.		
trabalhoCompletoEmCongresso	2014		Um código numérico para ajuste de dados periódicos	VI Conferência Sul em Modelagem Computacional (MCSul)	Brum R. S. ; RAMALHO, J. V. A. ; ROCHA, L. A. O. ; ISOLDI, L. A. ; Dos Santos, E. D.		
trabalhoCompletoEmCongresso	2014		IMPROVING EARTH-AIR HEAT EXCHANGERS CONSIDERING THE AIR FLOW VELOCITY AND DUCTS DIAMETER	XXXV Ibero-Latin American Congress on Computational Methods in Engineering (CILAMCE)	Brum R. S. ; ROCHA, L. A. O. ; ISOLDI, L. A. ; Dos Santos, E. D. ; RAMALHO, J. V. A.		
trabalhoCompletoEmCongresso	2014		ON THE CONSTRUCTAL DESIGN OF AN EARTH-AIR HEAT EXCHANGER WITH TRIANGULAR ARRANGEMENT	15th Brazilian Congress of Thermal Sciences and Engineering (ENCIT)	Brum R. S. ; ROCHA, L. A. O. ; ISOLDI, L. A. ; Rodrigues, M. K. ; Dos Santos, E. D. ; Vaz, J. ; RAMALHO, J. V. A.		
trabalhoCompletoEmCongresso	2014		Influence of Radiation on Turbulence in a 2D Axisymmetric Turbulent Flame Simulation	IX Escola de Primavera de Transição e Turbulência	Centeno, F. R. ; Dos Santos, E. D. ; da Silva, C. V. ; FRANCA, F. H. R.		
trabalhoCompletoEmCongresso	2014		Interação de idosos em redes sociais digitais: uma proposta de análise qualitativa e quantitativa	Congresso Sul Brasileiro de Modelagem Computacional	CHEPE, L. M. ; ADAMATTI, D. F.		
trabalhoCompletoEmCongresso	2014		SIMULAÇÃO NUMÉRICA E MÉTODO CONSTRUCTAL DESIGN APLICADOS À MELHORIA DO COMPORTAMENTO MECÂNICO DE PLACAS PERFURADAS DE MATERIAL COMPÓSITO SUBMETIDAS À FLEXÃO	XXXV Iberian Latin American Congress on Computational Methods in Engineering - CILAMCE 2014	DA SILVA, C. C. C. ; TROIAN, S. P. ; DOS SANTOS, E. D. ; REAL, M. V. ; ISOLDI, L. A. ; ROCHA, L. A. O.		
trabalhoCompletoEmCongresso	2014		SIMULAÇÃO NUMÉRICA E MÉTODO CONSTRUCTAL DESIGN APLICADOS AO ESTUDO DE PLACAS PERFURADAS DE MATERIAL COMPÓSITO SUBMETIDAS À FLEXÃO	VI Seminário e Workshop em Engenharia Oceânica (SEMENGO)	DA SILVA, C. C. C. ; TROIAN, S. ; ROCHA, L. A. O. ; Dos Santos, E. D. ; REAL, M. V. ; ISOLDI, L. A.		
trabalhoCompletoEmCongresso	2014	http://dx.doi.org/10.1109/NAVCOMP.2014.9	Evaluation of the Numerical Method Runge-Kutta Used in the Oil Dispersion ECOS Model	2014 Symposium on Automation and Computation for Naval	DAMBROS, JONATHAN WILLIAM VERGANI ; MARQUES, WILIAM CORREA ; STRINGARI, CAIO EADI		
trabalhoCompletoEmCongresso	2014		Modelagem numérica e física de um quebra-mar poroso	VI Seminário e Workshop em Engenharia Oceânica	Didier, E. ; Neves D. ; DIAS, J. ; TEIXEIRA, PAULO R. F. ; Neves, M. G.		
trabalhoCompletoEmCongresso	2014		SPH numerical and physical modeling of wave overtopping a porous breakwater	3rd IAHR European Congress	DIDIER, ERIC ; Neves D. ; TEIXEIRA, P. R. F. ; DIAS, J. ; Neves, M. G.		
trabalhoCompletoEmCongresso	2014		Reputation in MAS-based Simulation: an approach using CArtAgO artifacts	5th Workshop on Autonomous Software Systems	DONANCIO, H. ; DIMURO, G. ; ADAMATTI, D. F. ; JEREZ, E. M. ; DIMURO, G. P.		
trabalhoCompletoEmCongresso	2014		Numerical Study of Non-reactive Turbulent Jet Flow with Combined Convective and Radiative Heat Tranfer in Optically Thin Participant Medium	IX Escola de Primavera de Transição e Turbulência	DOS SANTOS, E. D. ; ISOLDI, L. A. ; CENTENO, F. R. ; ROCHA, L. A. O. ; PETRY, A. P. ; FRANÇA, F. H. R.		
trabalhoCompletoEmCongresso	2014	http://dx.doi.org/10.3182/20140824-6-ZA-1003.02367	Towards Intelligent Maintenance Systems: Rescuing Human Operator and Context Factors	World Congress	EDWARD, BOJE, ; FERDINANDO, CAMISANI-CALZOLARI, ; EDWARD, BOJE, ; SILVIA, BOTELHO,		
trabalhoCompletoEmCongresso	2014		Modelo Hierárquico para os Indicadores de Serviços aos Navios a ser Utilizado no Porto Novo do Rio Grande	Seminário e Workshop em Engenharia Oceânica	ELACOSTE, T. S. ; AZAMBUJA, A.M.V. ; MACHADO, C.M.S.		
trabalhoCompletoEmCongresso	2014		Constructal design aplicado à cavidades convectivas inseridas em um sólido cilíndrico	VI Conferência Sul em Modelagem Computacional (MCSul)	Estrada, E. da S. D. ; GONZALES, G. V. ; Dos Santos, E. D. ; ISOLDI, L. A. ; ROCHA, L. A. O.		
trabalhoCompletoEmCongresso	2014		Estudo de metodologias para análise numérica do campo de temperatura no processo de soldagem MIG em chapas de aço inoxidável AISI 304L	VIII Congresso Nacional de Engenharia Mecânica	FARIAS, R. M. ; TEIXEIRA, P. R. F. ; Araújo D.B.		
trabalhoCompletoEmCongresso	2014		Análise numérica da transferência de calor no processo de soldagem MIG multipasse em chapas de aço inoxidável AISI 304L	I Congresso Pan-Americano de Soldagem / XL CONSOLDA - Congresso Nacional de Soldagem	FARIAS, R. M. ; Teixeira, P. R. F. ; Araújo D.B.		
trabalhoCompletoEmCongresso	2014		. MODELAGEM COMPUTACIONAL DE TROCADOR DE CALOR SOLO-AR AVALIANDO O USO DE DOIS MODELOS CLÁSSICOS DE TURBULÊNCIA	XXXV Ibero-Latin American Congress on Computational Methods in Engineering (CILAMCE)	FERRAZ, J. G. ; NUNES, B. R. ; KIPPER, R. ; RODRIGUES, M. K. ; BRUM, R. S. ; ROCHA, L. A. O. ; DOS SANTOS, E. D. ; ISOLDI, L. A.		
trabalhoCompletoEmCongresso	2014		Modelagem computacional de um trocador de calor solo-ar empregando diferentes modelagens para turbulência	VI Conferência Sul em Modelagem Computacional (MCSul)	FERRAZ, J. G. ; NUNES, B. R. ; RODRIGUES, M. K. ; BRUM, R. S. ; Souza, Jeferson A. ; ROCHA, L. A. O. ; Isoldi, Liércio A. ; dos SANTOS, E. D.		
trabalhoCompletoEmCongresso	2014		SIMULAÇÃO NUMÉRICA E CONSTRUCTAL DESIGN APLICADOS À FLAMBAGEM ELÁSTICA DE PLACAS FINAS DE AÇO	VI Seminário e Workshop em Engenharia Oceânica (SEMENGO)	FOLZKE, E. G. G. ; CORREIA, A. L. G. ; da Silveira, T. ; ROCHA, L. A. O. ; Dos Santos, E. D. ; REAL, M. V. ; ISOLDI, L. A.		
trabalhoCompletoEmCongresso	2014		Exergames in Physical Education: tools for teaching and health promotion	SBGames - XIII Simpósio Brasileiro de Jogos e Entretenimento Digital	FONSECA, B. ; NUNES, G. ; BORTOLAS, A. ; Botelho, Silvia S. C. ; VAGHETTI, C. A. O.		
trabalhoCompletoEmCongresso	2014		Estudo numérico de um arranjo triangular de cilindros submetidos a escoamento laminar com convecção forçada	VI Conferência Sul em Modelagem Computacional (MCSul)	FONSECA, S. G. ; CARDOSO, F. R. ; Razera, A. L. ; ISOLDI, L. A. ; Porte, A. F. ; ROCHA, L. A. O. ; Dos Santos, E. D. ; GALARCA, M. M.		
trabalhoCompletoEmCongresso	2014		Classificação Automática de Dados para Descoberta de Conhecimento: Um Estudo de Caso para Classificação de Risco na Área da Saúde	Congresso Sul Brasileiro de Modelagem Computacional	FUNCHAL, J. P. ; MADSEN, C. ; ADAMATTI, D. F.		
trabalhoCompletoEmCongresso	2014		Study of low velocity impact behavior of composite sandwich panels with pvc and pet core	2nd Brazilian Conference on Composite Materials - BCCM	GARAY, A. C. ; CELEGHINI, R. ; ALVES, M. ; Souza, Jeferson Ávila ; Amico, Sandro C.		
trabalhoCompletoEmCongresso	2014		Numerical modeling and simulation of light rtm processing for composite sandwich	2nd Brazilian Conference on Composite Materials - BCCM	GARAY, A. C. ; KERCHE, E. F. ; FRANZ, M. ; Souza, Jeferson Ávila ; Amico, Sandro C.		
trabalhoCompletoEmCongresso	2014		Group size and gossip strategies: an ABM tool for investigating reputation-based cooperation	15TH International Workshop on Multi-Agent-Based Simulation	GIARDINI, F. ; PAOLUCCI, M. ; ADAMATTI, D. F. ; CONTE, R.		
trabalhoCompletoEmCongresso	2014		Investigação da aplicação de algoritmos de agrupamento para o problema astrofísico de classificação de galáxias	VI Conferência Sul em Modelagem Computacional (MCSul)	GIL, V. O. ; FERRARI, F. ; Emmendorfer, Leonardo Ramos		
trabalhoCompletoEmCongresso	2014		SIMULAÇÃO NUMÉRICA E MÉTODO CONSTRUCTAL DESIGN APLICADOS À OTIMIZAÇÃO GEOMÉTRICA DE DOIS GRAUS DE LIBERDADE DE UM DISPOSITIVO COLUNA DE ÁGUA OSCILANTE CONSIDERANDO O EFEITO DA PERDA DE CARGA DA TURBINA	XXXV Ibero-Latin American Congress on Computational Methods in Engineering (CILAMCE)	GOMES, M. das N. ; SALVADOR, A. J. ; SANTOS, A. L. O. ; CASSEL, L. F. ; DOS SANTOS, E. D. ; ISOLDI, L. A. ; ROCHA, L. A. O.		
trabalhoCompletoEmCongresso	2014		Constructal Design and Simulated Annealing Employed for Geometric Optimization of a Y-Shaped Cavity Intruded into Conductive Wall	VI Conferência Sul em Modelagem Computacional (MCSul)	GONZALES, G. V. ; EMMENDORFER, L. R. ; ISOLDI, L. A. ; Estrada, E. da S. D. ; ROCHA, L. A. O. ; Dos Santos, E. D.		
trabalhoCompletoEmCongresso	2014		A Comparative Study of Simulated Annealing with different Cooling Schedules for Geometric Optimization of a Heat Transfer Problem According to Constructal Design	VI Conferência Sul em Modelagem Computacional (MCSul)	GONZALES, G. V. ; EMMENDORFER, L. R. ; ISOLDI, L. A. ; Estrada, E. da S. D. ; ROCHA, L. A. O. ; Dos Santos, E. D.		
trabalhoCompletoEmCongresso	2014		CONSTRUCTAL DESIGN DE UM DISPOSITIVO DE GALGAMENTO ONSHORE EM ESCALA REAL PARA DUAS DIFERENTES PROFUNDIDADES	VI Seminário e Workshop em Engenharia Oceânica (SEMENGO)	GOULART, M. M. ; MARTINS, J. C. ; ACUNHA JUNIOR, I. C. ; GOMES, M. N. ; Souza, J.A. ; ROCHA, L. A. O. ; Isoldi, Liércio A. ; dos SANTOS, E. D.		
trabalhoCompletoEmCongresso	2014		Constructal Design de um dispositivo de galgamento onshore em escala real para uma profundidade fixa	VI Conferência Sul em Modelagem Computacional (MCSul)	GOULART, M. M. ; MARTINS, J. C. ; GOMES, M. N. ; ACUNHA JUNIOR, I. C. ; Souza, Jeferson A. ; ROCHA, L. A. O. ; Isoldi, Liércio A. ; dos SANTOS, E. D.		
trabalhoCompletoEmCongresso	2014		3D NUMERICAL ANALYSIS ABOUT THE SHAPE INFLUENCE OF THE HYDROPNEUMATIC CHAMBER IN AN OSCILLATING WATER COLUMN (OWC)	VI Seminário e Workshop em Engenharia Oceânica (SEMENGO)	GRIMMLER, J. A. M. ; LETZOW, M. ; Souza, Jeferson A. ; GOMES, M. N. ; ROCHA, L. A. O. ; SANTOS, E. D. ; Isoldi, Liércio A.		
trabalhoCompletoEmCongresso	2014		Uma proposta de SLAM para veículos subaquátios	Encontro Nacional de Inteligência Artificial e Computacional	GUTH, F. ; Botelho, Silvia S. C. ; SILVEIRA, L. ; DREWS, P. ; MACHADO, M.		
trabalhoCompletoEmCongresso	2014		Challenges and state-of-the-art solutions to underwater SLAM	Simpósio em Computação e Automação para Indústria Naval	GUTH, F. ; SILVEIRA, L. ; C. Botelho, Silvia S. ; DREWS, P.		
trabalhoCompletoEmCongresso	2014		Underwater SLAM: Challenges, State of the Art, Algorithms and a New Biologically-Inspired Approach	5th IEEE RAS/EMBS International Conference on Biomedical Robotics and Biomechatronics	GUTH, F. ; SILVEIRA, L. ; C. Botelho, Silvia S. ; DREWS, P. ; BALLESTER, P.		
trabalhoCompletoEmCongresso	2014		ROS MMaster: adaptando o ROS para maior escalabilidade	Simpósio em Computação e Automação para Indústria Naval	Hax, V. A. ; DUARTE FILHO, Nelson Lopes ; C. Botelho, Silvia S.		
trabalhoCompletoEmCongresso	2014		Análise numérica da flambagem térmica em placas finas de aço	Análise numérica da flambagem térmica em placas finas de aço	Helbig, D. ; MICHAELLO, R. S. ; Dos Santos, E. D. ; REAL, M. V. ; ROCHA, L. A. O. ; ISOLDI, L. A.		
trabalhoCompletoEmCongresso	2014		NUMERICAL SIMULATION AND CONSTRUCTAL DESIGN METHOD APPLIED TO THE STUDY OF THE CUTOUT SHAPE INFLUENCE IN THE MECHANICAL BEHAVIOR OF PERFORATED PLATES SUBJECTED TO BUCKLING	CILAMCE 2014 - XXXV Iberian Latin American Congress on Computational Methods in Engineering	Helbig, D. ; ROCHA, L. A. O. ; DA SILVA, C. C. C. ; Dos Santos, E. D. ; REAL, M. V. ; ISOLDI, L. A.		
trabalhoCompletoEmCongresso	2014		Modelando um sistema Tutor Multiagentes para auxiliar na aprendizagem da Matemática	Congresso Sul Brasileiro de Modelagem Computacional	HELMS, F. K. ; LORETO, A. B. ; ADAMATTI, D. F. ; BUSS, C. ; FERREIRA, A. L. A.		
trabalhoCompletoEmCongresso	2014		Finite element nonlinear analysis of steel plates with circular holes	XXXV Iberian Latin American Congress on Computational Methods in Engineering - CILAMCE 2014	ISOLDI, L. A. ; BAPTISTA, L.G. ; REAL, M. V.		
trabalhoCompletoEmCongresso	2014		Viabilidade do uso de turbinas hidrocinéticas na Plataforma Continental Sul-Sudeste Brasileira	6º MCSUL - Conferência Sul em Modelagem Computacional	KIRINUS, E. P. ; MARQUES, W. C.		
trabalhoCompletoEmCongresso	2014		Exploring the impact of sub-sea tecnology development on the Southern Brazilian Shelf	NAVCOMP - II Simpósio em Computação e Automação para Indústria Naval e Offshore	KIRINUS, E. P. ; PEREIRA, J. T. B. ; Marques, Wilian C. ; MATZENAUER, H. B. ; VIVAN, A. M. ; GANDRA, T. B. R.		
trabalhoCompletoEmCongresso	2014	http://dx.doi.org/10.1109/NAVCOMP.2014.11	Exploring the Impact of Sub-Sea Technology Development on the Southern Brazilian Shelf	2014 Symposium on Automation and Computation for Naval	KIRINUS, EDUARDO DE PAULA ; PEREIRA, JULIANA TAVORA BERTAZO ; MARQUES, WILIAM CORREA ; MATZENAUER, HELENA BARRETO ; POESTER, VANICE RODRIGUES ; GANDRA, TIAGO BORGES RIBEIRO		
trabalhoCompletoEmCongresso	2014		Autorregulação de Processos de Trocas Sociais em SMA: um modelo de sociedade de agentes BDI evolucionários e culturais no contexto do JaCaMo	Workshop-Escola de Sistemas de Agentes	LAER, A. V. ; AGUIAR, M. S. ; ADAMATTI, D. F. ; DIMURO, G. P.		
trabalhoCompletoEmCongresso	2014		NUMERICAL MODELING AND CONSTRUCTAL DESIGN APPLIED TO THE PERFORMANCE IMPROVEMENT OF AN OSCILLATING WATER COLUMN WAVE ENERGY CONVERTER	15th Brazilian Congress of Thermal Sciences and Engineering (ENCIT)	LARA, M. F. E. ; GOMES, M. das N. ; ROCHA, L. A. O. ; DOS SANTOS, E. D. ; L.A., ISOLDI		
trabalhoCompletoEmCongresso	2014		MODELAGEM COMPUTACIONAL E OTIMIZACAO DA CONVERSAO DA ENERGIA COM CONSTRUCTAL DESIGN DE UM DISPOSITIVO DO TIPO COLUNA DE ÁGUA OSCILANTE	XXXV Ibero-Latin American Congress on Computational Methods in Engineering (CILAMCE)	LARA, M. F. E. ; GOMES, M. das N. ; ROCHA, L. A. O. ; DOS SANTOS, E. D. ; ISOLDI, L. A.		
trabalhoCompletoEmCongresso	2014		Controle de qualidade do concreto de obras executadas no Porto de Rio Grande	VI Seminário e Workshop em Engenharia Oceânica - SEMENGO	LAROSSA, M.C. ; MAGALHÃES, F. C. ; REAL, M. V. ; DIAS, Cláudio Renato Rodrigues		
trabalhoCompletoEmCongresso	2014		Descoberta de Conhecimento com Auxílio da Inteligência Humana: um estudo de caso para dobramento de proteínas	Encontro Nacional de Inteligência Artificial e Computacional	LUZ, R. ; ADAMATTI, D. F. ; WERHLI, A. V.		
trabalhoCompletoEmCongresso	2014		ANÁLISE NUMÉRICA DA GEOMETRIA DA RAMPA DE UM DISPOSITIVO DE GALGAMENTO APLICANDO CONSTRUCTAL DESIGN	XXXV Ibero-Latin American Congress on Computational Methods in Engineering (CILAMCE)	MACHADO, B. N. ; GOMES, M. das N. ; DOS SANTOS, E. D. ; ISOLDI, L. A. ; ROCHA, L. A. O.		
trabalhoCompletoEmCongresso	2014		Um Olhar Sobre os Fundamentos Matemáticos da Geometria e Álgebra Linear na Solução de um Modelo de Programação Linear	XLII CONGRESSO BRASILEIRO DE EDUCAÇÃO EM ENGENHARIA	MACHADO, C. M. S. ; ADAMATTI, D. F. ; MEINERZ, L. R. ; CARVALHO, G. S. P.		
trabalhoCompletoEmCongresso	2014		Avaliação da confiabilidade de pilares de concreto armado com base nos resultados oriundos de distintos locais de ensaio	56 Congresso Brasileiro do Concreto	MAGALHÃES, F. C. ; REAL, M. V. ; Pinheiro, L.C.L. ; SILVA FILHO, L. C. P.		
trabalhoCompletoEmCongresso	2014		Influência da não conformidade do concreto na confiabilidade de pilares de concreto armado	56 Congresso Brasileiro do Concreto	MAGALHÃES, F. C. ; REAL, M. V. ; Pinheiro, L.C.L. ; SILVA FILHO, L. C. P.		
trabalhoCompletoEmCongresso	2014		Avaliação do nível de segurança estrutural de pilares de concreto armado através de metodologia numérica	VI Conferência Sul em Modelagem Computacional (MCSul)	MAGALHÃES, F. C. ; REAL, M. V. ; SILVA FILHO, L. C. P. ; Pinheiro, L.C.L.		
trabalhoCompletoEmCongresso	2014		Análise numérica da influência de parâmetros operacionais e construtivos no funcionamento de trocadores de calor solo-ar	VI Conferência Sul em Modelagem Computacional (MCSul)	MARZAROTTO, C. ; NUNES, B. R. ; SOUZA, J. A. ; ROCHA, L. A. O. ; SANTOS, E. D. ; Isoldi, Liércio A. ; RODRIGUES, M. K.		
trabalhoCompletoEmCongresso	2014		Propriedades de controladores fuzzy: um estudo de caso	6 Modelagem Computacional Sul	MATTOS, V. L. D.; COELHO, L. C.		
trabalhoCompletoEmCongresso	2014		MODELAGEM COMPUTACIONAL APLICADA AO ESTUDO DA FLAMBAGEM TÉRMICA DE COLUNAS	VI Seminário e Workshop em Engenharia Oceânica (SEMENGO)	MICHAELLO, R. S. ; Helbig, D. ; ROCHA, L. A. O. ; REAL, M. V. ; Dos Santos, E. D. ; ISOLDI, L. A.		
trabalhoCompletoEmCongresso	2014		Modelagem computacional aplicada à flambagem térmica de colunas	VI Seminário e Workshop em Engenharia Oceânica - SEMENGO	MICHAELLO, R. S. ; HELBIG, D. ; ROCHA, L.A.O ; REAL, M. V. ; SANTOS, E. D. ; ISOLDI, L. A.		
trabalhoCompletoEmCongresso	2014		Underwater Single Image Restoration Using Dark Channel Prior	Simpósio em Computação e Automação para Indústria Naval	MORAES, F. ; DREWS, P. ; C. Botelho, Silvia S. ; DUARTE FILHO, Nelson Lopes ; GAYA, J.		
trabalhoCompletoEmCongresso	2014		Simulando o Impacto do Consumo de Energia Elétrica por meio das Técnicas de Rede Colorida de Petri e de Sistemas Multiagentes	Simpósio em Computação e Automação para Indústria Naval	MOTA, F. ; ROSA, V. ; C. Botelho, Silvia S.		
trabalhoCompletoEmCongresso	2014		Modelagem computacional aplicada ao estudo de um trocador de calor solo-ar com diferentes configurações geométricas	VI Conferência Sul em Modelagem Computacional (MCSul)	NUNES, B. R. ; FERRAZ, J. G. ; KIPPER, R. ; RODRIGUES, M. K. ; BRUM, R. S. ; Souza, Jeferson A. ; ROCHA, L. A. O. ; dos SANTOS, E. D. ; Isoldi, Liércio A.		
trabalhoCompletoEmCongresso	2014		MODELAGEM COMPUTACIONAL APLICADA AO ESTUDO DE TROCADOR DE CALOR SOLO-AR COM CONFIGURAÇÃO GEOMÉTRICA COMPLEXA	XXXV Ibero-Latin American Congress on Computational Methods in Engineering (CILAMCE)	NUNES, B. R. ; FERRAZ, J. G. ; RODRIGUES, M. K. ; KIPPER, R. ; BRUM, R. S. ; DOS SANTOS, E. D. ; ISOLDI, L. A. ; ROCHA, L. A. O.		
trabalhoCompletoEmCongresso	2014		Simulação de ondas oceânicas na costa Sul-Sudeste brasileira para análise do potencial energético	6º MCSUL - Conferência Sul em Modelagem Computacional	OLEINIK, P. H. ; MARQUES, W. C. ; KIRINUS, E. P.		
trabalhoCompletoEmCongresso	2014		Análise do potencial energético das ondas geradas pelo vento na costa Sul-Sudeste Brasileira	VI SEMENGO - SEMINÁRIO E WORKSHOP EM ENGENHARIA OCEÂNICA	OLEINIK, P. H. ; Marques, Wiliam Correa ; KIRINUS, E. P.		
trabalhoCompletoEmCongresso	2014		Proposta de um Arcabouço Metodológico para a Autoria de Conteúdo em Ambientes Imersivos de Ensino	XXIII Ciclo de Palestras sobre Novas Tecnologias na Educação	OLIVEIRA, L. ; ESPINDOLA, Danúbia Bueno ; Barwaldt, R. ; BICHET, M. A. ; C. Botelho, Silvia S.		
trabalhoCompletoEmCongresso	2014		GEOMETRICAL OPTIMIZATION OF SYMMETRIC FINS INTRUDED INTO FORCED CONVECTIVE LID-DRIVEN CAVITY FLOWS	XXXV Ibero-Latin American Congress on Computational Methods in Engineering (CILAMCE)	PAVEGLIO, D. S. ; CORREA, R. C. ; Souza, Jeferson A. ; Isoldi, Liércio A. ; Rocha, Luiz A. O. ; SANTOS, E. D.		
trabalhoCompletoEmCongresso	2014		CONSTRUCTAL DESIGN OPTIMIZATION OF A TUBULAR ASSEMBLE	15th Brazilian Congress of Thermal Sciences and Engineering (ENCIT)	PEDROTTI, V. A. ; dos SANTOS, E. D. ; Isoldi, Liércio A. ; Souza, Jeferson A.		
trabalhoCompletoEmCongresso	2014		Otimização geométrica de um arranjo tubular submetido a convecção forçada utilizando Constructal Design	VI Conferência Sul em Modelagem Computacional (MCSul)	PEDROTTI, V. A. ; Souza, Jeferson A. ; dos SANTOS, E. D. ; Isoldi, Liércio A.		
trabalhoCompletoEmCongresso	2014		OTIMIZAÇÃO DE UM ARRANJO COM QUATRO TUBOS SUBMETIDO A ESCOAMENTO EXTERNO UTILIZANDO CONSTRUCTAL DESIGN	XXXV Ibero-Latin American Congress on Computational Methods in Engineering (CILAMCE)	PEDROTTI, V. A. ; Souza, Jeferson A. ; dos SANTOS, E. D. ; Isoldi, Liércio A.		
trabalhoCompletoEmCongresso	2014		Toogle: Uma plataforma CPS para o rastreio de equipamentos em estaleiros	Simpósio em Computação e Automação para Indústria Naval	PENNA, R. ; BICHET, M. A. ; C. Botelho, Silvia S. ; DUARTE FILHO, N. L. ; ESPINDOLA, Danúbia Bueno		
trabalhoCompletoEmCongresso	2014		Visualization tool for cyber-physical maintenance systems	IEEE International Conference on Industrial Informatic	PENNA, R. ; BOTELHO, S. S. C. ; DUARTE, N. ; ESPÍNDOLA, D. ; BICHET, M. A. ; FRAZZON, E. ; pereira, c. e. ; ZUCCOLOCO, M.		
trabalhoCompletoEmCongresso	2014		Simpósio Brasileiro em Informática na Educação SBIE	SBIE - Simpósio Brasileiro em Informática na Educação	PENNA, R. ; Botelho, Silvia S. C. ; BICHET, M. A.		
trabalhoCompletoEmCongresso	2014		Estudo da hidrodinâmica de diferentes geometrias de sítios de conversão de energia das correntes	6º MCSUL - Conferência Sul em Modelagem Computacional	PEZZATO, B. C. ; KIRINUS, E. P. ; MARQUES, W. C.		
trabalhoCompletoEmCongresso	2014		Estudo das diferentes geometrias de sítios de conversores de energia de correntes	VI SEMENGO - SEMINÁRIO E WORKSHOP EM ENGENHARIA OCEÂNICA	PEZZATO, B. C. ; KIRINUS, E. P. ; Wiliam Correa Marques		
trabalhoCompletoEmCongresso	2014		Desenvolvendo o Raciocínio Lógico no Ensino Médio: uma proposta utilizando a ferramenta Scratch	Simpósio Brasileiro de Informática na Educação	PINTO, F. M. ; RIBEIRO, N. F. A. ; EMMENDORFER, L. R. ; BUTZEN, P. F. ; MACHADO, K. S. ; ADAMATTI, D. F.		
trabalhoCompletoEmCongresso	2014		Modelagem Dinâmica de Cabos Para Aplicações Subaquáticas	VI Conferência Sul em Modelagem Computacional	POUZADA, T. A. ; GOMES, S. C. P.		
trabalhoCompletoEmCongresso	2014		Análise paramétrica de um painel com enrijecedor sob flambagem elástica	VI Conferência Sul em Modelagem Computacional (MCSul)	RACKOW, P.B. ; REAL, M. V. ; ISOLDI, L. A. ; SILVA, R. C. ; THORMANN, D. N.		
trabalhoCompletoEmCongresso	2014		ESTUDO PARAMÉTRICO PARA OTIMIZAÇÃO DA CARGA CRÍTICA EM PAINÉIS ENRIJECIDOS	VI Seminário e Workshop em Engenharia Oceânica (SEMENGO)	RACKOW, P. B. ; REAL, M. V. ; L.A., ISOLDI ; SILVA, R. C. ; THORMANN, D. N.		
trabalhoCompletoEmCongresso	2014		Verificação da confiabilidade estrutural no projeto de vigas portuárias de concreto protendido	VI Seminário e Workshop em Engenharia Oceânica - SEMENGO	ROCHA, R. G. ; REAL, M. V. ; MOURA, M. W.		
trabalhoCompletoEmCongresso	2014		Cadeia Produtiva de Animais de Corte: Uma Aplicação em Aves com a Utilização de RFID e Mineração de Dados	Seminário de Extensão da Região Sul	RODRIGUES, A. S. P. ; ROZANTE, M. ; BARWALDT, G. ; ADAMATTI, D. F. ; BARWALDT, R.		
trabalhoCompletoEmCongresso	2014		MODELAGEM COMPUTACIONAL E MÉTODO CONSTRUCTAL DESIGN APLICADOS À MELHORIA DO DESEMPENHO TÉRMICO DE UMA INSTALAÇÃO DE TROCADOR DE CALOR SOLO-AR	XXXV Ibero-Latin American Congress on Computational Methods in Engineering (CILAMCE)	RODRIGUES, M. K. ; BRUM, R. S. ; Vaz, J ; Souza, J.A. ; ROCHA, L. A. O. ; dos SANTOS, E. D. ; Isoldi, Liércio A.		
trabalhoCompletoEmCongresso	2014		Constructal Design aplicado à otimização geométrica de um material de alta condutividade térmica em forma de 'T'	VI Conferência Sul em Modelagem Computacional (MCSul)	RODRIGUES, M. K. ; GOULART, M. M. ; HELBIG, D. ; MAGALHAES, G. M. C. ; ACUNHA Jr., I. C. ; ROCHA, L. A. O. ; Isoldi, L.A. ; DOS SANTOS, E. D.		
trabalhoCompletoEmCongresso	2014		Estudo numérico da influência de condições de contorno na modelagem computacional de trocador de calor solo-ar	VI Conferência Sul em Modelagem Computacional (MCSul)	RODRIGUES, M. K. ; Souza, Jeferson A. ; Vaz, J ; ACUNHA JUNIOR, I. C. ; ROCHA, L. A. O. ; dos SANTOS, E. D. ; Isoldi, L.A.		
trabalhoCompletoEmCongresso	2014		Modelo de Trocas Sociais entre Tríades de Agentes utilizando confiança, reputação e dependência social	Congresso Sul Brasileiro de Modelagem Computacional	ROJAS, Y. E. L. ; ADAMATTI, D. F. ; DIMURO, G. P.		
trabalhoCompletoEmCongresso	2014		Social Exchange Processes Among Triads of Agents in Multiagent Systems	Brazilian Workshop on Social Simulation	ROJAS, Y. E. L. ; DONANCIO, H. ; ADAMATTI, D. F. ; DIMURO, G. P.		
trabalhoCompletoEmCongresso	2014		Influência do Método de Defuzzificação em Mensurações com Controladores Fuzzy	XVII Simpósio de pesquisa Operacional e Logística da Marinha	SANTOS, G. C. ; THOMAZ, P. S. ; RIBEIRO, F. M. ; ARAUJO, J. F. ; MATTOS, V. L. D.		
trabalhoCompletoEmCongresso	2014		A New Draft of Resolution to the P. Mediam Problem	4 International Conference on Engineering Optimization	SANTOS, J. C. F. ; MACHADO, C.M.S.		
trabalhoCompletoEmCongresso	2014		AVALIAÇÃO NUMÉRICA DO EFEITO DA VARIAÇÃO DA ALTURA RELATIVA DE UM CONVERSOR DE ENERGIA DAS ONDAS DO MAR TIPO PLACA SUBMERSA	VI Seminário e Workshop em Engenharia Oceânica (SEMENGO)	VIEIRA, R. R. ; GARCIA, C. ; ACUNHA JUNIOR, I. C. ; Souza, Jeferson A. ; ROCHA, L. A. O. ; Isoldi, Liércio A. ; dos SANTOS, E. D.		
trabalhoCompletoEmCongresso	2014		Simulação numérica do comportamento não-linear de placas planas com perfurações quadradas sob compressão uniaxial em estruturas navais e offshore	VI Conferência Sul em Modelagem Computacional (MCSul)	SENTANO, B. S. ; REAL, M. V. ; ISOLDI, L. A. ; BAPTISTA, L. G.		
trabalhoCompletoEmCongresso	2014		SIMULAÇÃO NUMÉRICA DO COMPORTAMENTO NÃO-LINEAR DE PLACAS PLANAS COM PERFURAÇÕES CIRCULARES E QUADRADAS SOB COMPRESSÃO UNIAXIAL EM ESTRUTURAS NAVAIS E OFFSHORE	VI Seminário e Workshop em Engenharia Oceânica (SEMENGO)	SENTANO, B. S. ; REAL, M. V. ; L.A., ISOLDI ; BAPTISTA, L. G.		
trabalhoCompletoEmCongresso	2014		Detecting Changes in 3D Maps using Gaussian distribution	Encontro Nacional de Inteligência Artificial e Computacional	SILVA FILHO, S. ; DREWS, P. ; Botelho, Silvia S. C.		
trabalhoCompletoEmCongresso	2014		Planaridade de Grafos, o Teorema das Quatro Cores e o ensino de Matemática	Congresso Sul Brasileiro de Modelagem Computacional	SILVA, C. B. E. ; SENA, M. E. S. ; MACHADO, C. M. S. ; ADAMATTI, D. F.		
trabalhoCompletoEmCongresso	2014		Modelagem de Emoções utilizando Redes Bayesianas em Agentes	Workshop-Escola de Sistemas de Agentes	SILVA, F. N. ; WERHLI, A. V. ; ADAMATTI, D. F.		
trabalhoCompletoEmCongresso	2014		Um Modelo de Suporte à Comunicação de Agentes para tratamento de informação imprecisa com ontologia: integrando aos ambientes Jason e Jade	Encontro Nacional de Inteligência Artificial e Computacional	SPEROTTO, F. A. ; ADAMATTI, D. F.		
trabalhoCompletoEmCongresso	2014		Numerical Analysis of flow-induced vibration of two circular cylinders in tandem at low Reynolds numbers	11th World Congress on Computational Mechanics (WCCM XI)	TEIXEIRA, P. R. F.; DIDIER, ERIC		
trabalhoCompletoEmCongresso	2014		Análise Numérica do Comportamento Mecânico de Placas Finas Perfuradas de Materiais Compósitos sob Flexão	VI Conferência Sul em Modelagem Computacional (MCSul)	TROIAN, S. ; DA SILVA, C. C. C. ; ROCHA, L. A. O. ; Dos Santos, E. D. ; ISOLDI, L. A. ; REAL, M. V.		
trabalhoCompletoEmCongresso	2014		Análise estrutural de um cais de contêineres através do método dos elementos finitos	VI Seminário e Workshop em Engenharia Oceânica - SEMENGO	Viegas, C.H.H. ; REAL, M. V. ; MOURA, M. W.		
trabalhoCompletoEmCongresso	2014		ESTUDO NUMÉRICO DA INFLUÊNCIA DE PARÂMETROS GEOMÉTRICOS SOBRE A POTÊNCIA DISPONÍVEL EM UMA CHAMINÉ SOLAR	VI Seminário e Workshop em Engenharia Oceânica (SEMENGO)	VIEIRA, R. S. ; GARCIA, C. ; ACUNHA Jr., I. C. ; SOUZA, J. A. ; ROCHA, L. A. O. ; L.A., ISOLDI ; DOS SANTOS, E. D.		
trabalhoCompletoEmCongresso	2014		Estimation of Parameters of Mycobacterium tuberculosis growth: a Multi-Agent-Based Simulation Approach	14th Ibero-American Conference on Artificial Intelligence	WERHLI, A. V. ; ADAMATTI, D. F. ; WERLANG, P. ; MACHADO, K. S. ; GROLL, A. V. ; SILVA, P. E. A.		
resumoExpandidoEmCongresso	2014	Influência da massa adicional hidrodinâmica sobre a trajetória de um navio petroleiro	II Simpósisio em Computação e Automação para a Indústria Naval, Offshore e Subaquática, 2014, Rio Grande. NAVCOMP 2014	ARMUDI, A. ; Wiliam Correa Marques ; BRAVO, L. S.		
resumoExpandidoEmCongresso	2014	Análise da Influência de Parâmetros Construtivos no Funcionamento de um Equipamento de Infusão Mecanizada	Mostra de Produção Universitária (MPU), 2014, Rio Grande. Anais da 13ª MPU. Rio Grande: FURG	BONOW, V. T. ; MACEDO, F. J. ; DOS SANTOS, E. D. ; SANTOS, F. B. dos ; MELLO, F. B. ; L. A. ISOLDI		
resumoExpandidoEmCongresso	2014	Simulação Numérica de Dispositivos Conversores de Energia Das Ondas	MPU - Mostra de Produção Universitária da FURG - Congresso de Iniciação Científica, 2014, Rio Grande. Anais da 13ª MPU	CARVALHO, O. L. F. ; Souza, Jeferson A. ; SANTOS, E. D.		
resumoExpandidoEmCongresso	2014	UM EXPERIMENTO PARA DETERMINAR ALGUMAS PROPRIEDADES DE CONTROLADORES FUZZY	13 Mostra de Produção Universitária, 2014, Rio Grande. Anais da 13 Mostra de Produção Universitária. Rio Grande: Editora da FURG	COELHO, L. C. ; MATTOS, V. L. D.		
resumoExpandidoEmCongresso	2014	SIMULAÇÃO NUMÉRICA E MÉTODO CONSTRUCTAL DESIGN APLICADOS AO ESTUDO DE DEFLEXÕES EM PLACAS PERFURADAS DE MATERIAL COMPÓSITO SUBMETIDAS À FLEXÃO	Mostra de Produção Universitária (MPU), 2014, Rio Grande. Anais da 13ª MPU. Rio Grande: FURG	DA SILVA, C. C. C. ; TROIAN, S. ; ISOLDI, L. A.		
resumoExpandidoEmCongresso	2014	Avaliação da Implementação do Método Numérico de Runge-Kutta ao Modelo de Dispersão do Óleo ECOS	II Simpósisio em Computação e Automação para a Indústria Naval, Offshore e Subaquática, 2014, Rio Grande. NAVCOMP 2014	DAMBROS, J. W. V. ; Wiliam Correa Marques ; STRINGARI, C. E.		
resumoExpandidoEmCongresso	2014	Estudo da conformidade do concreto em obras portuárias em Rio Grande - RS	13ª Mostra da Produção Universitária, 2014, Rio Grande. Anais. Rio Grande: FURG	DANELUZ, S. ; REAL, M. V.		
resumoExpandidoEmCongresso	2014	Trabalhando Reputação em SMA com a utilização de Artefatos Normativos	Workshop-Escola de Sistemas de Agentes, seus Ambientes e apliCações, 2014, Porto Alegre / RS. WESAAC 2014. Porto Alegre / RS: PUCRS	DONANCIO, H. ; ADAMATTI, D. F. ; DIMURO, G. ; JEREZ, E. M. ; DIMURO, G. P.		
resumoExpandidoEmCongresso	2014	MODELAGEM COMPUTACIONAL DE UM TROCADOR DE CALOR SOLO-AR AVALIANDO O USO DO MODELO DE TURBULÊNCIA k-E	Mostra de Produção Universitária (MPU), 2014, Rio Grande. Anais da 13ª MPU. Rio Grande: FURG	FERRAZ, J. G. ; RODRIGUES, M. K. ; NUNES, B. R. ; DOS SANTOS, E. D. ; ISOLDI, L. A.		
resumoExpandidoEmCongresso	2014	Utilizando DCOP para Modelar o Problema de Alocação de Redes Virtuais	Workshop-Escola de Sistemas de Agentes, seus Ambientes e apliCações, 2014, Porto Alegre / RS. WESAAC 2014. Porto Alegre / RS: PUCRS	GULARTE, A. ; MENDIZABAL, O. M. ; BARBOSA, R. M. ; ADAMATTI, D. F.		
resumoExpandidoEmCongresso	2014	Studying the conversion energy on different geometry configuration of current power turbines site	17 Physics of Estuaries and Coastal Seas (PECS) conference, 2014, Porto de Galinhas. Proceedings of the 17 Physics of Estuaries and Coastal Seas (PECS) conference. Porto de Galinhas	KIRINUS, E. P. ; MARQUES, W. C. ; PEZZATO, B. C. ; POESTER, V. R.		
resumoExpandidoEmCongresso	2014	Exploring the impact of sub-sea technology development on the Southern Brazilian Shelf	II Simpósisio em Computação e Automação para a Indústria Naval, Offshore e Subaquática, 2014, Rio Grande. NAVCOMP 2014	KIRINUS, E. P. ; TAVORA, J. B. P. ; Wiliam Correa Marques ; MATZENAUER, H. B. ; VIVAN, A. M. ; GANDRA, T. B. R.		
resumoExpandidoEmCongresso	2014	Análise de Influência de Parâmetros Construtivos na Volumetria de um Equipamento de Infusão Mecanizada	Mostra de Produção Universitária (MPU), 2014, Rio Grande. Anais da 13ª MPU. Rio Grande: FURG	MACEDO, F. J. ; BONOW, V. T. ; DOS SANTOS, E. D. ; SANTOS, F. B. dos ; MELLO, F. B. ; ISOLDI, L. A.		
resumoExpandidoEmCongresso	2014	Avaliação Numérica da Influência da Velocidade de Escoamento do Ar no Desempenho Térmico de um Trocador de Calor Solo-Ar	Mostra de Produção Universitária (MPU), 2014, Rio Grande. Anais da 13ª MPU. Rio Grande: FURG	MARZAROTTO, C. ; DOS SANTOS, E. D. ; RODRIGUES, M. K. ; L.A., ISOLDI		
resumoExpandidoEmCongresso	2014	Desenvolvendo o Raciocínio Lógico no Ensino Médio: uma proposta utilizando a ferramenta Scratch	Simpósio Brasileiro de Informática na Educação, 2014, Dourados, MS. Anais do Simpósio Brasileiro de Informática na Educação	MOTA, F. P. ; RIBEIRO, N. ; Emmendorfer, Leonardo Ramos ; BUTZEN, P. F. ; MACHADO, K. S. ; ADAMATTI, D. F.		
resumoExpandidoEmCongresso	2014	Otimização Geométrica de Canais em um Processo de Infusão por Resina	MPU - Mostra de Produção Universitária da FURG - Congresso de Iniciação Científica, 2014, Rio Grande. Anais da 13ª MPU	NARDI, M. G. ; Souza, Jeferson A. ; Isoldi, Liércio A. ; dos SANTOS, E. D.		
resumoExpandidoEmCongresso	2014	MODELAGEM COMPUTACIONAL APLICADA AO ESTUDO DE TROCADORES DE CALOR SOLO-AR COM CONFIGURAÇÃO GEOMÉTRICA COMPLEXA	Mostra de Produção Universitária (MPU), 2014, Rio Grande. Anais da 13ª MPU. Rio Grande: FURG	NUNES, B. R. ; FERRAZ, J. G. ; RODRIGUES, M. K. ; KIPPER, R. ; DOS SANTOS, E. D. ; ISOLDI, L. A.		
resumoExpandidoEmCongresso	2014	Numerical investigation of the Dynamics of a Pristine Coastal Lagoon Between Brazil and Uruguay - Mirim Lagoon	Physics of Estuaries and Coastal Seas - PECS 2014, 2014, Porto de Galinhas. Proceedings Physics of Estuaries and Coastal Seas - PECS 2014	OLIVEIRA, H. A. ; FERNANDES, E. H. L. ; MOLLER JR, O. O.		
resumoExpandidoEmCongresso	2014	Otimização de Arranjos Tubulares em Escoamento Externo com Convecção Forçada Utilizando Constructal Design	MPU - Mostra de Produção Universitária da FURG - Encontro de Pós-Graduação, 2014, Rio Grande. Anais da 13ª MPU	PEDROTTI, V. A. ; Souza, Jeferson A. ; dos SANTOS, E. D.		
resumoExpandidoEmCongresso	2014	MODELAGEM COMPUTACIONAL APLICADA À MELHORIA DO DESEMPENHO TÉRMICO DE TROCADOR DE CALOR SOLO-AR	Mostra de Produção Universitária (MPU), 2014, Rio Grande. Anais da 13ª MPU. Rio Grande: FURG	RODRIGUES, M. K. ; FERRAZ, J. G. ; NUNES, B. R. ; DOS SANTOS, E. D. ; ISOLDI, L. A.		
resumoExpandidoEmCongresso	2014	Investigação Numérica de uma Aleta Inserida em uma Cavidade Motriz com Convecção Forçada	Mostra de Produção Universitária (MPU), 2014, Rio Grande. Anais da 13ª MPU. Rio Grande: FURG	RODRIGUES, P. M. ; Isoldi, Liércio A. ; ROCHA, L. A. O. ; SOUZA, J. A. ; SANTOS, E. D.		
resumoExpandidoEmCongresso	2014	Trocas Sociais em Sistemas Multiagentes: Transferência de Confiança com Base na Reputação e na Relação de Dependência	Workshop-Escola de Sistemas de Agentes, seus Ambientes e apliCações, 2014, Porto Alegre / RS. WESAAC 2014. Porto Alegre / RS: PUCRS	ROJAS, Y. E. L. ; ADAMATTI, D. F. ; DIMURO, G. P.		
resumoExpandidoEmCongresso	2014	Modelagem Computacional de Conversores de Energia das Ondas do Mar em Energia Elétrica do Tipo Placa Submersa	Mostra de Produção Universitária (MPU), 2014, Rio Grande. Anais da 13ª MPU. Rio Grande: FURG	RUBIN, L. M. ; DOS SANTOS, E. D. ; L.A., ISOLDI		
resumoExpandidoEmCongresso	2014	Gráficos de Controle Fuzzy para Média e Amplitude: uma Alternativa para Trabalhar com Dados Imprecisos. In:	III Congresso Brasileiro de Sistemas Fuzzy, 2014, João Pessoa. Anais do III CBSF. João Pessoa	SILVESTRE, I. B. M. ; MATTOS, V. L. D. ; MACHADO, C. M. S.		
resumoExpandidoEmCongresso	2014	Valores crisp e valores fuzzy: um método de transformação e comparação entre os valores para a Característica Cor do Iogurte	Valores crisp e valores fuzzy: um método de transformação e comparação entre os valores para a Característica Cor do Iogurte., 2014, Natal. Anais do CNMAC, 2014	SILVESTRE, I. B. M. ; MATTOS, V. L. D. ; MACHADO, C. M. S.		
resumoExpandidoEmCongresso	2014	Gráficos de Controle fuzzy: Uma proposta para monitorar processos produtivos que dependem de dados imprecisos	Congresso Nacional de Matemática Aplicada e Computacional, 2014, Natal. Anais do CNMAC	SILVESTRE, I. B. M. ; MATTOS, V. L. D. ; MACHADO, C. M. S.		
resumoExpandidoEmCongresso	2014	Energias Renováveis: O Pontencial Energético do Gradiente Térmico na Plataforma Continental do Sul do Brasil	II Simpósisio em Computação e Automação para a Indústria Naval, Offshore e Subaquática, 2014, Rio Grande. NAVCOMP 2014	SOUZA, R. V. ; Wiliam Correa Marques		
resumoExpandidoEmCongresso	2014	Numerical Modeling of Small Scale processes on the Southern Brazilian Inner Shelf	17 Physics of Estuaries and Coastal Seas (PECS) conference, 2014, Porto de Galinhas. Proceedings of the 17 Physics of Estuaries and Coastal Seas (PECS) conference. Porto de Galinhas	STRINGARI, C. E. ; MARQUES, W. C.		
resumoExpandidoEmCongresso	2014	Análise Numérica do Comportamento Mecânico de Placas Perfuradas Submetidas à Flexão	Mostra de Produção Universitária (MPU), 2014, Rio Grande. Anais da 13ª MPU. Rio Grande: FURG	TROIAN, S. ; DA SILVA, C. C. C. ; L.A., ISOLDI ; REAL, M. V.		
resumoExpandidoEmCongresso	2014	Modelagem Computacional do Processo de RTM para a Fabricação de Hélices para Propulsão Naval	MPU - Mostra de Produção Universitária da FURG - Congresso de Iniciação Científica, 2014, Rio Grande. Anais da 13ª MPU	VARGAS, V. R. ; SOUZA, J. A. ; dos SANTOS, E. D. ; Isoldi, Liércio A.		
