ID_Lattes|MATRICULA|NOME|CH|mail|LP_1|PROGRAMA_1|CATEG_1|Periodo_Inicio_1|Periodo_Fim_1|Resp_prog|Resp_LP1
K4771897U5|99999|MILTON CESAR COSTA CAMPOS|40|UFAC@UFAC.br|UFAC|UFAC|P|2013|2016|UFAC|UFAC
K4708301H1|99999|CLARICE MAIA CARVALHO|40|UFAC@UFAC.br|UFAC|UFAC|P|2013|2016||
K4703905P7|99999|ROGERIO ANTONIO SARTORI|40|UFAC@UFAC.br|UFAC|UFAC|P|2013|2016||
K4774376A0|99999|VANIA CRISTINA RENNO AZEVEDO|40|UFAC@UFAC.br|UFAC|UFAC|P|2013|2016||
K4705021H5|99999|RENILDO MOURA DA CUNHA|40|UFAC@UFAC.br|UFAC|UFAC|P|2013|2016||
K4336077P6|99999|JOAO PAULO RIBEIRO DE OLIVEIRA|40|UFAC@UFAC.br|UFAC|UFAC|P|2013|2016||
K4761923P4|99999|ANTONIO GILSON GOMES MESQUITA|40|UFAC@UFAC.br|UFAC|UFAC|P|2013|2016||
K4253906A1|99999|TATIANA DE CAMPOS|40|UFAC@UFAC.br|UFAC|UFAC|P|2013|2016||
K4773196Z4|99999|FERNANDO SERGIO ESCOCIO DRUMONT VIANA DE FARIA|40|UFAC@UFAC.br|UFAC|UFAC|P|2013|2016||
K4762913A6|99999|PAULO CESAR POETA FIRMINO JR|40|UFAC@UFAC.br|UFAC|UFAC|P|2013|2016||
K4257687U3|99999|FABIO AUGUSTO GOMES|40|UFAC@UFAC.br|UFAC|UFAC|P|2013|2016||
K4775138Z6|99999|CARLOS EDUARDO GARCAO DE CARVALHO|40|UFAC@UFAC.br|UFAC|UFAC|P|2013|2016||
K4798295J9|99999|ANELISE MARIA REGIANI|40|UFAC@UFAC.br|UFAC|UFAC|P|2013|2016||
K4723972T1|99999|LUCIA HELENA DE OLIVEIRA WADT|40|UFAC@UFAC.br|UFAC|UFAC|P|2013|2016||
K4763637Z1|99999|ANSELMO FORTUNATO RUIZ RODRIGUEZ|40|UFAC@UFAC.br|UFAC|UFAC|P|2013|2016||
K4702749A7|99999|FREDERICO HENRIQUE DA SILVA COSTA|40|UFAC@UFAC.br|UFAC|UFAC|P|2013|2016||
K4373830T5|99999|ADRIANO ANTONIO SILVA|40|UFAC@UFAC.br|UFAC|UFAC|P|2013|2016||
K4723085T9|99999|PAULO GUILHERME SALVADOR WADT|40|UFAC@UFAC.br|UFAC|UFAC|P|2013|2016||
K4721982D2|99999|DELCIO DIAS MARQUES|40|UFAC@UFAC.br|UFAC|UFAC|P|2013|2016||
K4766772H1|99999|JOSIMAR BATISTA FERREIRA|40|UFAC@UFAC.br|UFAC|UFAC|P|2013|2016||
