artigoEmPeriodico	Leonidas Conceicao Barroso	2013		Hierarquia das cidades médias brasileiras: abordagem por meio de técnicas de agrupamento	E-xacta (Belo Horizonte)	MELLO, N. C. S. ; BARROSO, L. C.	B4	
artigoEmPeriodico	Leonidas Conceicao Barroso	2013		Análise Multivariada de dados no Tratamento da Informação Espacial: uma abordagem com Análise de Agrupamentos	Revista Iberoamericana de Sistemas, Cibernética e Informática	ALENCAR, B. J. ; BARROSO, L. C. ; ABREU, J. F.	B1	Revista Iberoamericana
artigoEmPeriodico	Leonidas Conceicao Barroso	2013		Tipologia e Hierarquização da Microrregião de Sete Lagoas	Revista da Casa da Geografia de Sobral (RCGS)	RIBEIRO, W. C. ; SOUZA, J. B. ; PAULO, G. L. ; BARROSO, L. C.	B4	
trabalhoCompletoEmCongresso	Leonidas Conceicao Barroso	2013		Estudo da Rede Rodoviária da Mesoregião do Vale do Mucuri-MG por meio de teoria dos Grafos	Décima Segunda Conferência Iberoamericana en Sistemas	BARROSO, L. C.; BARROSO, M. M. A.		
trabalhoCompletoEmCongresso	Leonidas Conceicao Barroso	2013		Análise Multivariada de Dados no tratamento da informação espacial: uma abordagem com análise de Agrupamentos	Décima Segunda Conferencia nIberoamericana en Sistemas	ALENCAR, B. J. ; BARROSO, L. C. ; ABREU, J. F.		
trabalhoCompletoEmCongresso	Leonidas Conceicao Barroso	2013		A geograficidade das migrações intermunicipais da microrregião de Montes Claros- censo demográfico de 2010	XI Seminário Cláudio Peres de Práticas de Ensino e Geografia Aplicada	FONSECA, G. S. ; PATTA, M. ; OLIVEIRA, R. I. C. ; BARROSO, L. C.		
trabalhoCompletoEmCongresso	Leonidas Conceicao Barroso	2013		A condição social de 'saber ler' dos migrantes da microrregião de Montes Claros	XI Seminário Cláudio Peres de Práticas de Ensino e Geografia Aplicada	PATTA, M. ; FONSECA, G. S. ; OLIVEIRA, R. I. C. ; BARROSO, L. C.		
trabalhoCompletoEmCongresso	Leonidas Conceicao Barroso	2013		O recebimento de bolsas de Programas Sociais ou Programa de erradicaçaõ do trabalho infantil da Microrregião de Montes Claros	XI Seminário Cláudio peres de Práticas de Ensino e geografia Aplicada	OLIVEIRA, R. I. C. ; PATTA, M. ; FONSECA, G. S. ; BARROSO, L. C.		
artigoEmPeriodico	Jorge Tadeu de Ramos Neves	2013		Contribuições da Inovação Aberta para uma Empresa de Comunicação	Revista Gestão &Tecnologia	SILVA, B. E. ; NEVES, J. T. R. ; VASCONCELOS, M. C. R. L. ; ARAUJO Carlos Alberto	B3	
artigoEmPeriodico	Jorge Tadeu de Ramos Neves	2013		Controle do Capital Intelectual: Um Modelo Aplicado a Gestão do Ativos do Conhecimento	Revista Iberoamericana de Estratégia	Ricardo Vinícius Dias Jordão ; Jorge Luís Pedreira Murteira Marques casas Novas ; Antônio Artur de Souza ; NEVES, J. T. R.	B2	
trabalhoCompletoEmCongresso	Joao Victor Boechat Gomide	2013		Cinematografia Digital e Efeitos Visuais	Avanca|Cinema 2013 International Conference Cinema Art	GOMIDE, J. V. B		
resumoExpandidoEmCongresso	Joao Victor Boechat Gomide	2013	AVALIAÇÃO DA COMUNICABILIDADE EM JOGOS DE DISPOSITIVOS MÓVEIS: um estudo da relevância dos signos em jogos Tower Defense	XII Simpósio Brasileiro de Jogos e Entretenimento Digital, 2013, São Paulo. Anais do Simpósio Brasileiro de Jogos e Entretenimento Digital - Trilha Arte e Design	ANDRADE, V. S. ; GOMIDE, J. V. B.		
artigoEmPeriodico	Marta Macedo Kerr Pinheiro	2013		Information System of Primary Care as a Power Tool	Revista de Enfermagem UFPE On Line	CAVALCANTE, R. B. ; KERR PINHEIRO, M.M. ; GUIMARAES, E. A. A.	B2	
artigoEmPeriodico	Marta Macedo Kerr Pinheiro	2013		Pirâmides do conhecimento: abordagens comparativas entre Ciência da Informação e Inteligência de Estado	Pesquisa Brasileira em Ciência da Informação e Biblioteconomia	MACIEL, R. F. C. ; KERR PINHEIRO, M.M.	Qualis nao identificado	Pesquisa Brasileira em Ciência da Informação e Biblioteconomia
artigoEmPeriodico	Marta Macedo Kerr Pinheiro	2013		INFORMATION SYSTEM OF PRIMARY CARE AS A POWER TOOL	Revista de Enfermagem UFPE On Line	CAVALCANTE, R. B. ; KERR PINHEIRO, M.M. ; GUIMARAES, E. A. A.	B2	
trabalhoCompletoEmCongresso	Marta Macedo Kerr Pinheiro	2013		Polarização do conhecimento na era da informação: o Vale do Silício como exemplo	XIV Encontro Nacional de Pesquisa em Ciência da Informação	MARQUES, R. M. ; KERR PINHEIRO, M.M.		
artigoEmPeriodico	Luiz Claudio Vieira de Oliveira	2013		DA GERÊNCIA PARA A DOCÊNCIA: METÁFORAS DO DISCURSO DE TRANSIÇÃO	REAd. Revista Eletrônica de Administração (Porto Alegre. Online)	OLIVEIRA, Luiz Claudio Vieira de; KLIMNIK, Z. M. ; OLIVEIRA, R. P.	B2	
artigoEmPeriodico	Luiz Claudio Vieira de Oliveira	2013		Consumer Behavior and E-commerce: Brazilian Case Study	International Journal of Business and Commerce	MUYLDER, C. F. ; DIAS, A. T. ; Cid Gonçalves Filho ; OLIVEIRA, Luiz Claudio Vieira de ; ALVES, C. R.	Qualis nao identificado	International Journal of Business and Commerce
trabalhoCompletoEmCongresso	Luiz Claudio Vieira de Oliveira	2013		Transition from university Teaching to entrepreneurship: context, script and images of career	THE CAREER CONSTRUCTION OF TEACHING STAFF IN A POST-DOCTORAL BUSINESS PROGRAM IN BRAZIL	BARROS, Delba Teixeira Rodrigues ; KILIMNIK, Z. M. ; OLIVEIRA, Luiz Claudio Vieira de		
trabalhoCompletoEmCongresso	Luiz Claudio Vieira de Oliveira	2013		CONSUMER BEHAVIOUR AND E-COMMERCE BRAZILIAN CASE STUDY	XV IAMB CONFERENCE	MUYLDER, C. F. ; DIAS, A. T. ; Cid Gonçalves Filho ; OLIVEIRA, Luiz Claudio Vieira de		
artigoEmPeriodico	Jose Marcos Carvalho de Mesquita	2013		Análise da decisão de compra de medicamentos frente a existência de produtos substitutos: um estudo no município de Belo Horizonte	Ciência e Saúde Coletiva (Impresso)	SILVA, C. V. E. ; LARA, J. E. ; MESQUITA, Jose Marcos Carvalho de	A2	
artigoEmPeriodico	Jose Marcos Carvalho de Mesquita	2013		O mercado de software aplicativo: estudo do comportamento do cliente corporativo	Perspectivas em Gestão & Conhecimento	MESQUITA, Jose Marcos Carvalho de; Gonçalves Filho, Cid ; Muylder, C F ; SOUKI, G. Q.	B1	
artigoEmPeriodico	Jose Marcos Carvalho de Mesquita	2013		Implantação do Prontuário Eletrônico de Paciente	RAHIS. Revista de Administração Hospitalar e Inovação em Saúde	CAMPARA, M. ; ALKIMIN, R. A. ; Muylder, C F ; DIAS, A. T. ; MESQUITA, Jose Marcos Carvalho de ; FALCE, J. L.	B3	
artigoEmPeriodico	Jose Marcos Carvalho de Mesquita	2013		Atributos Determinantes da Escolha de um Curso de Graduação Tecnológica	Revista Brasileira de Gestão e Engenharia	MACHADO, L. M. C. V. ; MESQUITA, JOSÉ MARCOS CARVALHO DE	Qualis nao identificado	Revista Brasileira de Gestão e Engenharia
trabalhoCompletoEmCongresso	Jose Marcos Carvalho de Mesquita	2013		The Relationship between Trust, Value and Loyalty in the Internet Era: a Study in the Tourism Market	Academy of Marketing Science Annual Conference	DORNAS, K. B. H. ; MESQUITA, Jose Marcos Carvalho de ; PATROCINIO, R. F.		
trabalhoCompletoEmCongresso	Jose Marcos Carvalho de Mesquita	2013		Word of Mouth Communication and its Effect on the Affective Commitment	Academy of Marketing Science Annual Conference	PATROCINIO, R. F. ; MESQUITA, Jose Marcos Carvalho de ; DORNAS, K. B. H.		
trabalhoCompletoEmCongresso	Jose Marcos Carvalho de Mesquita	2013		Evaluation of the Scale Consumer Styles Inventory (CSI): a Study with Adult Female Population of Minas Gerais State - Brazil	Academy of Marketing Conference 2013	OLIVEIRA, J. V. B. ; MESQUITA, Jose Marcos Carvalho de ; RODRIGUES, A. L. L. ; PEIXOTO, V. A. B.		
trabalhoCompletoEmCongresso	Jose Marcos Carvalho de Mesquita	2013		Analysis of the Organizational Corruption Effects for Shareholders Value	British Academy of Management Conference 2013	MESQUITA, Jose Marcos Carvalho de; MIARI, R. C. ; PARDINI, D. J.		
trabalhoCompletoEmCongresso	Jose Marcos Carvalho de Mesquita	2013		Redes Organizacionais, Capital Social e Desempenho: um Estudo no Setor de Cooperativas de Leite	XXXVII EnANPAD	TANA, W. ; MESQUITA, Jose Marcos Carvalho de		
trabalhoCompletoEmCongresso	Jose Marcos Carvalho de Mesquita	2013		Fatores de Influência na Adoção do Internet Banking por Clientes Bancários da Melhor Idade	XXXIII Encontro Nacional de Engenharia de Produção	RODRIGUES NETO, A. L. L. ; MESQUITA, Jose Marcos Carvalho de ; Muylder, C F		
trabalhoCompletoEmCongresso	Jose Marcos Carvalho de Mesquita	2013		ORIENTAÇÃO PARA O MERCADO E DESEMPENHO: UM ESTUDO EM EMPRESAS DE CONSTRUÇÃO CIVIL DE BELO HORIZONTE	8th Iberoamerican Academy Conference	PEIXOTO, V. A. B. ; MESQUITA, Jose Marcos Carvalho de		
trabalhoCompletoEmCongresso	Jose Marcos Carvalho de Mesquita	2013		Redes sociais como geradoras de capacidades nas cooperativas: um estudo do segmento lácteo mineiro	V Simpósio Nacional de Administração - SiNAd 2013	TANA, W. ; Caixeta, R. P. ; Costa Filho, Custodio Genesio ; TEIXEIRA, M. R. C. ; MESQUITA, Jose Marcos Carvalho de ; Fernandes, R. B.		
artigoEmPeriodico	Jersone Tasso Moreira Silva	2013		Infrastrucuture, Competitiveness and Determinants of Private Investment in the Brazilian Context	International Business Management	TADEU, H. F. B. ; SILVA, J. T. M. ; OLIVEIRA, C. A. A. ; BERGER, D.	B1	
artigoEmPeriodico	Jersone Tasso Moreira Silva	2013		Estimating Private Investment Functions for the Brazilian?s Capital Formation Industries: Evidence from the Panel Data and Fixed Effects? Models	African Journal of Business Management	SILVA, J. T. M.; TADEU, H. F. B. ; OLIVEIRA, C. A. A.	B1	
artigoEmPeriodico	Jersone Tasso Moreira Silva	2013		Does an Innovation Process Improve Organizational Performance? A Practical Approach for Identifying Opportunities	Global Journal of Management and Business (GJMBR)	SILVA, J. T. M.; SANTOS, M. A. P. C. ; TEIXEIRA, L. A. A. ; TADEU, H. F. B.	B3	
artigoEmPeriodico	Jersone Tasso Moreira Silva	2013		Critérios de escolha do consumidor: Um estudo dos valores buscados na fisioterapia dermato-funcional	Fisioterapia Brasil	CRUZ, L. B. ; TEIXEIRA, L. A. A. ; SILVA, J. T. M.	B2	
artigoEmPeriodico	Jersone Tasso Moreira Silva	2013		Segmentation Policies Using the Customer Equity Model and the Identification of Criteria for its Prioritization: A Study in a Brazilian Hypermarket	International Journal of Business and Commerce	TEIXEIRA, L. A. A. ; SILVA, J. T. M. ; FRANCA, L. G.	Qualis nao identificado	International Journal of Business and Commerce
artigoEmPeriodico	Jersone Tasso Moreira Silva	2013		Do enterprises? managers desire to have their employees with an intrapreneurship profile?	Asian Journal of Business and Management Sciences	TEIXEIRA, L. A. A. ; SILVA, J. T. M. ; LANA, B. M. H.	Qualis nao identificado	Asian Journal of Business and Management Sciences
artigoEmPeriodico	Jersone Tasso Moreira Silva	2013		Estimating Private Investment Functions for Brazilian Coke Production, Oil Refining, Nuclear Fuel Preparation and Alcohol Production	International Journal of Business and Commerce	SILVA, J. T. M.; TADEU, H. F. B.	Qualis nao identificado	International Journal of Business and Commerce
artigoEmPeriodico	Jersone Tasso Moreira Silva	2013		Determinants of Private and R	Business Management Dynamics	SILVA, J. T. M.; TADEU, H. F. B.	B2	
artigoEmPeriodico	Jersone Tasso Moreira Silva	2013		Determinants of Energy Investments in Brazil: an empyrical analysis of the period 1996-2011	Business Management Dynamics	TADEU, H. F. B. ; SILVA, J. T. M.	B2	
artigoEmPeriodico	Jersone Tasso Moreira Silva	2013	http://dx.doi.org/10.1016/S2077-1886(13)70025-8	The Determinants of the Long Term Private Investment in Brazil: An Empyrical Analysis Using Cross-section and a Monte Carlo Simulation	Journal of Economics, Finance and Administrative Science	SILVA, J. T. M.; TADEU, H. F. B.	Qualis nao identificado	Journal of Economics, Finance and Administrative Science
trabalhoCompletoEmCongresso	Jersone Tasso Moreira Silva	2013		Na Cidade Patrimônio Histórico e Cultural da Humanidade, Ouro Preto, a Percepção dos Dirigentes de Micro e Pequenas Empresas sobre a Formação de Estratégias e o Desempenho	XXXVII Encontro da ANPAD - EnANPAD 2013	MARTINS, H. C. ; SILVA, J. T. M. ; PASSOS, V. A. L.		
artigoEmPeriodico	Fabricio Ziviani	2013		Qualidade de Vida, Satisfação e Motivação do Trabalhador no Setor de Varejo	Revista de administração da Unimep	COSTA, C. A. ; SA, F. B. ; BENTO, K. G. R. ; ZIVIANI, F.	B3	
artigoEmPeriodico	Fabricio Ziviani	2013		Práticas de gestão do conhecimento: um estudo em organizações mineiras	Perspectivas em Gestão & Conhecimento	SA, F. B. ; BENTO, K. G. R. ; ZIVIANI, F. ; FERREIRA, M. A. T.	B1	
artigoEmPeriodico	Fabricio Ziviani	2013		FORMAÇÃO DO PREÇO DE VENDA NO SETOR CERAMISTA DE EMPRESAS ASSOCIADAS À ANICER E SINDICER-RO	FACEF Pesquisa	VIDIGAL FILHO, A. L. ; OLIVEIRA, J. L. R. ; CHRISTINO, J. M. M. ; ZIVIANI, F.	B3	
artigoEmPeriodico	Fabricio Ziviani	2013		Estudo sobre a importância da Capacitação do servidor Administrativo do Hospital das Clínicas da Universidade Federal de Goiás	RAHIS. Revista de Administração Hospitalar e Inovação em Saúde	BRITO, M. Y. ; ZIVIANI, F. ; OLIVEIRA, J. L. R. ; CHRISTINO, J. M. M.	B3	
artigoEmPeriodico	Fabricio Ziviani	2013		Barreiras e obstáculos à inovação no setor elétrico brasileiro: desafios e oportunidades	Revista Gestão e Tecnologia	ZIVIANI, F.; FERREIRA, M. A. T.	B3	Revista Gestão & Tecnologia
artigoEmPeriodico	Fabricio Ziviani	2013		O impacto dos sistemas ERP sobre as variáveis estratégicas organizacionais: um estudo junto às empresas da associação comercial e industrial de Ji-Paraná - RO	Revista de Administração e Negócios da Amazônia (Online)	CHRISTINO, J. M. M. ; KAISER, E. L. C. B. ; ZIVIANI, F. ; OLIVEIRA, J. L. R.	B4	
trabalhoCompletoEmCongresso	Fabricio Ziviani	2013		Aprendizagem Organizacional: Análise das Práticas Discursivas dos Líderes e Subordinados	XXXVII Encontro Nacional dos Programas de Pós-Graduação em Administração	ROTHERMEL, L. A. ; ZIVIANI, F. ; OLIVEIRA, J. L. R. ; CHRISTINO, J. M. M.		
trabalhoCompletoEmCongresso	Fabricio Ziviani	2013		Caracterização dos usuários assíduos do portal de periódicos da CAPES da UFMA	XIV Encontro Nacional de Pesquisa em Ciência da Informação (ENANCIB 2013)	MENDES, S. O. ; ZIVIANI, F. ; CHRISTINO, J. M. M. ; MAIA, L. C. G.		
trabalhoCompletoEmCongresso	Fabricio Ziviani	2013		Indicadores gerenciais de inovação para o setor elétrico brasileiro	XVI SEMEAD - Seminários em Administração FEA/USP	ZIVIANI, F.; FERREIRA, M. A. T.		
trabalhoCompletoEmCongresso	Fabricio Ziviani	2013		Avaliação da maturidade em gestão do conhecimento em organizações mineiras	3rd INTERNATIONAL CONGRESS OF KOWLEDGE AND INOVATION (ciKi)	ZIVIANI, F.; FERREIRA, M. A. T. ; SILVA, Sandro Marcio da		
trabalhoCompletoEmCongresso	Fabricio Ziviani	2013		A gestão do conhecimento no contexto amazônico: um estudo em cooperativas de crédito	3rd INTERNATIONAL CONGRESS OF KOWLEDGE AND INOVATION (ciKi)	BRITO, E. M. ; ZIVIANI, F. ; OLIVEIRA, J. L. R. ; CHRISTINO, J. M. M.		
trabalhoCompletoEmCongresso	Fabricio Ziviani	2013		Contribuições da gestão do conhecimento para as estratégias de sobrevivência e avanço dos negócios em uma empresa familiar de médio porte	II Simpósio Internacional de Gestão de Projetos (II SINGEP) Simpósio Internacional de Inovação e Sustentabilidade (I S2IS)	CARVALHO JUNIOR, M. V. ; VASCONCELOS, M. C. R. L. ; TAVARES, M. C. ; ZIVIANI, F.		
trabalhoCompletoEmCongresso	Fabricio Ziviani	2013		Práticas de gestão de inovação no setor elétrico brasileiro: a percepção dos gerentes de projetos de PD	XV Congresso de Gestão de Tecnologia Latino-Iberoamericano	ZIVIANI, F.; FERREIRA, M. A. T.		
artigoEmPeriodico	Daniel Jardim Pardini	2013		Os significados da virtualização do trabalho:manifestações discursivas das percepções tecnológicas, processuais e pessoais nas relações intraorganizacionais	Cadernos EBAPE.BR (FGV)	PARDINI, D. J.; GONÇALVES, C. A. ; PAIVA, A. M. M. ; DIAS, A. T.	B1	
artigoEmPeriodico	Daniel Jardim Pardini	2013		A Água - governança pública de recursos hídricos: manifestações dos stakeholders em Minas Gerais	REUNA (on line)	PARDINI, D. J.; GONÇALVES, C. A. ; CAMARGOS, L. M. M.	C	
trabalhoCompletoEmCongresso	Daniel Jardim Pardini	2013		Analysis of the Organizational Corruption Effects for Shareholders Value	British Academy of Management Conference 2013	MESQUITA, Jose Marcos Carvalho de; MIARI, R. C. ; PARDINI, D. J.		
resumoExpandidoEmCongresso	Daniel Jardim Pardini	2013	Intra and Interorganizational Learning: a functional trajectory perspective in related acquisitions	XXXVII Encontro da Anpad, 2013, Rio de Janeiro. Anais do XXXVII Encontro da Anpad	PARDINI, D. J.; CAMPOS, D. M. ; Renata Veloso Santos		
trabalhoCompletoEmCongresso	Ana Liddy Cenni de Castro Magalhães	2013		Laboratórios de Projetos da Engenharia de Sistemas da UFMG: aprender em novo contexto	Congresso Brasileiro de Educação em Engenharia	SANTOS, E. P. ; GUIMARAES, F. G. ; ADRIANO, R. L. ; MAGALHÃES, A. L. C. C. ; MORO, L. ; MORTIMER, E. F.		
trabalhoCompletoEmCongresso	Alair Dias Júnior	2013	http://dx.doi.org/10.1109/ISVLSI.2013.6654617	Using guiding heuristics to improve the dynamic checking of temporal properties in data dominated high-level designs	2013 IEEE Computer Society Annual Symposium on VLSI (ISVLSI)	JUNIOR, ALAIR DIAS; JUNIOR, DIOGENES C. DA SILVA		
artigoEmPeriodico	Luiz Claudio Gomes Maia	2013		Tecnologias da informação, mudança e administração pública	Datagramazero (Rio de Janeiro)	MOREIRA, A. ; MAIA, L. C. G.	B1	
artigoEmPeriodico	Luiz Claudio Gomes Maia	2013	http://dx.doi.org/10.5007/1518-2924.2013v18n36p181	Gestão da informação em bibliotecas universitárias: as práticas do Sistema de Bibliotecas da Universidade Federal de Goiás (Sibi/UFG)	Encontros Bibli	FERREIRA, LUCIANA ALVES ; Maia, Luiz Cláudio Gomes	B1	
trabalhoCompletoEmCongresso	Luiz Claudio Gomes Maia	2013		Caracterização dos usuários assíduos do portal de periódicos da Capes da UFMA	XIV Encontro Nacional de Pesquisa em Ciência da Informação (ENANCIB 2013)	MENDES, S. O. ; ZIVIANI, F. ; CHRISTINO, J. M. M. ; MAIA, L. C. G.		
artigoEmPeriodico	Cristiana Fernandes De Muylder	2013		CICLO DE VIDA, SUCESSÃO E PROCESSO DE GOVERNANÇA EM UMA EMPRESA FAMILIAR: UM ESTUDO DE CASO NO GRUPO SECULUS	REAd. Revista Eletrônica de Administração (Porto Alegre. Online)	LIMA, V. L. C. ; LIMA, J. B. ; DE MUYLDER, C. F. ; CASTANHEIRA, R. B.	B2	
artigoEmPeriodico	Cristiana Fernandes De Muylder	2013	http://dx.doi.org/10.5902/198346596327	Configuração das Imagens Ideativas, Planejamento e Redução de Riscos: a implantação do Sistema ERP em um a Instituição Pública de Ensino	Revista de Administração da UFSM	MARTINS, H. C. ; MARTINS, M. D. ; DE MUYLDER, C. F. ; GONÇALVES, C. A. ; DIAS, A. T.	B3	
artigoEmPeriodico	Cristiana Fernandes De Muylder	2013	http://dx.doi.org/10.13037/gr.vol29n85.1580	Estudo do Comportamento de Compra dos Graduandos em Administração do CEFET-MG	Gestão & Regionalidade	DE MUYLDER, C. F.; LA FALCE, Jefferson ; RABELO, C. A.	B3	
artigoEmPeriodico	Cristiana Fernandes De Muylder	2013	http://dx.doi.org/10.5007/2175-8077.2013v15n37p82	É Possível Ensinar Empreendedorismo? Análise Comparativa com Estudantes Brasileiros	Revista de Ciências da Administração	DE MUYLDER, C. F.; DIAS, A. T. ; OLIVEIRA, C. L. S.	B3	
artigoEmPeriodico	Cristiana Fernandes De Muylder	2013		Consumer Behavior and E-commerce: Brazilian Case Study	International Journal of Business and Commerce	MUYLDER, C. F. ; DIAS, A. T. ; Cid Gonçalves Filho ; OLIVEIRA, Luiz Claudio Vieira de ; ALVES, C. R.	Qualis nao identificado	International Journal of Business and Commerce
artigoEmPeriodico	Cristiana Fernandes De Muylder	2013		O mercado de software aplicativo: estudo do comportamento do cliente corporativo	Perspectivas em Gestão & Conhecimento	MESQUITA, J. M. C. ; GONCALVES FILHO, C. ; SOUKI, Gustavo Quiroga ; DE MUYLDER, Cristiana Fernandes	B1	
artigoEmPeriodico	Cristiana Fernandes De Muylder	2013		Sistema de Informação e Inovação em Órgão Público de Minas Gerais: Sistema de Autorização de Impressão de Documentos Fiscais	Teoria e Pratica em Administracao	DE MUYLDER, Cristiana Fernandes; NICHOLLS, J. ; LA FALCE, Jefferson ; MARTINS, H. C. ; DIAS, A. T.	B3	
artigoEmPeriodico	Cristiana Fernandes De Muylder	2013	http://dx.doi.org/10.5752/p.1984-6606.2013v13n33p73	Comprometimento Organizacional: comparando servidores e terceirizados de uma fundação pública de pesquisa em saúde DOI - 10.5752/P.1984-6606.2013v13n33p73	Revista Economia & Gestão	PAIVA, K. C. M. ; LA FALCE, Jefferson ; DE MUYLDER, Cristiana Fernandes	B2	
artigoEmPeriodico	Cristiana Fernandes De Muylder	2013		A influência do perfil empreendedor na gestão de uma instituição de ensino.	Amazônia, Organizações e Sustentabilidade	DE MUYLDER, Cristiana Fernandes; LA FALCE, Jefferson ; PIRES, A. M.	B4	
artigoEmPeriodico	Cristiana Fernandes De Muylder	2013		Los Impactos de Business Intelligence en Gestión Del Área Comercial de Empresas del Sector de Comunicación de Minas Gerais	Ciencias de la Información (Online)	DE MUYLDER, Cristiana Fernandes; LA FALCE, Jefferson ; GOMES, S. A. R.	Qualis nao identificado	Ciencias de la Información (Online)
artigoEmPeriodico	Cristiana Fernandes De Muylder	2013		Implantação do Prontuário Eletrônico de Paciente	RAHIS. Revista de Administração Hospitalar e Inovação em Saúde	CAMPARA, M. ; DE MUYLDER, Cristiana Fernandes ; ALKIMIN, R. A. ; DIAS, A. T. ; MESQUITA, J. M. C. ; LA FALCE, Jefferson	B3	
artigoEmPeriodico	Cristiana Fernandes De Muylder	2013		INOVAÇÃO, QUALIDADE EM SERVIÇOS E EMPREENDEDORISMO: ANALISE DE UMA EMPRESA FRANQUEADA DO SETOR DE VAREJO NO RAMO DA MODA	Gestao e Planejamento	LA FALCE, Jefferson ; DE MUYLDER, Cristiana Fernandes	B3	
trabalhoCompletoEmCongresso	Cristiana Fernandes De Muylder	2013		Sistema de Informação e Inovação em Órgão Público de Minas Gerais: Sistema de Autorização de Impressão de Documentos Fiscais	IV Encontro de Administração da Informação ? EnADI	DE MUYLDER, C. F.; NICHOLLS, J. ; LA FALCE, Jefferson ; MARTINS, H. C. ; DIAS, A. T.		
trabalhoCompletoEmCongresso	Cristiana Fernandes De Muylder	2013		Is it possible to teach entrepreneurship? Comparative analysis with Brazilian students	15th IAMB Conference will be held at ISEG	DE MUYLDER, C. F.; DIAS, A. T. ; GONÇALVES, C. A.		
trabalhoCompletoEmCongresso	Cristiana Fernandes De Muylder	2013		CONSUMER BEHAVIOUR AND E-COMMERCE BRAZILIAN CASE STUDY	15th IAMB Conference	MUYLDER, C. F. ; DIAS, A. T. ; Cid Gonçalves Filho ; OLIVEIRA, Luiz Claudio Vieira de		
trabalhoCompletoEmCongresso	Cristiana Fernandes De Muylder	2013		PRÁTICAS SOCIOAMBIENTAIS NO FOMENTO DA RELAÇÃO MODA CONSUMO - SUSTENTABILIDADE: ESTUDO DE CASOS MÚLTIPLOS EM EMPRESAS MINEIRAS DE MODA	XVI Simpósio de Administração da Produção	CHIARETTO, S. ; MARTINS, H. C. ; DE MUYLDER, C. F.		
trabalhoCompletoEmCongresso	Cristiana Fernandes De Muylder	2013		Gestão do conhecimento e alinhamento estratégico da tecnologia da informação na percepção dos gestores de uma emrpesa do setor farmacêutico	XXXIII Encontro Nacional de Engenharia de Produção	CAMARGO, J. C. ; DE MUYLDER, C. F.		
trabalhoCompletoEmCongresso	Cristiana Fernandes De Muylder	2013		BE CONSUMED OR NOT: THE QUESTION OF RELATIONS BETWEEN CONSUMER POPULATION AND TOURIST TOWN OF LAVRAS NOVAS - MG	TMS ALGARVE 2013 ?TOURISM MANAGEMENT STUDIES INTERNATIONAL CONFERENCE	RODRIGUES, V. B. ; JEUNON, E. E. ; DE MUYLDER, C. F. ; LA FALCE, Jefferson ; PAIVA, K. C. M.		
trabalhoCompletoEmCongresso	Cristiana Fernandes De Muylder	2013		Aprendizagem com mobilidade: aceitação no uso de dispositivos móveis	Convibra 2013	DINIZ, J. C. ; DE MUYLDER, Cristiana Fernandes		
resumoExpandidoEmCongresso	Cristiana Fernandes De Muylder	2013	Práticas da gestão do conhecimento nas IES de MG: um estudo baseado nos resultados do ENADE	Convibra 2013, 2013. Conference Proceedings	COSTA, H. F. A. ; DE MUYLDER, Cristiana Fernandes		
artigoEmPeriodico	Rodrigo Moreno Marques	2013		Contradictions of a knowledge intensive economy. Interview with Michael Perelman, Professor at California State University	Perspectivas em Ciência da Informação (Online)	MARQUES, R. M.; PERELMAN, M.	B1	
trabalhoCompletoEmCongresso	Rodrigo Moreno Marques	2013		Polarização do conhecimento na era da informação: o Vale do Silício como exemplo	XIV Encontro Nacional de Pesquisa em Ciência da Informação - Enancib	MARQUES, R. M.; KERR PINHEIRO, M. M.		
