strict graph grafo1 {
	graph [bb="0,0,1506,179",
		id=grafo1,
		overlap=False
	];
	node [fontsize=8,
		label="\N",
		shape=rectangle,
		style=filled
	];
	0	 [URL="http://lattes.cnpq.br/8770932409623222",
		color="#17272B",
		fontcolor="#FFFFFF",
		height=0.23611,
		label="Juliana De Conto [0]",
		pos="41.5,170.5",
		width=1.1528];
	1	 [URL="http://lattes.cnpq.br/7514178774795860",
		color="#17272B",
		fontcolor="#FFFFFF",
		height=0.23611,
		label="Jose S. de Paula Pinto [1]",
		pos="150.5,170.5",
		width=1.3611];
	4	 [URL="http://lattes.cnpq.br/1767196615552654",
		color="#17272B",
		fontcolor="#FFFFFF",
		height=0.23611,
		label="Egon Walter Wildauer [5]",
		pos="211.5,116.5",
		width=1.3889];
	1 -- 4	 [pos="159.5,161.83 171.03,152 190.91,135.05 202.46,125.2"];
	8	 [URL="http://lattes.cnpq.br/8265885406314576",
		color="#17272B",
		fontcolor="#FFFFFF",
		height=0.23611,
		label="Denise Fukumi Tsunoda [3]",
		pos="211.5,62.5",
		width=1.4722];
	4 -- 8	 [pos="211.5,107.83 211.5,97.996 211.5,81.051 211.5,71.204"];
	13	 [URL="http://lattes.cnpq.br/4445534055001103",
		color="#17272B",
		fontcolor="#FFFFFF",
		height=0.23611,
		label="Patricia Zeni Marchiori [1]",
		pos="211.5,8.5",
		width=1.4306];
	8 -- 13	 [pos="211.5,53.827 211.5,43.996 211.5,27.051 211.5,17.204"];
	2	 [URL="http://lattes.cnpq.br/1216712773575109",
		color="#17272B",
		fontcolor="#FFFFFF",
		height=0.23611,
		label="Helena de F. Nunes Silva [3]",
		pos="272.5,170.5",
		width=1.5139];
	2 -- 4	 [pos="263.5,161.83 251.97,152 232.09,135.05 220.54,125.2"];
	15	 [URL="http://lattes.cnpq.br/1740734674821323",
		color="#17272B",
		fontcolor="#FFFFFF",
		height=0.23611,
		label="Maria do C. Duarte Freitas [6]",
		pos="399.5,116.5",
		width=1.5833];
	2 -- 15	 [pos="290.97,161.94 315.05,152.08 356.92,134.93 381.01,125.07"];
	3	 [URL="http://lattes.cnpq.br/4240755341639061",
		color="#17272B",
		fontcolor="#FFFFFF",
		height=0.23611,
		label="Glauco Gomes de Menezes [0]",
		pos="651.5,170.5",
		width=1.6111];
	5	 [URL="http://lattes.cnpq.br/2435628775717990",
		color="#17272B",
		fontcolor="#FFFFFF",
		height=0.23611,
		label="Edson R. Guarido Filho [0]",
		pos="779.5,170.5",
		width=1.4444];
	6	 [URL="http://lattes.cnpq.br/4196064047953730",
		color="#17272B",
		fontcolor="#FFFFFF",
		height=0.23611,
		label="Edelvino Razzolini Filho [1]",
		pos="399.5,170.5",
		width=1.5];
	6 -- 15	 [pos="399.5,161.83 399.5,152 399.5,135.05 399.5,125.2"];
	7	 [URL="http://lattes.cnpq.br/6573466767454891",
		color="#17272B",
		fontcolor="#FFFFFF",
		height=0.23611,
		label="Denise M. Woranovicz Carvalho [0]",
		pos="916.5,170.5",
		width=1.8611];
	9	 [URL="http://lattes.cnpq.br/5213592913330383",
		color="#17272B",
		fontcolor="#FFFFFF",
		height=0.23611,
		label="Déborah Carvalho Ribeiro [0]",
		pos="1058.5,170.5",
		width=1.5694];
	10	 [URL="http://lattes.cnpq.br/6091643712340626",
		color="#17272B",
		fontcolor="#FFFFFF",
		height=0.23611,
		label="Vera Karam de Chueiri [0]",
		pos="1184.5,170.5",
		width=1.4306];
	11	 [URL="http://lattes.cnpq.br/8651113987192195",
		color="#17272B",
		fontcolor="#FFFFFF",
		height=0.23611,
		label="Cicero Aparecido Bezerra [0]",
		pos="1309.5,170.5",
		width=1.5417];
	12	 [URL="http://lattes.cnpq.br/7731274767187515",
		color="#17272B",
		fontcolor="#FFFFFF",
		height=0.23611,
		label="Celso Yoshikazu Ishida [4]",
		pos="523.5,170.5",
		width=1.4444];
	12 -- 15	 [pos="505.47,161.94 481.96,152.08 441.07,134.93 417.55,125.07"];
	14	 [URL="http://lattes.cnpq.br/4743367964787153",
		color="#17272B",
		fontcolor="#FFFFFF",
		height=0.23611,
		label="Newton C. de Castilho Junior [0]",
		pos="1444.5,170.5",
		width=1.7083];
}
