strict graph grafo2 {
	graph [bb="0,0,3389,425",
		id=grafo2,
		overlap=False
	];
	node [fontsize=8,
		label="\N",
		shape=rectangle,
		style=filled
	];
	0	 [URL="http://lattes.cnpq.br/8929629898766359",
		color="#17272B",
		fontcolor="#FFFFFF",
		height=0.23611,
		label="Luísa A. Gachet Barbosa [31]",
		pos="171,208.5",
		width=1.5556];
	3	 [URL="http://lattes.cnpq.br/7149846081415916",
		color="#17272B",
		fontcolor="#FFFFFF",
		height=0.23611,
		label="Lubienska C. L. Jaquiê Ribeiro [13]",
		pos="263,144.5",
		width=1.8333];
	0 -- 3	 [fontsize=8,
		label=6.0,
		lp="228.5,176.5",
		pos="182.28,199.9 199.94,188 233.91,165.1 251.63,153.16"];
	27	 [URL="http://lattes.cnpq.br/8266551989579822",
		color="#17272B",
		fontcolor="#FFFFFF",
		height=0.23611,
		label="Marta S. Guilherme Pires [7]",
		pos="521,72.5",
		width=1.5278];
	0 -- 27	 [fontsize=8,
		label=2.0,
		lp="395.5,144.5",
		pos="198.41,199.99 247.34,186.2 352.48,154.8 437,117.5 462.75,106.13 491.58,90.32 507.89,81.072"];
	47	 [URL="http://lattes.cnpq.br/9757080572695495",
		color="#17272B",
		fontcolor="#FFFFFF",
		height=0.23611,
		label="Wislei R. Ramos Osorio [1]",
		pos="53,108.5",
		width=1.4722];
	0 -- 47	 [fontsize=8,
		label=1.0,
		lp="109.5,176.5",
		pos="140.7,199.9 128.46,195.82 114.72,189.86 104,181.5 80.808,163.41 63.716,131.96 56.62,117.36"];
	52	 [URL="http://lattes.cnpq.br/3986122703645318",
		color="#17272B",
		fontcolor="#FFFFFF",
		height=0.23611,
		label="Rosa C. Cecche Lintz [33]",
		pos="175,8.5",
		width=1.4167];
	0 -- 52	 [fontsize=8,
		label=31.0,
		lp="178.5,108.5",
		pos="170.94,199.74 170.74,176.42 170.18,104.84 170,45.5 169.99,41.056 169.58,39.924 170,35.5 170.59,29.277 171.97,22.328 173.12,17.181"];
	3 -- 27	 [fontsize=8,
		label=5.0,
		lp="427.5,108.5",
		pos="291.45,135.91 310.79,130.75 336.94,123.74 360,117.5 406.99,104.78 461.64,89.807 493.66,81.015"];
	3 -- 52	 [fontsize=8,
		label=7.0,
		lp="189.5,72.5",
		pos="247.18,135.94 228.64,126.17 198.59,107.3 184,81.5 172.21,60.668 172.97,31.098 174.14,17.235"];
	5	 [URL="http://lattes.cnpq.br/5571022514393377",
		color="#17272B",
		fontcolor="#FFFFFF",
		height=0.23611,
		label="Jose G. Pena de Andrade [1]",
		pos="394,72.5",
		width=1.5];
	3 -- 5	 [fontsize=8,
		label=1.0,
		lp="350.5,108.5",
		pos="277.27,135.88 302.47,122.41 354.56,94.573 379.75,81.115"];
	53	 [URL="http://lattes.cnpq.br/7525387214456841",
		color="#17272B",
		fontcolor="#FFFFFF",
		height=0.23611,
		label="Ronalton Evandro Machado [1]",
		pos="263,72.5",
		width=1.6389];
	3 -- 53	 [fontsize=8,
		label=1.0,
		lp="268.5,108.5",
		pos="263,135.74 263,122.21 263,94.481 263,81.081"];
	27 -- 52	 [fontsize=8,
		label=2.0,
		lp="374.5,40.5",
		pos="478.92,63.96 412.37,52.035 283.59,28.958 217.06,17.036"];
	41	 [URL="http://lattes.cnpq.br/7466715243528129",
		color="#17272B",
		fontcolor="#FFFFFF",
		height=0.23611,
		label="Gisleiva C. d. Santos Ferreira [4]",
		pos="610,8.5",
		width=1.6944];
	27 -- 41	 [fontsize=8,
		label=2.0,
		lp="577.5,40.5",
		pos="531.91,63.729 542.22,56.406 558.12,45.149 572,35.5 580.93,29.296 591.09,22.346 598.66,17.193"];
	47 -- 52	 [fontsize=8,
		label=1.0,
		lp="90.5,72.5",
		pos="57.904,99.77 67.37,85.386 89.491,54.272 115,35.5 125.79,27.56 139.38,21.416 150.9,17.099"];
	1	 [URL="http://lattes.cnpq.br/9412302739552855",
		color="#17272B",
		fontcolor="#FFFFFF",
		height=0.23611,
		label="Luís Fernando de Ávila [0]",
		pos="2263,416.5",
		width=1.4444];
	2	 [URL="http://lattes.cnpq.br/7266558656801036",
		color="#17272B",
		fontcolor="#FFFFFF",
		height=0.23611,
		label="Luis A. Angelotti Meira [1]",
		pos="774,208.5",
		width=1.4583];
	40	 [URL="http://lattes.cnpq.br/0597865875425201",
		color="#17272B",
		fontcolor="#FFFFFF",
		height=0.23611,
		label="Guilherme Palermo Coelho [4]",
		pos="843,144.5",
		width=1.6111];
	2 -- 40	 [fontsize=8,
		label=1.0,
		lp="818.5,176.5",
		pos="782.46,199.9 795.7,188 821.18,165.1 834.47,153.16"];
	50	 [URL="http://lattes.cnpq.br/5530984461673946",
		color="#17272B",
		fontcolor="#FFFFFF",
		height=0.23611,
		label="Simone Andréa Pozza [7]",
		pos="929,8.5",
		width=1.375];
	40 -- 50	 [fontsize=8,
		label=2.0,
		lp="898.5,72.5",
		pos="847.87,135.91 863.01,112.33 909.12,40.477 924.18,17.005"];
	4	 [URL="http://lattes.cnpq.br/0847386182199613",
		color="#17272B",
		fontcolor="#FFFFFF",
		height=0.23611,
		label="Leonardo L. Bravo Roger [3]",
		pos="1819,352.5",
		width=1.5278];
	24	 [URL="http://lattes.cnpq.br/6970261362941505",
		color="#17272B",
		fontcolor="#FFFFFF",
		height=0.23611,
		label="Paulo S. Martins Pedro [17]",
		pos="1253,280.5",
		width=1.4722];
	4 -- 24	 [fontsize=8,
		label=2.0,
		lp="1648.5,316.5",
		pos="1767,343.99 1731.9,338.89 1684.7,331.93 1643,325.5 1593.2,317.82 1581,313.65 1531,307.5 1437.6,296.02 1413.6,299.08 1320,289.5 1315.5,\
289.03 1310.7,288.53 1306,288"];
	38	 [URL="http://lattes.cnpq.br/0497424493730558",
		color="#17272B",
		fontcolor="#FFFFFF",
		height=0.23611,
		label="Marcos Sergio Goncalves [4]",
		pos="1771,208.5",
		width=1.5278];
	4 -- 38	 [fontsize=8,
		label=2.0,
		lp="1802.5,280.5",
		pos="1816.4,343.87 1808.1,319.21 1781.9,241.88 1773.6,217.17"];
	44	 [URL="http://lattes.cnpq.br/2324929401155175",
		color="#17272B",
		fontcolor="#FFFFFF",
		height=0.23611,
		label="Francisco José Arnold [12]",
		pos="1644,144.5",
		width=1.4306];
	4 -- 44	 [fontsize=8,
		label=2.0,
		lp="1854.5,244.5",
		pos="1823.1,343.89 1835.4,319.87 1869.1,244.57 1835,199.5 1818.2,177.24 1746.1,161.53 1695.5,152.99"];
	49	 [URL="http://lattes.cnpq.br/8764055579040640",
		color="#17272B",
		fontcolor="#FFFFFF",
		height=0.23611,
		label="Talía S. d. Santos Ximenes [5]",
		pos="1644,72.5",
		width=1.5833];
	4 -- 49	 [fontsize=8,
		label=1.0,
		lp="1911.5,208.5",
		pos="1842.8,343.92 1868.5,334.04 1906,314.07 1906,281.5 1906,281.5 1906,281.5 1906,143.5 1906,101.42 1778.3,83.977 1701.2,77.28"];
	24 -- 38	 [fontsize=8,
		label=2.0,
		lp="1609.5,244.5",
		pos="1306,273.02 1310.7,272.49 1315.5,271.97 1320,271.5 1409.2,262.18 1432.3,267.03 1521,253.5 1558.3,247.81 1566.9,242.41 1604,235.5 \
1641.8,228.47 1684.6,221.82 1717.5,217.01"];
	24 -- 44	 [fontsize=8,
		label=2.0,
		lp="1534.5,208.5",
		pos="1285.9,271.91 1342.3,258.76 1454.9,231.76 1493,217.5 1509.8,211.23 1512.9,207.3 1529,199.5 1563.9,182.57 1605.2,163.39 1627.6,153.06"];
	33	 [URL="http://lattes.cnpq.br/9070607576528017",
		color="#17272B",
		fontcolor="#FFFFFF",
		height=0.23611,
		label="Ana E. Antunes da Silva [5]",
		pos="898,208.5",
		width=1.4861];
	24 -- 33	 [fontsize=8,
		label=1.0,
		lp="1097.5,244.5",
		pos="1199.6,277.58 1167.3,274.82 1126,268.36 1092,253.5 1080.1,248.3 1080.9,240.64 1069,235.5 1058.3,230.87 997.49,222.27 951.41,216.24"];
	42	 [URL="http://lattes.cnpq.br/0016546400683999",
		color="#17272B",
		fontcolor="#FFFFFF",
		height=0.23611,
		label="Gisele Busichia Baioco [6]",
		pos="1027,144.5",
		width=1.4306];
	24 -- 42	 [fontsize=8,
		label=1.0,
		lp="1242.5,208.5",
		pos="1252.6,271.62 1251.3,255.61 1246.1,219.16 1225,199.5 1185.2,162.45 1122.6,150.38 1078.4,146.68"];
	35	 [URL="http://lattes.cnpq.br/1913450752136533",
		color="#17272B",
		fontcolor="#FFFFFF",
		height=0.23611,
		label="Ieda Geriberto Hidalgo [3]",
		pos="1600,208.5",
		width=1.4167];
	24 -- 35	 [fontsize=8,
		label=1.0,
		lp="1511.5,244.5",
		pos="1306.3,272.48 1350.4,266.55 1409.5,258.28 1433,253.5 1484,243.14 1542.6,226.61 1575,217.04"];
	48	 [URL="http://lattes.cnpq.br/7138726557754661",
		color="#17272B",
		fontcolor="#FFFFFF",
		height=0.23611,
		label="Varese Salvador Timoteo [5]",
		pos="1337,208.5",
		width=1.5278];
	24 -- 48	 [fontsize=8,
		label=2.0,
		lp="1309.5,244.5",
		pos="1262.3,271.74 1278.5,258.21 1311.8,230.48 1327.9,217.08"];
	30	 [URL="http://lattes.cnpq.br/6366443994619479",
		color="#17272B",
		fontcolor="#FFFFFF",
		height=0.23611,
		label="Marco A. Garcia de Carvalho [2]",
		pos="1155,208.5",
		width=1.7083];
	24 -- 30	 [fontsize=8,
		label=2.0,
		lp="1220.5,244.5",
		pos="1242.1,271.74 1223.2,258.21 1184.4,230.48 1165.6,217.08"];
	38 -- 44	 [fontsize=8,
		label=4.0,
		lp="1725.5,176.5",
		pos="1756.9,199.99 1742.8,192.57 1720.6,180.98 1701,171.5 1687.7,165.05 1672.4,158.11 1661.1,153.03"];
	38 -- 49	 [fontsize=8,
		label=1.0,
		lp="1725.5,144.5",
		pos="1764,199.89 1751.9,186.7 1726.1,158.78 1704,135.5 1685.2,115.73 1662.8,92.731 1651.4,81.09"];
	44 -- 49	 [fontsize=8,
		label=4.0,
		lp="1649.5,108.5",
		pos="1644,135.74 1644,122.21 1644,94.481 1644,81.081"];
	49 -- 50	 [fontsize=8,
		label=1.0,
		lp="1423.5,40.5",
		pos="1586.9,64.354 1522.4,56.465 1414.3,43.789 1321,35.5 1197.9,24.56 1052.6,16.078 978.25,12.057"];
	33 -- 40	 [fontsize=8,
		label=2.0,
		lp="878.5,176.5",
		pos="891.26,199.9 880.7,188 860.39,165.1 849.8,153.16"];
	33 -- 50	 [fontsize=8,
		label=1.0,
		lp="923.5,108.5",
		pos="899.92,199.85 902.49,189.43 907.06,170.14 910,153.5 919.17,101.6 926.03,38.465 928.24,17.031"];
	33 -- 42	 [fontsize=8,
		label=2.0,
		lp="968.5,176.5",
		pos="910.71,199.86 923.64,192.24 944.38,180.4 963,171.5 977.28,164.67 993.85,157.97 1006.6,153.09"];
	35 -- 44	 [fontsize=8,
		label=1.0,
		lp="1629.5,176.5",
		pos="1605.4,199.9 1613.8,188 1630.1,165.1 1638.6,153.16"];
	48 -- 50	 [fontsize=8,
		label=1.0,
		lp="1152.5,108.5",
		pos="1321.5,199.98 1256.9,168.62 1009.2,48.405 944.51,17.028"];
	6	 [URL="http://lattes.cnpq.br/5495322642019035",
		color="#17272B",
		fontcolor="#FFFFFF",
		height=0.23611,
		label="Vitor Rafael Coluci [2]",
		pos="2381,352.5",
		width=1.2639];
	13	 [URL="http://lattes.cnpq.br/4898006494427762",
		color="#17272B",
		fontcolor="#FFFFFF",
		height=0.23611,
		label="Diego S. Teodoro Martinez [3]",
		pos="2337,280.5",
		width=1.6111];
	6 -- 13	 [fontsize=8,
		label=1.0,
		lp="2369.5,316.5",
		pos="2376.1,343.74 2367.6,330.21 2350.2,302.48 2341.8,289.08"];
	43	 [URL="http://lattes.cnpq.br/9246879554920774",
		color="#17272B",
		fontcolor="#FFFFFF",
		height=0.23611,
		label="Gisela de Aragão Umbuzeiro [29]",
		pos="2431,208.5",
		width=1.7361];
	6 -- 43	 [fontsize=8,
		label=2.0,
		lp="2414.5,280.5",
		pos="2383.9,343.89 2388.3,332.22 2397,309.2 2404,289.5 2413.4,262.97 2423.9,231.24 2428.5,217.03"];
	13 -- 43	 [fontsize=8,
		label=3.0,
		lp="2400.5,244.5",
		pos="2347.4,271.74 2365.6,258.21 2402.8,230.48 2420.8,217.08"];
	45	 [URL="http://lattes.cnpq.br/2493281934291188",
		color="#17272B",
		fontcolor="#FFFFFF",
		height=0.23611,
		label="Enelton Fagnani [3]",
		pos="2651,144.5",
		width=1.1111];
	43 -- 45	 [fontsize=8,
		label=1.0,
		lp="2559.5,176.5",
		pos="2458,199.9 2500.3,187.97 2581.9,164.98 2624.1,153.07"];
	46	 [URL="http://lattes.cnpq.br/0957577806208187",
		color="#17272B",
		fontcolor="#FFFFFF",
		height=0.23611,
		label="Nelma de M. Silva Oliveira [1]",
		pos="2431,144.5",
		width=1.6111];
	43 -- 46	 [fontsize=8,
		label=1.0,
		lp="2436.5,176.5",
		pos="2431,199.9 2431,188 2431,165.1 2431,153.16"];
	7	 [URL="http://lattes.cnpq.br/9237052618243015",
		color="#17272B",
		fontcolor="#FFFFFF",
		height=0.23611,
		label="Carolina S. Franco Picone [1]",
		pos="2755,280.5",
		width=1.5556];
	21	 [URL="http://lattes.cnpq.br/8810347636088336",
		color="#17272B",
		fontcolor="#FFFFFF",
		height=0.23611,
		label="Renato Falcão Dantas [3]",
		pos="2729,208.5",
		width=1.3611];
	7 -- 21	 [fontsize=8,
		label=1.0,
		lp="2750.5,244.5",
		pos="2752.1,271.74 2747.1,258.21 2736.8,230.48 2731.8,217.08"];
	21 -- 45	 [fontsize=8,
		label=2.0,
		lp="2699.5,176.5",
		pos="2719.4,199.9 2704.5,188 2675.7,165.1 2660.6,153.16"];
	8	 [URL="http://lattes.cnpq.br/6694143241761752",
		color="#17272B",
		fontcolor="#FFFFFF",
		height=0.23611,
		label="Carmenlucia S. Giordano Penteado [4]",
		pos="783,72.5",
		width=1.9583];
	8 -- 52	 [fontsize=8,
		label=1.0,
		lp="615.5,40.5",
		pos="712.48,64.234 680.84,60.124 643.24,54.055 610,45.5 597.61,42.31 595.52,38.157 583,35.5 516.35,21.351 320.17,13.801 226.25,10.91"];
	8 -- 50	 [fontsize=8,
		label=3.0,
		lp="870.5,40.5",
		pos="799.9,63.916 816.44,56.534 842.37,45.061 865,35.5 880.02,29.152 897.15,22.211 909.9,17.098"];
	9	 [URL="http://lattes.cnpq.br/6938680728798425",
		color="#17272B",
		fontcolor="#FFFFFF",
		height=0.23611,
		label="Antonio Carlos Zambon [5]",
		pos="986,352.5",
		width=1.4722];
	9 -- 24	 [fontsize=8,
		label=1.0,
		lp="1121.5,316.5",
		pos="1035.7,344 1054.3,340.03 1075.2,334.13 1093,325.5 1104.7,319.84 1104.2,312.86 1116,307.5 1142.2,295.6 1173.7,289.15 1199.8,285.65"];
	9 -- 33	 [fontsize=8,
		label=2.0,
		lp="868.5,280.5",
		pos="949.29,343.96 920.29,335.87 881.68,319.84 863,289.5 847.74,264.72 875.06,232.11 889.67,217.35"];
	9 -- 42	 [fontsize=8,
		label=5.0,
		lp="1024.5,244.5",
		pos="989.77,343.68 995.16,332.12 1005,309.66 1010,289.5 1022.7,238.44 1026,174.77 1026.8,153.12"];
	10	 [URL="http://lattes.cnpq.br/9343261628675642",
		color="#17272B",
		fontcolor="#FFFFFF",
		height=0.23611,
		label="André L. Sampaio Gradvohl [1]",
		pos="942,280.5",
		width=1.6528];
	9 -- 10	 [fontsize=8,
		label=1.0,
		lp="974.5,316.5",
		pos="981.12,343.74 972.62,330.21 955.19,302.48 946.76,289.08"];
	10 -- 33	 [fontsize=8,
		label=1.0,
		lp="930.5,244.5",
		pos="937.12,271.74 928.62,258.21 911.19,230.48 902.76,217.08"];
	10 -- 42	 [fontsize=8,
		label=1.0,
		lp="996.5,208.5",
		pos="946.81,271.91 961.77,248.33 1007.4,176.48 1022.2,153.01"];
	11	 [URL="http://lattes.cnpq.br/8382118396658129",
		color="#17272B",
		fontcolor="#FFFFFF",
		height=0.23611,
		label="Andre Franceschi de Angelis [5]",
		pos="1585,352.5",
		width=1.6806];
	11 -- 24	 [fontsize=8,
		label=3.0,
		lp="1521.5,316.5",
		pos="1559.6,343.99 1546.2,339.52 1529.7,333.22 1516,325.5 1504.7,319.14 1505,312.36 1493,307.5 1421.3,278.55 1396.8,298.08 1320,289.5 \
1315.5,288.99 1310.7,288.45 1306,287.91"];
	11 -- 35	 [fontsize=8,
		label=1.0,
		lp="1598.5,280.5",
		pos="1585.8,343.87 1588.4,319.21 1596.6,241.88 1599.2,217.17"];
	11 -- 48	 [fontsize=8,
		label=1.0,
		lp="1554.5,280.5",
		pos="1581.6,343.96 1571.8,322.82 1540.8,262.75 1495,235.5 1486.1,230.2 1434,222.26 1392.1,216.55"];
	37	 [URL="http://lattes.cnpq.br/0517805915866063",
		color="#17272B",
		fontcolor="#FFFFFF",
		height=0.23611,
		label="Elaine C. Catapani Poletti [4]",
		pos="1679,244.5",
		width=1.5417];
	11 -- 37	 [fontsize=8,
		label=1.0,
		lp="1670.5,316.5",
		pos="1623,343.95 1634.2,340.08 1645.7,334.25 1654,325.5 1673.6,304.76 1677.8,268.88 1678.8,253.21"];
	37 -- 44	 [fontsize=8,
		label=3.0,
		lp="1674.5,208.5",
		pos="1676.3,235.81 1669.7,217.49 1653.3,171.44 1646.7,153.15"];
	12	 [URL="http://lattes.cnpq.br/7150028902000426",
		color="#17272B",
		fontcolor="#FFFFFF",
		height=0.23611,
		label="Edson Luiz Ursini [6]",
		pos="1141,416.5",
		width=1.1944];
	12 -- 24	 [fontsize=8,
		label=3.0,
		lp="1175.5,352.5",
		pos="1142.7,407.66 1146,393.62 1154.4,363.79 1170,343.5 1189,318.84 1220.2,299.2 1238.5,289.05"];
	12 -- 33	 [fontsize=8,
		label=1.0,
		lp="868.5,316.5",
		pos="1097.8,415.81 1034.5,413.64 918.01,399.18 863,325.5 839.05,293.42 837.72,269.42 859,235.5 864.02,227.5 872.5,221.42 880.27,217.15"];
	12 -- 48	 [fontsize=8,
		label=3.0,
		lp="1480.5,316.5",
		pos="1184.2,415.24 1268.4,414.29 1448.2,409.86 1467,389.5 1478.6,376.93 1477.8,248.73 1467,235.5 1461.9,229.34 1424.3,222.23 1390.8,217.01"];
	12 -- 30	 [fontsize=8,
		label=1.0,
		lp="1085.5,316.5",
		pos="1130.6,407.79 1107.8,389.9 1057.2,344.32 1080,307.5 1089.4,292.28 1103,301.74 1116,289.5 1138.1,268.79 1149.2,232.9 1153.2,217.21"];
	22	 [URL="http://lattes.cnpq.br/3618876400150348",
		color="#17272B",
		fontcolor="#FFFFFF",
		height=0.23611,
		label="Regina L. de Oliveira Moraes [11]",
		pos="1253,352.5",
		width=1.7639];
	12 -- 22	 [fontsize=8,
		label=1.0,
		lp="1208.5,384.5",
		pos="1154.7,407.9 1176.2,396 1217.6,373.1 1239.2,361.16"];
	22 -- 24	 [fontsize=8,
		label=6.0,
		lp="1258.5,316.5",
		pos="1253,343.74 1253,330.21 1253,302.48 1253,289.08"];
	22 -- 33	 [fontsize=8,
		label=1.0,
		lp="1129.5,280.5",
		pos="1227,343.93 1212.8,339.37 1195.1,332.99 1180,325.5 1171.8,321.44 1051.5,238.87 1043,235.5 1013.9,223.9 979.45,217.45 951.43,213.87"];
	22 -- 42	 [fontsize=8,
		label=2.0,
		lp="1128.5,244.5",
		pos="1241.7,343.8 1213.6,324.4 1138.9,271.19 1085,217.5 1063.4,195.99 1041.9,166.75 1032.3,153.1"];
	22 -- 48	 [fontsize=8,
		label=1.0,
		lp="1328.5,280.5",
		pos="1263.4,343.9 1277.3,333.28 1301.5,312.66 1315,289.5 1329.1,265.35 1334.4,231.86 1336.2,217.05"];
	29	 [URL="http://lattes.cnpq.br/8433486304141432",
		color="#17272B",
		fontcolor="#FFFFFF",
		height=0.23611,
		label="Marcos A. Francisco Borges [4]",
		pos="2041,280.5",
		width=1.6528];
	22 -- 29	 [fontsize=8,
		label=1.0,
		lp="1849.5,316.5",
		pos="1316.6,349.04 1401.9,345.44 1558.1,337.79 1691,325.5 1797.6,315.65 1921.7,298.74 1989.8,289.01"];
	29 -- 43	 [fontsize=8,
		label=1.0,
		lp="2271.5,244.5",
		pos="2077.6,271.92 2122,262.81 2199.4,247.26 2266,235.5 2304.1,228.77 2347.4,221.99 2380,217.04"];
	14	 [URL="http://lattes.cnpq.br/5567790309424113",
		color="#17272B",
		fontcolor="#FFFFFF",
		height=0.23611,
		label="Cristiano de Mello Gallep [0]",
		pos="2389,416.5",
		width=1.5417];
	15	 [URL="http://lattes.cnpq.br/3491836142954364",
		color="#17272B",
		fontcolor="#FFFFFF",
		height=0.23611,
		label="Cassiana C. Montagner Raimundo [17]",
		pos="2190,280.5",
		width=1.9722];
	15 -- 43	 [fontsize=8,
		label=17.0,
		lp="2346.5,244.5",
		pos="2216.2,271.88 2262.7,258.37 2359,230.43 2405.1,217.01"];
	16	 [URL="http://lattes.cnpq.br/6753230320037937",
		color="#17272B",
		fontcolor="#FFFFFF",
		height=0.23611,
		label="José Carlos Magossi [0]",
		pos="2510,416.5",
		width=1.3056];
	17	 [URL="http://lattes.cnpq.br/4372943322993518",
		color="#17272B",
		fontcolor="#FFFFFF",
		height=0.23611,
		label="Ivan L. Marques Ricarte [1]",
		pos="2046,352.5",
		width=1.4722];
	17 -- 29	 [fontsize=8,
		label=1.0,
		lp="2049.5,316.5",
		pos="2045.4,343.74 2044.5,330.21 2042.5,302.48 2041.5,289.08"];
	18	 [URL="http://lattes.cnpq.br/5243256763404267",
		color="#17272B",
		fontcolor="#FFFFFF",
		height=0.23611,
		label="Celmar Guimarães da Silva [6]",
		pos="2135,416.5",
		width=1.6111];
	18 -- 43	 [fontsize=8,
		label=3.0,
		lp="2458.5,316.5",
		pos="2186.6,407.96 2270.2,395.49 2427.1,371 2435,361.5 2471.1,318.36 2444.3,241.78 2434.4,217.27"];
	18 -- 22	 [fontsize=8,
		label=2.0,
		lp="1751.5,384.5",
		pos="2076.8,411.41 1918.4,400.27 1480.5,369.49 1316.3,357.95"];
	18 -- 29	 [fontsize=8,
		label=1.0,
		lp="2122.5,352.5",
		pos="2133.4,407.81 2130.2,394.02 2122.1,364.56 2108,343.5 2092.4,320.35 2066.6,299.72 2052,289.1"];
	26	 [URL="http://lattes.cnpq.br/5082574173461443",
		color="#17272B",
		fontcolor="#FFFFFF",
		height=0.23611,
		label="Maurea Nicoletti Flynn [2]",
		pos="2604,316.5",
		width=1.4306];
	18 -- 26	 [fontsize=8,
		label=1.0,
		lp="2514.5,384.5",
		pos="2193.1,408.37 2196.1,408.06 2199.1,407.77 2202,407.5 2264.5,401.78 2424,408.18 2484,389.5 2529.5,375.33 2575.7,340.65 2594.8,325.18"];
	31	 [URL="http://lattes.cnpq.br/9002330620493052",
		color="#17272B",
		fontcolor="#FFFFFF",
		height=0.23611,
		label="Luiz Camolesi Júnior [2]",
		pos="1970,316.5",
		width=1.3472];
	18 -- 31	 [fontsize=8,
		label=2.0,
		lp="2026.5,384.5",
		pos="2079.2,407.98 2047.4,400.96 2009,387.44 1984,361.5 1974.3,351.46 1971.3,334.74 1970.4,325.06"];
	26 -- 43	 [fontsize=8,
		label=2.0,
		lp="2651.5,280.5",
		pos="2622.6,307.93 2630.4,303.73 2638.6,297.68 2643,289.5 2646.8,282.45 2647.7,277.97 2643,271.5 2623.9,245.29 2537.7,226.67 2481.2,217.03"];
	31 -- 43	 [fontsize=8,
		label=2.0,
		lp="1967.5,280.5",
		pos="1965.2,307.7 1960,298.07 1953.4,281.72 1962,271.5 1987.8,240.82 2247.1,220.87 2368.7,213.13"];
	19	 [URL="http://lattes.cnpq.br/2958819814013623",
		color="#17272B",
		fontcolor="#FFFFFF",
		height=0.23611,
		label="Cassiana M. Reganhan Coneglian [1]",
		pos="2566,280.5",
		width=1.8889];
	19 -- 43	 [fontsize=8,
		label=1.0,
		lp="2522.5,244.5",
		pos="2552.2,271.87 2535.9,262.97 2508.1,247.9 2484,235.5 2471.6,229.13 2457.4,222.19 2446.8,217.09"];
	20	 [URL="http://lattes.cnpq.br/1541934303361072",
		color="#17272B",
		fontcolor="#FFFFFF",
		height=0.23611,
		label="Ivan Camargo de Oliveira [0]",
		pos="2631,416.5",
		width=1.5417];
	23	 [URL="http://lattes.cnpq.br/4793528013383985",
		color="#17272B",
		fontcolor="#FFFFFF",
		height=0.23611,
		label="Peterson Bueno de Moraes [0]",
		pos="2762,416.5",
		width=1.5833];
	25	 [URL="http://lattes.cnpq.br/3069249114434330",
		color="#17272B",
		fontcolor="#FFFFFF",
		height=0.23611,
		label="Patricia Prediger [0]",
		pos="2878,416.5",
		width=1.125];
	28	 [URL="http://lattes.cnpq.br/2699192560269798",
		color="#17272B",
		fontcolor="#FFFFFF",
		height=0.23611,
		label="Maria A. Carvalho de Medeiros [0]",
		pos="3002,416.5",
		width=1.8056];
	32	 [URL="http://lattes.cnpq.br/4346810447071054",
		color="#17272B",
		fontcolor="#FFFFFF",
		height=0.23611,
		label="Rangel Arthur [2]",
		pos="1447,208.5",
		width=1.0278];
	32 -- 44	 [fontsize=8,
		label=2.0,
		lp="1500.5,176.5",
		pos="1454.7,199.82 1463.7,191.46 1479.1,178.36 1495,171.5 1525.9,158.16 1563.1,151.66 1592.6,148.49"];
	32 -- 49	 [fontsize=8,
		label=1.0,
		lp="1523.5,144.5",
		pos="1451.2,199.88 1455.8,192.05 1463.7,179.86 1473,171.5 1521.3,128.01 1592.1,95.091 1625.4,81.01"];
	34	 [URL="http://lattes.cnpq.br/6838511087413418",
		color="#17272B",
		fontcolor="#FFFFFF",
		height=0.23611,
		label="Jaime Portugheis [0]",
		pos="3127,416.5",
		width=1.1528];
	36	 [URL="http://lattes.cnpq.br/7835935043066010",
		color="#17272B",
		fontcolor="#FFFFFF",
		height=0.23611,
		label="Eloisa Dezen Kempter [2]",
		pos="644,72.5",
		width=1.3889];
	36 -- 41	 [fontsize=8,
		label=2.0,
		lp="635.5,40.5",
		pos="639.83,63.898 633.31,51.998 620.75,29.102 614.2,17.165"];
	39	 [URL="http://lattes.cnpq.br/7079057342886624",
		color="#17272B",
		fontcolor="#FFFFFF",
		height=0.23611,
		label="Guilherme Ribeiro Lotufo [0]",
		pos="3243,416.5",
		width=1.5556];
	51	 [URL="http://lattes.cnpq.br/9149503296606174",
		color="#17272B",
		fontcolor="#FFFFFF",
		height=0.23611,
		label="Sandro Tonso [0]",
		pos="3353,416.5",
		width=1];
}
