1396497553199632
5841291496427516
4615888456755361
1230033143495323
7551693235336839
8821211122180094
8569446512146944
2621376437818800
1399158997660627
2841925497526792
7671991712049597
4326760076327656
8331600770992494
4477034532116430
9163421021115381
5530984461673946
9804496328103850
4512835147401148
6935243983569655
1500593351852357
4637003229684941
4805055805378491
3395516156513944
0034894070455412
1569293300435596
6699884061289310
1734032782594771
6490014244112888
9084165369080485
3935055744673018
7250431398240679
4973390081291714
6001109920372387
5223723541805135
5374456076284948
4793528013383985
3660246608270309
6784689928387553
4944670560700547
2752503087387960
9535878029427610
8640583652640865
6938680728798425
1756895777404187
1987295209521433
0329277327197863
4967052659255830
2452950046489907
2080099102941335
8330507333285936
7518450724914702
1511140817689512
6115144171517578
0520192421698610
3743581415358652
9121907190104646
6112825555294904
8099182193159304
2712552693974233
4346810447071054
5665244736209900
9608207512894571
2094097630595344
9274242771803008
1978705890397542
8628250713947451
8252875697920736
4049976952447064
1083240607181386
4189810592993079
3813221081650787
5246678822563192
1916731099027447
9830819801249558
5825899624501446
0925507280285023
8799717854078477
6525387006649362
0394598624993168
8621258845956348
2455108901174407
6843697796956155
4808617538189330
8132847165466920
8764315015432041
8816484786375443
8478482642759424
1425517383756803
3064521898263661
4567936059749011
1029753969163409
5825418749435667
3746542179568722
0798813351620968
5450805572417395
3565007172700007
8705680181509116
4428534123137232
9876938410691205
1482831130853207
4394162331037750
2966752706352099
2057543426729046
6217509029802638
2069994676017059
8193307869847230
7731511027696036
2958819814013623
3893428903248900
2253500932558913
6528662364512945
0709693721229993
6198744811306048
0121461197043560
6262486348513417
1608062196337851
3580464132233262
7525387214456841
1336816781113834
2767516480154062
7641270456476630
0274178450389594
1256729611139254
3819023930832153
2877042401245169
1515732291558321
9438317427327569
1997083044142855
0888740894263340
5918383207050425
2367572595796478
2854771102810220
4439718520906516
5360511377400279
1920193435997440
4626560439053690
6974696537258311
8356443704306672
7152420560042455
5907468972539239
9454672552048719
3304458971445988
0957577806208187
7874309244402233
8216159372617370
3713312751406061
8599770745882531
0285463259381242
2741273306344190
9411407113321544
4697233860949402
1035612055915395
8156854796793004
5006074852436835
8227343574719659
2603433458436438
0232046545937781
5712381962457273
9167980713135992
1487982599027304
7371026960332542
9094745265007426
9904636275534775
9543682747765614
7455124733755299
4828581367263582
6738987664840341
4372943322993518
1524444733156412
5228532633524961
5304322633105975
3775696878060147
3673205205402807
9150197992912194
8376054758515640
8680447898375425
3251031275165326
6985892121344767
2494286223045694
4921982210144281
7987806573719252
9442354550271034
9330470036613511
9039182932747194
6465685100698576
0227319272510144
1257794767301021
6270932469079893
8594733039954371
9770958582146591
5446518523049572
3884137732632652
4898006494427762
6666101923118758
3302142176712243
3069249114434330
2449625191630738
0295246132037651
3826625800528328
9148131723578919
1721691084829002
5201735236596073
4440731926425760
8896570229605645
2492763231046247
4747011975729591
0202442951723700
6823223501522382
2407277993285186
0396391761867914
2201394736033144
6114863866102325
7760334882702726
9350058883798076
0043570126726535
4486030422416831
5586429932398441
7933130617235231
5458785300394469
8717348823860067
4016952048250802
5073816026052371
0896180534255943
9776761509253906
1185574346969996
0288820412130500
6581012116833368
4595465071420439
4962820320879891
0597865875425201
7138726557754661
5847086312081508
6774094874040903
3270314322406623
1340755697623309
2851620950140702
0203910403476737
1764637588910599
8461533543853527
8904044191613796
1144266495720148
4862154161385404
6034522313829097
9311149759138995
9562213378846769
8584508324043770
5948210463905682
6200553304840204
6517426290813415
5042847332314310
0442161398765567
1183672452248157
6311181934718737
3674953502082916
1379186223097332
3706949235575311
5479626156121416
7377946035024766
5464023129390042
5993832413749292
2302314954133011
1920411639358905
2411542987872745
4842619715905300
2005985431208159
5945285972353074
0183165737768103
1269694051954641
4163323309018436
8235968002513082
8939257949743478
8898675222331749
9073978363876558
7835935043066010
1390699800586684
5057165446370629
9894961101084471
7079057342886624
7580615225715204
2147593085985927
2717902833723842
4653586737017626
2300142250010246
8391112684100954
2381599257044388
1635328092311925
1642053886613380
1480751214999787
2948162075170172
4813725257951168
6789081336400711
9374460427113373
5386672088501599
6121928182766337
0484550209734070
3253964059308412
5665023430744951
7902862900757037
1922791230801740
6392994144210466
4901699997132429
5495322642019035
2879824641533729
0400880030173624
7610593442393170
9165109840414837
6925820345407676
2699192560269798
6834176939796336
1915619750397881
9246879554920774
1054184956116201
2713755388321384
7262881331231236
0634908470097449
9305519410031191
3192125098361121
1554518395997827
5836698929628478
3946099081173882
5078526984237578
0487902939639199
7740436922357470
8647239680081745
4554213632240773
1314550908170192
5845245549777383
3711547435042712
4036808925343874
9719686205594502
8916381150557360
8266551989579822
3954185134383373
4270609605298819
0019132230728268
9117926289626712
4434648216564612
0064932539061079
4536913403579098
1662405533208731
3790201696145434
7024983341494297
1913003589198061
0354861042223264
6320803631314170
1819902045004845
7894295842485508
5481837075109866
5502870381634457
7044875550605462
3603810130381168
7069874365961144
1947099702193041
9229841711516369
9689028080261016
1750385790843118
1123376648713853
9214517786688130
4440355543766855
4092583355601690
0241862487783754
1465711084846988
1689147340536405
8919503255281132
6969855749872267
4854372533657671
4196809695761753
4272483279573957
3041009865156127
8767031677623654
3255060531838427
8739270635701288
6078967748876171
3831378780875013
0056699593897068
0513770505200043
5084691259212343
9138028556380501
8810347636088336
6120421680422459
0330134374198914
4006632549723830
7823448102676358
9666011714312528
8454491414526003
7603683000569090
5978908591853524
6352650025506845
5616956169592101
9617352934964079
9911259269353185
1725477351660877
2470055386313434
7119886675051877
3636638127781726
9441154698227907
1048229426231783
6213445406514111
8950635510987873
3733839504299045
0009875598859160
8942431352110780
2317186989554176
1712992286070431
0616792727031256
2611443157371434
5820198292179526
7771878233635494
7587622547686139
6604859038138573
0230541405738314
4572088689785999
0858482819476716
5959745386130546
0242539370676453
6863337555915767
7987631644764691
8787637274769944
7012140809519038
9002330620493052
4579010396852919
4217731655224539
6741344424648342
8929629898766359
8573181235845523
1091025573756924
9093564382051928
0704247858417447
0235671805309991
5825603355712770
7149846081415916
4881434196663179
2953935460166799
4369337843339010
2030368198650670
6592109142402272
1323416856612390
3618876400150348
4616667057431718
6875954934032751
4643608666899616
0671692268705784
1095193209251351
6315343480676626
3370842096423892
5079537490443444
6815394619691275
8052061690153604
4274582376583918
5392174572115882
1469348520281872
3531046770769286
7117346429670560
8081559431007092
0813392572852313
7461772204639602
5072133224529810
2166608010830304
3057001219316165
7674234955850870
8102013525548196
0116161366291089
0596283565805422
9913207478047300
0348231685351195
5975973286504763
3231598878574307
5635299788273538
6262844063982718
6729735552323252
5313696806283523
0895861033920334
0385807333094014
6970261362941505
8123718545976907
5990690328653164
5903115211598895
4907308156626023
7793326675137653
6939312723826719
5666634758937148
2600519989703553
0629845910993016
6888954763078139
2342739419247924
4703139616158480
4765080870408661
8841366260800985
0846074308503666
8906707362461289
3254014174123304
0016546400683999
3761900409731251
8382118396658129
6529450420703012
6989816492212766
9149503296606174
9866858833240787
3680226938042214
4574088649013689
0048838891662560
8982611146435246
0807811991821629
4870907540258696
3880258395061895
5567790309424113
1766558858445284
4281430838562776
1690612352319705
0472856771871140
0517805915866063
0920629723928382
7527203195576539
7013056055729123
4995499872041179
6495070712998540
2951269593210008
2559443073447665
2884551556176766
3670885449243317
3933114794820017
5136155977351408
4582408199121884
2392046441835896
2493281934291188
1854609924621164
0505677256654938
2176215981291453
5503847324291267
2532741243269868
2061084844919105
6576458179641386
4232773320089813
6960902824058791
6834404366621656
7222027141294210
1080019231954948
9538057862736098
4455155922438036
8540268559458164
7606159905559544
6919259469052384
2656804839083572
8797074073023988
8908038935737585
3878436765503311
8006682058835010
8024459629619463
1916656954069397
8764055579040640
4591294976024572
0905407015458080
6146944142372232
7082447037374118
4614279805073297
6149836083381121
4646148738607208
1960522829518417
1652140859355617
3556560435961222
1410499871050113
0738317724537528
3336207460894450
9653654803297649
5512756726602398
9040477316617481
3074336049334049
3793199281053721
7628786577802962
3251313540286203
7729955482153416
4503603092517892
3724371040716676
8684626641781829
0588288655674354
2973550267027681
5783449412537437
3904671967573395
7573274864370566
6388547513948117
3036636342116671
3422876621162293
4819126975597135
7425154073906821
6713004522151232
0677613040861454
7266558656801036
9049566435516629
7756929349089648
3320248403326897
0849815664886645
6123605679500473
2255490571096045
3031414717499292
2503439503631682
9778459641045289
0186235312517918
6229093184778563
1643164772112685
9881944504401881
0921993710514285
5308173814450423
4336590674257942
6112685121071168
2689821323942199
2266524586374860
9419090599655016
0821953182719251
3900039933812284
6694143241761752
8527314521360726
1269250222692608
4319016464569901
8807333466702951
9343261628675642
7984461975881933
0583351405621825
2129220945563165
0578612884434541
8817396390638137
8753294278340680
5109634422956079
6741266402653912
5474049197041676
9492728853267318
7957169338906137
2114239143359508
6172890027063380
5099377750492072
6190190325125183
7443111804471290
0202897060868307
6196337593095945
3774617443225038
7905940253920708
8867390850809735
2265660938685770
1075428128334851
7627341680778347
8788356220698686
0332149722877197
6753230320037937
4109110009789771
3589012014320121
2777577510233420
3462216438517585
9508969101649184
1868639912909069
3717611273994190
2727662627646050
6058119214477061
8540637195455101
2575554403814311
0455853071806776
8504543595215864
4888970877170213
6594211224864538
8436515676441851
9533037919724488
7505214303945626
6808301487621624
0291695624884565
6313272090661536
8433486304141432
1074853418893175
1433870391519426
6366443994619479
7442802500227489
0886607214727178
0288071029633483
6443348814893849
7466715243528129
9611168473482242
1558860383340815
0223997495223283
8194104388434526
5860088594236271
6134106111232960
8890614481075559
5458829100371043
8169698871711927
3446806094062042
5890871510662855
2017199004095441
1348914219247337
6623293266590478
5454001401250454
8120997338275110
6831152082956103
2941294567891351
6670390384830856
8872209536343406
8428230811718070
7150028902000426
3054753765507049
0854403148709775
7222444052743734
5739203462228719
7061008069887129
4698759806834766
6499108085922209
0277705848688464
2195948212479850
0436922594542722
0747426563451969
4516468913453315
9070607576528017
5131107748482946
0847386182199613
3607242004185378
1121936657351341
0248351145485176
7546167659468141
5118629875846648
2479528161082432
2769321998436306
8084987548352373
5794381162436638
7813072475884435
3691742159298316
5857087138826134
4540161463579586
8531563804368352
2854855744345507
5490395552177992
1177858154250011
2992783704836941
2353653345296619
7122147284001870
2324929401155175
2087344422685906
2074765955027449
9997987484979506
4513257133725257
2735798774043363
8843091201331133
4347006311423350
4879977915136752
5753289728835624
6198721584655627
3242353400699271
9300311957291169
2764302993094659
6763141819457822
3506304883582982
5571022514393377
2602281254052311
3986090028709056
2747759569382826
2145291840795928
0497424493730558
0445180587973481
9289862045151066
5814743653072832
9177302157717409
4935533417572662
6376603998253957
3725505357977812
1026742937284218
9220348583560043
4192279801129205
8047604543096116
1863177057291007
0131770792108992
0108396185647453
7858935483226990
8971986984647323
0233820096700167
2603863331633089
3263401403625735
8492443072284269
7884065757129773
8578267003690641
8523809332584385
7116158054409962
1045147713875478
6670304965931085
7494142007764616
5145319887087125
7169868426858404
2300175961000015
0337997526924402
5890380905256307
3082697882570018
1638578129523211
6315290431063397
5807259978585051
8223592156939686
4780821244553957
5769042434186463
7471217433430103
8259278661400679
1733069896909475
2431468701531047
9224426261471914
7691467467042656
7913302545613108
4302456847507371
7732053604152829
1562723678793624
3278528112652257
8882038118634925
1762852473405703
4284121570802905
9688717074459041
8357320121830913
7091050557018479
0908497736135800
6436756467936422
6858381037029976
1913450752136533
7255819542670612
6799638260194437
0739428632470414
9248691565635380
3898266364903687
2578978663165124
6291275625417454
7755713390802247
0620241206367100
1833467557127937
7301508092660911
9278472712566471
1211349028312780
1552133839214647
8511504942531877
5956394362169556
7425073948369069
6861627191463091
7533729699758819
4507073071352893
5780428836907920
9237052618243015
2606758005305102
8224032111208529
7880799064978406
0995997530035949
6669878362148727
1343905976669222
1383721602050848
8316271963132006
8010966628996169
9391979840150096
5913784674766133
8602960801642916
2321161996869676
8152054984438197
7848859949058686
6965029890444626
8377890158420707
1006484342916129
9938558137756088
4868736438914087
5051118752980903
9659352316235038
0681372450236315
5700931823230443
3112176144131780
4882112948471966
5243256763404267
4169267827878056
6838511087413418
6932390830998311
8089289351839832
8963049298930985
1124173507481743
7813628805420035
2546335887554874
5200717413563550
7644929397401542
0664996355903511
3502415985128801
5835771445059436
7181520913798304
2965138418053706
0046237693009702
1530031525953352
4996101016351950
0265078034736481
9981875236429043
6714457868321071
8981709844306799
9307931144164002
2620249935247735
6110033806057341
3719279613375092
2213216319318682
4363941789820516
3416315234127361
2760057689339616
1344808835131825
4770174133427369
6834497622047154
5848662427062275
3365013492477781
7632647412004312
3912955675367941
6191239140886028
1793299788004830
7224855414322463
5746822816259454
3615940235723053
2153110507875188
0163869666968608
0940432323590880
6744789031079665
6363537324563624
7274016581708237
2679662557433472
8067818545443951
8803768507431721
0011794846196046
9757080572695495
4758131492535829
6281522315153172
1521815731111261
2544198380416498
8107811058749982
1179087310398160
8067599247624595
9623769233237901
0774464575739440
8337771861251036
6214560503078669
4849543056415941
4384465274431894
8664864660527493
6643325247671334
1498251399219988
4563437066759986
6200743168568684
0932882596789947
3547517834943160
8001151731331170
1004661211572644
3507388574006581
0333390666972274
8236531371807541
4319551573981157
8262936735840618
7098702633322538
1616877307301299
2741458816539568
4584747419373688
8573195327542061
0525430082581472
8343957016725541
2575676960514838
1443469323590694
8944146309557317
4588416609631698
6500182188147733
5030044853732356
5082574173461443
2355575631197937
5270539335811903
6398120875466375
6927805589791536
6887310539435086
0308486911718989
9369885002582616
2689898705240488
2899858241504722
1282317645925544
3986122703645318
9154529811247631
7441387315059940
8467650381711612
3491836142954364
