2.39901
0.15
0.346389
1.46743
0.72578
0.247435
0.427505
0.453613
0.680393
0.952134
0.309681
0.885769
1.05167
0.573438
0.15
2.44274
0.15
0.326288
1.06558
0.284867
0.15
0.963718
1.77059
0.15
2.88179
0.15
0.427289
1.02154
0.15
0.855355
0.42843
0.434843
0.448284
1.15812
0.15
0.584328
0.489057
0.742612
0.735801
0.15
0.923267
0.765385
1.2577
4.09615
2.05768
0.892093
0.284867
0.216158
0.887801
0.919281
1.26539
0.15
2.60531
0.247435
