5132812297496991
3260077562370842
1635475892372110
0307859719242030
0832298305352059
0033898078248794
4455422053321491
2466545255645591
4007512293061299
0427736982554233
5025251887185654
5167203367542704
9506136012570087
9916588298312326
6826790692234990
5764635299335289
