ID_Lattes|MATRICULA|NOME|CH|mail|LP_1|PROGRAMA_1|CATEG_1|Periodo_Inicio_1|Periodo_Fim_1|Resp_prog|Resp_LP1
K4771038Z9|99999|ANDREA MARIA ELEUTERIO DE BARROS LIMA MARTINS|40|UNIMONTES@UNIMONTES.br|UNIMONTES|UNIMONTES|P|2013|2016|UNIMONTES|UNIMONTES
K4737825U2|99999|ANDRE LUIZ SENA GUIMARAES|40|UNIMONTES@UNIMONTES.br|UNIMONTES|UNIMONTES|P|2013|2016||
K4721421T3|99999|ANA CRISTINA DE CARVALHO BOTELHO|40|UNIMONTES@UNIMONTES.br|UNIMONTES|UNIMONTES|P|2013|2016||
K4792602D0|99999|ALFREDO MAURICIO BATISTA DE PAULA|40|UNIMONTES@UNIMONTES.br|UNIMONTES|UNIMONTES|P|2013|2016||
K4753129A6|99999|MARISE FAGUNDES SILVEIRA|40|UNIMONTES@UNIMONTES.br|UNIMONTES|UNIMONTES|P|2013|2016||
K4770426D4|99999|LUIZ FERNANDO DE REZENDE|40|UNIMONTES@UNIMONTES.br|UNIMONTES|UNIMONTES|P|2013|2016||
K4723911Y2|99999|SERGIO AVELINO MOTA NOBRE|40|UNIMONTES@UNIMONTES.br|UNIMONTES|UNIMONTES|P|2013|2016||
K4794597J6|99999|MARILEIA CHAVES ANDRADE|40|UNIMONTES@UNIMONTES.br|UNIMONTES|UNIMONTES|P|2013|2016||
K4705497H6|99999|MAISA TAVARES DE SOUZA LEITE|40|UNIMONTES@UNIMONTES.br|UNIMONTES|UNIMONTES|P|2013|2016||
K4124729H6|99999|LUCYANA CONCEICAO FARIAS|40|UNIMONTES@UNIMONTES.br|UNIMONTES|UNIMONTES|P|2013|2016||
K4760702A0|99999|JOAO FELICIO RODRIGUES NETO|40|UNIMONTES@UNIMONTES.br|UNIMONTES|UNIMONTES|P|2013|2016||
K4244917Z5|99999|FABIANA DA SILVA VIEIRA|40|UNIMONTES@UNIMONTES.br|UNIMONTES|UNIMONTES|P|2013|2016||
K4102419T1|99999|MARCOS ESDRAS LEITE|40|UNIMONTES@UNIMONTES.br|UNIMONTES|UNIMONTES|P|2013|2016||
K4781005U0|99999|LUIZ ANTONIO DE MATOS MACEDO|40|UNIMONTES@UNIMONTES.br|UNIMONTES|UNIMONTES|P|2013|2016||
K4732135T9|99999|LUCI HELENA SILVA MARTINS|40|UNIMONTES@UNIMONTES.br|UNIMONTES|UNIMONTES|P|2013|2016||
K4785521D3|99999|JOAO DAL POZ NETO|40|UNIMONTES@UNIMONTES.br|UNIMONTES|UNIMONTES|P|2013|2016||
NOK|99999|HANS DIETER GAWORA|40|UNIMONTES@UNIMONTES.br|UNIMONTES|UNIMONTES|P|2013|2016||
K4700667J3|99999|ELTON DIAS XAVIER|40|UNIMONTES@UNIMONTES.br|UNIMONTES|UNIMONTES|P|2013|2016||
K4243483P1|99999|CASIMIRO MANUEL MARQUES BALSA|40|UNIMONTES@UNIMONTES.br|UNIMONTES|UNIMONTES|P|2013|2016||
K4777499E9|99999|CARLOS RENATO THEOPHILO|40|UNIMONTES@UNIMONTES.br|UNIMONTES|UNIMONTES|P|2013|2016||
K4860420E9|99999|GILMAR RIBEIRO DOS SANTOS|40|UNIMONTES@UNIMONTES.br|UNIMONTES|UNIMONTES|P|2013|2016||
K4702574P4|99999|ANETE MARILIA PEREIRA|40|UNIMONTES@UNIMONTES.br|UNIMONTES|UNIMONTES|P|2013|2016||
K4775841E6|99999|ANDREA MARIA NARCISO ROCHA|40|UNIMONTES@UNIMONTES.br|UNIMONTES|UNIMONTES|P|2013|2016||
K4770397P8|99999|SARAH JANE ALVES DURAES|40|UNIMONTES@UNIMONTES.br|UNIMONTES|UNIMONTES|P|2013|2016||
K4790809H5|99999|ANA PAULA GLINFSKOI THE|40|UNIMONTES@UNIMONTES.br|UNIMONTES|UNIMONTES|P|2013|2016||
K4774472H3|99999|SERGIO HENRIQUE SOUSA SANTOS|40|UNIMONTES@UNIMONTES.br|UNIMONTES|UNIMONTES|P|2013|2016||
K4704742T2|99999|RAQUEL CONCEICAO FERREIRA|40|UNIMONTES@UNIMONTES.br|UNIMONTES|UNIMONTES|P|2013|2016||
K4707928P8|99999|HERCILIO MARTELLI JUNIOR|40|UNIMONTES@UNIMONTES.br|UNIMONTES|UNIMONTES|P|2013|2016||
K4782262Y8|99999|SIMONE NARCISO LESSA|40|UNIMONTES@UNIMONTES.br|UNIMONTES|UNIMONTES|P|2013|2016||
K4706076J1|99999|ROMULO SOARES BARBOSA|40|UNIMONTES@UNIMONTES.br|UNIMONTES|UNIMONTES|P|2013|2016||
K4751749A6|99999|MARIA HELENA DE SOUZA IDE|40|UNIMONTES@UNIMONTES.br|UNIMONTES|UNIMONTES|P|2013|2016||
K4730222T6|99999|MARIA DA LUZ ALVES FERREIRA|40|UNIMONTES@UNIMONTES.br|UNIMONTES|UNIMONTES|P|2013|2016||
K4731442H6|99999|NILTON ALVES MAIA|40|UNIMONTES@UNIMONTES.br|UNIMONTES|UNIMONTES|P|2013|2016||
K4211729Z1|99999|MAURILIO JOSE INACIO|40|UNIMONTES@UNIMONTES.br|UNIMONTES|UNIMONTES|P|2013|2016||
K4102419T1|99999|MARCOS ESDRAS LEITE|40|UNIMONTES@UNIMONTES.br|UNIMONTES|UNIMONTES|P|2013|2016||
K4704720Y6|99999|MARCOS FLAVIO SILVEIRA VASCONCELOS D ANGELO|40|UNIMONTES@UNIMONTES.br|UNIMONTES|UNIMONTES|P|2013|2016||
K4763852T1|99999|NARCISO DA HORA LISBOA|40|UNIMONTES@UNIMONTES.br|UNIMONTES|UNIMONTES|P|2013|2016||
K4772771Z1|99999|ANTONIO WILSON VIEIRA|40|UNIMONTES@UNIMONTES.br|UNIMONTES|UNIMONTES|P|2013|2016||
K4759292D2|99999|ROMULO BARBOSA VELOSO|40|UNIMONTES@UNIMONTES.br|UNIMONTES|UNIMONTES|P|2013|2016||
K4782544Z2|99999|WALMIR MATOS CAMINHAS|40|UNIMONTES@UNIMONTES.br|UNIMONTES|UNIMONTES|P|2013|2016||
K4705634J5|99999|ROSIVALDO ANTONIO GONCALVES|40|UNIMONTES@UNIMONTES.br|UNIMONTES|UNIMONTES|P|2013|2016||
K4777205D4|99999|RENATO DOURADO MAIA|40|UNIMONTES@UNIMONTES.br|UNIMONTES|UNIMONTES|P|2013|2016||
K4465973H0|99999|JOAO BATISTA MENDES|40|UNIMONTES@UNIMONTES.br|UNIMONTES|UNIMONTES|P|2013|2016||
K4525844U7|99999|GUSTAVO FOSCOLO DE MOURA GOMES|40|UNIMONTES@UNIMONTES.br|UNIMONTES|UNIMONTES|P|2013|2016||
K4761886Z9|99999|NARCISO FERREIRA DOS SANTOS NETO|40|UNIMONTES@UNIMONTES.br|UNIMONTES|UNIMONTES|P|2013|2016||
K4126675Y4|99999|MARCEL VELOSO CAMPOS|40|UNIMONTES@UNIMONTES.br|UNIMONTES|UNIMONTES|P|2013|2016||
K4782577P5|99999|JOSE HIGINO DIAS FILHO|40|UNIMONTES@UNIMONTES.br|UNIMONTES|UNIMONTES|P|2013|2016||
K4707314E9|99999|ANTONIO DIMAS CARDOSO|40|UNIMONTES@UNIMONTES.br|UNIMONTES|UNIMONTES|P|2013|2016||
K4228504Y8|99999|DANIELLA REIS BARBOSA MARTELLI|40|UNIMONTES@UNIMONTES.br|UNIMONTES|UNIMONTES|P|2013|2016||
K4709850U4|99999|CRISTINA ANDRADE SAMPAIO|40|UNIMONTES@UNIMONTES.br|UNIMONTES|UNIMONTES|P|2013|2016||
K4240732T6|99999|SIBELE NASCIMENTO DE AQUINO|40|UNIMONTES@UNIMONTES.br|UNIMONTES|UNIMONTES|P|2013|2016||
K4705497H6|99999|MAISA TAVARES DE SOUZA LEITE|40|UNIMONTES@UNIMONTES.br|UNIMONTES|UNIMONTES|P|2013|2016||
K4700880D5|99999|LUCIA HELENA RODRIGUES COSTA|40|UNIMONTES@UNIMONTES.br|UNIMONTES|UNIMONTES|P|2013|2016||
K4753129A6|99999|MARISE FAGUNDES SILVEIRA|40|UNIMONTES@UNIMONTES.br|UNIMONTES|UNIMONTES|P|2013|2016||
K4899555H1|99999|LUCIENE RODRIGUES|40|UNIMONTES@UNIMONTES.br|UNIMONTES|UNIMONTES|P|2013|2016||
K4550941Z6|99999|MARIA FERNANDA SANTOS FIGUEIREDO|40|UNIMONTES@UNIMONTES.br|UNIMONTES|UNIMONTES|P|2013|2016||
K4487323E6|99999|MARIA APARECIDA VIEIRA|40|UNIMONTES@UNIMONTES.br|UNIMONTES|UNIMONTES|P|2013|2016||
K4771840P0|99999|LUIZA AUGUSTA ROSA ROSSI BARBOSA|40|UNIMONTES@UNIMONTES.br|UNIMONTES|UNIMONTES|P|2013|2016||
K4772590Z7|99999|LUIS ANTONIO NOGUEIRA DOS SANTOS|40|UNIMONTES@UNIMONTES.br|UNIMONTES|UNIMONTES|P|2013|2016||
K4746971T1|99999|LUCINEIA DE PINHO|40|UNIMONTES@UNIMONTES.br|UNIMONTES|UNIMONTES|P|2013|2016||
K4288051Z8|99999|LIVIA MARIS RIBEIRO PARANAIBA|40|UNIMONTES@UNIMONTES.br|UNIMONTES|UNIMONTES|P|2013|2016||
K4710657E4|99999|JOSIANE SANTOS BRANT ROCHA|40|UNIMONTES@UNIMONTES.br|UNIMONTES|UNIMONTES|P|2013|2016||
K4707928P8|99999|HERCILIO MARTELLI JUNIOR|40|UNIMONTES@UNIMONTES.br|UNIMONTES|UNIMONTES|P|2013|2016||
K4702516D6|99999|ANTONIO PRATES CALDEIRA|40|UNIMONTES@UNIMONTES.br|UNIMONTES|UNIMONTES|P|2013|2016||
K4758075E6|99999|DANIELA ARAUJO VELOSO POPOFF|40|UNIMONTES@UNIMONTES.br|UNIMONTES|UNIMONTES|P|2013|2016||
K4772528J3|99999|SIMONE DE MELO COSTA|40|UNIMONTES@UNIMONTES.br|UNIMONTES|UNIMONTES|P|2013|2016||
K4705108D3|99999|SILVIO FERNANDO GUIMARAES DE CARVALHO|40|UNIMONTES@UNIMONTES.br|UNIMONTES|UNIMONTES|P|2013|2016||
NOK|99999|DESIREE SANT ANA HAIKAL|40|UNIMONTES@UNIMONTES.br|UNIMONTES|UNIMONTES|P|2013|2016||
K4709850U4|99999|CRISTINA ANDRADE SAMPAIO|40|UNIMONTES@UNIMONTES.br|UNIMONTES|UNIMONTES|P|2013|2016||
K4138273H2|99999|CARLA SILVANA DE OLIVEIRA E SILVA|40|UNIMONTES@UNIMONTES.br|UNIMONTES|UNIMONTES|P|2013|2016||
K4702516D6|99999|ANTONIO PRATES CALDEIRA|40|UNIMONTES@UNIMONTES.br|UNIMONTES|UNIMONTES|P|2013|2016||
K4759324E8|99999|RENE RODRIGUES VELOSO|40|UNIMONTES@UNIMONTES.br|UNIMONTES|UNIMONTES|P|2013|2016||
K4730856E6|99999|NILSON LUIZ CASTELUCIO BRITO|40|UNIMONTES@UNIMONTES.br|UNIMONTES|UNIMONTES|P|2013|2016||
