ID_Lattes|MATRICULA|NOME|CH|mail|LP_1|PROGRAMA_1|CATEG_1|Periodo_Inicio_1|Periodo_Fim_1|Resp_prog|Resp_LP1
K4744317Z2|99999|ROSALVO NOBRE CARNEIRO|40|UERN@UERN.br|UERN|UERN|P|2013|2016|UERN|UERN
K4709962Y4|99999|AILTON SIQUEIRA DE SOUSA FONSECA|40|UERN@UERN.br|UERN|UERN|P|2013|2016||
K4766139P3|99999|ANDRE VICTOR CAVALCANTI SEAL DA CUNHA|40|UERN@UERN.br|UERN|UERN|P|2013|2016||
K4737402E9|99999|FRANCISCO FABIANO DE FREITAS MENDES|40|UERN@UERN.br|UERN|UERN|P|2013|2016||
K8407243J1|99999|JEAN HENRIQUE COSTA|40|UERN@UERN.br|UERN|UERN|P|2013|2016||
K4798005P6|99999|MARCOS DE CAMARGO VON ZUBEN|40|UERN@UERN.br|UERN|UERN|P|2013|2016||
K4797705U0|99999|MARIA BETANIA RIBEIRO TORRES|40|UERN@UERN.br|UERN|UERN|P|2013|2016||
K4798549D6|99999|GEOVANIA DA SILVA TOSCANO|40|UERN@UERN.br|UERN|UERN|P|2013|2016||
K4778582A3|99999|LEMUEL RODRIGUES DA SILVA|40|UERN@UERN.br|UERN|UERN|P|2013|2016||
K8013576Y1|99999|ALINE GAMA DE ALMEIDA|40|UERN@UERN.br|UERN|UERN|P|2013|2016||
K4765042J7|99999|JOSE GLEBSON VIEIRA|40|UERN@UERN.br|UERN|UERN|P|2013|2016||
K4610190T2|99999|FRANCISCO VANDERLEI DE LIMA|40|UERN@UERN.br|UERN|UERN|P|2013|2016||
K4750412T4|99999|KARLLA CHRISTINE ARAUJO SOUZA|40|UERN@UERN.br|UERN|UERN|P|2013|2016||
K4733905H2|99999|MARCIA REGINA FARIAS DA SILVA|40|UERN@UERN.br|UERN|UERN|P|2013|2016||
K4723959T0|99999|MARIA CRISTINA ROCHA BARRETTO|40|UERN@UERN.br|UERN|UERN|P|2013|2016||
K4767138U8|99999|GUILHERME PAIVA DE CARVALHO MARTINS|40|UERN@UERN.br|UERN|UERN|P|2013|2016||
K4778790H1|99999|ANA MARIA MORAIS COSTA|40|UERN@UERN.br|UERN|UERN|P|2013|2016||
K8311198A6|99999|FRANCISCO LINHARES FONTELES NETO|40|UERN@UERN.br|UERN|UERN|P|2013|2016||
K4795380A0|99999|MARCILIA LUZIA GOMES DA COSTA|40|UERN@UERN.br|UERN|UERN|P|2013|2016||
