artigoEmPeriodico	2017	http://dx.doi.org/10.1090/mcom/3108	On the robustness of multiscale hybrid-mixed methods	Mathematics of Computation (Online)	Paredes, Diego ; Valentin, Frédéric ; VERSIEUX, HENRIQUE M.	A1	Mathematics of Computation
artigoEmPeriodico	2016		A low-order local projection method for the incompressible Navier-Stokes equations in two- and three-dimensions	IMA Journal of Numerical Analysis	Araya, R. ; Poza, A. ; Valentin, F.	B1	
artigoEmPeriodico	2016	http://dx.doi.org/10.1051/m2an/2015046	A hybrid-mixed method for elasticity	Modélisation Mathématique et Analyse Numérique (Imprimé)	Harder, Christopher ; Madureira, Alexandre L. ; Valentin, Frédéric	A2	
artigoEmPeriodico	2015	http://dx.doi.org/10.1137/130938499	On a Multiscale Hybrid-Mixed Method for Advective-Reactive Dominated Problems with Heterogeneous Coefficients	Multiscale Modeling & Simulation (Print)	Paredes, D. ; Harder, Christopher ; VALENTIN, F.	A1	
artigoEmPeriodico	2014	http://dx.doi.org/10.1007/s10444-014-9343-6	An adaptive residual local projection finite element method for the Navier-Stokes equations	Advances in Computational Mathematics	Araya, Rodolfo ; Poza, Abner H. ; Valentin, Frédéric	A1	
artigoEmPeriodico	2013	http://dx.doi.org/10.1137/120888223	Multiscale Hybrid-Mixed Method	SIAM Journal on Numerical Analysis (Print)	Araya, R. ; Harder, Christopher ; Paredes, D. ; VALENTIN, F.	A1	
artigoEmPeriodico	2013	http://dx.doi.org/10.1016/j.jcp.2013.03.019	A family of multiscale hybrid-mixed finite element methods for the darcy equation with rough coefficients	Journal of Computational Physics (Print)	Harder, Christopher ; Paredes, D. ; VALENTIN, F.	A1	
trabalhoCompletoEmCongresso	2016		A Locking-Free MHM Method for Elasticity	XXXVI CNMAC	PEREIRA, W. ; Valentin, F.		
