
PB0:2013,61;2014,72;2015,56;2016,65;
PB1:2013,2;2014,2;2015,1;2016,2;
PB2:2013,10;2014,7;2015,8;2016,6;
PB3:*itens sem ano,6;2015,1;
PB4:2013,98;2014,49;2015,91;2016,69;
PB5:2013,7;2014,6;2015,3;2016,3;
PB6:2013,19;2014,10;2015,9;2016,25;
PB7:2015,1;2016,8;
PB8:2013,25;2014,14;2015,6;2016,16;
PB9:2013,2;2014,3;
PT2:2013,1;
PT4:2013,6;2014,4;2016,1;
PT5:2015,1;2016,1;
OA0:2014,1;2016,2;
OA1:2005,1;2006,1;2008,1;2009,2;2010,1;2011,2;2012,8;2013,5;2014,6;2015,7;2016,6;2017,1;
OA2:2009,1;2011,1;2012,1;2013,1;2014,1;2015,9;2016,8;2017,3;
OA5:2015,3;2016,2;2017,1;
OA6:2016,2;
OC0:2013,1;2014,3;2015,2;2016,1;
OC1:2013,12;2014,13;2015,7;2016,9;
OC2:2013,11;2014,15;2015,9;2016,12;
OC3:2016,2;
OC4:2013,1;2014,1;2015,1;
OC5:2013,5;2014,4;2015,6;2016,1;
OC6:2013,1;2014,1;
Pm:2013,3;2014,5;2015,5;2016,3;
Pj:2002,3;2003,1;2005,1;2006,1;2007,1;2008,5;2009,4;2010,11;2011,15;2012,6;2013,12;2014,11;2015,8;2016,10;
PB:*itens sem ano,6;2013,224;2014,163;2015,176;2016,194;
PT:2013,7;2014,4;2015,1;2016,2;
OA:2005,1;2006,1;2008,1;2009,3;2010,1;2011,3;2012,9;2013,6;2014,8;2015,19;2016,20;2017,5;
OC:2013,31;2014,37;2015,25;2016,25;
Ep:2013,31;2014,18;2015,17;2016,3;
Eo:2013,7;2014,14;2015,10;2016,6;