ID_Lattes|MATRICULA|NOME|CH|mail|LP_1|PROGRAMA_1|CATEG_1|Periodo_Inicio_1|Periodo_Fim_1|Resp_prog|Resp_LP1
K4797232J6|99999|CARLA KAZUE NAKAO CAVALIERO|40|UNICAMP@UNICAMP.br|PSE|PSE|P|2013|2016|PSE|PSE
K4783420P1|99999|ARNALDO CESAR DA SILVA WALTER|40|UNICAMP@UNICAMP.br|PSE|PSE|P|2013|2016||
K4780765T8|99999|ANDRE TOSI FURTADO|40|UNICAMP@UNICAMP.br|PSE|PSE|P|2013|2016||
K4762269P8|99999|CONRADO AUGUSTUS DE MELO|40|UNICAMP@UNICAMP.br|PSE|PSE|P|2013|2016||
K4255468P8|99999|CARLOS EDUARDO KEUTENEDJIAN MADY|40|UNICAMP@UNICAMP.br|PSE|PSE|P|2013|2016||
K4788570H7|99999|SERGIO VALDIR BAJAY|40|UNICAMP@UNICAMP.br|PSE|PSE|P|2013|2016||
K4783051J6|99999|WALDYR LUIZ RIBEIRO GALLO|40|UNICAMP@UNICAMP.br|PSE|PSE|P|2013|2016||
K4797783D5|99999|SONIA REGINA DA CAL SEIXAS|40|UNICAMP@UNICAMP.br|PSE|PSE|P|2013|2016||
K4780512Y9|99999|PAULO DE BARROS CORREIA|40|UNICAMP@UNICAMP.br|PSE|PSE|P|2013|2016||
K4137508P7|99999|MICHELLE CRISTINA ARAUJO PICOLI|40|UNICAMP@UNICAMP.br|PSE|PSE|P|2013|2016||
K4791813U6|99999|MARCELO PEREIRA DA CUNHA|40|UNICAMP@UNICAMP.br|PSE|PSE|P|2013|2016||
K4702214U3|99999|JOAQUIM EUGENIO ABEL SEABRA|40|UNICAMP@UNICAMP.br|PSE|PSE|P|2013|2016||
K4744864U1|99999|IEDA GERIBERTO HIDALGO|40|UNICAMP@UNICAMP.br|PSE|PSE|P|2013|2016||
K4780350H1|99999|GILBERTO DE MARTINO JANNUZZI|40|UNICAMP@UNICAMP.br|PSE|PSE|P|2013|2016||
K4742432D6|99999|FABIO VALE SCARPARE|40|UNICAMP@UNICAMP.br|PSE|PSE|P|2013|2016||
K4727088H6|99999|ENNIO PERES DA SILVA|40|UNICAMP@UNICAMP.br|PSE|PSE|P|2013|2016||
