ID_Lattes|MATRICULA|NOME|CH|mail|LP_1|PROGRAMA_1|CATEG_1|Periodo_Inicio_1|Periodo_Fim_1|Resp_prog|Resp_LP1
K4787736P1|99999|REGINA CELIA SPADARI|40|UNIFESP@UNIFESP.br|UNIFESP|UNIFESP|P|2013|2016|UNIFESP|UNIFESP
K4753500E9|99999|VICTOR ZUNIGA DOURADO|40|UNIFESP@UNIFESP.br|UNIFESP|UNIFESP|P|2013|2016||
K4762154U7|99999|VERIDIANA VERA DE ROSSO|40|UNIFESP@UNIFESP.br|UNIFESP|UNIFESP|P|2013|2016||
K4733346D3|99999|VANESSA DIAS CAPRILES|40|UNIFESP@UNIFESP.br|UNIFESP|UNIFESP|P|2013|2016||
K4700024E7|99999|SYLVIA HELENA SOUZA DA SILVA BATISTA|40|UNIFESP@UNIFESP.br|UNIFESP|UNIFESP|P|2013|2016||
K4786655J9|99999|SONIA HATSUE TATUMI|40|UNIFESP@UNIFESP.br|UNIFESP|UNIFESP|P|2013|2016||
K4233551P9|99999|SOLANGE GUIZILINI|40|UNIFESP@UNIFESP.br|UNIFESP|UNIFESP|P|2013|2016||
K4705318Y4|99999|MARCIA MARIA PIRES CAMARGO NOVELLI|40|UNIFESP@UNIFESP.br|UNIFESP|UNIFESP|P|2013|2016||
K4700883T3|99999|FERNANDO DE ALMEIDA SILVEIRA|40|UNIFESP@UNIFESP.br|UNIFESP|UNIFESP|P|2013|2016||
K4790280D3|99999|SEMIRAMIS MARTINS ALVARES DOMENE|40|UNIFESP@UNIFESP.br|UNIFESP|UNIFESP|P|2013|2016||
K4766067U1|99999|ROSANA FIORINI PUCCINI|40|UNIFESP@UNIFESP.br|UNIFESP|UNIFESP|P|2013|2016||
K4762430J4|99999|RAQUEL DE PAULA CARVALHO|40|UNIFESP@UNIFESP.br|UNIFESP|UNIFESP|P|2013|2016||
K4792577J5|99999|ROSANA APARECIDA SALVADOR ROSSIT|40|UNIFESP@UNIFESP.br|UNIFESP|UNIFESP|P|2013|2016||
K4776000A2|99999|RONALDO VAGNER THOMATIELI DOS SANTOS|40|UNIFESP@UNIFESP.br|UNIFESP|UNIFESP|P|2013|2016||
K4127014A1|99999|ROGERIO CRUZ DE OLIVEIRA|40|UNIFESP@UNIFESP.br|UNIFESP|UNIFESP|P|2013|2016||
K4770933A2|99999|RICARDO LUIS FERNANDES GUERRA|40|UNIFESP@UNIFESP.br|UNIFESP|UNIFESP|P|2013|2016||
K4272191H8|99999|RICARDO JOSE GOMES|40|UNIFESP@UNIFESP.br|UNIFESP|UNIFESP|P|2013|2016||
K4734356P7|99999|RICARDO DA COSTA PADOVANI|40|UNIFESP@UNIFESP.br|UNIFESP|UNIFESP|P|2013|2016||
K4276141E7|99999|REGINA CLAUDIA BARBOSA DA SILVA|40|UNIFESP@UNIFESP.br|UNIFESP|UNIFESP|P|2013|2016||
K4795785H2|99999|MILENA DE BARROS VIANA|40|UNIFESP@UNIFESP.br|UNIFESP|UNIFESP|P|2013|2016||
NOK|99999|MILENA CARLOS VIDOTTO CRESCENTINI|40|UNIFESP@UNIFESP.br|UNIFESP|UNIFESP|P|2013|2016||
K4706086U4|99999|ADRIANA MARCASSA TUCCI|40|UNIFESP@UNIFESP.br|UNIFESP|UNIFESP|P|2013|2016||
K4759648D5|99999|DANIELLE ARISA CARANTI|40|UNIFESP@UNIFESP.br|UNIFESP|UNIFESP|P|2013|2016||
K4797465T0|99999|CARLOS ROBERTO DE CASTRO E SILVA|40|UNIFESP@UNIFESP.br|UNIFESP|UNIFESP|P|2013|2016||
K4717424D2|99999|CARLOS EDUARDO PINFILDI|40|UNIFESP@UNIFESP.br|UNIFESP|UNIFESP|P|2013|2016||
K4795330Y6|99999|CARINE SAVALLI REDIGOLO|40|UNIFESP@UNIFESP.br|UNIFESP|UNIFESP|P|2013|2016||
K4734809T4|99999|CAMILA APARECIDA MACHADO DE OLIVEIRA|40|UNIFESP@UNIFESP.br|UNIFESP|UNIFESP|P|2013|2016||
K4723981U1|99999|CLAUDIA RIDEL JUZWIAK|40|UNIFESP@UNIFESP.br|UNIFESP|UNIFESP|P|2013|2016||
K4716052J0|99999|HELGA TATIANA TUCCI|40|UNIFESP@UNIFESP.br|UNIFESP|UNIFESP|P|2013|2016||
K4795500A8|99999|ODAIR AGUIAR JUNIOR|40|UNIFESP@UNIFESP.br|UNIFESP|UNIFESP|P|2013|2016||
K4767622U3|99999|ANA RAIMUNDA DAMASO|40|UNIFESP@UNIFESP.br|UNIFESP|UNIFESP|P|2013|2016||
K4732544J0|99999|PAULO HENRIQUE SILVA MARQUES DE AZEVEDO|40|UNIFESP@UNIFESP.br|UNIFESP|UNIFESP|P|2013|2016||
K4200102A8|99999|PAULA ANDREA MARTINS|40|UNIFESP@UNIFESP.br|UNIFESP|UNIFESP|P|2013|2016||
K4780025H3|99999|NILDO ALVES BATISTA|40|UNIFESP@UNIFESP.br|UNIFESP|UNIFESP|P|2013|2016||
K4773964U9|99999|NARA REJANE CRUZ DE OLIVEIRA|40|UNIFESP@UNIFESP.br|UNIFESP|UNIFESP|P|2013|2016||
K4779203Z2|99999|NANCY RAMACCIOTTI DE OLIVEIRA MONTEIRO|40|UNIFESP@UNIFESP.br|UNIFESP|UNIFESP|P|2013|2016||
K4704791A1|99999|MARIANA CHAVES AVEIRO|40|UNIFESP@UNIFESP.br|UNIFESP|UNIFESP|P|2013|2016||
K4705664E4|99999|MARIA STELLA PECCIN DA SILVA|40|UNIFESP@UNIFESP.br|UNIFESP|UNIFESP|P|2013|2016||
K4791097E6|99999|MARIA INES BADARO MOREIRA|40|UNIFESP@UNIFESP.br|UNIFESP|UNIFESP|P|2013|2016||
K4773100Z8|99999|MARIA DO CARMO BARACHO DE ALENCAR|40|UNIFESP@UNIFESP.br|UNIFESP|UNIFESP|P|2013|2016||
NOK|99999|LIU CHIAO YI INOUE|40|UNIFESP@UNIFESP.br|UNIFESP|UNIFESP|P|2013|2016||
NOK|99999|LIDIA RUIZ MORENO BRISOLA|40|UNIFESP@UNIFESP.br|UNIFESP|UNIFESP|P|2013|2016||
K4761627J6|99999|MARCOS LEONI GAZARINI DUTRA|40|UNIFESP@UNIFESP.br|UNIFESP|UNIFESP|P|2013|2016||
K4164705H5|99999|FLAVIA DE OLIVEIRA|40|UNIFESP@UNIFESP.br|UNIFESP|UNIFESP|P|2013|2016||
K4769114J8|99999|JOSE RONNIE CARVALHO DE VASCONCELOS|40|UNIFESP@UNIFESP.br|UNIFESP|UNIFESP|P|2013|2016||
K4777612D1|99999|JOSE RODRIGO PAULI|40|UNIFESP@UNIFESP.br|UNIFESP|UNIFESP|P|2013|2016||
K4764070A4|99999|JOAO PAULO BOTERO|40|UNIFESP@UNIFESP.br|UNIFESP|UNIFESP|P|2013|2016||
K4790181H2|99999|JAIR RIBEIRO CHAGAS|40|UNIFESP@UNIFESP.br|UNIFESP|UNIFESP|P|2013|2016||
K4769677A3|99999|ISABEL CRISTINA CESPEDES|40|UNIFESP@UNIFESP.br|UNIFESP|UNIFESP|P|2013|2016||
K4772137D8|99999|IMPERIO LOMBARDI JUNIOR|40|UNIFESP@UNIFESP.br|UNIFESP|UNIFESP|P|2013|2016||
K4705662D5|99999|HANNA KAREN MOREIRA ANTUNES|40|UNIFESP@UNIFESP.br|UNIFESP|UNIFESP|P|2013|2016||
K4703847E7|99999|GLAUCIA MONTEIRO DE CASTRO|40|UNIFESP@UNIFESP.br|UNIFESP|UNIFESP|P|2013|2016||
K4737896T8|99999|FERNANDA BAEZA SCAGLIUSI|40|UNIFESP@UNIFESP.br|UNIFESP|UNIFESP|P|2013|2016||
K4796379E4|99999|FERNANDA CRISTINA MARQUETTI|40|UNIFESP@UNIFESP.br|UNIFESP|UNIFESP|P|2013|2016||
K4728141U8|99999|EUNICE NAKAMURA|40|UNIFESP@UNIFESP.br|UNIFESP|UNIFESP|P|2013|2016||
K4742895D8|99999|LUCIANA PELLEGRINI PISANI|40|UNIFESP@UNIFESP.br|UNIFESP|UNIFESP|P|2013|2016||
K4273270U0|99999|MARCIA CARVALHO GARCIA|40|UNIFESP@UNIFESP.br|UNIFESP|UNIFESP|P|2013|2016||
K4770351H9|99999|CAROLINA PRADO DE FRANCA CARVALHO|40|UNIFESP@UNIFESP.br|UNIFESP|UNIFESP|P|2013|2016||
K4704794T8|99999|ANA CLAUDIA MUNIZ RENNO|40|UNIFESP@UNIFESP.br|UNIFESP|UNIFESP|P|2013|2016||
K4708626H0|99999|ALEXANDRE VALOTTA DA SILVA|40|UNIFESP@UNIFESP.br|UNIFESP|UNIFESP|P|2013|2016||
K4766700T9|99999|ALESSANDRA MUSSI RIBEIRO|40|UNIFESP@UNIFESP.br|UNIFESP|UNIFESP|P|2013|2016||
K4331493P6|99999|ALESSANDRA MEDEIROS|40|UNIFESP@UNIFESP.br|UNIFESP|UNIFESP|P|2013|2016||
K4767513P7|99999|EMILSON COLANTONIO|40|UNIFESP@UNIFESP.br|UNIFESP|UNIFESP|P|2013|2016||
K4772727P6|99999|ELKE STEDEFELDT|40|UNIFESP@UNIFESP.br|UNIFESP|UNIFESP|P|2013|2016||
K4757536U5|99999|DANIEL HENRIQUE BANDONI|40|UNIFESP@UNIFESP.br|UNIFESP|UNIFESP|P|2013|2016||
K4707522T6|99999|DANIEL ARAKI RIBEIRO|40|UNIFESP@UNIFESP.br|UNIFESP|UNIFESP|P|2013|2016||
K4758311T1|99999|CRISTINA DOS SANTOS CARDOSO DE SA|40|UNIFESP@UNIFESP.br|UNIFESP|UNIFESP|P|2013|2016||
K4787894A7|99999|WANDERLEY LOPES DE SOUZA|40|UNIFESP@UNIFESP.br|UNIFESP|UNIFESP|P|2013|2016||
K4780834Z8|99999|SOLANGE APARECIDA NAPPO|40|UNIFESP@UNIFESP.br|UNIFESP|UNIFESP|P|2013|2016||
K4791580E8|99999|SIMONE GEORGES EL KHOURI MIRAGLIA|40|UNIFESP@UNIFESP.br|UNIFESP|UNIFESP|P|2013|2016||
K4706068A0|99999|ROZANA MESQUITA CICONELLI|40|UNIFESP@UNIFESP.br|UNIFESP|UNIFESP|P|2013|2016||
K4704318J4|99999|CLAUDIA MARIA FRANCA MAZZEI NOGUEIRA|40|UNIFESP@UNIFESP.br|UNIFESP|UNIFESP|P|2013|2016||
K4779596Y4|99999|CIRO WINCKLER DE OLIVEIRA FILHO|40|UNIFESP@UNIFESP.br|UNIFESP|UNIFESP|P|2013|2016||
K4783483Y1|99999|ROGERIO MENEGHINI|40|UNIFESP@UNIFESP.br|UNIFESP|UNIFESP|P|2013|2016||
K4792550T8|99999|PAULO SCHOR|40|UNIFESP@UNIFESP.br|UNIFESP|UNIFESP|P|2013|2016||
K4787866T0|99999|MARCOS BOSI FERRAZ|40|UNIFESP@UNIFESP.br|UNIFESP|UNIFESP|P|2013|2016||
K8047498D8|99999|MARCO ANTONIO GUTIERREZ|40|UNIFESP@UNIFESP.br|UNIFESP|UNIFESP|P|2013|2016||
K4793154A1|99999|MARCELO RIBEIRO DA SILVA BRIONES|40|UNIFESP@UNIFESP.br|UNIFESP|UNIFESP|P|2013|2016||
K4763345P5|99999|JOSE ERNESTO DE ARAUJO FILHO|40|UNIFESP@UNIFESP.br|UNIFESP|UNIFESP|P|2013|2016||
K4795510P6|99999|IVAN TORRES PISA|40|UNIFESP@UNIFESP.br|UNIFESP|UNIFESP|P|2013|2016||
K4720517T6|99999|HEIMAR DE FATIMA MARIN|40|UNIFESP@UNIFESP.br|UNIFESP|UNIFESP|P|2013|2016||
K4727567Y7|99999|PAULO BANDIERA PAIVA|40|UNIFESP@UNIFESP.br|UNIFESP|UNIFESP|P|2013|2016||
K4770943J0|99999|PAOLA ZUCCHI|40|UNIFESP@UNIFESP.br|UNIFESP|UNIFESP|P|2013|2016||
K4787987E4|99999|MONICA PARENTE RAMOS|40|UNIFESP@UNIFESP.br|UNIFESP|UNIFESP|P|2013|2016||
K4131463U4|99999|FELIPE MANCINI|40|UNIFESP@UNIFESP.br|UNIFESP|UNIFESP|P|2013|2016||
K4798818E6|99999|ENEIDA ABRANTES MENDONCA|40|UNIFESP@UNIFESP.br|UNIFESP|UNIFESP|P|2013|2016||
K4783690P6|99999|DANIEL SIGULEM|40|UNIFESP@UNIFESP.br|UNIFESP|UNIFESP|P|2013|2016||
NOK|99999|CRISTINA LUCIA FEIJO ORTOLANI FALTIN|40|UNIFESP@UNIFESP.br|UNIFESP|UNIFESP|P|2013|2016||
K4728215E8|99999|CLAUDIA GALINDO NOVOA BARSOTTINI|40|UNIFESP@UNIFESP.br|UNIFESP|UNIFESP|P|2013|2016||
