7091334915208635
6783064368837751
2270249882096942
9900648217984726
4939043777843624
3615688579946805
9211890399850624
6126104853334196
8052370131852533
9953503354410892
9133608322839843
3403870073253245
5845787647988303
1209386477961973
9648922160710438
4365891367994000
8006865596138564
0245365238186836
9098047398813476
9588738213862295
2248567464602970
1277202985083208
