0.15
1.0
0.15
0.15
0.780159
1.369
0.593665
1.0
1.0
0.15
2.00663
0.15
0.15
1.0
1.03733
0.15
0.566842
0.15
0.15
0.15
0.15
0.593665
0.15
0.15
0.15
0.15
0.15
0.15
1.19505
0.15
0.947494
0.15
0.15
0.15
0.15
0.15
1.0
0.15
0.751912
1.03733
1.0
1.0
0.15
1.369
0.15
0.15
0.751912
0.15
0.15
0.15
