ID_Lattes|MATRICULA|NOME|CH|mail|LP_1|PROGRAMA_1|CATEG_1|Periodo_Inicio_1|Periodo_Fim_1|Resp_prog|Resp_LP1
K4773654D8|99999|CAMILA CARNEIRO DAZZI|40|CEFET-RJ@CEFET-RJ.br|CEFET-RJ|CEFET-RJ|P|2013|2016|CEFET-RJ|CEFET-RJ
K4770549P4|99999|MARIA RENILDA NERY BARRETO|40|CEFET-RJ@CEFET-RJ.br|CEFET-RJ|CEFET-RJ|P|2013|2016||
K4438594T5|99999|JULIO CESAR DE SOUZA TAVARES|40|CEFET-RJ@CEFET-RJ.br|CEFET-RJ|CEFET-RJ|P|2013|2016||
K4730193T1|99999|FABIO SAMPAIO DE ALMEIDA|40|CEFET-RJ@CEFET-RJ.br|CEFET-RJ|CEFET-RJ|P|2013|2016||
K4790138Y3|99999|SONIA BEATRIZ DOS SANTOS|40|CEFET-RJ@CEFET-RJ.br|CEFET-RJ|CEFET-RJ|P|2013|2016||
K4785838J0|99999|ENEIDA LEAL CUNHA|40|CEFET-RJ@CEFET-RJ.br|CEFET-RJ|CEFET-RJ|P|2013|2016||
K4826497H7|99999|CARLOS HENRIQUE DOS SANTOS MARTINS|40|CEFET-RJ@CEFET-RJ.br|CEFET-RJ|CEFET-RJ|P|2013|2016||
K4796437Z6|99999|NARA MARIA CARLOS DE SANTANA|40|CEFET-RJ@CEFET-RJ.br|CEFET-RJ|CEFET-RJ|P|2013|2016||
K4781869D4|99999|SERGIO LUIZ DE SOUZA COSTA|40|CEFET-RJ@CEFET-RJ.br|CEFET-RJ|CEFET-RJ|P|2013|2016||
K4366228U6|99999|RICARDO AUGUSTO DOS SANTOS|40|CEFET-RJ@CEFET-RJ.br|CEFET-RJ|CEFET-RJ|P|2013|2016||
K4556125J6|99999|RAFAEL MELLO BARBOSA|40|CEFET-RJ@CEFET-RJ.br|CEFET-RJ|CEFET-RJ|P|2013|2016||
K4675305E3|99999|NUNO CARLOS DE FRAGOSO VIDAL|40|CEFET-RJ@CEFET-RJ.br|CEFET-RJ|CEFET-RJ|P|2013|2016||
K4844201A0|99999|MARIO LUIZ DE SOUZA|40|CEFET-RJ@CEFET-RJ.br|CEFET-RJ|CEFET-RJ|P|2013|2016||
K4267313P5|99999|MARIANA ARAUJO LAMEGO|40|CEFET-RJ@CEFET-RJ.br|CEFET-RJ|CEFET-RJ|P|2013|2016||
K4782812U7|99999|MARIA TERESA SALGADO GUIMARAES DA SILVA|40|CEFET-RJ@CEFET-RJ.br|CEFET-RJ|CEFET-RJ|P|2013|2016||
K4164042U0|99999|TALITA DE OLIVEIRA|40|CEFET-RJ@CEFET-RJ.br|CEFET-RJ|CEFET-RJ|P|2013|2016||
K4773481H6|99999|TANIA MARA PEDROSO MULLER|40|CEFET-RJ@CEFET-RJ.br|CEFET-RJ|CEFET-RJ|P|2013|2016||
K4796294T3|99999|LIV REBECCA SOVIK|40|CEFET-RJ@CEFET-RJ.br|CEFET-RJ|CEFET-RJ|P|2013|2016||
K8168912Y7|99999|ELISANGELA DE JESUS SANTOS|40|CEFET-RJ@CEFET-RJ.br|CEFET-RJ|CEFET-RJ|P|2013|2016||
K4778061D7|99999|MARIA CRISTINA GIORGI|40|CEFET-RJ@CEFET-RJ.br|CEFET-RJ|CEFET-RJ|P|2013|2016||
K4732783U8|99999|LUCIANA DE MESQUITA SILVA|40|CEFET-RJ@CEFET-RJ.br|CEFET-RJ|CEFET-RJ|P|2013|2016||
K4736844E6|99999|ROBERTO CARLOS DA SILVA BORGES|40|CEFET-RJ@CEFET-RJ.br|CEFET-RJ|CEFET-RJ|P|2013|2016||
K4320713E1|99999|ANTONIO FERREIRA DA SILVA JUNIOR|40|CEFET-RJ@CEFET-RJ.br|CEFET-RJ|CEFET-RJ|P|2013|2016||
K4739829A3|99999|ALVARO DE OLIVEIRA SENRA|40|CEFET-RJ@CEFET-RJ.br|CEFET-RJ|CEFET-RJ|P|2013|2016||
K4446718T8|99999|ALEXANDRE DE CARVALHO CASTRO|40|CEFET-RJ@CEFET-RJ.br|CEFET-RJ|CEFET-RJ|P|2013|2016||
