strict digraph grafo3 {
	graph [bb="0,0,3152.5,145",
		id=grafo3,
		overlap=False
	];
	node [fontsize=8,
		label="\N",
		shape=rectangle,
		style=filled
	];
	0	 [URL="http://lattes.cnpq.br/1836363748488436",
		color="#17272B",
		fontcolor="#FFFFFF",
		height=0.23611,
		label="Alexandre da Costa Sena [7]",
		pos="135.5,136.5",
		width=1.5];
	21	 [URL="http://lattes.cnpq.br/4869894816851795",
		color="#17272B",
		fontcolor="#FFFFFF",
		height=0.23611,
		label="Leandro A. Justen Marzulo [7]",
		pos="57.5,72.5",
		width=1.5972];
	0 -> 21	 [arrowhead=normal,
		arrowsize=0.75,
		fontsize=8,
		label=0.71,
		lp="85,104.5",
		penwidth=2.63,
		pos="e,60.045,81.035 109.44,127.9 98.627,123.77 86.524,117.78 77.5,109.5 71.156,103.68 66.354,95.366 63.048,88.195"];
	26	 [URL="http://lattes.cnpq.br/6348480289055660",
		color="#17272B",
		fontcolor="#FFFFFF",
		height=0.23611,
		label="Maria C. Stelling de Castro [4]",
		pos="134.5,8.5",
		width=1.6111];
	0 -> 26	 [arrowhead=normal,
		arrowsize=0.75,
		fontsize=8,
		label=0.29,
		lp="143,72.5",
		penwidth=1.37,
		pos="e,134.56,17.125 135.44,128 135.28,107.82 134.84,52.112 134.62,24.883"];
	21 -> 0	 [arrowhead=normal,
		arrowsize=0.75,
		fontsize=8,
		label=0.71,
		lp="112,104.5",
		penwidth=2.63,
		pos="e,126.73,127.9 68.034,81.08 75.045,86.184 84.418,93.124 92.5,99.5 102.12,107.09 112.68,115.92 120.93,122.94"];
	21 -> 26	 [arrowhead=normal,
		arrowsize=0.75,
		fontsize=8,
		label=0.29,
		lp="89,40.5",
		penwidth=1.37,
		pos="e,112.83,17.073 61.129,63.747 65.167,55.805 72.347,43.519 81.5,35.5 88.607,29.274 97.468,24.16 105.9,20.166"];
	26 -> 0	 [arrowhead=normal,
		arrowsize=0.75,
		fontsize=8,
		label=0.5,
		lp="162,72.5",
		penwidth=2.0,
		pos="e,140.6,127.61 139.99,17.343 143.23,22.328 147.14,29.038 149.5,35.5 153.83,47.375 153.38,50.908 154.5,63.5 156.31,83.985 156.27,\
90.081 149.5,109.5 148.14,113.39 146.26,117.41 144.31,121.08"];
	26 -> 21	 [arrowhead=normal,
		arrowsize=0.75,
		fontsize=8,
		label=0.5,
		lp="113,40.5",
		penwidth=2.0,
		pos="e,70.175,63.823 127.27,17.066 119.87,24.638 107.87,36.434 96.5,45.5 90.333,50.418 83.244,55.34 76.816,59.557"];
	1	 [URL="http://lattes.cnpq.br/9781797634377318",
		color="#17272B",
		fontcolor="#FFFFFF",
		height=0.23611,
		label="Fabiano Souza de Oliveira [0]",
		pos="264.5,136.5",
		width=1.5694];
	2	 [URL="http://lattes.cnpq.br/7657422977567514",
		color="#17272B",
		fontcolor="#FFFFFF",
		height=0.23611,
		label="Frederico A. de Oliveira Cruz [1]",
		pos="401.5,136.5",
		width=1.7222];
	3	 [URL="http://lattes.cnpq.br/6107034183202542",
		color="#17272B",
		fontcolor="#FFFFFF",
		height=0.23611,
		label="Celia M. Cortez Silva [1]",
		pos="401.5,72.5",
		width=1.3611];
	2 -> 3	 [arrowhead=normal,
		arrowsize=0.75,
		fontsize=8,
		label=1.0,
		lp="391,104.5",
		penwidth=3.5,
		pos="e,394.54,81.264 395.22,127.85 391.6,122.93 387.41,116.23 385.5,109.5 383.39,102.06 386.27,94.165 390.14,87.672"];
	3 -> 2	 [arrowhead=normal,
		arrowsize=0.75,
		fontsize=8,
		label=1.0,
		lp="407,104.5",
		penwidth=3.5,
		pos="e,401.5,127.9 401.5,81.165 401.5,90.864 401.5,107.8 401.5,120.19"];
	4	 [URL="http://lattes.cnpq.br/3909390599449995",
		color="#17272B",
		fontcolor="#FFFFFF",
		height=0.23611,
		label="Carlos F. F. de Barros e Vasconcellos [0]",
		pos="556.5,136.5",
		width=2.0694];
	5	 [URL="http://lattes.cnpq.br/4299545465339581",
		color="#17272B",
		fontcolor="#FFFFFF",
		height=0.23611,
		label="Antonio C. de Moura Santos [0]",
		pos="709.5,136.5",
		width=1.6667];
	6	 [URL="http://lattes.cnpq.br/",
		color="#17272B",
		fontcolor="#FFFFFF",
		height=0.23611,
		label="[Nome-nao-identificado] [0]",
		pos="841.5,136.5",
		width=1.4861];
	7	 [URL="http://lattes.cnpq.br/0403732822984772",
		color="#17272B",
		fontcolor="#FFFFFF",
		height=0.23611,
		label="Alexandre Sztajnberg [0]",
		pos="961.5,136.5",
		width=1.3472];
	8	 [URL="http://lattes.cnpq.br/4754635406522430",
		color="#17272B",
		fontcolor="#FFFFFF",
		height=0.23611,
		label="Jerrylee D. Yoshii Silva [0]",
		pos="1080.5,136.5",
		width=1.4583];
	9	 [URL="http://lattes.cnpq.br/7535348349141535",
		color="#17272B",
		fontcolor="#FFFFFF",
		height=0.23611,
		label="Vera M. Benjamim Werneck [1]",
		pos="1211.5,136.5",
		width=1.6806];
	11	 [URL="http://lattes.cnpq.br/1829333800490851",
		color="#17272B",
		fontcolor="#FFFFFF",
		height=0.23611,
		label="Rosa M. E. Moreira da Costa [2]",
		pos="1211.5,72.5",
		width=1.6806];
	9 -> 11	 [arrowhead=normal,
		arrowsize=0.75,
		fontsize=8,
		label=1.0,
		lp="1201,104.5",
		penwidth=3.5,
		pos="e,1204.5,81.264 1205.2,127.85 1201.6,122.93 1197.4,116.23 1195.5,109.5 1193.4,102.06 1196.3,94.165 1200.1,87.672"];
	11 -> 9	 [arrowhead=normal,
		arrowsize=0.75,
		fontsize=8,
		label=0.5,
		lp="1217,104.5",
		penwidth=2.0,
		pos="e,1211.5,127.9 1211.5,81.165 1211.5,90.864 1211.5,107.8 1211.5,120.19"];
	29	 [URL="http://lattes.cnpq.br/4657870977403568",
		color="#17272B",
		fontcolor="#FFFFFF",
		height=0.23611,
		label="Guilherme L. Abelha Mota [1]",
		pos="1211.5,8.5",
		width=1.5972];
	11 -> 29	 [arrowhead=normal,
		arrowsize=0.75,
		fontsize=8,
		label=0.5,
		lp="1201,40.5",
		penwidth=2.0,
		pos="e,1204.5,17.264 1205.2,63.847 1201.6,58.934 1197.4,52.232 1195.5,45.5 1193.4,38.057 1196.3,30.165 1200.1,23.672"];
	29 -> 11	 [arrowhead=normal,
		arrowsize=0.75,
		fontsize=8,
		label=1.0,
		lp="1217,40.5",
		penwidth=3.5,
		pos="e,1211.5,63.898 1211.5,17.165 1211.5,26.864 1211.5,43.797 1211.5,56.189"];
	10	 [URL="http://lattes.cnpq.br/5258150848273682",
		color="#17272B",
		fontcolor="#FFFFFF",
		height=0.23611,
		label="Roseli Suzi Wedemann [0]",
		pos="1341.5,136.5",
		width=1.4306];
	12	 [URL="http://lattes.cnpq.br/5413422509570085",
		color="#17272B",
		fontcolor="#FFFFFF",
		height=0.23611,
		label="Paulo E. Duarte Pinto [0]",
		pos="1460.5,136.5",
		width=1.3611];
	13	 [URL="http://lattes.cnpq.br/1734587740129156",
		color="#17272B",
		fontcolor="#FFFFFF",
		height=0.23611,
		label="Augusto C. de Castro Barbosa [2]",
		pos="1590.5,136.5",
		width=1.7361];
	27	 [URL="http://lattes.cnpq.br/7992727935310462",
		color="#17272B",
		fontcolor="#FFFFFF",
		height=0.23611,
		label="Marcus V. Tovar Costa [2]",
		pos="1590.5,72.5",
		width=1.4306];
	13 -> 27	 [arrowhead=normal,
		arrowsize=0.75,
		fontsize=8,
		label=1.0,
		lp="1580,104.5",
		penwidth=3.5,
		pos="e,1583.5,81.264 1584.2,127.85 1580.6,122.93 1576.4,116.23 1574.5,109.5 1572.4,102.06 1575.3,94.165 1579.1,87.672"];
	27 -> 13	 [arrowhead=normal,
		arrowsize=0.75,
		fontsize=8,
		label=1.0,
		lp="1596,104.5",
		penwidth=3.5,
		pos="e,1590.5,127.9 1590.5,81.165 1590.5,90.864 1590.5,107.8 1590.5,120.19"];
	14	 [URL="http://lattes.cnpq.br/1706605645478326",
		color="#17272B",
		fontcolor="#FFFFFF",
		height=0.23611,
		label="Ana L. de C. Leite Duboc [0]",
		pos="1726.5,136.5",
		width=1.5417];
	15	 [URL="http://lattes.cnpq.br/8300604408079168",
		color="#17272B",
		fontcolor="#FFFFFF",
		height=0.23611,
		label="Ricardo Carvalho de Barros [0]",
		pos="1858.5,136.5",
		width=1.625];
	16	 [URL="http://lattes.cnpq.br/3413049864861519",
		color="#17272B",
		fontcolor="#FFFFFF",
		height=0.23611,
		label="Rosa M. Videira de Figueiredo [0]",
		pos="1998.5,136.5",
		width=1.7639];
	17	 [URL="http://lattes.cnpq.br/9164335773757265",
		color="#17272B",
		fontcolor="#FFFFFF",
		height=0.23611,
		label="Regina Serrão Lanzillotti [0]",
		pos="2134.5,136.5",
		width=1.5139];
	18	 [URL="http://lattes.cnpq.br/2324159515825927",
		color="#17272B",
		fontcolor="#FFFFFF",
		height=0.23611,
		label="Raul Jose Donangelo [0]",
		pos="2255.5,136.5",
		width=1.3333];
	19	 [URL="http://lattes.cnpq.br/8180092714037435",
		color="#17272B",
		fontcolor="#FFFFFF",
		height=0.23611,
		label="Patrícia Nunes da Silva [0]",
		pos="2373.5,136.5",
		width=1.4306];
	20	 [URL="http://lattes.cnpq.br/0556459512101837",
		color="#17272B",
		fontcolor="#FFFFFF",
		height=0.23611,
		label="Luis A. Vidal de Carvalho [0]",
		pos="2499.5,136.5",
		width=1.5556];
	22	 [URL="http://lattes.cnpq.br/7074540262731419",
		color="#17272B",
		fontcolor="#FFFFFF",
		height=0.23611,
		label="Neide d. Santos Souza [0]",
		pos="2623.5,136.5",
		width=1.3889];
	23	 [URL="http://lattes.cnpq.br/0662797102623056",
		color="#17272B",
		fontcolor="#FFFFFF",
		height=0.23611,
		label="Sheila R. Murgel Veloso [0]",
		pos="2745.5,136.5",
		width=1.4861];
	24	 [URL="http://lattes.cnpq.br/3383864003678045",
		color="#17272B",
		fontcolor="#FFFFFF",
		height=0.23611,
		label="Cristiane de Faria Oliveira [0]",
		pos="2873.5,136.5",
		width=1.5694];
	25	 [URL="http://lattes.cnpq.br/4468191018994448",
		color="#17272B",
		fontcolor="#FFFFFF",
		height=0.23611,
		label="Maria H. de P. Leite Mello [0]",
		pos="3005.5,136.5",
		width=1.5833];
	28	 [URL="http://lattes.cnpq.br/3965328361563422",
		color="#17272B",
		fontcolor="#FFFFFF",
		height=0.23611,
		label="Luerbio Faria [0]",
		pos="3116.5,136.5",
		width=1];
}
