ID_Lattes|MATRICULA|NOME|CH|mail|LP_1|PROGRAMA_1|CATEG_1|Periodo_Inicio_1|Periodo_Fim_1|Resp_prog|Resp_LP1
K4703142T1|99999|GUNDISALVO PIRATOBA MORALES|40|UEPA@UEPA.br|UEPA|UEPA|P|2013|2016|UEPA|UEPA
K4799790D3|99999|NORMA ELY SANTOS BELTRAO|40|UEPA@UEPA.br|UEPA|UEPA|P|2013|2016||
K4768437A1|99999|CLEA NAZARE CARNEIRO BICHARA|40|UEPA@UEPA.br|UEPA|UEPA|P|2013|2016||
K4769215T0|99999|SUEZILDE DA CONCEICAO AMARAL RIBEIRO|40|UEPA@UEPA.br|UEPA|UEPA|P|2013|2016||
K4777084Z6|99999|ALTEM NASCIMENTO PONTES|40|UEPA@UEPA.br|UEPA|UEPA|P|2013|2016||
K4762876A8|99999|ANA CLAUDIA CALDEIRA TAVARES MARTINS|40|UEPA@UEPA.br|UEPA|UEPA|P|2013|2016||
K4789645D6|99999|ANA LUCIA NUNES GUTJAHR|40|UEPA@UEPA.br|UEPA|UEPA|P|2013|2016||
K4708937J8|99999|LUCIETA GUERREIRO MARTORANO|40|UEPA@UEPA.br|UEPA|UEPA|P|2013|2016||
K4727358U4|99999|HEBE MORGANNE CAMPOS RIBEIRO|40|UEPA@UEPA.br|UEPA|UEPA|P|2013|2016||
K4709039J3|99999|HELIO RAYMUNDO FERREIRA FILHO|40|UEPA@UEPA.br|UEPA|UEPA|P|2013|2016||
K4739850D7|99999|MANOEL TAVARES DE PAULA|40|UEPA@UEPA.br|UEPA|UEPA|P|2013|2016||
K4790417Y3|99999|FLAVIA CRISTINA ARAUJO LUCAS|40|UEPA@UEPA.br|UEPA|UEPA|P|2013|2016||
