strict graph grafo2 {
	graph [bb="0,0,4440.5,209",
		id=grafo2,
		overlap=False
	];
	node [fontsize=8,
		label="\N",
		shape=rectangle,
		style=filled
	];
	0	 [URL="http://lattes.cnpq.br/7523573139592166",
		color="#17272B",
		fontcolor="#FFFFFF",
		height=0.23611,
		label="Everson do Prado Banczek [2]",
		pos="57,72.5",
		width=1.5833];
	39	 [URL="http://lattes.cnpq.br/1559766893291724",
		color="#17272B",
		fontcolor="#FFFFFF",
		height=0.23611,
		label="Paulo R. Pinto Rodrigues [4]",
		pos="194,8.5",
		width=1.5139];
	0 -- 39	 [fontsize=8,
		label=2.0,
		lp="139.5,40.5",
		pos="73.799,63.898 100.09,51.998 150.69,29.102 177.06,17.165"];
	1	 [URL="http://lattes.cnpq.br/6449109891449053",
		color="#17272B",
		fontcolor="#FFFFFF",
		height=0.23611,
		label="Emerson Meyer [0]",
		pos="426,200.5",
		width=1.0972];
	2	 [URL="http://lattes.cnpq.br/0783231483314728",
		color="#17272B",
		fontcolor="#FFFFFF",
		height=0.23611,
		label="Gisella Maria Zanin [0]",
		pos="530,200.5",
		width=1.2778];
	3	 [URL="http://lattes.cnpq.br/5437263332275941",
		color="#17272B",
		fontcolor="#FFFFFF",
		height=0.23611,
		label="Gilmara Machado de Oliveira [0]",
		pos="656,200.5",
		width=1.7222];
	4	 [URL="http://lattes.cnpq.br/7527231134789887",
		color="#17272B",
		fontcolor="#FFFFFF",
		height=0.23611,
		label="Cristiane de Conti Medina [1]",
		pos="792,200.5",
		width=1.5556];
	40	 [URL="http://lattes.cnpq.br/8404941083767535",
		color="#17272B",
		fontcolor="#FFFFFF",
		height=0.23611,
		label="Paulo Henrique Caramori [2]",
		pos="795,136.5",
		width=1.5278];
	4 -- 40	 [fontsize=8,
		label=1.0,
		lp="799.5,168.5",
		pos="792.37,191.9 792.94,180 794.05,157.1 794.63,145.16"];
	5	 [URL="http://lattes.cnpq.br/5641519211700358",
		color="#17272B",
		fontcolor="#FFFFFF",
		height=0.23611,
		label="Paulo César de Castro [0]",
		pos="1047,200.5",
		width=1.375];
	6	 [URL="http://lattes.cnpq.br/0516705125074931",
		color="#17272B",
		fontcolor="#FFFFFF",
		height=0.23611,
		label="Cássio E. Cavenaghi Prete [2]",
		pos="923,200.5",
		width=1.5694];
	6 -- 40	 [fontsize=8,
		label=1.0,
		lp="872.5,168.5",
		pos="907.3,191.9 882.74,180 835.47,157.1 810.82,145.16"];
	28	 [URL="http://lattes.cnpq.br/8259839362903281",
		color="#17272B",
		fontcolor="#FFFFFF",
		height=0.23611,
		label="Diva de Souza Andrade [1]",
		pos="923,136.5",
		width=1.4444];
	6 -- 28	 [fontsize=8,
		label=1.0,
		lp="928.5,168.5",
		pos="923,191.9 923,180 923,157.1 923,145.16"];
	7	 [URL="http://lattes.cnpq.br/9641517111540508",
		color="#17272B",
		fontcolor="#FFFFFF",
		height=0.23611,
		label="Carlos Roberto Sanquetta [1]",
		pos="1170,200.5",
		width=1.5278];
	15	 [URL="http://lattes.cnpq.br/4985215075940551",
		color="#17272B",
		fontcolor="#FFFFFF",
		height=0.23611,
		label="Luciano Farinha Watzlawick [1]",
		pos="1170,136.5",
		width=1.6806];
	7 -- 15	 [fontsize=8,
		label=1.0,
		lp="1175.5,168.5",
		pos="1170,191.9 1170,180 1170,157.1 1170,145.16"];
	8	 [URL="http://lattes.cnpq.br/3619576672162191",
		color="#17272B",
		fontcolor="#FFFFFF",
		height=0.23611,
		label="Carlos Eduardo de Borba [0]",
		pos="1298,200.5",
		width=1.5139];
	9	 [URL="http://lattes.cnpq.br/2920848355110000",
		color="#17272B",
		fontcolor="#FFFFFF",
		height=0.23611,
		label="Eduardo Di Mauro [2]",
		pos="1415,200.5",
		width=1.2222];
	30	 [URL="http://lattes.cnpq.br/6653642556441432",
		color="#17272B",
		fontcolor="#FFFFFF",
		height=0.23611,
		label="Carmen L. Barbosa Guedes [2]",
		pos="1415,136.5",
		width=1.6111];
	9 -- 30	 [fontsize=8,
		label=2.0,
		lp="1420.5,168.5",
		pos="1415,191.9 1415,180 1415,157.1 1415,145.16"];
	10	 [URL="http://lattes.cnpq.br/8571916045049616",
		color="#17272B",
		fontcolor="#FFFFFF",
		height=0.23611,
		label="Edson Perez Guerra [0]",
		pos="1523,200.5",
		width=1.2778];
	11	 [URL="http://lattes.cnpq.br/3217849199882153",
		color="#17272B",
		fontcolor="#FFFFFF",
		height=0.23611,
		label="Edson Laureto [0]",
		pos="1625,200.5",
		width=1.0417];
	12	 [URL="http://lattes.cnpq.br/5124792435888370",
		color="#17272B",
		fontcolor="#FFFFFF",
		height=0.23611,
		label="Edson Antonio da Silva [0]",
		pos="1733,200.5",
		width=1.4444];
	13	 [URL="http://lattes.cnpq.br/6141444369495639",
		color="#17272B",
		fontcolor="#FFFFFF",
		height=0.23611,
		label="Luiz A. Ramos Pereira [0]",
		pos="1854,200.5",
		width=1.4028];
	14	 [URL="http://lattes.cnpq.br/8008716840192055",
		color="#17272B",
		fontcolor="#FFFFFF",
		height=0.23611,
		label="Luiz C. Garcia Junior [0]",
		pos="1971,200.5",
		width=1.3472];
	16	 [URL="http://lattes.cnpq.br/2135631756325452",
		color="#17272B",
		fontcolor="#FFFFFF",
		height=0.23611,
		label="Marcelo Real Prado [0]",
		pos="2084,200.5",
		width=1.2778];
	17	 [URL="http://lattes.cnpq.br/3501951737374160",
		color="#17272B",
		fontcolor="#FFFFFF",
		height=0.23611,
		label="Marcelo Fernandes Vieira [0]",
		pos="2204,200.5",
		width=1.5417];
	18	 [URL="http://lattes.cnpq.br/4608185787860314",
		color="#17272B",
		fontcolor="#FFFFFF",
		height=0.23611,
		label="Leandro Paiola Albrecht [0]",
		pos="2331,200.5",
		width=1.4722];
	19	 [URL="http://lattes.cnpq.br/8328754543048690",
		color="#17272B",
		fontcolor="#FFFFFF",
		height=0.23611,
		label="Juliano T. Vilela de Resende [0]",
		pos="2462,200.5",
		width=1.6667];
	20	 [URL="http://lattes.cnpq.br/0507188444713095",
		color="#17272B",
		fontcolor="#FFFFFF",
		height=0.23611,
		label="Jonathan Dieter [4]",
		pos="329,200.5",
		width=1.0833];
	21	 [URL="http://lattes.cnpq.br/6288735286919040",
		color="#17272B",
		fontcolor="#FFFFFF",
		height=0.23611,
		label="Joel Gustavo Teleken [4]",
		pos="329,136.5",
		width=1.3472];
	20 -- 21	 [fontsize=8,
		label=4.0,
		lp="334.5,168.5",
		pos="329,191.9 329,180 329,157.1 329,145.16"];
	29	 [URL="http://lattes.cnpq.br/3265471567908195",
		color="#17272B",
		fontcolor="#FFFFFF",
		height=0.23611,
		label="Dionisio Borsato [1]",
		pos="449,72.5",
		width=1.1389];
	20 -- 29	 [fontsize=8,
		label=1.0,
		lp="407.5,136.5",
		pos="337.74,191.69 349.14,181.4 369.56,162.6 386,145.5 407.64,122.99 431.47,94.71 442.61,81.276"];
	36	 [URL="http://lattes.cnpq.br/0938805013383423",
		color="#17272B",
		fontcolor="#FFFFFF",
		height=0.23611,
		label="Samuel N. Melegari de Souza [3]",
		pos="194,72.5",
		width=1.7222];
	20 -- 36	 [fontsize=8,
		label=2.0,
		lp="265.5,136.5",
		pos="318.28,191.96 304.32,181.96 279.43,163.47 260,145.5 236.35,123.62 211.45,94.559 200.18,81.027"];
	21 -- 29	 [fontsize=8,
		label=1.0,
		lp="402.5,104.5",
		pos="343.71,127.9 366.75,116 411.06,93.102 434.17,81.165"];
	21 -- 36	 [fontsize=8,
		label=2.0,
		lp="275.5,104.5",
		pos="312.45,127.9 286.54,116 236.68,93.102 210.69,81.165"];
	36 -- 39	 [fontsize=8,
		label=1.0,
		lp="199.5,40.5",
		pos="194,63.898 194,51.998 194,29.102 194,17.165"];
	22	 [URL="http://lattes.cnpq.br/5811233850853806",
		color="#17272B",
		fontcolor="#FFFFFF",
		height=0.23611,
		label="Irene Domenes Zapparoli [0]",
		pos="2595,200.5",
		width=1.5278];
	23	 [URL="http://lattes.cnpq.br/6661676956232573",
		color="#17272B",
		fontcolor="#FFFFFF",
		height=0.23611,
		label="Helton J. Alves Borges [0]",
		pos="2719,200.5",
		width=1.4167];
	24	 [URL="http://lattes.cnpq.br/4038930548278283",
		color="#17272B",
		fontcolor="#FFFFFF",
		height=0.23611,
		label="Graciela I. Bolzon de Muniz [0]",
		pos="2848,200.5",
		width=1.6528];
	25	 [URL="http://lattes.cnpq.br/1209937575998431",
		color="#17272B",
		fontcolor="#FFFFFF",
		height=0.23611,
		label="Waldir Nagel Schirmer [0]",
		pos="2977,200.5",
		width=1.4167];
	26	 [URL="http://lattes.cnpq.br/4685833009997780",
		color="#17272B",
		fontcolor="#FFFFFF",
		height=0.23611,
		label="Tatiana R. da Silva Baumgärtner [0]",
		pos="3113,200.5",
		width=1.8472];
	27	 [URL="http://lattes.cnpq.br/6637517443126827",
		color="#17272B",
		fontcolor="#FFFFFF",
		height=0.23611,
		label="Sandra R. Masetto Antunes [4]",
		pos="332,72.5",
		width=1.6111];
	27 -- 39	 [fontsize=8,
		label=1.0,
		lp="277.5,40.5",
		pos="315.08,63.898 288.59,51.998 237.63,29.102 211.06,17.165"];
	44	 [URL="http://lattes.cnpq.br/8715488365201101",
		color="#17272B",
		fontcolor="#FFFFFF",
		height=0.23611,
		label="Maria E. Payret Arrúa [3]",
		pos="332,8.5",
		width=1.375];
	27 -- 44	 [fontsize=8,
		label=3.0,
		lp="337.5,40.5",
		pos="332,63.898 332,51.998 332,29.102 332,17.165"];
	31	 [URL="http://lattes.cnpq.br/1950137747785419",
		color="#17272B",
		fontcolor="#FFFFFF",
		height=0.23611,
		label="Cynthia Beatriz Furstenberger [0]",
		pos="3260,200.5",
		width=1.7361];
	32	 [URL="http://lattes.cnpq.br/0454862055003828",
		color="#17272B",
		fontcolor="#FFFFFF",
		height=0.23611,
		label="Camila Silva da Silva [0]",
		pos="3389,200.5",
		width=1.3472];
	33	 [URL="http://lattes.cnpq.br/7216098788423041",
		color="#17272B",
		fontcolor="#FFFFFF",
		height=0.23611,
		label="Augusto Celso Antunes [0]",
		pos="3508,200.5",
		width=1.4444];
	34	 [URL="http://lattes.cnpq.br/5685434166341583",
		color="#17272B",
		fontcolor="#FFFFFF",
		height=0.23611,
		label="Pedro H. Weirich Neto [0]",
		pos="3629,200.5",
		width=1.4167];
	35	 [URL="http://lattes.cnpq.br/9376203096430598",
		color="#17272B",
		fontcolor="#FFFFFF",
		height=0.23611,
		label="Pedro Augusto Arroyo [1]",
		pos="3749,200.5",
		width=1.4028];
	41	 [URL="http://lattes.cnpq.br/3283741881583320",
		color="#17272B",
		fontcolor="#FFFFFF",
		height=0.23611,
		label="Nehemias Curvelo Pereira [1]",
		pos="3749,136.5",
		width=1.5556];
	35 -- 41	 [fontsize=8,
		label=1.0,
		lp="3754.5,168.5",
		pos="3749,191.9 3749,180 3749,157.1 3749,145.16"];
	37	 [URL="http://lattes.cnpq.br/3620197655490764",
		color="#17272B",
		fontcolor="#FFFFFF",
		height=0.23611,
		label="Ricardo Ralisch [0]",
		pos="3857,200.5",
		width=1.0972];
	38	 [URL="http://lattes.cnpq.br/8318596780458442",
		color="#17272B",
		fontcolor="#FFFFFF",
		height=0.23611,
		label="Ricardo José Ferracin [0]",
		pos="3964,200.5",
		width=1.3611];
	42	 [URL="http://lattes.cnpq.br/8494271331675279",
		color="#17272B",
		fontcolor="#FFFFFF",
		height=0.23611,
		label="Mauro A. da Silva Sa Ravagnani [0]",
		pos="4098,200.5",
		width=1.8472];
	43	 [URL="http://lattes.cnpq.br/5940284266359506",
		color="#17272B",
		fontcolor="#FFFFFF",
		height=0.23611,
		label="Maria L. Machado Fernandes [0]",
		pos="4244,200.5",
		width=1.6944];
	45	 [URL="http://lattes.cnpq.br/5965829794533852",
		color="#17272B",
		fontcolor="#FFFFFF",
		height=0.23611,
		label="Maria de Fátima Guimarães [0]",
		pos="4382,200.5",
		width=1.625];
}
