strict graph grafo2 {
	graph [bb="0,0,1442,145",
		id=grafo2,
		overlap=False
	];
	node [fontsize=8,
		label="\N",
		shape=rectangle,
		style=filled
	];
	0	 [URL="http://lattes.cnpq.br/6504389569181140",
		color="#17272B",
		fontcolor="#FFFFFF",
		height=0.23611,
		label="Mauri Fortes [5]",
		pos="108.5,136.5",
		width=0.95833];
	1	 [URL="http://lattes.cnpq.br/2582725571935270",
		color="#17272B",
		fontcolor="#FFFFFF",
		height=0.23611,
		label="José Helvecio Martins [2]",
		pos="108.5,72.5",
		width=1.375];
	0 -- 1	 [fontsize=8,
		label=2.0,
		lp="114,104.5",
		pos="108.5,127.9 108.5,116 108.5,93.102 108.5,81.165"];
	8	 [URL="http://lattes.cnpq.br/5287040686973900",
		color="#17272B",
		fontcolor="#FFFFFF",
		height=0.23611,
		label="Wanyr Romero Ferreira [4]",
		pos="52.5,8.5",
		width=1.4583];
	0 -- 8	 [fontsize=8,
		label=4.0,
		lp="44,72.5",
		pos="91.239,127.87 74.277,119.32 49.401,103.68 38.5,81.5 27.827,59.787 40.708,30.643 48.06,17.06"];
	12	 [URL="http://lattes.cnpq.br/1156912706212227",
		color="#17272B",
		fontcolor="#FFFFFF",
		height=0.23611,
		label="Gisele Tessari Santos [1]",
		pos="182.5,8.5",
		width=1.3472];
	0 -- 12	 [fontsize=8,
		label=1.0,
		lp="180,72.5",
		pos="120.28,127.86 133.63,118.55 155.02,101.56 166.5,81.5 178.59,60.385 181.55,30.952 182.27,17.179"];
	1 -- 8	 [fontsize=8,
		label=1.0,
		lp="90,40.5",
		pos="101.63,63.898 90.885,51.998 70.205,29.102 59.423,17.165"];
	1 -- 12	 [fontsize=8,
		label=1.0,
		lp="156,40.5",
		pos="117.57,63.898 131.78,51.998 159.1,29.102 173.35,17.165"];
	2	 [URL="http://lattes.cnpq.br/2803066379015505",
		color="#17272B",
		fontcolor="#FFFFFF",
		height=0.23611,
		label="George Leal Jamil [0]",
		pos="204.5,136.5",
		width=1.2083];
	3	 [URL="http://lattes.cnpq.br/9268849440017927",
		color="#17272B",
		fontcolor="#FFFFFF",
		height=0.23611,
		label="Bruno Santos Pimentel [0]",
		pos="317.5,136.5",
		width=1.4167];
	4	 [URL="http://lattes.cnpq.br/8535313996764809",
		color="#17272B",
		fontcolor="#FFFFFF",
		height=0.23611,
		label="Aline P. Leite Nunes [0]",
		pos="434.5,136.5",
		width=1.3194];
	5	 [URL="http://lattes.cnpq.br/7226474162395383",
		color="#17272B",
		fontcolor="#FFFFFF",
		height=0.23611,
		label="José L. Braga Guimarães [0]",
		pos="554.5,136.5",
		width=1.5];
	6	 [URL="http://lattes.cnpq.br/4064024662560135",
		color="#17272B",
		fontcolor="#FFFFFF",
		height=0.23611,
		label="Juliana C. Ferreira Mendonça [0]",
		pos="688.5,136.5",
		width=1.7083];
	7	 [URL="http://lattes.cnpq.br/0162244851289477",
		color="#17272B",
		fontcolor="#FFFFFF",
		height=0.23611,
		label="Mario E. R. Moreira Cavalcanti-Mata [0]",
		pos="842.5,136.5",
		width=2.0694];
	9	 [URL="http://lattes.cnpq.br/0989160531231200",
		color="#17272B",
		fontcolor="#FFFFFF",
		height=0.23611,
		label="Paulo M. de Barros Monteiro [0]",
		pos="996.5,136.5",
		width=1.6944];
	10	 [URL="http://lattes.cnpq.br/9668558620603206",
		color="#17272B",
		fontcolor="#FFFFFF",
		height=0.23611,
		label="Eduardo Trindade Bahia [0]",
		pos="1128.5,136.5",
		width=1.4722];
	11	 [URL="http://lattes.cnpq.br/0859590825273621",
		color="#17272B",
		fontcolor="#FFFFFF",
		height=0.23611,
		label="Rafael Pinheiro Amantéa [0]",
		pos="1254.5,136.5",
		width=1.5139];
	13	 [URL="http://lattes.cnpq.br/2161118329998992",
		color="#17272B",
		fontcolor="#FFFFFF",
		height=0.23611,
		label="Wéderley Mendes Miranda [0]",
		pos="1384.5,136.5",
		width=1.5972];
}
