ID_Lattes|MATRICULA|NOME|CH|mail|LP_1|PROGRAMA_1|CATEG_1|Periodo_Inicio_1|Periodo_Fim_1|Resp_prog|Resp_LP1
K4794209Y2|99999|NICOLINO TROMPIERI FILHO|40|UFC@UFC.br|UFC|UFC|P|2013|2016|UFC|UFC
K4781139Z6|99999|GERARDO CRISTINO FILHO|40|UFC@UFC.br|UFC|UFC|P|2013|2016||
K8686230J5|99999|EDSON HOLANDA TEIXEIRA|40|UFC@UFC.br|UFC|UFC|P|2013|2016||
K4787826P6|99999|ARMENIO AGUIAR DOS SANTOS|40|UFC@UFC.br|UFC|UFC|P|2013|2016||
K4783800U6|99999|WALTER ARAUJO ZIN|40|UFC@UFC.br|UFC|UFC|P|2013|2016||
K4778680D1|99999|IGOR IUCO CASTRO DA SILVA|40|UFC@UFC.br|UFC|UFC|P|2013|2016||
K4758149J5|99999|MARCIA VIVIANE ALVES SARAIVA|40|UFC@UFC.br|UFC|UFC|P|2013|2016||
K4742973Y0|99999|KARUZA MARIA ALVES PEREIRA|40|UFC@UFC.br|UFC|UFC|P|2013|2016||
K4796769D7|99999|LEONARDO DAMASCENO DE SÁ|40|UFC@UFC.br|UFC|UFC|P|2013|2016||
K4790832Y1|99999|MARIA ELIAS SOARES|40|UFC@UFC.br|UFC|UFC|P|2013|2016||
K4361141U6|99999|MARIA DO SOCORRO DE SOUSA RODRIGUES|40|UFC@UFC.br|UFC|UFC|P|2013|2016||
K4723292E2|99999|ANDRE JALLES MONTEIRO|40|UFC@UFC.br|UFC|UFC|P|2013|2016||
K4700971A6|99999|VICENTE LIMA CRISOSTOMO|40|UFC@UFC.br|UFC|UFC|P|2013|2016||
K4228964T7|99999|ALBERTO SAMPAIO LIMA|40|UFC@UFC.br|UFC|UFC|P|2013|2016||
K4728275J6|99999|WAGNER BANDEIRA ANDRIOLA|40|UFC@UFC.br|UFC|UFC|P|2013|2016||
K4757049P6|99999|MAXWEEL VERAS RODRIGUES|40|UFC@UFC.br|UFC|UFC|P|2013|2016||
K4777402J7|99999|SUELI MARIA DE ARAUJO CAVALCANTE|40|UFC@UFC.br|UFC|UFC|P|2013|2016||
K4789702J4|99999|ELOISA MAIA VIDAL|40|UFC@UFC.br|UFC|UFC|P|2013|2016||
K4780251P8|99999|VIRGINIA BENTES PINTO|40|UFC@UFC.br|UFC|UFC|P|2013|2016||
K4761480J6|99999|RODRIGO MARANGUAPE SILVA DA CUNHA|40|UFC@UFC.br|UFC|UFC|P|2013|2016||
K4783505Z6|99999|ANDRE HAGUETTE|40|UFC@UFC.br|UFC|UFC|P|2013|2016||
K4745830H0|99999|FRANCISCO PLACIDO NOGUEIRA ARCANJO|40|UFC@UFC.br|UFC|UFC|P|2013|2016||
K4755913J9|99999|MARIA ADELANE MONTEIRO DA SILVA|40|UFC@UFC.br|UFC|UFC|P|2013|2016||
K4797522E2|99999|LUIZ ODORICO MONTEIRO DE ANDRADE|40|UFC@UFC.br|UFC|UFC|P|2013|2016||
K4703196H5|99999|PERCY ANTONIO GALIMBERTTI CATANIO|40|UFC@UFC.br|UFC|UFC|P|2013|2016||
K4753236Z7|99999|GEISON VASCONCELOS LIRA|40|UFC@UFC.br|UFC|UFC|P|2013|2016||
K4779407D6|99999|CAMILLA ARAUJO LOPES VIEIRA|40|UFC@UFC.br|UFC|UFC|P|2013|2016||
K4734762Z3|99999|LUIS ACHILLES RODRIGUES FURTADO|40|UFC@UFC.br|UFC|UFC|P|2013|2016||
K4774980D8|99999|CIBELLY ALINY SIQUEIRA LIMA FREITAS|40|UFC@UFC.br|UFC|UFC|P|2013|2016||
K8686230J5|99999|EDSON HOLANDA TEIXEIRA|40|UFC@UFC.br|UFC|UFC|P|2013|2016||
K4713066U9|99999|DEBORAH CHRISTINA ANTUNES|40|UFC@UFC.br|UFC|UFC|P|2013|2016||
K4706373P7|99999|IZABELLE MONT ALVERNE NAPOLEAO ALBUQUERQUE|40|UFC@UFC.br|UFC|UFC|P|2013|2016||
K4702900P9|99999|ELIANY NAZARE OLIVEIRA|40|UFC@UFC.br|UFC|UFC|P|2013|2016||
K4702754J8|99999|MARISTELA INES OSAWA VASCONCELOS|40|UFC@UFC.br|UFC|UFC|P|2013|2016||
K4792337Z8|99999|ANA LUCIA FIGUEIREDO PORTO|40|UFC@UFC.br|UFC|UFC|P|2013|2016||
K4768031H6|99999|LISSIANA MAGNA VASCONCELOS AGUIAR|40|UFC@UFC.br|UFC|UFC|P|2013|2016||
K4787867D6|99999|JOSE LUIZ DE LIMA FILHO|40|UFC@UFC.br|UFC|UFC|P|2013|2016||
K4764102H6|99999|KYRIA SANTIAGO DO NASCIMENTO|40|UFC@UFC.br|UFC|UFC|P|2013|2016||
K4764114Z6|99999|CELSO SHINITI NAGANO|40|UFC@UFC.br|UFC|UFC|P|2013|2016||
K4753236Z7|99999|GEISON VASCONCELOS LIRA|40|UFC@UFC.br|UFC|UFC|P|2013|2016||
K4840461A7|99999|VICTOR ALVES CARNEIRO|40|UFC@UFC.br|UFC|UFC|P|2013|2016||
K4791150A9|99999|JOSE RONALDO VASCONCELOS DA GRACA|40|UFC@UFC.br|UFC|UFC|P|2013|2016||
K4848462U6|99999|MARCELO MIRANDA DE MELO|40|UFC@UFC.br|UFC|UFC|P|2013|2016||
K4728867Z9|99999|VICENTE DE PAULO TEIXEIRA PINTO|40|UFC@UFC.br|UFC|UFC|P|2013|2016||
K4783679D8|99999|BENILDO SOUSA CAVADA|40|UFC@UFC.br|UFC|UFC|P|2013|2016||
K4792201Z2|99999|CHRISTIAN DENNYS MONTEIRO DE OLIVEIRA|40|UFC@UFC.br|UFC|UFC|P|2013|2016||
K4783828T7|99999|MARIA DOLORES DE BRITO MOTA|40|UFC@UFC.br|UFC|UFC|P|2013|2016||
K4784149E9|99999|FERNANDO JOSE PIRES DE SOUSA|40|UFC@UFC.br|UFC|UFC|P|2013|2016||
K4727321E2|99999|CARLOS AMERICO LEITE MOREIRA|40|UFC@UFC.br|UFC|UFC|P|2013|2016||
K4721988E2|99999|ALBA MARIA PINHO DE CARVALHO|40|UFC@UFC.br|UFC|UFC|P|2013|2016||
K4788591Z6|99999|ELZA MARIA FRANCO BRAGA|40|UFC@UFC.br|UFC|UFC|P|2013|2016||
K4703483T8|99999|FRANCISCA SILVANIA DE SOUSA MONTE|40|UFC@UFC.br|UFC|UFC|P|2013|2016||
K4735516T9|99999|REJANE BATISTA VASCOCELOS|40|UFC@UFC.br|UFC|UFC|P|2013|2016||
K4797788T3|99999|ALCIDES FERNANDO GUSSI|40|UFC@UFC.br|UFC|UFC|P|2013|2016||
K4267793E1|99999|ELIONE MARIA NOGUEIRA DIOGENES|40|UFC@UFC.br|UFC|UFC|P|2013|2016||
K4792855J0|99999|GEMA GALGANI SILVEIRA LEITE ESMERALDO|40|UFC@UFC.br|UFC|UFC|P|2013|2016||
K4768053H4|99999|LEA CARVALHO RODRIGUES|40|UFC@UFC.br|UFC|UFC|P|2013|2016||
K4793935E5|99999|LUIZ ANTONIO MACIEL DE PAULA|40|UFC@UFC.br|UFC|UFC|P|2013|2016||
K4707421T0|99999|JOSE ROBERTO VIANA SILVA|40|UFC@UFC.br|UFC|UFC|P|2013|2016||
K4262180D6|99999|ANTONIO ALFREDO RODRIGUES E SILVA|40|UFC@UFC.br|UFC|UFC|P|2013|2016||
K4736230D8|99999|CARLA THICIANE VASCONCELOS DE MELO|40|UFC@UFC.br|UFC|UFC|P|2013|2016||
K8383418P8|99999|ANDRE LUIS COELHO DA SILVA|40|UFC@UFC.br|UFC|UFC|P|2013|2016||
K4790133T0|99999|RICARDO PIRES DOS SANTOS|40|UFC@UFC.br|UFC|UFC|P|2013|2016||
K4733988U7|99999|BRUNO ANDERSON MATIAS DA ROCHA|40|UFC@UFC.br|UFC|UFC|P|2013|2016||
K4701776Y9|99999|MIRNA MARQUES BEZERRA BRAYNER|40|UFC@UFC.br|UFC|UFC|P|2013|2016||
K4786329E2|99999|EDUARDO GIRAO SANTIAGO|40|UFC@UFC.br|UFC|UFC|P|2013|2016||
K4761240P7|99999|JOSE ALMIR FARIAS FILHO|40|UFC@UFC.br|UFC|UFC|P|2013|2016||
K4788331Y4|99999|NORMA MARIA BARROS BENEVIDES|40|UFC@UFC.br|UFC|UFC|P|2013|2016||
K4785744U2|99999|JOAO WELLIANDRE CARNEIRO ALEXANDRE|40|UFC@UFC.br|UFC|UFC|P|2013|2016||
K4755285Y9|99999|ROBERTA CAVALCANTE MUNIZ LIRA|40|UFC@UFC.br|UFC|UFC|P|2013|2016||
K4785231J4|99999|IVANA CRISTINA DE HOLANDA CUNHA BARRETO|40|UFC@UFC.br|UFC|UFC|P|2013|2016||
K4702754T3|99999|MARIA SOCORRO DE ARAUJO DIAS|40|UFC@UFC.br|UFC|UFC|P|2013|2016||
K4238455Y2|99999|PAULO ROBERTO SANTOS|40|UFC@UFC.br|UFC|UFC|P|2013|2016||
