
PB0:2015,18;
PB1:2015,1;
PB2:2015,8;
PB3:*itens sem ano,2;2015,2;
PB4:2015,28;
PB5:2015,9;
PB6:2015,4;
PB7:2015,2;
PB8:2015,14;
PT4:2015,3;
PT5:*itens sem ano,1;2015,13;
OA0:2017,1;
OA1:2008,2;2013,2;2014,9;2015,11;2016,4;2017,5;
OA2:2002,1;2003,1;2008,1;2010,1;2013,3;2014,2;2015,6;2016,14;2017,4;
OA4:2015,1;2017,7;
OA5:2008,1;2014,1;2015,2;2016,1;2017,3;
OA6:2004,1;2017,1;
OC0:2015,1;
OC1:2015,6;
OC2:2015,10;
OC4:2015,19;
OC5:2015,5;
OC6:2015,5;
Pm:2015,6;
Pj:1988,2;2000,1;2002,1;2003,1;2005,1;2011,1;2012,5;2013,5;2014,19;2015,3;
PB:*itens sem ano,2;2015,86;
PT:*itens sem ano,1;2015,16;
OA:2002,1;2003,1;2004,1;2008,4;2010,1;2013,5;2014,12;2015,20;2016,19;2017,21;
OC:2015,46;
Ep:2015,18;