ID_Lattes|MATRICULA|NOME|CH|mail|LP_1|PROGRAMA_1|CATEG_1|Periodo_Inicio_1|Periodo_Fim_1|Resp_prog|Resp_LP1
K4763894U9|99999|CRISTIANO CHRISTOFARO MATOSINHOS|40|UFVJM@UFVJM.br|UFVJM|UFVJM|P|2013|2016|UFVJM|UFVJM
K4744289Z6|99999|CARLOS ALBERTO MIREZ TARRILLO|40|UFVJM@UFVJM.br|UFVJM|UFVJM|P|2013|2016||
K4767833A8|99999|WEDERSON MARCOS ALVES|40|UFVJM@UFVJM.br|UFVJM|UFVJM|P|2013|2016||
K4730051Z3|99999|VANESSA JULIANA DA SILVA SANTOS|40|UFVJM@UFVJM.br|UFVJM|UFVJM|P|2013|2016||
K4298996Z9|99999|STENIO CAVALIER CABRAL|40|UFVJM@UFVJM.br|UFVJM|UFVJM|P|2013|2016||
K4774556E7|99999|ROGERIO FERNANDES MACEDO|40|UFVJM@UFVJM.br|UFVJM|UFVJM|P|2013|2016||
K4227646Y2|99999|MARCIO COUTINHO DE SOUZA|40|UFVJM@UFVJM.br|UFVJM|UFVJM|P|2013|2016||
K4760642J5|99999|RAQUEL DE SOUZA POMPERMAYER|40|UFVJM@UFVJM.br|UFVJM|UFVJM|P|2013|2016||
K4248149U6|99999|ALTAMIR FERNANDES DE OLIVEIRA|40|UFVJM@UFVJM.br|UFVJM|UFVJM|P|2013|2016||
K4784716E6|99999|SILVIA SWAIN CANOAS|40|UFVJM@UFVJM.br|UFVJM|UFVJM|P|2013|2016||
K8705811U6|99999|BERNAT VINOLAS PRAT|40|UFVJM@UFVJM.br|UFVJM|UFVJM|P|2013|2016||
K4482297D8|99999|ANTONIO SOUSA SANTOS|40|UFVJM@UFVJM.br|UFVJM|UFVJM|P|2013|2016||
K4775239P2|99999|ANTONIO JORGE DE LIMA GOMES|40|UFVJM@UFVJM.br|UFVJM|UFVJM|P|2013|2016||
K8697764J6|99999|CAIO CESAR DE SOUZA ALVES|40|UFVJM@UFVJM.br|UFVJM|UFVJM|P|2013|2016||
K4700303A5|99999|ANTONIO DE PADUA MAGALHAES|40|UFVJM@UFVJM.br|UFVJM|UFVJM|P|2013|2016||
K4763899U3|99999|PAULO CELSO PRADO TELLES FILHO|40|UFVJM@UFVJM.br|UFVJM|UFVJM|P|2013|2016||
K4775664J6|99999|ROMERO ALVES TEIXEIRA|40|UFVJM@UFVJM.br|UFVJM|UFVJM|P|2013|2016||
K4736917P8|99999|ROSANE LUZIA DE SOUZA MORAIS|40|UFVJM@UFVJM.br|UFVJM|UFVJM|P|2013|2016||
K4739625E3|99999|ANA CATARINA PEREZ DIAS|40|UFVJM@UFVJM.br|UFVJM|UFVJM|P|2013|2016||
K4792603J2|99999|LEIDA CALEGARIO DE OLIVEIRA|40|UFVJM@UFVJM.br|UFVJM|UFVJM|P|2013|2016||
K4707519H0|99999|ANGELINA DO CARMO LESSA|40|UFVJM@UFVJM.br|UFVJM|UFVJM|P|2013|2016||
K4709201Z3|99999|AGNES MARIA GOMES MURTA|40|UFVJM@UFVJM.br|UFVJM|UFVJM|P|2013|2016||
K4709166T6|99999|NADJA MARIA GOMES MURTA|40|UFVJM@UFVJM.br|UFVJM|UFVJM|P|2013|2016||
K4709495T8|99999|MARCOS LUCIANO PIMENTA PINHEIRO|40|UFVJM@UFVJM.br|UFVJM|UFVJM|P|2013|2016||
K4728930D6|99999|SILVIA REGINA PAES|40|UFVJM@UFVJM.br|UFVJM|UFVJM|P|2013|2016||
K4703602D5|99999|ROSANA PASSOS CAMBRAIA|40|UFVJM@UFVJM.br|UFVJM|UFVJM|P|2013|2016||
K4766790J0|99999|RENATA ALINE DE ANDRADE|40|UFVJM@UFVJM.br|UFVJM|UFVJM|P|2013|2016||
K4769153A2|99999|HARRIMAN ALEY MORAIS|40|UFVJM@UFVJM.br|UFVJM|UFVJM|P|2013|2016||
K4711416D4|99999|ARUANA ROCHA BARROS|40|UFVJM@UFVJM.br|UFVJM|UFVJM|P|2013|2016||
K4766651A3|99999|MARCIO PASCHOINO LUPATINI|40|UFVJM@UFVJM.br|UFVJM|UFVJM|P|2013|2016||
K4705846Z2|99999|MAURO LUCIO FRANCO|40|UFVJM@UFVJM.br|UFVJM|UFVJM|P|2013|2016||
K4766343Y1|99999|LORENA SOPHIA CAMPOS DE OLIVEIRA|40|UFVJM@UFVJM.br|UFVJM|UFVJM|P|2013|2016||
K4772861E0|99999|JAIRO LISBOA RODRIGUES|40|UFVJM@UFVJM.br|UFVJM|UFVJM|P|2013|2016||
NOK|99999|FLAVIO FELIPE DE CASTRO LEAL|40|UFVJM@UFVJM.br|UFVJM|UFVJM|P|2013|2016||
K4771738Z5|99999|FERNANDO LEITAO ROCHA JUNIOR|40|UFVJM@UFVJM.br|UFVJM|UFVJM|P|2013|2016||
K4218093E2|99999|DOUGLAS SANTOS MONTEIRO|40|UFVJM@UFVJM.br|UFVJM|UFVJM|P|2013|2016||
K4702892A2|99999|CLEIDE APARECIDA BOMFETI|40|UFVJM@UFVJM.br|UFVJM|UFVJM|P|2013|2016||
K4713439A0|99999|CARLOS HENRIQUE ALEXANDRINO|40|UFVJM@UFVJM.br|UFVJM|UFVJM|P|2013|2016||
K4782952D6|99999|ALEXANDRE SYLVIO VIEIRA DA COSTA|40|UFVJM@UFVJM.br|UFVJM|UFVJM|P|2013|2016||
K4765352D5|99999|ALEXANDRE FAISSAL BRITO|40|UFVJM@UFVJM.br|UFVJM|UFVJM|P|2013|2016||
K4795537U5|99999|ALESSANDRA DE PAULA CARLI|40|UFVJM@UFVJM.br|UFVJM|UFVJM|P|2013|2016||
K4550884Y9|99999|DANIEL BRASIL FERREIRA PINTO|40|UFVJM@UFVJM.br|UFVJM|UFVJM|P|2013|2016||
K4775737E8|99999|TERESA CRISTINA DE SOUZA CARDOSO VALE|40|UFVJM@UFVJM.br|UFVJM|UFVJM|P|2013|2016||
K4753989J3|99999|ROGERIO PEREIRA DE ARRUDA|40|UFVJM@UFVJM.br|UFVJM|UFVJM|P|2013|2016||
K4708093U9|99999|ROBERTO ANTONIO PENEDO DO AMARAL|40|UFVJM@UFVJM.br|UFVJM|UFVJM|P|2013|2016||
K4768407T2|99999|ELISA DE CAMPOS BORGES|40|UFVJM@UFVJM.br|UFVJM|UFVJM|P|2013|2016||
K4463105Z2|99999|BARBARA CARVALHO FERREIRA|40|UFVJM@UFVJM.br|UFVJM|UFVJM|P|2013|2016||
K4704407H8|99999|ELAINE LEONARA DE VARGAS SODRE|40|UFVJM@UFVJM.br|UFVJM|UFVJM|P|2013|2016||
K4737059Y9|99999|MARCELO FAGUNDES|40|UFVJM@UFVJM.br|UFVJM|UFVJM|P|2013|2016||
K4771878Y1|99999|MARCOS ROGERIO CINTRA|40|UFVJM@UFVJM.br|UFVJM|UFVJM|P|2013|2016||
K4702171P8|99999|LEONARDO LANA DE CARVALHO|40|UFVJM@UFVJM.br|UFVJM|UFVJM|P|2013|2016||
K4778493E0|99999|ELAYNE DE MOURA BRAGA|40|UFVJM@UFVJM.br|UFVJM|UFVJM|P|2013|2016||
K4716898A7|99999|CARLOS EDUARDO SILVEIRA|40|UFVJM@UFVJM.br|UFVJM|UFVJM|P|2013|2016||
K4735370D8|99999|ANDRE LUIS LOPES BORGES DE MATTOS|40|UFVJM@UFVJM.br|UFVJM|UFVJM|P|2013|2016||
K4741506U8|99999|RICARDO DA SILVA SOBREIRA|40|UFVJM@UFVJM.br|UFVJM|UFVJM|P|2013|2016||
K4728059A2|99999|WELLINGTON BRILHANTE DE ALBUQUERQUE FILHO|40|UFVJM@UFVJM.br|UFVJM|UFVJM|P|2013|2016||
K4484300P0|99999|ANA PAULA PEREIRA COSTA|40|UFVJM@UFVJM.br|UFVJM|UFVJM|P|2013|2016||
K4728122Y9|99999|ANA CRISTINA PEREIRA LAGE|40|UFVJM@UFVJM.br|UFVJM|UFVJM|P|2013|2016||
K8061719T5|99999|ADRIANA GOMES DE PAIVA|40|UFVJM@UFVJM.br|UFVJM|UFVJM|P|2013|2016||
K4737253D6|99999|ADNA CANDIDO DE PAULA|40|UFVJM@UFVJM.br|UFVJM|UFVJM|P|2013|2016||
K4763051J5|99999|MARIVALDO APARECIDO DE CARVALHO|40|UFVJM@UFVJM.br|UFVJM|UFVJM|P|2013|2016||
K4784728T2|99999|LUCIO DO CARMO MOURA|40|UFVJM@UFVJM.br|UFVJM|UFVJM|P|2013|2016||
K4701898E1|99999|HERTON HELDER ROCHA PIRES|40|UFVJM@UFVJM.br|UFVJM|UFVJM|P|2013|2016||
K4133679U6|99999|DELBA FONSECA SANTOS|40|UFVJM@UFVJM.br|UFVJM|UFVJM|P|2013|2016||
