strict graph grafo2 {
	graph [bb="0,0,5466.5,145",
		id=grafo2,
		overlap=False
	];
	node [fontsize=8,
		label="\N",
		shape=rectangle,
		style=filled
	];
	0	 [URL="http://lattes.cnpq.br/0751163307734256",
		color="#17272B",
		fontcolor="#FFFFFF",
		height=0.23611,
		label="Antonio Riul Júnior [0]",
		pos="46,136.5",
		width=1.2778];
	1	 [URL="http://lattes.cnpq.br/8106067351019340",
		color="#17272B",
		fontcolor="#FFFFFF",
		height=0.23611,
		label="Antonio A. da Silva Curvelo [0]",
		pos="170,136.5",
		width=1.6667];
	2	 [URL="http://lattes.cnpq.br/4352323080338671",
		color="#17272B",
		fontcolor="#FFFFFF",
		height=0.23611,
		label="Andreas Karoly Gombert [0]",
		pos="303,136.5",
		width=1.5139];
	3	 [URL="http://lattes.cnpq.br/8444233927942764",
		color="#17272B",
		fontcolor="#FFFFFF",
		height=0.23611,
		label="Andre Tosi Furtado [0]",
		pos="421,136.5",
		width=1.2639];
	4	 [URL="http://lattes.cnpq.br/9224559183264354",
		color="#17272B",
		fontcolor="#FFFFFF",
		height=0.23611,
		label="Maria I. Afonso Lopes [0]",
		pos="535,136.5",
		width=1.4028];
	5	 [URL="http://lattes.cnpq.br/8251885707409794",
		color="#17272B",
		fontcolor="#FFFFFF",
		height=0.23611,
		label="Michel Brienzo [0]",
		pos="643,136.5",
		width=1.0833];
	6	 [URL="http://lattes.cnpq.br/8021481959269554",
		color="#17272B",
		fontcolor="#FFFFFF",
		height=0.23611,
		label="Marcus B. Soares Forte [1]",
		pos="752,136.5",
		width=1.4306];
	24	 [URL="http://lattes.cnpq.br/2967035823175406",
		color="#17272B",
		fontcolor="#FFFFFF",
		height=0.23611,
		label="Sandra Imaculada Maintinguer [1]",
		pos="752,72.5",
		width=1.7639];
	6 -- 24	 [fontsize=8,
		label=1.0,
		lp="757.5,104.5",
		pos="752,127.9 752,116 752,93.102 752,81.165"];
	7	 [URL="http://lattes.cnpq.br/2663920223082171",
		color="#17272B",
		fontcolor="#FFFFFF",
		height=0.23611,
		label="Márcia J. Rossini Mutton [0]",
		pos="876,136.5",
		width=1.5139];
	8	 [URL="http://lattes.cnpq.br/3707634488541457",
		color="#17272B",
		fontcolor="#FFFFFF",
		height=0.23611,
		label="Rafael Vasconcelos Ribeiro [1]",
		pos="1007,136.5",
		width=1.625];
	13	 [URL="http://lattes.cnpq.br/9861339870761985",
		color="#17272B",
		fontcolor="#FFFFFF",
		height=0.23611,
		label="Marcelo Menossi Teixeira [1]",
		pos="938,72.5",
		width=1.5556];
	8 -- 13	 [fontsize=8,
		label=1.0,
		lp="982.5,104.5",
		pos="998.54,127.9 985.3,116 959.82,93.102 946.53,81.165"];
	46	 [URL="http://lattes.cnpq.br/8781151791813974",
		color="#17272B",
		fontcolor="#FFFFFF",
		height=0.23611,
		label="Carlos Alberto Labate [1]",
		pos="1001,8.5",
		width=1.375];
	8 -- 46	 [fontsize=8,
		label=1.0,
		lp="1010.5,72.5",
		pos="1006.6,128 1005.6,105.64 1002.4,39.637 1001.4,17.125"];
	13 -- 46	 [fontsize=8,
		label=1.0,
		lp="979.5,40.5",
		pos="945.73,63.898 957.82,51.998 981.08,29.102 993.21,17.165"];
	9	 [URL="http://lattes.cnpq.br/4638952263502744",
		color="#17272B",
		fontcolor="#FFFFFF",
		height=0.23611,
		label="Pedro de Oliva Neto [0]",
		pos="1130,136.5",
		width=1.2917];
	10	 [URL="http://lattes.cnpq.br/7908775368079914",
		color="#17272B",
		fontcolor="#FFFFFF",
		height=0.23611,
		label="Paulo Seleghim Júnior [0]",
		pos="1245,136.5",
		width=1.3889];
	11	 [URL="http://lattes.cnpq.br/0072173018005712",
		color="#17272B",
		fontcolor="#FFFFFF",
		height=0.23611,
		label="Nelson Ramos Stradiotto [0]",
		pos="1367,136.5",
		width=1.5];
	12	 [URL="http://lattes.cnpq.br/8867390850809735",
		color="#17272B",
		fontcolor="#FFFFFF",
		height=0.23611,
		label="Munir Salomao Skaf [0]",
		pos="1486,136.5",
		width=1.3056];
	14	 [URL="http://lattes.cnpq.br/6123811912250634",
		color="#17272B",
		fontcolor="#FFFFFF",
		height=0.23611,
		label="Luis A. Barbosa Cortez [1]",
		pos="1603,136.5",
		width=1.4306];
	51	 [URL="http://lattes.cnpq.br/5130566170893828",
		color="#17272B",
		fontcolor="#FFFFFF",
		height=0.23611,
		label="Rubens A. Camargo Lamparelli [1]",
		pos="1603,72.5",
		width=1.8056];
	14 -- 51	 [fontsize=8,
		label=1.0,
		lp="1608.5,104.5",
		pos="1603,127.9 1603,116 1603,93.102 1603,81.165"];
	15	 [URL="http://lattes.cnpq.br/4984859173592703",
		color="#17272B",
		fontcolor="#FFFFFF",
		height=0.23611,
		label="Jose M. F. Jardim da Silveira [0]",
		pos="1733,136.5",
		width=1.6806];
	16	 [URL="http://lattes.cnpq.br/1750154267305530",
		color="#17272B",
		fontcolor="#FFFFFF",
		height=0.23611,
		label="José Luz Silveira [0]",
		pos="1853,136.5",
		width=1.1528];
	17	 [URL="http://lattes.cnpq.br/2090018228785477",
		color="#17272B",
		fontcolor="#FFFFFF",
		height=0.23611,
		label="Tito José Bonagamba [0]",
		pos="1961,136.5",
		width=1.3472];
	18	 [URL="http://lattes.cnpq.br/0694700754100102",
		color="#17272B",
		fontcolor="#FFFFFF",
		height=0.23611,
		label="Lucas Rios do Amaral [0]",
		pos="2078,136.5",
		width=1.3889];
	19	 [URL="http://lattes.cnpq.br/2208463258386199",
		color="#17272B",
		fontcolor="#FFFFFF",
		height=0.23611,
		label="Marco A. Pinheiro Lima [0]",
		pos="2199,136.5",
		width=1.4722];
	20	 [URL="http://lattes.cnpq.br/6068911894498452",
		color="#17272B",
		fontcolor="#FFFFFF",
		height=0.23611,
		label="Jose G. Cabrera Gomez [0]",
		pos="2322,136.5",
		width=1.4444];
	21	 [URL="http://lattes.cnpq.br/9859154979447005",
		color="#17272B",
		fontcolor="#FFFFFF",
		height=0.23611,
		label="Jonas Contiero [0]",
		pos="2430,136.5",
		width=1.0556];
	22	 [URL="http://lattes.cnpq.br/1198843146263387",
		color="#17272B",
		fontcolor="#FFFFFF",
		height=0.23611,
		label="Paulo S. Graziano Magalhães [1]",
		pos="2547,136.5",
		width=1.6944];
	34	 [URL="http://lattes.cnpq.br/7632245413046227",
		color="#17272B",
		fontcolor="#FFFFFF",
		height=0.23611,
		label="Henrique C. Junqueira Franco [1]",
		pos="2547,72.5",
		width=1.7222];
	22 -- 34	 [fontsize=8,
		label=1.0,
		lp="2552.5,104.5",
		pos="2547,127.9 2547,116 2547,93.102 2547,81.165"];
	23	 [URL="http://lattes.cnpq.br/4582822311318387",
		color="#17272B",
		fontcolor="#FFFFFF",
		height=0.23611,
		label="Ricardo A. Verdú Ramos [0]",
		pos="2681,136.5",
		width=1.5139];
	25	 [URL="http://lattes.cnpq.br/0112866192884217",
		color="#17272B",
		fontcolor="#FFFFFF",
		height=0.23611,
		label="Telma Teixeira Franco [0]",
		pos="2804,136.5",
		width=1.4028];
	26	 [URL="http://lattes.cnpq.br/8333273103512768",
		color="#17272B",
		fontcolor="#FFFFFF",
		height=0.23611,
		label="Suani Teixeira Coelho [1]",
		pos="2923,136.5",
		width=1.3889];
	27	 [URL="http://lattes.cnpq.br/4574679474660607",
		color="#17272B",
		fontcolor="#FFFFFF",
		height=0.23611,
		label="João R. Carvalho Muniz [2]",
		pos="2923,72.5",
		width=1.4722];
	26 -- 27	 [fontsize=8,
		label=1.0,
		lp="2928.5,104.5",
		pos="2923,127.9 2923,116 2923,93.102 2923,81.165"];
	29	 [URL="http://lattes.cnpq.br/9669532724764871",
		color="#17272B",
		fontcolor="#FFFFFF",
		height=0.23611,
		label="Igor Polikarpov [1]",
		pos="2923,8.5",
		width=1.0833];
	27 -- 29	 [fontsize=8,
		label=1.0,
		lp="2928.5,40.5",
		pos="2923,63.898 2923,51.998 2923,29.102 2923,17.165"];
	28	 [URL="http://lattes.cnpq.br/0629601747594563",
		color="#17272B",
		fontcolor="#FFFFFF",
		height=0.23611,
		label="Jackson D. Megiatto Junior [0]",
		pos="3049,136.5",
		width=1.6111];
	30	 [URL="http://lattes.cnpq.br/8452678355444067",
		color="#17272B",
		fontcolor="#FFFFFF",
		height=0.23611,
		label="Igor Cesarino [0]",
		pos="3161,136.5",
		width=1];
	31	 [URL="http://lattes.cnpq.br/9002964104953284",
		color="#17272B",
		fontcolor="#FFFFFF",
		height=0.23611,
		label="Eduardo Ribeiro de Azevedo [0]",
		pos="3276,136.5",
		width=1.6806];
	32	 [URL="http://lattes.cnpq.br/4768305989343564",
		color="#17272B",
		fontcolor="#FFFFFF",
		height=0.23611,
		label="Fernando Segato [0]",
		pos="3396,136.5",
		width=1.1389];
	33	 [URL="http://lattes.cnpq.br/4943655471147347",
		color="#17272B",
		fontcolor="#FFFFFF",
		height=0.23611,
		label="Antonio J. de Almeida Meirelles [0]",
		pos="3521,136.5",
		width=1.8333];
	35	 [URL="http://lattes.cnpq.br/5775091545458540",
		color="#17272B",
		fontcolor="#FFFFFF",
		height=0.23611,
		label="Goncalo A. Guimarães Pereira [0]",
		pos="3668,136.5",
		width=1.75];
	36	 [URL="http://lattes.cnpq.br/2296571587865157",
		color="#17272B",
		fontcolor="#FFFFFF",
		height=0.23611,
		label="Gláucia Mendes de Souza [0]",
		pos="3805,136.5",
		width=1.5417];
	37	 [URL="http://lattes.cnpq.br/3812059891202992",
		color="#17272B",
		fontcolor="#FFFFFF",
		height=0.23611,
		label="Gabriel R. Alves Margarido [0]",
		pos="3938,136.5",
		width=1.6389];
	38	 [URL="http://lattes.cnpq.br/7765068307855043",
		color="#17272B",
		fontcolor="#FFFFFF",
		height=0.23611,
		label="Francisco E. Baccaro Nigro [0]",
		pos="4074,136.5",
		width=1.625];
	39	 [URL="http://lattes.cnpq.br/3902020936480943",
		color="#17272B",
		fontcolor="#FFFFFF",
		height=0.23611,
		label="Eliana G. de Macedo Lemos [0]",
		pos="4210,136.5",
		width=1.6528];
	40	 [URL="http://lattes.cnpq.br/7091241742851920",
		color="#17272B",
		fontcolor="#FFFFFF",
		height=0.23611,
		label="Eleni Gomes [0]",
		pos="4322,136.5",
		width=0.95833];
	41	 [URL="http://lattes.cnpq.br/9972643774491301",
		color="#17272B",
		fontcolor="#FFFFFF",
		height=0.23611,
		label="Edvaldo A. Amaral da Silva [0]",
		pos="4434,136.5",
		width=1.6389];
	42	 [URL="http://lattes.cnpq.br/5063831821596250",
		color="#17272B",
		fontcolor="#FFFFFF",
		height=0.23611,
		label="Eduardo Alves de Almeida [0]",
		pos="4569,136.5",
		width=1.5972];
	43	 [URL="http://lattes.cnpq.br/9855493448161702",
		color="#17272B",
		fontcolor="#FFFFFF",
		height=0.23611,
		label="Edivaldo Domingues Velini [0]",
		pos="4704,136.5",
		width=1.6389];
	44	 [URL="http://lattes.cnpq.br/6423374942748412",
		color="#17272B",
		fontcolor="#FFFFFF",
		height=0.23611,
		label="Cecilia Laluce [0]",
		pos="4818,136.5",
		width=1.0278];
	45	 [URL="http://lattes.cnpq.br/1117896124904968",
		color="#17272B",
		fontcolor="#FFFFFF",
		height=0.23611,
		label="Carlos E. Pellegrino Cerri [0]",
		pos="4929,136.5",
		width=1.5417];
	47	 [URL="http://lattes.cnpq.br/2699196515879292",
		color="#17272B",
		fontcolor="#FFFFFF",
		height=0.23611,
		label="Carla K. Nakao Cavaliero [0]",
		pos="5058,136.5",
		width=1.5417];
	48	 [URL="http://lattes.cnpq.br/7497379804672333",
		color="#17272B",
		fontcolor="#FFFFFF",
		height=0.23611,
		label="Sindelia Freitas Azzoni [0]",
		pos="5183,136.5",
		width=1.4306];
	49	 [URL="http://lattes.cnpq.br/6878697355639730",
		color="#17272B",
		fontcolor="#FFFFFF",
		height=0.23611,
		label="Rudinei Toneto Junior [0]",
		pos="5303,136.5",
		width=1.3889];
	50	 [URL="http://lattes.cnpq.br/5436713663763286",
		color="#17272B",
		fontcolor="#FFFFFF",
		height=0.23611,
		label="Rubens Maciel Filho [0]",
		pos="5419,136.5",
		width=1.3194];
}
