strict digraph grafo3 {
	graph [bb="0,0,910.5,273",
		id=grafo3,
		overlap=False
	];
	node [fontsize=8,
		label="\N",
		shape=rectangle,
		style=filled
	];
	0	 [URL="http://lattes.cnpq.br/8656259486979143",
		color="#17272B",
		fontcolor="#FFFFFF",
		height=0.23611,
		label="Selma R. Aranha Ribeiro [0]",
		pos="176,264.5",
		width=1.5139];
	1	 [URL="http://lattes.cnpq.br/9171690007212041",
		color="#17272B",
		fontcolor="#FFFFFF",
		height=0.23611,
		label="Rosane Falate [2]",
		pos="285,264.5",
		width=1.0139];
	3	 [URL="http://lattes.cnpq.br/2266103198034845",
		color="#17272B",
		fontcolor="#FFFFFF",
		height=0.23611,
		label="Maria S. M. Gomes Vaz [3]",
		pos="228,200.5",
		width=1.4722];
	1 -> 3	 [arrowhead=normal,
		arrowsize=0.75,
		fontsize=8,
		label=0.5,
		lp="236.5,232.5",
		penwidth=2.0,
		pos="e,226.59,209.11 256.13,255.97 246.62,252.03 236.96,246.16 231,237.5 226.95,231.61 225.91,223.84 226,217.02"];
	14	 [URL="http://lattes.cnpq.br/4251936710939364",
		color="#17272B",
		fontcolor="#FFFFFF",
		height=0.23611,
		label="Alceu de S. Britto Jr [1]",
		pos="346,200.5",
		width=1.2917];
	1 -> 14	 [arrowhead=normal,
		arrowsize=0.75,
		fontsize=8,
		label=0.5,
		lp="317.5,232.5",
		penwidth=2.0,
		pos="e,334.34,209.21 289.83,255.86 294.86,248.22 303.2,236.38 312,227.5 316.89,222.57 322.74,217.77 328.19,213.67"];
	3 -> 1	 [arrowhead=normal,
		arrowsize=0.75,
		fontsize=8,
		label=0.33,
		lp="267.5,232.5",
		penwidth=1.49,
		pos="e,278.01,255.9 235.05,209.16 244.48,219.42 261.35,237.78 272.85,250.29"];
	7	 [URL="http://lattes.cnpq.br/3945991870627440",
		color="#17272B",
		fontcolor="#FFFFFF",
		height=0.23611,
		label="José C. Ferreira da Rocha [5]",
		pos="170,136.5",
		width=1.5278];
	3 -> 7	 [arrowhead=normal,
		arrowsize=0.75,
		fontsize=8,
		label=0.33,
		lp="181.5,168.5",
		penwidth=1.49,
		pos="e,168.84,145.13 199.55,192 189.95,188.05 180.14,182.16 174,173.5 169.86,167.66 168.61,159.88 168.5,153.06"];
	8	 [URL="http://lattes.cnpq.br/2185858940513067",
		color="#17272B",
		fontcolor="#FFFFFF",
		height=0.23611,
		label="Ivo Mario Mathias [1]",
		pos="287,136.5",
		width=1.2222];
	3 -> 8	 [arrowhead=normal,
		arrowsize=0.75,
		fontsize=8,
		label=0.33,
		lp="255.5,168.5",
		penwidth=1.49,
		pos="e,272.04,145.19 230.93,191.95 234.22,184.17 240.15,172.01 248,163.5 253.02,158.05 259.41,153.19 265.55,149.19"];
	14 -> 1	 [arrowhead=normal,
		arrowsize=0.75,
		fontsize=8,
		label=1.0,
		lp="337.5,232.5",
		penwidth=3.5,
		pos="e,299.02,255.79 342.36,209.01 338.35,216.75 331.36,228.87 323,237.5 317.85,242.81 311.46,247.68 305.4,251.73"];
	7 -> 3	 [arrowhead=normal,
		arrowsize=0.75,
		fontsize=8,
		label=0.2,
		lp="208.5,168.5",
		penwidth=1.1,
		pos="e,220.89,191.9 177.17,145.16 186.77,155.42 203.94,173.78 215.64,186.29"];
	9	 [URL="http://lattes.cnpq.br/3850817367861711",
		color="#17272B",
		fontcolor="#FFFFFF",
		height=0.23611,
		label="Eduardo Fávero Caires [4]",
		pos="172,8.5",
		width=1.4167];
	7 -> 9	 [arrowhead=normal,
		arrowsize=0.75,
		fontsize=8,
		label=0.2,
		lp="204.5,72.5",
		penwidth=1.1,
		pos="e,179.39,17.051 178.58,127.64 183.28,122.85 188.78,116.35 192,109.5 197.38,98.06 195.88,94.092 197,81.5 198.81,61.015 200.31,54.309 \
192,35.5 190.05,31.095 187.21,26.764 184.28,22.937"];
	15	 [URL="http://lattes.cnpq.br/4366472400277640",
		color="#17272B",
		fontcolor="#FFFFFF",
		height=0.23611,
		label="Alaine Margarete Guimarães [7]",
		pos="81,72.5",
		width=1.6806];
	7 -> 15	 [arrowhead=normal,
		arrowsize=0.75,
		fontsize=8,
		label=0.6,
		lp="136.5,104.5",
		penwidth=2.3,
		pos="e,92.002,81.165 159.09,127.9 144.01,117.39 116.63,98.317 98.624,85.778"];
	8 -> 3	 [arrowhead=normal,
		arrowsize=0.75,
		fontsize=8,
		label=1.0,
		lp="276.5,168.5",
		penwidth=3.5,
		pos="e,240.16,191.99 282.9,145.22 278.58,152.9 271.28,164.79 263,173.5 258.13,178.63 252.15,183.47 246.52,187.56"];
	9 -> 7	 [arrowhead=normal,
		arrowsize=0.75,
		fontsize=8,
		label=0.25,
		lp="179.5,72.5",
		penwidth=1.25,
		pos="e,170.12,128 171.88,17.125 171.56,37.439 170.67,93.162 170.24,120.28"];
	9 -> 15	 [arrowhead=normal,
		arrowsize=0.75,
		fontsize=8,
		label=0.75,
		lp="118.5,40.5",
		penwidth=2.75,
		pos="e,85.691,63.979 147.14,17.062 135.48,21.34 121.81,27.462 111,35.5 102.8,41.596 95.43,50.373 90.044,57.734"];
	15 -> 7	 [arrowhead=normal,
		arrowsize=0.75,
		fontsize=8,
		label=0.43,
		lp="109.5,104.5",
		penwidth=1.79,
		pos="e,137.49,128 83.682,81.131 86.88,89.205 92.954,101.82 102,109.5 110.14,116.41 120.31,121.59 130.29,125.43"];
	15 -> 9	 [arrowhead=normal,
		arrowsize=0.75,
		fontsize=8,
		label=0.43,
		lp="147.5,40.5",
		penwidth=1.79,
		pos="e,163.12,17.06 95.499,63.801 104.47,58.87 116.13,52.166 126,45.5 136.82,38.193 148.39,29.13 157.22,21.925"];
	11	 [URL="http://lattes.cnpq.br/2608583610949216",
		color="#17272B",
		fontcolor="#FFFFFF",
		height=0.23611,
		label="Simone Nasser Matos [1]",
		pos="49,8.5",
		width=1.3611];
	15 -> 11	 [arrowhead=normal,
		arrowsize=0.75,
		fontsize=8,
		label=0.14,
		lp="74.5,40.5",
		penwidth=0.92,
		pos="e,52.956,17.165 77.076,63.898 71.99,54.043 63.012,36.648 56.577,24.18"];
	2	 [URL="http://lattes.cnpq.br/4687521701781735",
		color="#17272B",
		fontcolor="#FFFFFF",
		height=0.23611,
		label="Petraq Papajorgji [0]",
		pos="381,264.5",
		width=1.1528];
	11 -> 15	 [arrowhead=normal,
		arrowsize=0.75,
		fontsize=8,
		label=1.0,
		lp="44.5,40.5",
		penwidth=3.5,
		pos="e,60.079,63.817 43.705,17.066 39.118,24.637 33.949,36.433 39,45.5 42.3,51.423 47.567,56.168 53.272,59.897"];
	4	 [URL="http://lattes.cnpq.br/8756197722397278",
		color="#17272B",
		fontcolor="#FFFFFF",
		height=0.23611,
		label="Marcelo Giovanetti Canteri [0]",
		pos="499,264.5",
		width=1.6111];
	5	 [URL="http://lattes.cnpq.br/1389825754483128",
		color="#17272B",
		fontcolor="#FFFFFF",
		height=0.23611,
		label="Ricardo Antonio Ayub [2]",
		pos="626,264.5",
		width=1.4028];
	6	 [URL="http://lattes.cnpq.br/3964371281672065",
		color="#17272B",
		fontcolor="#FFFFFF",
		height=0.23611,
		label="Rafael Mazer Etto [3]",
		pos="626,200.5",
		width=1.1944];
	5 -> 6	 [arrowhead=normal,
		arrowsize=0.75,
		fontsize=8,
		label=1.0,
		lp="615.5,232.5",
		penwidth=3.5,
		pos="e,619.04,209.26 619.72,255.85 616.1,250.93 611.91,244.23 610,237.5 607.89,230.06 610.77,222.16 614.64,215.67"];
	6 -> 5	 [arrowhead=normal,
		arrowsize=0.75,
		fontsize=8,
		label=0.67,
		lp="633.5,232.5",
		penwidth=2.51,
		pos="e,626,255.9 626,209.16 626,218.86 626,235.8 626,248.19"];
	13	 [URL="http://lattes.cnpq.br/0829505317241223",
		color="#17272B",
		fontcolor="#FFFFFF",
		height=0.23611,
		label="Arion de Campos Junior [1]",
		pos="626,136.5",
		width=1.4722];
	6 -> 13	 [arrowhead=normal,
		arrowsize=0.75,
		fontsize=8,
		label=0.33,
		lp="615.5,168.5",
		penwidth=1.49,
		pos="e,618.18,145.2 618.94,191.98 614.88,187.11 610.16,180.42 608,173.5 605.59,165.8 609.02,157.72 613.51,151.17"];
	13 -> 6	 [arrowhead=normal,
		arrowsize=0.75,
		fontsize=8,
		label=1.0,
		lp="631.5,168.5",
		penwidth=3.5,
		pos="e,626,191.9 626,145.16 626,154.86 626,171.8 626,184.19"];
	10	 [URL="http://lattes.cnpq.br/6880696447532558",
		color="#17272B",
		fontcolor="#FFFFFF",
		height=0.23611,
		label="Luciano José Senger [0]",
		pos="742,264.5",
		width=1.3056];
	12	 [URL="http://lattes.cnpq.br/1661935150054196",
		color="#17272B",
		fontcolor="#FFFFFF",
		height=0.23611,
		label="Sergio L. Stevan Junior [0]",
		pos="859,264.5",
		width=1.4306];
}
