8933486815278318
6210374051720345
8582867831317500
4249565190908253
0083583987419032
6958196911745779
9290887579642176
9203445906772879
8487737682822439
7349728196205942
0332741796283531
3153714541332606
7906949494448445
2353019902835088
0759453801525705
6196357646157819
9205662588542783
9016348395509598
6613941431352859
6181152382269455
9481262314079347
3517506048340321
4615596909842543
1782942409529437
2775544513265705
3051627641386529
6429330945776054
6071474154506235
6360875374086810
1234817546210419
1221833848345709
3865034384552152
7710994342098865
7333467568929657
6206717544765848
6864734575516230
9178546039848839
6115144171517578
5035758755034863
8403163620849899
6711565873768897
9965133958814120
9270383646400992
0624744401973832
2434726655258463
3557762112642748
1279946584535239
9404175109417754
7561749470600567
0330238316162640
7726028274079010
2779167344577135
6338258664965964
5360192448343314
5213237888376188
1166084049239357
7172690658480139
5587696018443893
5684805461821130
3392547398268357
4121581497014003
6475890622757237
0123603644642997
7436135069574190
2811530612093043
5406483331494130
0756373063566786
0220198963753605
0147241723612464
3031532785482111
4527767099539513
6845759105423166
1628334598543593
5138501048735970
1729250362472068
8550121809370258
3716913766212806
2056114918062722
1390498464146414
1436984463076940
3532058764024942
6402813788982583
7943803258814208
8285715310794406
0094569519248307
4599448973645144
0419337162749077
3897012762009558
7471129537375702
3908911513113412
9895741911456199
6848454527085622
3478230611350302
2810994603993810
3306639576480361
4996400918695569
5599017990318989
8529742705597350
5685508027254258
7524720020580309
1152616776934150
9819471276433138
3366999814625339
8035908828388909
2586416582687307
2349312402999562
4819066494401721
6789694845792446
6346199469892538
3831654595082991
1121440156201071
0615162532010509
0613852447482455
5846190149262960
5490031389817518
4187864467079421
8884255808080666
2641981653845321
6864414617295032
8077173096185048
1623760027543080
6249745711463582
7796654028353519
3396117031935227
5375806480595724
7305428791149745
5134656329788030
0832933457687924
1957443513601740
2762107250018988
9719333478534147
8207280726883591
5969005066506687
7244520239095307
1521049013958651
8868913504308188
0848413770343284
1187925853215157
8173988361707961
1234565160573730
4328003866597876
9076052054264781
0457632122660653
8347245521292709
6772742811534306
5738906204248617
4952201609469836
0786750280869349
5929035791324142
0403442187128918
0963156998549318
3546808357732166
5575211128821628
2136087994222814
5770042763694895
7087730980420892
9586694925441437
5243917686716089
0787934216908206
5821244391495223
5650464536525125
0753229274864100
3923527435817810
0833156123604196
9833897626961852
2032844412965655
7524497285649088
3790201696145434
7711497703728054
0052601672308277
0055119344402132
7617060465554565
3310676280783039
5875642896165725
0595358090913032
0432322305048996
0667595639623212
2049042672529840
2940601420337733
1861023236526564
1213726436973259
7043118782881855
0845136809721480
1078501992095596
2077357454631257
3355785866214621
8846380599641830
3314436176621762
8459042567486109
5458585951730773
4910219035891668
2132758343815875
7190224569505702
1183672452248157
6008217204413572
1668301308306227
3444990823031446
3122186027481205
4267836368129425
2951330433330788
6492348853291718
1951591769086760
4681943327298415
8568010039715375
3392350634269014
5074595907001712
0193728242323709
6862323433709550
8330926767157488
7053426037771460
2675327519846595
9208665857677299
1342208759733891
6414820455474574
5548804788102914
8425084108120335
0107609177533582
2018724054910025
4517261626377607
8258858460621065
4339733597929160
8685206769534188
5885104201011303
1537370887671065
4286068411889269
1973634295633410
0923177184449313
0355720313323418
2974255192644710
0328496034873353
1802821549195333
0445780074374427
3197500103141618
4571096227964493
0469666950995989
2066248179012213
3606035336848889
5820875273231687
8478741766449896
7992694643607149
2776891673716882
4476745173584700
0576192110271130
3533844615312370
3987314871651010
5584298681870865
4352323080338671
3320047503985931
9569124863379521
4825585190861369
8253973445513809
0057190634986691
3571364352557402
2307201085881971
4895060623690154
1781532026120455
9615242685505657
2679073082540151
7089479973667101
6077250341207130
8882959656170754
3914738658851006
6032859237880982
3303713473565543
6110419050119583
8171641263447428
2135274375778171
7040500714149059
2375264508335209
3043270751792233
0410237154093098
0608872670193841
8336822452689736
5360520262906376
1101324198407041
7459851068586682
9323501876469331
8041626078120100
3520282081196395
2217556709443591
3603810130381168
2279328650083306
3068647614747317
7917466639435802
3148945173360899
8047078292358267
8881637289487791
1366033966068074
7755569003805040
7584415865388877
5727302355912744
1689147340536405
4711085025943072
7413071447572657
6982490563463904
2451877011069845
3128916191424142
5457033466905502
7666753954249641
9166351315586719
4561316107765907
3449338094885026
3362927044377531
8820269281530640
6027854640597685
4735237504611747
6516022083058455
6309436191619392
6705306257377699
4348305715314684
3749578207166537
4011500758211436
4244941712717032
9095496083421770
6219923474774353
8213371495151651
1413111851171638
2491859759015702
2804633646710952
4110421764783871
6016014644106946
8451782700980214
3394181280355442
0329741640375661
9085516658408739
8565293019114785
8555278845050226
7584819233121446
4192832420411160
7331241952317143
8039838878429641
9049482575702565
4445231631127461
0070319037330264
6380212729787758
8422211866392527
3195515678174130
7012766554811250
6975324203594393
7887148115540704
2945893439505813
3861614125400276
5668070799641640
4409025248163428
8748341506430267
2649013878608329
1625808359655687
7853504936131164
1880894774914152
5778518594595738
4709958581193166
7529510499149375
1155219258752081
1493915094609509
2537108552308575
7184209589576405
8647243878678518
6460520627911836
6979072524427741
0162059400153020
2630792318752359
5460336277022463
4780168761562599
3417701658859763
8158992910782515
7287108960864123
3413828709581399
3828728429230356
4315439705080319
7447650269203702
4550627569914128
1893724987187415
0098666202802214
9061718205554566
9366509451845445
9855493448161702
9631092494918142
2888434342801874
9972643774491301
2967035823175406
3682130243951308
9979882974882042
0201430845426807
9905593337419625
0201432253454830
2291552542715323
4044308825750721
7338272398663078
3336266286524002
9280078075342223
1960620473831019
0538013870555370
5284295521212505
1727908692754478
4374058983074020
7006712281313764
3415605901499664
7355743129213406
8042570810007206
5348033416763940
2362482510747681
3110536702747419
2113721493977750
0639199241726179
9646799989531481
5996213030952703
2801995864619923
2317084939123277
4097579744637000
7095738918009910
8649222099176162
9477647390730752
4417948606635667
1657784871972039
3377801666590092
5007850894196444
9966339550356719
3294483385986998
0137017476590822
6116132707419686
2308714708568580
1983875804802775
6191948428494137
8320321060241446
8906337483623992
2657204297944320
0937791837619484
2711699996455302
7984956973544220
8187136903260754
8092801988782660
7384856287598765
2699196515879292
0911313088503538
6938403261298678
9185978319065160
0144773229488340
8103443422980369
2011381324859254
2366751838985119
9204945277074255
1652140859355617
3023109699766319
5604719921386043
9091261365306861
6999749984515755
2119882299651306
8302605179522059
1970214216406823
7315070304603137
3050294986410427
5582694630381956
0751163307734256
1112267139974300
5054693993395374
9188237385140933
2615754493452302
1525751070682900
3592271618601621
6460993939012827
7921937150119425
6367014249983851
6284773871837359
5098407619682182
9106960151052210
2212648941159028
2566945020220425
8478749414662055
2924701373382261
0002149327190402
2290187658988395
6795236273115292
6228713619023099
0181071161961527
8867390850809735
3542226301414526
8221132060190449
2617570378223458
5118146790133177
5080819854251237
6353527276133849
7716968611856757
0833987890870305
0821186870496558
0225518466080582
0247990329725342
2420912938812409
7989837727910759
3958124498479090
2067865527733126
1366901088830001
9409316676960570
0639327863515028
0085167814690092
2389683128725673
3824006831436172
9795382485172705
8571006746515401
6699507630151534
9136858478892972
0452738819022751
5011153043976618
1733069896909475
5826141277791798
9492728853267318
2375726372092386
3427260889880733
0267366096672693
2414221561841182
2359429211917742
2197431112033409
5148407552468908
8821536792042504
9390809181409038
4726596193949022
2115492949957340
0717161560405537
9237930628559312
1379941088057163
3603838759913454
3233691097260872
6809294163273974
4462378046178590
9732618516936314
1962597799953702
9226671506381468
4672169756196715
1314827741070898
6717246948387345
0765261301478183
2470886018729411
7282763701085219
3401698902681661
6073841207993010
5050955206618507
9551966111114062
1729567585742169
9747146671021085
2775296377285442
0088107395457780
2988164955239991
0656489173735132
0635309299093572
0001073080069679
5832778223847349
6356140943882641
6585937888894798
3820562952937690
1475419642549483
6491277419858571
5950068714430347
8030116292609672
4648169289144736
5647462671079561
1188491521990194
4835492337237703
6581222571777811
4660824698053179
4049323565071061
6098510783539163
7602365200901047
0228507733031263
7569840101319680
5216854960227151
0587777293279188
9362190048344584
1145425960313431
9956346241888896
6349150762819131
1734637178368815
1282356994348871
9154361722501415
2692650366542684
0682028271420950
5444380855577045
4051595462956016
0694700754100102
3692327022703488
6697635220607191
1813801866195427
8255254554872239
5020869816968978
9589915582290020
1649425369822917
2329001590316263
6746181004540413
5962867835836749
4632609286866341
4381300863323095
5856382073408188
4629759430209015
5110389700162104
6923302540858368
3062736510552654
1570903931042716
3509643250919547
1022412134702658
7384168674539702
1884832672442540
4238567813005039
3670885449243317
3629784127842636
8021481959269554
4912851430118124
4117425896007112
2708556827130196
1038640508672912
8767873728379574
9424346762460416
3531012594831409
5127849556707282
1699964516733331
7680699374474730
1724899631394370
6491188012807982
9027947480044028
0066143774458861
0027562644557069
0131770792108992
5021555684732627
7736272225624614
5921054617735489
5450231072555051
7380614563603541
2231335000873739
6014473530559389
5269031128431861
6627262915567082
6416376138506127
4061800207647478
0438610479238720
5290468802716394
8174430593158558
3544421854721215
9971202585286967
6405553451083267
1915826985515007
1260217332585007
2172818538868838
4210955403730036
9716250424481245
1852464699388832
7596665614395075
8180859738646919
0419573494358567
5105825128941986
5415434169379609
0326261996133041
5902555075011962
2740759174318866
7160297453759702
8368419143171251
9700302420274549
6858381037029976
3765355905008325
5852367984234501
0873123186830266
2208463258386199
7075471763804755
8937773262718594
1979466107707606
3608822139816010
0265586245701537
9122083310720541
7811751016728002
6013790055300526
1566241634033127
7734628421136741
8156466480219600
4758763489087525
2730416923915211
9653651998570946
5729487301175195
2958488388346484
5619606337924391
0465944663357275
2597623031247692
3297690969443342
2090018228785477
8134328687297073
2999886323545027
9551085605609133
6910294149550155
5806486112927663
9621492074206110
6691516072529137
6475585105456744
2874016039391089
0225697202330409
4780821244553957
1630100878492432
1665709742993356
5720701444145747
6255131100653800
0959396121617164
4081394632257660
2964596548355267
9424175688206545
5358286408119219
9737337460957026
9200533791228786
7025793451504606
4099554843458099
0579993886110206
1379557619786602
7091241742851920
2856012942943418
2696490871291334
6813641364341156
1272472774910946
4088536093584227
6480329782368356
1408852757667044
6220471115846342
4244400828505785
7632245413046227
7516385196117516
1198843146263387
6721866171459676
6966820613640238
8345369170292667
6676176632132637
7087372884726559
9304493875700070
6741878144495837
7018711796528439
9933650905615452
0304255276473673
1602054738205274
4694847711359239
4503328237973158
1490315893556043
2478588668114624
1011761965299986
9668447751087972
3402195711564745
2299510704601428
5743475962565851
4142478901587907
9281484833327774
4251570941513933
5757121070562062
7018373401269948
9110094830881785
3964589043713936
7321030858845514
3828967367733479
9395881112357637
1482612102710885
4768305989343564
9301036866854470
9371072740649823
1393293550986939
0530113144802334
9661397886166974
4225442402720592
1262958798464441
2615524841845182
8767865615341689
0121212152910096
7750101607903026
4368115429854826
6503018517997465
6770549072694365
8586261861041279
4185579895267112
8828157208524976
1089731342748216
5973234062782358
0230420178231300
3775720692542821
9416847804668520
9894100364383628
8897205603004682
8597968905543299
2822246018917819
6171683055849726
7430102726026121
9621846497799221
9344396994029337
4766930275581140
8672766401462829
2844394091327451
8143871288303271
8116645697040838
8797074073023988
0651224434227033
2985500076594237
2858383909949643
2934031372127516
3271391560769184
2372439195211041
3839707881946865
0369519127864469
2950876837434741
9339164677717394
0874198155052641
0232503428559756
3288352085998633
1177022282500069
0219397400275470
8230564837935539
4167708277731062
6879704705300161
1405100203133067
6681063682470951
0485875510969522
8869500643428663
6168973596402235
0606088996192235
8251885707409794
2043912689742449
9016529086471152
3691223727150484
4735150102013228
4724674295725958
9987675298423409
2627414712422817
8063337006860938
5183458350445779
7878730981943097
5842711442686587
4353405152196200
7075252571504729
2775650529232362
7108245336327043
9136453886924514
8933884950667644
2572300460729333
3238555337515281
7523198554051014
9393232413376568
0103007276004318
3408512034422431
2660347722855892
3562894103432242
3328089781552049
5170263061293078
0947694523347968
0405763047578192
2238947545394339
0461451015026948
2302429651674634
1756895777404187
9477221059923756
7363859590071267
9025156952498494
3060964061145182
5381281668491431
0196564522608145
1124798578630304
8929162910172931
6267115792573115
8473729646872830
3293287465749067
9938172759470346
4152939674461575
1308331981095904
0194007981724312
2563328182875925
6477852925530397
1892065190987449
2865005710881126
2714004273523549
5526672710704851
7381707035350438
0473538508207901
9165109840414837
7082465592838517
4549716492984231
5141081519675447
4585015105548818
4820678026031281
5885155446723216
5450809564180533
1119271228251930
5265671173595770
2169449414841940
9859511150127352
4016244616460875
0651075688988405
7756929349089648
1353063317146638
9666779968090820
3235309329772519
0847126821374922
5587604854611208
1886241983241991
4936867931712556
6085524251262619
7221332470297391
3623784238232308
5510211484799619
9726544779319467
4070223413315197
1686202594020223
3030300508662987
6360325887122401
2982223258476864
4899915980774862
0701838129723911
3513903581074586
1608673584881629
0118204561925996
7865027595098647
0497837474488285
9128702762147969
1138043423641251
3624152453898910
7211347079163537
0698125032222516
4573475663893143
3618448488622903
7856810224263910
9169505843466495
4283175516490450
3664441705741783
1786963971769898
2166399762210673
5909037400345742
3778280170448658
6517527899869534
8216159372617370
1471716291001275
9742044687646900
9727122203219263
6460044186315206
9897077350637690
3486770319120269
6157026739061869
3265043927968066
5755417512728496
6965964200705274
1761278712073136
5729302235544407
5021273955484913
6626060717742888
7419219656824011
3367574211549755
7008547778882052
3685962760451538
3223937436916455
1822365467135209
0856012441334324
0203257077650637
6714385683554087
4630203406071626
1757309852446263
2215850099967524
3177232797286370
6572298923055649
0500477699854026
0161925591909696
3566686185759241
8827709541831764
9831073276253765
0140407257002080
4220588050780054
8860278267620686
5295282403442163
6365369807632750
2985771102505330
2400983698111640
0931007460545219
4284805455166367
5927131994689797
1572033392863945
9165354640286423
1851542946209824
8280280053853901
5599815071336163
1909453248702127
0821058548424203
0138188722662620
6420810341922792
1489638551264369
7096647301260328
5810632348755720
9493961652075640
3141577169664062
5069702208258402
1476510040556352
7065886022611969
1844121641150664
0600185970893679
1188998893432821
9004022538120455
1893823983277646
6378672512811117
2925110812244678
1165288573378129
3255580847599398
0112866192884217
7809813526790636
1966912521325118
4422258022221637
2872056751024508
6736532927613457
5493452207047677
8429442842285882
6782652334708832
4345256518449871
7905822891118702
6507858203899415
0506457824733659
1739880075458171
3191336535585210
6312950742012943
3353181277947455
0935774434529860
0922269555899443
6578657422267764
4759006674013596
4016118532405626
2734203117778600
5730999136286305
1138541150687707
2792865766795939
3280061293291808
8418015799598516
0845220475324967
6300676011848468
9830599942584878
0914292768585767
6461505420218183
8473435799107193
0547866649256972
3811957502837032
4325462585577454
1421625431479476
6236461593058482
1607735201703873
1131918285245046
1532053922232401
5389042578042654
0203797508684812
0403331768010158
9084701662949717
1230014256835541
4027274349053255
7904769201845860
8569203272232467
9190928016507366
5332282995517133
8533387365058570
5356382079048819
9246879554920774
5853502103287016
2917341562474744
1469514964648933
4337079762714554
8214942350214447
6802885680430758
7732802619522307
6437197076852830
9822212808651415
4213618813701177
1588982182134967
0545046720519536
9366438922839921
4763609320683476
9338127969225046
7615911926945588
0974194825465802
1481702296512486
1372497759560687
5184027055855313
7646459671448577
4476077858867434
3418695492517097
2623644217482519
0740745836565262
6281228206580194
8771755560875830
5704842232274071
7745473227550798
7145534859121414
5370750767158407
5567311577230727
3749158765933552
8458559657676452
5782696565602340
2192966103431933
5982939329205523
9029359807019219
4582822311318387
9002964104953284
2692152470002721
1314382447403680
6939849851265986
6123811912250634
9905474231945833
3477864192756089
9690322296383347
7589937941671970
7496653903360546
7138386482315995
6916349439288974
8231471391500358
1197875002538866
2608351553446839
6500182188147733
1394531264131849
7886578326248341
2840219152479310
9596444231978809
7102285537569206
9138028556380501
5955859475875219
3074997830683878
1690221450242725
0883486364645272
1348339517901277
3809881535237123
8058038262636678
3282564017671842
2499185070528563
2626035341263254
9911259269353185
6725161706063516
6180035198878909
6741344424648342
2504445010542631
1511841595100434
1143913686905280
9623609966291163
4589019602065416
5418436948246550
2276153970596822
4449341784424105
8690868696190633
8400310812556346
1224548358827177
9638281050014449
2401754546708942
2825584905077015
8667237742538392
0165348738208319
8231728046260663
2164394495032150
5320513467153203
1923726000036625
3058491152192770
7808307863026158
1682352340908849
4487932290959405
1445291469034125
0211880658331763
7714094908139455
0884573051204511
8002497359992294
8589967917396283
2338977660905171
4485287339053593
3706172277016287
4636207655078294
0872962035173342
3961734985713527
6188547713731917
4068724804863341
4576194938432302
4556293975801631
7435986619070355
5493036405018532
7476929614934397
1444243268734943
2187030292604916
7789361077342035
7845293090423956
7766148887180953
2636035288146976
8284067987442342
3988665388879183
5285324361162578
0630058625710755
8601682145631395
0116848016427400
8054503791451688
5475754252813738
6508404325116313
7753541723427551
2433019169073365
9523430994157678
2813707284245171
0556383187181842
8973547754946152
1855007601064102
6177654199180123
1196863678088182
2621516646153655
3977370572262576
3707634488541457
7560751801113753
5382690864755190
2993761010472298
3428955299526003
6464091119856967
7527203195576539
6571010640962069
0763708094190677
7562128593261814
6495070712998540
7187151598358992
7801011961344270
6523548905259096
6688321807128891
6409028512149023
6830993024983648
9323452365077967
4293803076552369
9241440155763029
7527723181536922
1413071683140519
8808835367553889
0137321396240980
3189657420516399
4388478395719198
3964313181351411
1602653870311562
8300756726664806
4675455644414519
2965334494309540
8866407920549161
3582569510865214
9641025440300118
7595933367125494
7715215673568526
7702237007395895
3972203417794213
2498400321481109
2325513222088331
7182255791508200
6423374942748412
5314952206575750
9302659618279506
6825200019787340
1460765270568999
7024730253120734
1877072732800242
1383440345111028
4973061352094388
1474830375607171
9207168738729762
2335930131464891
7562851016795381
2082714083282861
1721501040953897
6574530325867764
8802009521168615
7555125918098797
3783347020992258
2653769170795641
3499704308301708
0413278677157307
3376142410575714
3991806977400577
2623623260898201
0062084279231594
9087861144316349
8654711278380770
9977308493978643
2710632380356442
2257119054111256
8231524107665039
7524655663585223
2545270334903502
3608337314955861
8614823350224789
4384212530537728
1213526315690013
2082780006180637
1804139974512679
3595445012582634
7140594864261807
8315480409336088
3019824623506485
8148257331980555
8146122736393267
2311537967151263
0884149595277368
3178864999293864
8324604057518384
3509111034386583
0717306636933723
5050735541590917
2519371975822056
8569198102578863
0290219277503782
2762752291082988
2463185158446357
9118462384268758
8760383540033518
3516499008540248
3369858890068027
9162508978945887
6580097165677867
9650392075455314
3425772998319216
5009182371990039
3707481065962958
6034140277905871
2521204821895384
7404209173085482
6532841190654293
4706256169043197
5798321645560791
4391590756604234
2514856487081771
4294288774792467
2987167291420734
9746240025442906
8716694258213222
2497574058090352
8946840024268227
3742650656209267
3072606232109429
8814785068757523
8814881937448353
6833784075077342
4329896095273777
5860856169215170
1668342679815086
0719333236862816
6171377086970879
6443348814893849
4117947746390309
9017643623973318
7373224945080534
2579395992536897
1366193935168737
3109765375187879
2083064025342283
6146196427539223
8214812821313279
9568025429964056
0146291251418497
1860968090022719
1109263371952850
9006230327811110
2538824540800669
5208824640229110
7004993045787997
8030044602827914
4148888364387732
7489601043203780
7177561066563279
3752520730411855
8194698455004359
3902020936480943
0925726638062356
3406800836319670
0438695263897215
6139204122148876
8645174138041143
0706356412303657
2468528554511482
4128347749912519
4655532473617635
5141892193965409
5495789883512969
2994838292713346
7579906296728267
7150485306812336
3148832259034631
3322381432432776
7183048719699611
1050516524103988
0670609009240016
7956370641129095
8640374980559895
2734534369457334
5108515108949442
8369559502765178
9157872297410868
3785638307721158
1288447995978779
1044907746581026
1319187404919472
1213434216039261
6787618125177237
3031871083631570
4027018499181129
8778713382135771
7587208482384059
9072593834057239
1996730931772855
3718110755215284
1410771849326902
2234838560307432
1055263403980509
4262711303801343
1190815133788256
6418026091610888
9041514924498589
9068829052189917
2151776819527782
7781268444220737
5332863361320139
4269764062849913
5259428702371867
6917479410354653
6727957065019831
0661599261187131
4635954590630353
4814653963881174
2230413220522543
3574512153479295
5481010203626903
3370287925307569
8895889574171912
5444671431135798
5730319343916060
0564682960711818
3717890876340843
3750795197430721
8888273057547118
4012863214487776
6821787007949316
7853993193464519
4022004227543012
7920926237008364
1325518026466432
5079473448181900
1864641085946561
0050393189879143
6816360045248696
0922266857789861
3957565238072712
4984784688354785
6108005418982477
2598425245523895
8559018688439781
4607002766670430
3725984761029148
5865771245547608
3092580934671870
3893039212394945
6799638260194437
0437749546329724
1155484436010837
4629129505794706
3892893860696339
2073628653010223
9457081088108168
3497528592223902
5130566170893828
1117896124904968
1123161267879352
3184669459025587
9707741784678106
5033930756866717
3065586932979372
4382030169160931
1518924307021418
8483735047595756
9109735062193195
7614011510994839
3818503553575305
2541832015039890
7566615364096943
5206564960719343
4347979482173808
5175266531832680
2254436025676785
1950470674042645
8573195327542061
2138455740351060
3560413022072906
0598463721997774
0629601747594563
4092150773316545
8847493332813575
5452646204345123
4909405370223286
7327185550917046
0331366888147860
0006827895405871
4328309612941987
5248622466343519
4416089313760004
1966575261694373
9750786945592909
6939796935130985
3310950469376046
5871290712552613
4106126871734651
4503033836037476
1559050614998666
0926820987046988
4468412013526169
7284855262516368
2513158036108368
2136796689907966
3895050129212489
4971554849578871
1595358007418855
8977600980581002
8944068184041890
5703078625615737
1730708568912490
6464989752965743
3754467086294573
9147149421510309
7642611453807260
7948140979008178
8265502067732685
3558212767652511
0105790048149499
8555352444875883
7957830024158672
5792347469122034
4134625891680717
7777051910363215
8539677224806492
9500216311760566
5863157086821275
9095318113105590
2150245851718713
6226917583356395
8516420002525301
2876196501975554
6167204386206414
6993754062710447
5356463834482311
5943919093617181
6382804802343692
1206034815166926
2825516182192204
0950636873235278
2318727424326430
5222658945635310
2854855744345507
9315815724660902
9479569191726896
2621372434331847
5217444741093175
5479717772667720
6767054360839985
1447294667795452
8279783859863548
8178097641642139
0409948164775358
2867286021783929
8962738009409247
4085102912513261
4240104650669717
7407667937371252
6716341388414833
0653895356416942
7870497390325149
4534452977286688
4163627059926738
5511739536852420
6182643858730856
5812878422617777
3874431149842851
1557092274485102
7890152632165535
5663189193047455
5754693004453171
7778408024654682
1906825541995385
7264259801951867
9228405728701913
8237021184348243
1907097220500923
8536193616269377
4069317815405984
2587800992546559
8254825367642053
2332740840992959
1472067380697398
0238659122334855
3868164975137820
0613065640253948
9345199069009567
3684400139138167
3959193495428133
0609533013478092
4999761195932233
7056438710376951
2173728870309472
4850410751372755
8042687879412077
5720775873259528
7828776012924524
3868808682299944
5841725453281175
4197266977644156
0715663819361134
4974948773862170
4087591889616392
0973693375124593
2789773452364023
8627804318535066
2465548326947786
6494763345101302
1184195536814806
3244524336377870
7286319140069530
9398487439130303
0551184684899446
0659529779417203
7908775368079914
8997768741381477
0406881059250161
6190048748613247
2872745758038853
1241086430897870
0628899769142751
4101014607789110
7894439679806949
2912615796717928
8781151791813974
3156706992155580
3845989485833395
1164546306978000
3491460911174983
8299599565293135
6481357929548520
3104705715455973
1951936566028337
4587589341187035
0454870801803318
3812059891202992
3832957669189657
7966854407940270
6011782448349535
3972502324754373
3309186024550321
6752465772303274
2299326959345945
7096228449228489
3919602286711252
3043399319231301
9465489568352961
6118325967319836
3171065144625708
8189113429405126
8477732400095433
4691377452255154
3253092902410941
7480644880383146
0842781245289075
6083313536626541
3572745339763778
5900216782794464
1167105299139873
8820947788769236
9233706206678324
7673526126442085
4943655471147347
5216150705972509
6950772870997831
1453322235984692
0059972528530672
9387909464059380
0894715226925471
4357485133240999
0051961566721720
3399311383894158
9828179860159164
8206965082492861
5407191164761501
0218307357591357
6008360514210635
5756925512460623
6198744811306048
3685546079985825
4292646680182321
2767516480154062
3346383311678602
7905667701769534
0990690835122059
2031280843668283
5961582941195290
2133638997896286
9588911544082215
5275304739793101
2254174113132347
1083863139406798
5282837078715676
9342074717900720
6856333178217646
0900836072791017
9698405294374561
1750154267305530
9507219665867809
5094141813936910
3111719062169162
3235253236012070
6282004182193288
7000845749315355
6960917117472093
5392269113232224
3761082063391085
9984348732255296
0330777618358332
9312580970790774
5144329113111242
7133728065233145
1242432139834361
6312568930770140
6134877248392093
6427935684337263
9861339870761985
0635740739677769
6940568442180526
9066870597034219
2709461700653022
3605522427721974
4044806953310324
0127565943117568
5044865093200824
3737108590720792
5768000922241088
9220516572231414
4782581325560011
2790167468248730
8654965462626216
0731844751050814
8052811635928268
4620766111243038
1889828835213015
1852999121026094
6310398015657293
2634785138594199
4609438881181083
0210536098058074
5777043340248466
2792641230900708
6742390457977989
4743560557606781
4803642830639806
9790871977193250
6017525398494344
2250091739407083
4191742468210919
2415237219553726
3304203366904997
2717187327982497
1705430650855494
2794888963106382
0482621470344809
6196647536877997
4594238453149089
7139384370511619
9616003010058595
9060974474062619
8688783103064480
4448499039119632
9913429373870610
4170126354286993
0072173018005712
5541051523376186
8214525670552972
1468507187090017
8884890472193474
0392570932549437
1181184739332722
4887814471318385
3763147956591527
5157465363490226
4341858493092611
2282063265851486
0888789083528518
9354580229064362
5284208499985821
7943695736866881
5539282358122586
1274488181096676
1270437648097538
0405765660081646
5808503261461263
6323694547551707
8741124364246075
4569209737506212
5204074968901692
8435958460730525
7202601999192100
7721039814884365
6428989109612908
5912998858600729
2427515746104020
3118663199068160
8333178384005254
3989143786312185
1060509900961842
8062682621105461
0576817168337934
0534505531331316
5527703735628408
6441820544060354
0344851804410578
9514787128189541
8659847025810421
5916017746341882
8348645460666798
9842703455279205
6933632737044678
9615448923708075
4287525933081582
2580825196325707
9495326031912899
2467159617627119
7730363689652391
2776289730771712
4236202101986226
7499974900928438
1839050099817318
5175721483035270
0342756387659098
8497812227637741
5857639706993429
2125365750424202
1029549246184713
5278797378423107
6466841023506131
7495031652251949
3986461691816820
5594294047666889
0754958106998827
2196149931879177
3988611223885826
7087724353350725
8393676652999400
3549326950754998
3835309163911239
8508345690437396
7898814885704450
6272554271895126
3327673910047431
3795687459942994
6984680623620035
2769541300677306
9089384457859061
4884114812893223
4166303728652029
3439114205800699
1000774520495697
9184386547741809
0759872697124142
2827724452053652
2851798514812201
2661341010274807
7055319552228541
4933022274560322
7180011272164516
7107472277602514
8138694168957825
2044157599722078
3183765347304732
5921352349506385
2004119822330162
2107397532173217
2482747429092370
9255404102992255
6275155634456649
0196794551426360
3384554771252347
3466130870926186
3042469760649626
0739400036858586
4026850063357506
1520599055684991
8874534790612417
8159396142887748
1918061352604077
9519008898047189
6068911894498452
7320090199496500
1892783594701897
9833601447849479
5190808619206526
9321134296636728
8692928260856575
0733107577093525
4858219292242433
8245703417124785
7046490024884075
5341317535477702
3607644288079129
0884523778289681
3784120388465829
9334199887874167
7876562906569288
5668572583542015
1049675903753726
8197485746661776
6154630512714298
1405759246065035
7838094235696453
5998337634888263
2718500416410005
9763841788917648
1512994126787334
7151948675530250
5054365952993258
0438768303258021
2949585242752114
9390374824481660
6769466465877287
4410000244832994
0038597033633334
2263515691905219
4741480538883395
3915051035089861
4624531106440732
7026823607761672
5439025323189556
9978219072711522
9379593350019216
1838652801389093
1871793154177632
8338826449053539
8137950998286858
6463355409406104
1396973634283242
9635840766350826
8110965693993041
5475925837791356
9753135493885075
1791640052919565
3669490093866139
1860732791431053
1642379043250572
5374713861434859
9063676608700158
2341227656351166
2087228956469914
8155952045293310
4457893486819547
4310920023675660
4338726381059601
2400173836747590
6196654805698832
4714185516263478
6511144845563580
8839646082565060
0503026909929282
3701340819381314
2331681666502131
9720274214573371
8351948554372631
1766558858445284
5932159585668640
2188689318530396
6479420970768737
5128810706392558
6920001090755358
7481128465396350
9008445649855706
0197988053018362
5275795378811255
6815491490836785
6165096633263675
6329612189249152
1888942923446886
2196421661940816
7160465508646608
3645609926619259
8340242386064943
6018633917956149
7312151544495973
9928643862231153
2615066909315492
5470970524989252
8909494913957465
6520430298584189
3257331970812278
3229830569545582
3559717674809595
0870593828183273
5388594103572972
3186334783327291
5649690173781271
4955439483175452
6910997192569746
4941679572077497
1022819604774526
8342883361739081
5419036821070150
2402671547836629
9324788138817522
1393329942220364
7454591375591256
5018071405634606
6903871853056267
0676101131499422
3470719687677042
9357251483717307
7824607990964551
4831231591433865
2574445537433398
2932962321837120
5506672117284501
2766526793830455
8168835577951320
4713778521629486
2492074041991321
2779616651062488
8415471574666444
0955554297248061
4787380927153288
9382268764340037
4006598610021833
0535541638438250
2623325067331225
3977278425133274
8286209605047357
3389089273711351
8622059450756991
4624623273831359
8444233927942764
4126956690840240
6134133834289438
5598322661148873
2697421947978148
3725318894555272
9110045494449064
8033490313680312
0426558167782290
1902601000093854
5045296311823102
2862471143670522
0682314300462252
1960968397477877
8962420852349350
1173129093263191
0578612884434541
9002981704526120
9158903575623577
2623876066953876
9928287250848150
5395774975535644
1611490673232025
1228186776041193
5727620465127101
5551419214841660
0725478455407545
4840067353836807
5802766211228279
7368047039349168
1426399772341383
8538509657578022
3224222404689806
1154855970506383
0035524477420865
4401720698968460
4418296714497219
9508969101649184
6116400536904308
1674582391044741
8593764525171799
6208181589808637
6044225669049801
4092089637806512
6066310198344526
1918486001122267
7303412357064353
0291695624884565
1772357406127426
3322651297636139
0183031619955872
4251408864640828
3610183816333332
2104003453772370
9918121248997976
3278315914566734
8403452968719019
5210248900372340
7661373078999069
9611168473482242
5325490363886464
8178063691052587
0287319108203303
5138849832449437
3745472715302194
1491098602951559
4525934483670110
0476874894078044
9110409423559918
2655636961930278
4611692798738135
2062982268663101
0835550051061850
9094764510140640
2520190926408820
2601905638162458
8934569788186503
4775141540909868
2858592526544364
1966385935124736
9429712259649346
1756280546568120
9545134796489464
6801270542810402
5034796789305260
4105781512929103
7632150820192545
8627771373169348
7353607022049208
0534902162412931
5396967100376451
8835499080349170
0466799995060671
2379804514613050
1449605928537533
0443961178709397
2084234772979752
1614745697870003
9331922346032586
8639676413809428
1803178442452988
8160957651571786
5050710853486714
3093903812393173
4706415579574848
8017080285788684
7307906369744588
9761891817848308
4325584779249968
2522115962876820
3895489233810159
7838769590779294
4819009378941531
5895188069425134
6334840462737474
4179444121729414
8400758942721775
8761240674655124
8605150063835615
1030036144037365
0335852199620247
0973686004919998
2130598497047485
4043789557049115
7290847773396691
3824759610411548
2458344693524366
9544258230755043
5183321157819473
2270000954327155
2910407574938593
9595917441407045
0173411400092352
6088449213941838
6369644299108751
9623357218158305
6119671014416126
3704692752190087
4580283019523800
3684365036518699
4308301332725560
8038877583036400
4669850231981662
0979027559110104
0588034375696509
8144833282764440
3537401424394629
8980240740423896
3968800900294945
2841923109249541
5158363701305340
3740950346967524
6903098091145779
3299204309097010
5224100901097048
1820626100081027
2105430036505466
9954238293341790
5669240020541721
6630683190018665
9298716405254462
4806651112095534
9660774556146411
3794292798447973
7497745133370880
1506725765564371
6464575498497220
1470246355592742
3062382587681942
4104033685622260
9284984020133258
0575779469074257
6405610498328246
8479967495464590
7268943188554082
8276650236213537
2169518139803448
2514585152983958
5029852757109150
2484242478371745
0868145353220470
8556495105475585
7310859488419056
3781815204303241
8010023520899810
6488182288487431
2244627453434488
3061142895724356
4065824911933203
6715726821161238
9430457219345864
0373483725125945
2592199574112612
1230958117065343
6687810331223819
6987813471700353
0438514538015348
6981448637456391
9463091305158969
9544611853153496
9456761443408393
6537334481030616
9758791735720365
6083981534257182
2762295886269772
8101742882627237
1278004515460973
1028689655733162
8109499519249042
8708461008640833
2587326224545065
3691219559574888
0885095111371241
8290369508735980
2311121099883170
5495322642019035
3545025532420668
3206924209579873
1734590811181243
7670548199624826
4505571663113782
2232279409548432
7381930992034213
5508865855321722
6597163093865024
0363088869461060
9018028705455552
5541351870584563
0948073109312351
5220518797580348
0438944908283624
3600215645187879
4073581583592013
9426774296649942
4640581642359843
0516705125074931
1801932562729311
8198404068010238
7848731113434963
4584891073378678
7977035910952141
4631831305130107
4062617848341219
8466509048730095
1351323691453237
9544326000577208
4480605521956487
8213472808311219
0028412415062935
7429395441168502
4574679474660607
1447374402421898
3638295020042521
6550164908678142
6754176475392608
8952759210768230
1771437188148893
5313696806283523
2069510469317474
4827529601993636
5950685190390189
7322216217851467
5648305790872516
5345582728178445
0768900408925981
8152434556596522
2060361125371120
7471310113999140
6955104356727123
6482679138300683
8697469670765187
5115280107160951
3312886428329809
4488756073018870
6470299686136609
3416013751205448
6483505259148356
9202449614881084
2283380723522795
3468569524526218
3800752426966271
8989384773493684
6277726330770391
6800546359444873
9449940655719033
6898859938989272
8522929768885038
2945837904680698
6205882777993298
8144299135594044
4613905532878805
6559883062339553
7786078705085877
8817669953838863
3110786953256547
5670504878145026
4259673144880085
2311549625755416
5312503102716918
8895984217196144
5383234807198546
9326973605695026
1281051042027999
1223548516474091
6553238469370344
9376657571970077
8318865433486386
5291550330245299
6385152242791823
1340137853798296
1850074910846533
4030595946214028
1453114896177175
5900095069824281
8113779505149284
5046678566996876
0574692206149746
7728683647291741
8136932810344282
6529613408675804
4306304980142552
0329276731040147
6296914559795386
1628429974448859
7565432110685296
8417184930081130
1292351585009077
5697571021019197
9512074932152185
7497379804672333
3165380752669036
7331540857599068
2834949105605020
0329227262346932
9299700186210242
1687290480943861
3092844520113381
3421244271965556
2171782600728348
9210113602818077
4368704870574386
9903264097077272
1388529283382853
5635117063883480
9877743047888893
0206014745322077
3461115936320349
2273924838605658
5095542685152115
7196405181790361
1526879820492179
7600161795640963
3351964514268856
0637238193355586
1553804692729843
1035095212624499
1846162226938893
4096033204371947
8333273103512768
0147639719088377
3136787877825336
8787784443554068
8836609544198735
3406616819442439
1568875950216131
2487238880227616
8245637452724597
2114370378373874
2505110991556463
5330038857795179
8444041745379095
8015595254077598
8536113635924828
1355096492643102
0911229747524649
0122537220068653
8427382416495700
0142074313979686
2099150394742876
9599317091607219
5895777022985152
5061330474201297
2635092058300854
4802855675139252
8441249529400604
4086846335875092
3113039142011272
7668550083217842
0367605087571652
7155568250048145
7567953815997111
8871348572126565
8783964270386788
2794406139685730
2557613056024752
7237821727249692
4033748858303305
5206501623343750
9138505434158075
0780966755422728
6127436626143032
7533729699758819
0430938705891807
5531146781115011
0170555859750777
6746489966841679
5123794187435193
8917413789781850
7651629688360861
0008550912436203
8494271331675279
2319345508519050
9669532724764871
3293375099849014
4966823021866296
7947123455502712
8351965334605857
9221673810542059
5663988929006731
3265171990139363
2581103071604086
2291054769194665
0065966792532426
8315600067791313
0132820998065625
2959038561432856
0307279090409196
4015546287962360
1065390140881688
0914211603031580
7559457454447446
5484149216615431
5125181860266515
7335517748410180
1882957357011759
3107924103069456
1667173956630341
3644460026756555
2786893155061883
2031532707963288
7568400311889864
3109993665459454
1680326297012937
7592090152400440
4613673613876605
0888862631144139
5170297865027430
4887156772722646
0339375192824635
0106209607363225
8204541236474529
4003274069373756
5494448944042005
2756798528556104
9274242771803008
8951141172579985
5547446462445811
1077091269921532
6476740425912656
2863978276801537
2248903075480185
5133845323979877
1930178050426213
2462847535959232
5062261603815797
2522406207908377
7159637189296890
1662120779805468
2138911304735498
5066507953850467
3903766210023732
1458288287757880
3487049664774045
3076174661624449
3561428456009236
2503348412377898
6454546086357595
5839043594908917
5373845785326215
5829383817349121
6026974071792846
9706390093378392
1173515780556491
2580883238684755
1022131835077215
7869562265788573
2274051874658702
2453937624789153
9961728545319627
6243058293233495
1713250447051507
4699333363207899
4571272316234191
4616080650279561
1635688279204731
0604683124535582
9122665847856513
5104958844178983
7889738056426113
5436713663763286
0664882212542958
1255714800013638
2396246035555117
2828160894324353
4108663280979993
0795292425372812
0353705043616506
3990259902528302
7261961344060120
8599356494482170
6848023735708618
3355600418844746
9213664228972188
1820357386592852
0484426340349483
3163006126412979
0102304704866472
0018992452321910
4877380494360661
9215810451818283
7508977425092742
9414205248149500
3057012628845658
7166770916937434
3699082804969492
8922709967229224
5762548246076451
5490315867189084
5874351775135858
1269694051954641
1073393690989148
7765068307855043
5820606948533146
5540431990890926
0752609601599256
2901888624506535
7648406530508390
2108171731808960
9849354538615385
7913071598628246
1573475808376813
1509480515046572
6495148747049688
7126226977101724
3951322834691336
0567931971223986
9859154979447005
5423588700354750
9893319139795844
1143486914946350
2663920223082171
8693041531076225
4729375936111172
3889535324301378
1802982806436894
7116053010359520
2081741860624898
7153258795573319
5439166845578708
3739499909744454
6802184258602239
7810874305666395
6726578534593471
3897693315206213
0883325335728609
7360318596488477
8452678355444067
4327895435746416
1991062466364355
1471627054802322
8185677833132077
2672610021696936
3254990612451836
7047703402079406
9410136771427091
9669833663325445
3170931739485037
5962482147639194
4633752993827279
5711182251641103
7322152184244751
6965232110785182
8923844563320377
4711525433060300
5841903379711710
3775999663879956
3610603048189953
9875065822420268
8335472862167310
7719629634335014
0204410162400657
8486894345815380
6432406794303988
2140595408768900
9393327464014696
8627035010986317
4457706110257540
8330443431206308
9463372539787942
5646690509532167
7297737442136792
9606159173561458
9618768503708088
1760530300831377
7573328298773728
1606343098085432
1484052641332168
5251274936351063
6074255944014126
9868804703939150
6955564832260818
0302689027695014
6795619897651900
6023147667111007
4142940986894992
9863017740356667
6695749068410126
1465711084846988
4984859173592703
6262656217113905
2704507872505433
0332466648408015
5766518870630080
0797833189612479
4553201216593644
8421534285372996
1565260543167328
6627636724422939
7031004670748445
9166939167224531
6477046502157224
3973780968657185
9866858833240787
5969653098289575
9005397609155414
2376376397363061
5333250355049814
4753476583820084
9945091778258097
2315092622568931
5185170047007760
2820656774321997
3774620842104026
5711689858912686
7771642747218401
2616682898548858
7043646614213074
9340082326893212
3321599747366483
0977235320286633
5517626196071800
9004164371826191
0528674955869060
5843437788816592
2677800541601144
7279787274611008
1203465022928145
2603711351440791
6646394002356813
4585253466628293
4351302069968239
3724214977438245
1142442570155148
9818580675700596
7686768230673663
9456860386065509
8710213338139861
4411045798927337
2939218082007504
5152178553556118
1779931169656381
0172323790934673
8726040594446881
6483740944205857
3589922002968849
0500034174785796
1347735946376791
8115339504664652
2849917345113775
7230723272536043
2113791118142177
9361226982490856
2909121691395216
2780365724645818
0610853022324361
3194409322547085
3199545631163808
3282405292929603
1936337806232049
6063358007846147
6176587655748869
8027194504647168
1582935958795134
0431320088842290
2878509715535687
3416315234127361
7306974664005377
0859421816184957
1829836787797635
2379683480481692
3044834143251624
4652757118731498
3856083583221781
5074140448697476
6878697355639730
3908862478834778
6593457386037361
7617295758517365
4972552085596931
3831721895040355
9901009425017306
3620289761856302
8772196849993545
1340927379186239
9014931273398340
9225790766527162
3753396875290650
8530231396428174
5512041384653593
5610633945996822
4457268603257043
4763122697156089
9684427777093476
2150211177521832
6819540811476165
1773959671722673
5626032389227850
3136748424398826
7827261443569167
4117906942336504
3200087893118776
5943108436303588
2513148218915433
6463780458075153
1882888993318479
3845095235796503
3407857415885056
1936857238790561
9590636056523593
2310703382053227
5169987907142323
1840244161182251
2364193454044115
8880074921989984
7593950695805418
9572410339084315
6245294851094056
4119918339681409
5557224649687028
3302540156976645
5567986565013936
3533108182035453
6249294138965280
4263434786573147
1564787225361207
5669160000483769
4382449288188137
8795297120007751
8840111670069283
3972304670262331
6001340867773053
6248532093883975
6515157922804908
4515741266378988
3099042017458103
2146827739602504
8117666700747727
5540051904942949
9754851029548502
9490725972865670
4083659147662896
1411247278652879
0521632028869246
7113699695300186
8868440128303935
0662737999776350
0278054122091940
7413922413797454
3736990040561892
4950687532300996
6327674964744476
7748171642151206
1362331008721555
5200815844191080
6535261865044902
7016483110646458
5471284872073952
5347517773084999
5214889296893482
8861544413671239
8637795233593309
7952001705652856
1974608269182326
3754285358913096
2542004253579554
8648253031709118
6014465848788018
8708735699846578
1345111382543539
8627099224335903
5863208207908402
6244526835546314
0462344628491649
4635166307502499
4615763566978537
1314307180424570
0937295919051600
4330639792072559
6291723725655127
4397517324331464
8817476315308144
4168105985617111
1364862671456515
2030746662248842
5584902803028118
7566236243351252
4169430692444705
5683569261347047
3449579304678308
9237129320898052
4305817305290544
2537490017420916
3385520564196708
5131787064674647
3999900025999746
5395509618568310
4057822676638648
3310534598334421
2311772094130419
8505092171910697
8810936182976794
2957872237223643
6815771115078197
4738770810231072
9558521891347302
1417657874331629
4609334055439731
5775091545458540
4491496654253354
6947341745767693
5559640659851194
0588450144351187
6271876671309074
1541780960428944
1695079927725067
6974496562007041
9065987445340420
3333007954556870
9307769216064284
3432113708518756
4756817233926508
1235128239764591
0295674301576968
0996823699631250
9787438217387044
5804627494380130
7527179767450432
9535897335897207
8106067351019340
5713043390397208
4810353921920016
3275728959644115
5957249756042771
3474767811371249
5781583265737346
4578658799634346
1428779046838272
1121775519199277
0027234914107426
9770958582146591
6955258588672130
2321791624909650
8690099674441137
6521700934368848
5595147300471432
5098256501937905
9588480230639717
9464983928557962
2858745378771819
8281601894113525
5525930410170392
9860381828526444
4028832002229547
1341917543740090
2143225036964401
7781118600022579
4954597093044917
5322192969141529
3090843945257382
2500881429449248
2298360581491541
3050306797182001
4978945143700540
0491693153157196
8710975442052503
0848231991015717
9433507621744230
5772087007689693
1085252522765341
1308042794786872
1240692926327687
8753357341393188
1280764013770824
3380961830118287
2442847749332698
3814399624794416
4760273612238540
7182671143702858
2868011234412385
2691336077459602
5774032254531989
3935366222752874
1648813489184120
5056519309576269
0121030502015990
3428639993228691
7400112076142555
1698358672207132
9135079089324008
0533640513430050
4894748602156976
5770577498868100
0642666820229337
3766967919520589
2832408021026637
9706698440837227
2972336541540319
0178691792160067
6968531197335066
3181560570927916
0143772231881621
8581604978859569
7428865659164050
8975034959800757
8364762272224881
7013179673873426
7591029585871788
8492938071491133
8030190312101995
1546357429910149
3063767652927900
0977650221653955
5819754547246609
7819780485905678
9587204664345829
3656627598290091
8639008913684326
4615197534734403
8269233557560803
8502570969357785
4917747518442166
8304684775671123
6253038922618654
4327589164955873
5776363968816276
2262645179322854
3461615892623015
5922365157194032
3025158376562056
9991337319211428
1738337809151972
1772385663118475
4666607456985752
4006014482822076
3387843314044325
3056967126433566
8452695309949645
0188071468411568
9224426261471914
1219151993615863
3232402316002439
6661060690163239
1527682279868520
9019758031198371
7563215701999185
6631442998525060
4542494489905328
6631075893416678
7253800571271613
5046825191910580
9703848266137282
1346953378512506
5869682782373987
7179273060624761
4756801415040199
0448873873558291
4284217712819792
8146645521054551
5368023629207021
6907119137360751
0051117472038609
4238686163381669
3107707241265825
2921452181578324
8218643323204187
8959236591945533
4387421271761881
9432774615580773
7855636695540708
2039094252989547
6517975282316378
2462633063143454
9699574692653413
3029200491133492
9952468242401653
1040073160928250
5253407296421628
7771856715556062
1675602011974735
2247991541439424
4638952263502744
1665095996370976
2917208722028226
0380806669813295
9035886932770957
0078492970206109
8304247960847859
5083351434955854
8313652516358563
6749773067557179
3932599184011687
2400958571631287
3283591573637295
1329358127123010
7159757610060958
6602665505436088
7646193734918354
0482551013400931
1898904914341560
2012018309979339
0588964013654878
3688568036446207
8510708294517980
8655386938955187
6383043392021774
9387971901924315
8707600051041438
9290575589764970
6053806923630324
1731642770458386
8980082407726373
6293444890871058
5001447604494455
9860304181553902
9700100095864078
2032140142018150
2218100742892718
2492524511265198
1541223007968886
7416526225245942
4812333208116002
4205562617398174
4525493112731566
6853193088554483
1123705010561141
4770174133427369
3974473071197646
3418524049655817
6216261423282706
2793740911505627
7138550908546823
3604285557454730
4218239271222247
9442347101254129
6762371452598304
8190025215057319
7696607113978761
8460156489715394
8268160558600256
9971587469663226
8176991347522998
4312396258319200
6223423587997333
2907189124654066
2741458816539568
7810719982907440
5083589331314478
6652079760634274
4876077430009685
1429649904810032
2710474728753403
5887775993505851
0363933313552392
6392305131339969
6062377650145910
3398269322048692
5470591128080574
5523654687552836
9104690262616958
5206955158181774
0173687407965726
4428559309561977
4983083034785879
8170241379248486
2417964094043957
5234437458436721
4938595334557013
1526946408801828
9239843477080334
6593701162330727
3297001048735119
0702867301935988
6507172974225755
6081541630062213
2715394222171167
0920826020940905
9387313918165358
2257907946152650
7472732358441335
0222679275285667
6693510294017456
3823557964981585
6415794638806102
0240084605692729
7585418188222148
4896662548280039
8106734394937176
9865078982178651
2844751503530944
5464243969092412
