artigoEmPeriodico	Renato José Sassi	2013	http://dx.doi.org/10.4028/www.scientific.net/AMR.601.216	Evaluation of Sensorial Qualities of Fruit Wines by Kohonen Neural Network	Advanced Materials Research (Online)	Santana,J.C.C. ; Dias, C.G. ; SASSI, R. J. ; Souza, R.R. ; Tambourgi, E.B.	B3	
artigoEmPeriodico	Renato José Sassi	2013	http://dx.doi.org/10.4028/www.scientific.net/AMR.601.247	Simulation and Optimization of a Biscuit Processing Production in an Industrial Scale by use of MLP and RBF Neuro Fuzzy Network	Advanced Materials Research (Online)	Menita, P.R. ; Affonso, C. ; Santana,J.C.C. ; SASSI, R. J. ; Vanalle, R. M.	B3	
artigoEmPeriodico	Renato José Sassi	2013		Application of bio-inspired metaheuristics to guillotined cutting processes optimize in an glass industry	Lecture Notes in Computer Science	Costa, F. M. ; Carvalho, T.V. ; SASSI, R. J.	B1	
artigoEmPeriodico	Renato José Sassi	2013		Inverse Halftoning by Means of Self-Organizing Maps	Advances in Intelligent Systems and Computing	Costa, F. M. ; ARAUJO, S. A. ; SASSI, R. J.	Qualis nao identificado	Advances in Intelligent Systems and Computing
artigoEmPeriodico	Renato José Sassi	2013	http://dx.doi.org/10.4028/www.scientific.net/AMR.634-638.3883	Business Intelligence as a Competitive Advantage on a Brazilian Chemical Industry in the Global Crisis of 2008, 2009 and 2010	Advanced Materials Research (Online)	CARVALHO, TIAGO VIEIRA DE ; SASSI, RENATO JOSE	B3	
artigoEmPeriodico	Renato José Sassi	2013		Improve of Business Intelligence Usage in Brazilian Chemical Industry in Global Crisis of 2008, 2009 and 2010	Communications in Computer and Information Science (Print)	Carvalho, T.V. ; SASSI, R. J.	B4	
artigoEmPeriodico	Renato José Sassi	2013	http://dx.doi.org/10.4028/www.scientific.net/AMR.860-863.2796	Improving Chemistry Supply Chain with Business Intelligence Architecture Updates	Advanced Materials Research (Online)	Carvalho, T.V. ; SASSI, R. J.	B3	
trabalhoCompletoEmCongresso	Renato José Sassi	2013		Aplicação de Redes Neurais Artificiais na Classificação de Créditos Não-Performados	IX Encontro Mineiro de Engenharia de Produção (EMEPRO)	Clesio, F. ; SASSI, R. J.		
trabalhoCompletoEmCongresso	Renato José Sassi	2013		Padronização no Atendimento do Service Desk de um Hospital Público com o uso de Sistemas Especialistas	IX Encontro Mineiro de Engenharia de Produção (EMEPRO)	Farias, E.B.P. ; SASSI, R. J.		
trabalhoCompletoEmCongresso	Renato José Sassi	2013		Standartization at Attendance the Service Desk in a Public Hospital using Artificial Intelligence Techniques	10º CONTECSI ? Congresso Internacional de Gestão da Tecnologia e Sistemas de Informação	Farias, E.B.P. ; SASSI, R. J.		
trabalhoCompletoEmCongresso	Renato José Sassi	2013		Rough Sets Theory: An Application in Selecting Stocks for Investiment at Stock Exchange from São Paulo	10º CONTECSI ? Congresso Internacional de Gestão da Tecnologia e Sistemas de Informação	Kaupa, P. H. ; SASSI, R. J.		
trabalhoCompletoEmCongresso	Renato José Sassi	2013		Using Rough Sets Theory to select stocks for investments at Stock Exchange from São Paulo	22nd International Conference on Production Research ? ICPR 22	Kaupa, P. H. ; SASSI, R. J.		
trabalhoCompletoEmCongresso	Renato José Sassi	2013		Aplicação de Redes Neurais Artificiais do tipo Multilayer Perceptron na Criação de Modelos para Classificação de um Portfólio do Tipo Non-Performing Loans	XXXIII Encontro Nacional de Engenharia de Produção (ENEGEP)	Souza, F. C. S. de ; SASSI, R. J.		
trabalhoCompletoEmCongresso	Renato José Sassi	2013		Uma Análise do Impacto nos Processos Operacionais de Tecnologia da Informação com Sua Adequação às Exigências da Lei Sarbannes-Oxley	XXXIII Encontro Nacional de Engenharia de Produção (ENEGEP)	Arrivabene, A. ; SASSI, R. J. ; Romero, M.		
trabalhoCompletoEmCongresso	Renato José Sassi	2013		Uma Análise das Influências dos Fatores de Contribuição dos Empreendimentos de Base Tecnológica da Região do Vale do Paraíba Paulista	XX Simpósio de Engenharia de Produção (SIMPEP)	Lopes, W.S. ; SASSI, R. J. ; Silva, A. F.		
trabalhoCompletoEmCongresso	Renato José Sassi	2013		Opinion Mininng Aplicado à Avaliação da Satisfação do Cliente em uma Empresa de Classificados Online de Empregos	XX Simpósio de Engenharia de Produção (SIMPEP)	Miranda, M. D. ; SASSI, R. J.		
trabalhoCompletoEmCongresso	Renato José Sassi	2013		Rough Sets: Técnica da Inteligência Computacional Aplicada no Mercado Financeiro	XX Simpósio de Engenharia de Produção (SIMPEP)	Kaupa, P. H. ; SASSI, R. J.		
trabalhoCompletoEmCongresso	Renato José Sassi	2013		Classificação de Portfólio de Créditos Não-performados utilizando Redes Neurais Artificiais Multilayer Perceptron	XX Simpósio de Engenharia de Produção (SIMPEP)	Souza, F. C. S. de ; SASSI, R. J.		
trabalhoCompletoEmCongresso	Renato José Sassi	2013		Utilização de Técnicas da Inteligência Artificial na Padronização do Atendimento no Service Desk de um Hospital Público	III Congresso Brasileiro de Engenharia de Produção (CONBREPRO)	Farias, E.B.P. ; SASSI, R. J. ; Miranda, M. D.		
trabalhoCompletoEmCongresso	Renato José Sassi	2013		Apoio à Tomada de Decisão do Enfermeiro no Uso da Sistematização da Assistência de Enfermagem: Sistema Especialista Aplicado nas Escalas de Apoio ao Diagnóstico	III Congresso Brasileiro de Engenharia de Produção (CONBREPRO)	Farias, E.B.P. ; SASSI, R. J. ; Soares, E. D.		
trabalhoCompletoEmCongresso	Renato José Sassi	2013		Satisfação do Cliente em uma Empresa de Classificados Online de Empregos: Sentiment Analysis como Ferramenta de Avaliação	III Encontro Brasileiro de Engenharia de Produção (CONBREPRO)	Miranda, M. D. ; Farias, E.B.P. ; SASSI, R. J.		
trabalhoCompletoEmCongresso	Renato José Sassi	2013		Uso de Sistema Especialista no Auxílio ao Diagnóstico por meio de Escalas de Apoio à Enfermagem	II Simpósio Internacional de Gestão de Projetos (SINGEP)	Farias, E.B.P. ; SASSI, R. J. ; Soares, E. D.		
trabalhoCompletoEmCongresso	Renato José Sassi	2013		Utilização de Técnicas da Inteligência Artificial na Padronização do Service Desk de um Hospital Público	II Simpósio Internacional de Gestão de Projetos (SINGEP)	Farias, E.B.P. ; SASSI, R. J.		
resumoExpandidoEmCongresso	Renato José Sassi	2013	A Aplicação da Lógica Fuzzy para Auxiliar a Navegação Independente de Drones	15º SIMPÓSIO DE INICIAÇÃO CIENTÍFICA E TECNOLÓGICA da FATEC (SICT-2013), 2013, São Paulo. Boletim Técnico da Faculdade de Tecnologia de São Paulo	Ferreira, R. P. ; Ferreira, A. ; Ferreira, Artur ; SILVA, A. M. ; SASSI, R. J.		
resumoExpandidoEmCongresso	Renato José Sassi	2013	Descoberta de Conhecimento em Bases de dados utilizando rede SOM	15º SIMPÓSIO DE INICIAÇÃO CIENTÍFICA E TECNOLÓGICA da FATEC (SICT-2013), 2013, São Paulo. Boletim Técnico da Faculdade de Tecnologia de São Paulo	Santos, L. F. S. ; SILVA, A. M. ; Ferreira, R. P. ; SASSI, R. J.		
resumoExpandidoEmCongresso	Renato José Sassi	2013	Opinion Mining no Apoio à Avaliação da Satisfaçãodo Cliente	15º SIMPÓSIO DE INICIAÇÃO CIENTÍFICA E TECNOLÓGICA da FATEC (SICT-2013), 2013, São Paulo. Boletim Técnico da Faculdade de Tecnologia de São Paulo	Miranda, M. D. ; Fernandes, B. T. ; Farias, E.B.P. ; SASSI, R. J.		
resumoExpandidoEmCongresso	Renato José Sassi	2013	Previsão do Índice de Criminalidade Utilizando uma Rede Neural Artificial	15º SIMPÓSIO DE INICIAÇÃO CIENTÍFICA E TECNOLÓGICA da FATEC (SICT-2013), 2013, São Paulo. Boletim Técnico da Faculdade de Tecnologia de São Paulo	Santos, L. F. S. ; Ferreira, R. P. ; SILVA, A. M. ; SASSI, R. J.		
resumoExpandidoEmCongresso	Renato José Sassi	2013	Redes Neurais Artificiais para Reconhecimento de Manuscritos de Endereçamento Postal	15º SIMPÓSIO DE INICIAÇÃO CIENTÍFICA E TECNOLÓGICA da FATEC (SICT-2013), 2013, São Paulo. Boletim Técnico da Faculdade de Tecnologia de São Paulo	Ferreira, R. P. ; SILVA, A. M. ; Vieira,A.B. ; Ferreira, A. ; SASSI, R. J.		
resumoExpandidoEmCongresso	Renato José Sassi	2013	Sistema Especialista no Auxílio ao Diagnóstico por meio de Escalas de Apoio à Enfermagem	15º SIMPÓSIO DE INICIAÇÃO CIENTÍFICA E TECNOLÓGICA da FATEC (SICT-2013), 2013, São Paulo. Boletim Técnico da Faculdade de Tecnologia de São Paulo	Farias, E.B.P. ; Soares, E. D. ; Fernandes, B. T. ; SASSI, R. J.		
resumoExpandidoEmCongresso	Renato José Sassi	2013	A Importância dos Fatores de Contribuição na Visão dos Gestores das IBTS	15º SIMPÓSIO DE INICIAÇÃO CIENTÍFICA E TECNOLÓGICA da FATEC (SICT-2013), 2013, São Paulo. Boletim Técnico da Faculdade de Tecnologia de São Paulo	Costa Filho, J. R. ; Teixeira, R. S. ; Silva, A. F. ; Lopes, W.S. ; SASSI, R. J.		
