
PB0:2015,45;
PB1:2015,1;
PB2:2015,11;
PB3:*itens sem ano,25;2015,4;
PB4:2015,57;
PB5:2015,1;
PB8:2015,28;
PB9:2015,1;
PT3:*itens sem ano,1;
PT4:2015,18;
PT5:*itens sem ano,3;2015,6;
OA0:2013,1;2014,2;2016,7;2017,1;
OA1:2010,1;2011,3;2012,10;2013,4;2014,10;2015,9;2016,9;2017,3;
OA2:2011,3;2013,1;2014,7;2015,6;2016,18;2017,5;
OA5:2014,1;2015,1;
OC1:2015,6;
OC2:2015,13;
OC3:2015,4;
OC4:2015,5;
OC5:2015,1;
OC6:2015,2;
Pm:2015,5;
Pj:2002,2;2003,1;2004,1;2006,3;2008,1;2009,1;2010,1;2011,8;2012,4;2013,6;2014,5;2015,2;
PB:*itens sem ano,25;2015,148;
PT:*itens sem ano,4;2015,24;
OA:2010,1;2011,6;2012,10;2013,6;2014,20;2015,16;2016,34;2017,9;
OC:2015,31;
Ep:2015,28;
Eo:2015,9;