3666289112976187
8333273103512768
5831942962758025
0483804524873121
4541077008718244
2633839778514121
5788186365234727
1216234757318996
0137727203004910
4429686299726303
6015534907764450
2806240414211429
2035937453943199
9611146545395324
9592400848216776
0600185970893679
1352455663841540
0339375192824635
0752588872656748
2457667975987644
3092201772041167
1388529283382853
