
PB0:2016,79;
PB1:2016,13;
PB2:2016,4;
PB3:*itens sem ano,1;
PB4:2016,152;
PB5:2016,27;
PB6:2016,47;
PB7:2016,1;
PB8:2016,11;
PT4:2016,13;
PT5:2016,9;
OA0:2016,1;2017,1;
OA1:2014,4;2015,3;2016,13;2017,7;
OA2:2013,1;2014,4;2015,9;2016,23;2017,30;
OA4:2016,1;2017,20;
OA5:2013,1;2014,4;2015,11;2016,4;2017,9;
OA6:2015,3;2017,2;
OC1:2016,7;
OC2:2016,47;
OC4:2016,22;
OC5:2016,10;
OC6:2016,4;
Pm:2016,6;
Pj:1996,1;1997,1;2004,1;2005,1;2006,1;2008,3;2009,1;2010,7;2011,8;2012,12;2013,8;2014,15;2015,10;2016,11;
PB:*itens sem ano,1;2016,334;
PT:2016,22;
OA:2013,2;2014,12;2015,26;2016,42;2017,69;
OC:2016,90;
Ep:2016,21;
Eo:2016,15;