ID_Lattes|MATRICULA|NOME|CH|mail|LP_1|PROGRAMA_1|CATEG_1|Periodo_Inicio_1|Periodo_Fim_1|Resp_prog|Resp_LP1
K4750004T7|99999|RAFAEL DA COSTA SOTERO|40|UCB@UCB.br|UCB|UCB|P|2013|2016|UCB|UCB
K4791454U1|99999|OTAVIO DE TOLEDO NOBREGA|40|UCB@UCB.br|UCB|UCB|P|2013|2016||
K4786502E3|99999|VICENTE PAULO ALVES|40|UCB@UCB.br|UCB|UCB|P|2013|2016||
NOK|99999|MARILEUSA DOSOLINA CHIARELLO|40|UCB@UCB.br|UCB|UCB|P|2013|2016||
K4706248Y1|99999|MARIA LIZ CUNHA DE OLIVEIRA|40|UCB@UCB.br|UCB|UCB|P|2013|2016||
K4784710E5|99999|LUIZ ANTONIO SOARES ROMEIRO|40|UCB@UCB.br|UCB|UCB|P|2013|2016||
NOK|99999|LUCY GOMES VIANNA|40|UCB@UCB.br|UCB|UCB|P|2013|2016||
K4745636U5|99999|KARLA HELENA COELHO VILACA|40|UCB@UCB.br|UCB|UCB|P|2013|2016||
K4745937J5|99999|JONATO PRESTES|40|UCB@UCB.br|UCB|UCB|P|2013|2016||
K4708929D5|99999|GUSTAVO DE AZEVEDO CARVALHO|40|UCB@UCB.br|UCB|UCB|P|2013|2016||
K4205589T8|99999|GISLANE FERREIRA DE MELO|40|UCB@UCB.br|UCB|UCB|P|2013|2016||
K4237458Y7|99999|CLAYTON FRANCO MORAES|40|UCB@UCB.br|UCB|UCB|P|2013|2016||
K4763102Y2|99999|CARMEN JANSEN DE CARDENAS|40|UCB@UCB.br|UCB|UCB|P|2013|2016||
K4790511H0|99999|ROSALVO ERMES STREIT|40|UCB@UCB.br|UCB|UCB|P|2013|2016||
K4345835A8|99999|RODRIGO PIRES DE CAMPOS|40|UCB@UCB.br|UCB|UCB|P|2013|2016||
K4745771P9|99999|RICARDO SPINDOLA MARIZ|40|UCB@UCB.br|UCB|UCB|P|2013|2016||
K4721798D1|99999|RENATO DA VEIGA GUADAGNIN|40|UCB@UCB.br|UCB|UCB|P|2013|2016||
K4781414T6|99999|REMIS BALANIUK|40|UCB@UCB.br|UCB|UCB|P|2013|2016||
K4787995P6|99999|LUIZA BETH NUNES ALONSO|40|UCB@UCB.br|UCB|UCB|P|2013|2016||
K4706994H8|99999|HELGA CRISTINA HEDLER|40|UCB@UCB.br|UCB|UCB|P|2013|2016||
K4328481D6|99999|FABIO FERREIRA BATISTA|40|UCB@UCB.br|UCB|UCB|P|2013|2016||
K4778293H5|99999|EDUARDO AMADEU DUTRA MORESI|40|UCB@UCB.br|UCB|UCB|P|2013|2016||
K4781105D1|99999|EDILSON FERNEDA|40|UCB@UCB.br|UCB|UCB|P|2013|2016||
K4730199Z3|99999|LUIS KALB ROSES|40|UCB@UCB.br|UCB|UCB|P|2013|2016||
K4406236J1|99999|JOAO SOUZA NETO|40|UCB@UCB.br|UCB|UCB|P|2013|2016||
K4721799H5|99999|HERCULES ANTONIO DO PRADO|40|UCB@UCB.br|UCB|UCB|P|2013|2016||
K4782105Z1|99999|CLAUDIO CHAUKE NEHME|40|UCB@UCB.br|UCB|UCB|P|2013|2016||
K4783382E0|99999|VICENTE DE PAULA FALEIROS|40|UCB@UCB.br|UCB|UCB|P|2013|2016||
K4707643D6|99999|CLAUDIO OLAVO DE ALMEIDA CORDOVA|40|UCB@UCB.br|UCB|UCB|P|2013|2016||
