strict graph grafo2 {
	graph [bb="0,0,1647.5,209",
		id=grafo2,
		overlap=False
	];
	node [fontsize=8,
		label="\N",
		shape=rectangle,
		style=filled
	];
	0	 [URL="http://lattes.cnpq.br/5451087590848842",
		color="#17272B",
		fontcolor="#FFFFFF",
		height=0.23611,
		label="Mário J. Campos dos Santos [4]",
		pos="84,136.5",
		width=1.6528];
	5	 [URL="http://lattes.cnpq.br/9277814890785373",
		color="#17272B",
		fontcolor="#FFFFFF",
		height=0.23611,
		label="Joao A. Belmino dos Santos [2]",
		pos="59,72.5",
		width=1.6389];
	0 -- 5	 [fontsize=8,
		label=1.0,
		lp="78.5,104.5",
		pos="80.935,127.9 76.136,116 66.904,93.102 62.091,81.165"];
	15	 [URL="http://lattes.cnpq.br/0320385790880256",
		color="#17272B",
		fontcolor="#FFFFFF",
		height=0.23611,
		label="Ana E. Almeida Paixão [8]",
		pos="188,72.5",
		width=1.4306];
	0 -- 15	 [fontsize=8,
		label=3.0,
		lp="148.5,104.5",
		pos="96.752,127.9 116.71,116 155.12,93.102 175.14,81.165"];
	16	 [URL="http://lattes.cnpq.br/8056542335438905",
		color="#17272B",
		fontcolor="#FFFFFF",
		height=0.23611,
		label="Suzana Leitão Russo [7]",
		pos="318,8.5",
		width=1.3194];
	5 -- 16	 [fontsize=8,
		label=1.0,
		lp="210.5,40.5",
		pos="90.5,63.96 140.25,52.051 236.45,29.021 286.31,17.085"];
	15 -- 16	 [fontsize=8,
		label=1.0,
		lp="256.5,40.5",
		pos="200.26,63.767 212.74,56.065 232.8,44.17 251,35.5 265.76,28.469 282.95,21.826 296.23,17.014"];
	1	 [URL="http://lattes.cnpq.br/6812943821298890",
		color="#17272B",
		fontcolor="#FFFFFF",
		height=0.23611,
		label="Antonio M. de Oliveira Júnior [0]",
		pos="603,200.5",
		width=1.7361];
	2	 [URL="http://lattes.cnpq.br/0388415023699226",
		color="#17272B",
		fontcolor="#FFFFFF",
		height=0.23611,
		label="Daniel Pereira da Silva [0]",
		pos="735,200.5",
		width=1.4167];
	3	 [URL="http://lattes.cnpq.br/4458297213334898",
		color="#17272B",
		fontcolor="#FFFFFF",
		height=0.23611,
		label="Elma R. S. de Andrade Wartha [0]",
		pos="868,200.5",
		width=1.7639];
	4	 [URL="http://lattes.cnpq.br/3009425852002651",
		color="#17272B",
		fontcolor="#FFFFFF",
		height=0.23611,
		label="Robélius De Bortoli [2]",
		pos="219,136.5",
		width=1.2778];
	4 -- 15	 [fontsize=8,
		label=1.0,
		lp="211.5,104.5",
		pos="215.2,127.9 209.25,116 197.8,93.102 191.83,81.165"];
	4 -- 16	 [fontsize=8,
		label=1.0,
		lp="281.5,72.5",
		pos="224.9,128 242.46,105.64 294.32,39.637 312.01,17.125"];
	6	 [URL="http://lattes.cnpq.br/7446082583928169",
		color="#17272B",
		fontcolor="#FFFFFF",
		height=0.23611,
		label="Glaucio J. Couri Machado [1]",
		pos="361,72.5",
		width=1.5556];
	6 -- 16	 [fontsize=8,
		label=1.0,
		lp="348.5,40.5",
		pos="355.73,63.898 347.47,51.998 331.6,29.102 323.32,17.165"];
	7	 [URL="http://lattes.cnpq.br/7280659565444014",
		color="#17272B",
		fontcolor="#FFFFFF",
		height=0.23611,
		label="Ricardo José de Santana [0]",
		pos="1003,200.5",
		width=1.4722];
	8	 [URL="http://lattes.cnpq.br/9495463871630627",
		color="#17272B",
		fontcolor="#FFFFFF",
		height=0.23611,
		label="Maria E. Silveira Camargo [0]",
		pos="1131,200.5",
		width=1.5833];
	9	 [URL="http://lattes.cnpq.br/9774109887296955",
		color="#17272B",
		fontcolor="#FFFFFF",
		height=0.23611,
		label="Carlos A. Cabral dos Santos [0]",
		pos="1265,200.5",
		width=1.6389];
	10	 [URL="http://lattes.cnpq.br/4879855586762572",
		color="#17272B",
		fontcolor="#FFFFFF",
		height=0.23611,
		label="Jane de J. da Silveira Moreira [1]",
		pos="337,200.5",
		width=1.7083];
	10 -- 15	 [fontsize=8,
		label=1.0,
		lp="297.5,136.5",
		pos="331.38,191.69 321.08,177.72 298.01,147.98 274,127.5 251.2,108.05 220.76,90.618 202.88,81.102"];
	13	 [URL="http://lattes.cnpq.br/8361766779633132",
		color="#17272B",
		fontcolor="#FFFFFF",
		height=0.23611,
		label="Iracema M. de Aragao Gomes [6]",
		pos="399,136.5",
		width=1.7222];
	10 -- 13	 [fontsize=8,
		label=1.0,
		lp="377.5,168.5",
		pos="344.6,191.9 356.5,180 379.4,157.1 391.34,145.16"];
	13 -- 15	 [fontsize=8,
		label=3.0,
		lp="351.5,104.5",
		pos="385.32,127.96 370.05,119.84 344.42,107.07 321,99.5 294.7,90.995 264.52,84.82 239.57,80.628"];
	13 -- 16	 [fontsize=8,
		label=3.0,
		lp="436.5,72.5",
		pos="406.12,127.91 418,114.29 439.34,85.077 426,63.5 410.35,38.178 378.83,24.333 353.87,17.024"];
	11	 [URL="http://lattes.cnpq.br/7897779819494573",
		color="#17272B",
		fontcolor="#FFFFFF",
		height=0.23611,
		label="Cristina M. A. L. T. da M. Hermida Quintella [0]",
		pos="1429,200.5",
		width=2.4167];
	12	 [URL="http://lattes.cnpq.br/5570543667939997",
		color="#17272B",
		fontcolor="#FFFFFF",
		height=0.23611,
		label="Renata Silva-Mann [1]",
		pos="477,200.5",
		width=1.25];
	12 -- 16	 [fontsize=8,
		label=1.0,
		lp="471.5,104.5",
		pos="477.02,191.73 476.72,169.77 473.4,106.05 446,63.5 436.47,48.703 433.27,44.243 418,35.5 401.96,26.321 382.64,20.32 365.28,16.424"];
	12 -- 13	 [fontsize=8,
		label=1.0,
		lp="448.5,168.5",
		pos="467.44,191.9 452.47,180 423.66,157.1 408.64,145.16"];
	14	 [URL="http://lattes.cnpq.br/8741169700236686",
		color="#17272B",
		fontcolor="#FFFFFF",
		height=0.23611,
		label="Gabriel Francisco da Silva [0]",
		pos="1591,200.5",
		width=1.5694];
}
