strict graph grafo2 {
	graph [bb="0,0,2845.5,145",
		id=grafo2,
		overlap=False
	];
	node [fontsize=8,
		label="\N",
		shape=rectangle,
		style=filled
	];
	0	 [URL="http://lattes.cnpq.br/1836363748488436",
		color="#17272B",
		fontcolor="#FFFFFF",
		height=0.23611,
		label="Alexandre da Costa Sena [2]",
		pos="127.5,136.5",
		width=1.5];
	21	 [URL="http://lattes.cnpq.br/4869894816851795",
		color="#17272B",
		fontcolor="#FFFFFF",
		height=0.23611,
		label="Leandro A. Justen Marzulo [2]",
		pos="57.5,72.5",
		width=1.5972];
	0 -- 21	 [fontsize=8,
		label=2.0,
		lp="103,104.5",
		pos="118.92,127.9 105.48,116 79.632,93.102 66.154,81.165"];
	26	 [URL="http://lattes.cnpq.br/6348480289055660",
		color="#17272B",
		fontcolor="#FFFFFF",
		height=0.23611,
		label="Maria C. Stelling de Castro [2]",
		pos="121.5,8.5",
		width=1.6111];
	0 -- 26	 [fontsize=8,
		label=2.0,
		lp="131,72.5",
		pos="127.14,128 126.08,105.64 122.94,39.637 121.86,17.125"];
	21 -- 26	 [fontsize=8,
		label=2.0,
		lp="99,40.5",
		pos="65.348,63.898 77.631,51.998 101.27,29.102 113.59,17.165"];
	1	 [URL="http://lattes.cnpq.br/9781797634377318",
		color="#17272B",
		fontcolor="#FFFFFF",
		height=0.23611,
		label="Fabiano Souza de Oliveira [0]",
		pos="256.5,136.5",
		width=1.5694];
	2	 [URL="http://lattes.cnpq.br/7657422977567514",
		color="#17272B",
		fontcolor="#FFFFFF",
		height=0.23611,
		label="Frederico A. de Oliveira Cruz [2]",
		pos="393.5,136.5",
		width=1.7222];
	3	 [URL="http://lattes.cnpq.br/6107034183202542",
		color="#17272B",
		fontcolor="#FFFFFF",
		height=0.23611,
		label="Celia M. Cortez Silva [3]",
		pos="393.5,72.5",
		width=1.3611];
	2 -- 3	 [fontsize=8,
		label=2.0,
		lp="399,104.5",
		pos="393.5,127.9 393.5,116 393.5,93.102 393.5,81.165"];
	10	 [URL="http://lattes.cnpq.br/5258150848273682",
		color="#17272B",
		fontcolor="#FFFFFF",
		height=0.23611,
		label="Roseli Suzi Wedemann [1]",
		pos="393.5,8.5",
		width=1.4306];
	3 -- 10	 [fontsize=8,
		label=1.0,
		lp="399,40.5",
		pos="393.5,63.898 393.5,51.998 393.5,29.102 393.5,17.165"];
	4	 [URL="http://lattes.cnpq.br/3909390599449995",
		color="#17272B",
		fontcolor="#FFFFFF",
		height=0.23611,
		label="Carlos F. F. de Barros e Vasconcellos [0]",
		pos="548.5,136.5",
		width=2.0694];
	5	 [URL="http://lattes.cnpq.br/4299545465339581",
		color="#17272B",
		fontcolor="#FFFFFF",
		height=0.23611,
		label="Antonio C. de Moura Santos [0]",
		pos="701.5,136.5",
		width=1.6667];
	6	 [URL="http://lattes.cnpq.br/",
		color="#17272B",
		fontcolor="#FFFFFF",
		height=0.23611,
		label="[Nome-nao-identificado] [0]",
		pos="833.5,136.5",
		width=1.4861];
	7	 [URL="http://lattes.cnpq.br/0403732822984772",
		color="#17272B",
		fontcolor="#FFFFFF",
		height=0.23611,
		label="Alexandre Sztajnberg [0]",
		pos="953.5,136.5",
		width=1.3472];
	8	 [URL="http://lattes.cnpq.br/4754635406522430",
		color="#17272B",
		fontcolor="#FFFFFF",
		height=0.23611,
		label="Jerrylee D. Yoshii Silva [0]",
		pos="1072.5,136.5",
		width=1.4583];
	9	 [URL="http://lattes.cnpq.br/7535348349141535",
		color="#17272B",
		fontcolor="#FFFFFF",
		height=0.23611,
		label="Vera M. Benjamim Werneck [1]",
		pos="1203.5,136.5",
		width=1.6806];
	14	 [URL="http://lattes.cnpq.br/1706605645478326",
		color="#17272B",
		fontcolor="#FFFFFF",
		height=0.23611,
		label="Ana L. de C. Leite Duboc [1]",
		pos="1203.5,72.5",
		width=1.5417];
	9 -- 14	 [fontsize=8,
		label=1.0,
		lp="1209,104.5",
		pos="1203.5,127.9 1203.5,116 1203.5,93.102 1203.5,81.165"];
	11	 [URL="http://lattes.cnpq.br/1829333800490851",
		color="#17272B",
		fontcolor="#FFFFFF",
		height=0.23611,
		label="Rosa M. E. Moreira da Costa [1]",
		pos="1392.5,136.5",
		width=1.6806];
	17	 [URL="http://lattes.cnpq.br/9164335773757265",
		color="#17272B",
		fontcolor="#FFFFFF",
		height=0.23611,
		label="Regina Serrão Lanzillotti [1]",
		pos="1331.5,72.5",
		width=1.5139];
	11 -- 17	 [fontsize=8,
		label=1.0,
		lp="1372,104.5",
		pos="1385,127.9 1373.3,116 1350.8,93.102 1339,81.165"];
	20	 [URL="http://lattes.cnpq.br/0556459512101837",
		color="#17272B",
		fontcolor="#FFFFFF",
		height=0.23611,
		label="Luis A. Vidal de Carvalho [1]",
		pos="1399.5,8.5",
		width=1.5556];
	11 -- 20	 [fontsize=8,
		label=1.0,
		lp="1402,72.5",
		pos="1392.9,128 1394.2,105.64 1397.8,39.637 1399.1,17.125"];
	17 -- 20	 [fontsize=8,
		label=1.0,
		lp="1376,40.5",
		pos="1339.8,63.898 1352.9,51.998 1378,29.102 1391.1,17.165"];
	12	 [URL="http://lattes.cnpq.br/5413422509570085",
		color="#17272B",
		fontcolor="#FFFFFF",
		height=0.23611,
		label="Paulo E. Duarte Pinto [2]",
		pos="1539.5,136.5",
		width=1.3611];
	29	 [URL="http://lattes.cnpq.br/4657870977403568",
		color="#17272B",
		fontcolor="#FFFFFF",
		height=0.23611,
		label="Guilherme L. Abelha Mota [2]",
		pos="1539.5,72.5",
		width=1.5972];
	12 -- 29	 [fontsize=8,
		label=2.0,
		lp="1545,104.5",
		pos="1539.5,127.9 1539.5,116 1539.5,93.102 1539.5,81.165"];
	13	 [URL="http://lattes.cnpq.br/1734587740129156",
		color="#17272B",
		fontcolor="#FFFFFF",
		height=0.23611,
		label="Augusto C. de Castro Barbosa [4]",
		pos="1669.5,136.5",
		width=1.7361];
	27	 [URL="http://lattes.cnpq.br/7992727935310462",
		color="#17272B",
		fontcolor="#FFFFFF",
		height=0.23611,
		label="Marcus V. Tovar Costa [4]",
		pos="1669.5,72.5",
		width=1.4306];
	13 -- 27	 [fontsize=8,
		label=4.0,
		lp="1675,104.5",
		pos="1669.5,127.9 1669.5,116 1669.5,93.102 1669.5,81.165"];
	15	 [URL="http://lattes.cnpq.br/8300604408079168",
		color="#17272B",
		fontcolor="#FFFFFF",
		height=0.23611,
		label="Ricardo Carvalho de Barros [0]",
		pos="1808.5,136.5",
		width=1.625];
	16	 [URL="http://lattes.cnpq.br/3413049864861519",
		color="#17272B",
		fontcolor="#FFFFFF",
		height=0.23611,
		label="Rosa M. Videira de Figueiredo [0]",
		pos="1948.5,136.5",
		width=1.7639];
	18	 [URL="http://lattes.cnpq.br/2324159515825927",
		color="#17272B",
		fontcolor="#FFFFFF",
		height=0.23611,
		label="Raul Jose Donangelo [0]",
		pos="2078.5,136.5",
		width=1.3333];
	19	 [URL="http://lattes.cnpq.br/8180092714037435",
		color="#17272B",
		fontcolor="#FFFFFF",
		height=0.23611,
		label="Patrícia Nunes da Silva [0]",
		pos="2196.5,136.5",
		width=1.4306];
	22	 [URL="http://lattes.cnpq.br/7074540262731419",
		color="#17272B",
		fontcolor="#FFFFFF",
		height=0.23611,
		label="Neide d. Santos Souza [0]",
		pos="2316.5,136.5",
		width=1.3889];
	23	 [URL="http://lattes.cnpq.br/0662797102623056",
		color="#17272B",
		fontcolor="#FFFFFF",
		height=0.23611,
		label="Sheila R. Murgel Veloso [0]",
		pos="2438.5,136.5",
		width=1.4861];
	24	 [URL="http://lattes.cnpq.br/3383864003678045",
		color="#17272B",
		fontcolor="#FFFFFF",
		height=0.23611,
		label="Cristiane de Faria Oliveira [0]",
		pos="2566.5,136.5",
		width=1.5694];
	25	 [URL="http://lattes.cnpq.br/4468191018994448",
		color="#17272B",
		fontcolor="#FFFFFF",
		height=0.23611,
		label="Maria H. de P. Leite Mello [0]",
		pos="2698.5,136.5",
		width=1.5833];
	28	 [URL="http://lattes.cnpq.br/3965328361563422",
		color="#17272B",
		fontcolor="#FFFFFF",
		height=0.23611,
		label="Luerbio Faria [0]",
		pos="2809.5,136.5",
		width=1];
}
