6086291812700673
2687535218673472
9787560452386084
9844246375664679
8968687992410263
9090907825301922
1706605645478326
5258150848273682
1673793326050619
9797700814765523
8300604408079168
3675472103185981
9114271184052580
7421917920039219
7279612728721005
1302705874416118
8882633591223095
8294278718542621
3965328361563422
1688136556728644
0375745110240885
5952868215181667
9171815778534257
9719247117370600
4468191018994448
7264819139607029
0799282373201889
7535348349141535
2283022405554044
9859492336155485
1627234282126631
2059161262634966
0564642953393070
6603583057564990
6107034183202542
6563260169480112
4108398403192996
2975127096948982
8428881447455954
2269378481842071
7803450287150338
4781864789335595
4890724424288822
5303818308639292
7079680723888278
4879977915136752
6397173451671329
0875953869616249
0156389551221774
5522815415073059
4985266524417261
6067936254653853
4644047436402684
0442142220296336
9545654230385201
1614331463683214
6904069421698998
9509972220597549
7669469490178662
5816783348850008
1874584569726471
5727472788265998
7577692692604510
1696410872979041
7294178161283542
9691158946757119
4563261652431709
4657870977403568
1114838283521313
6785249501253072
5916598944656065
2186205043909317
7795687319372112
4838737347351092
3243324890334576
2390690281230643
8077591135604655
2733698712067098
7963248810646929
1539584880795958
0828591335883218
0765679165353964
0528154281423964
9978312803589169
2445643584254013
6371926143941253
6986274610951714
7388435483628955
1850395191330079
9527749519233138
9976977118294621
6011329692160006
1504623739622725
6871006250321522
5799445358880614
1562596663971990
4387513899931248
1829333800490851
7793230705807846
4366715224334657
9949095344927048
2533878364734681
6645772503347843
5413422509570085
5253618485255010
9433123288261141
4797961850809786
7976970794850750
3887370403066791
9920490231637867
1620456322857757
9911012866860858
6348480289055660
2002515486942024
5556212442729541
3864440795364252
7764794837820015
0211300683784278
7805432023782520
8889277811105841
8143364468746413
8086038764630863
5898801580033554
9374460427113373
2716931706499882
4913329587473612
5801469731775346
4426830285523015
1913036835638677
6416931956696032
4559004335089180
2815377038802264
8580052002817169
7752481318432762
9754764334028624
0556459512101837
9153729894133543
8738517383983971
9314029648579658
2703716951709834
5254594324060962
9941440001544010
1760272440264218
2721053239592051
5337976093923686
8363035335547588
7909644384555346
8626964624628522
0588546982625730
8142744045759424
0102488447573085
1403800152540122
2248844091470333
5193074797929091
1971024314390882
3914595232228056
1265572757415786
0136484867792195
9965922564858891
6904353826464259
7666576260448993
2787725227134746
9235375731443493
5928043800446342
9388533934773200
5601107886236184
1097952760431187
5117568495536090
9251744731557116
3027371082208966
6646739189409226
8842194591253311
1042601440436041
6607774837081325
9330950719388986
3113780536603053
5258170521479781
9413102524215939
1874540690449252
1321820478036793
4734022725823298
3303331007000829
6887608002314229
5044188561421973
5109899190766088
6549864624192765
9540431483125724
4341793346700162
4505854358848177
8961950372465045
2655355576128176
0648852813834822
8115344948741487
1351768327598485
1318743593194994
9217930367595325
4224458467245056
9581543042568686
5219013163859829
1440063756713441
4671867915594617
6198828425080751
0767489032266703
1160016708713386
2851039552809762
0662797102623056
3115368259632031
5331440426840224
9370736447725853
6230311280535542
2970551390843240
6737161228115224
1278476215668087
0240551533292579
3693813771726537
0121991570010976
9768909363702920
7755537883104669
6308330715458300
5990729462575602
3358075178615535
2304840105642470
4436183480921146
3957046121364560
5740528357828833
0400232298849115
4280147128943900
7992727935310462
7657422977567514
4038358886153169
4682380099012723
5688226948488152
8746981937951201
8583620703103095
4945360224887149
8227236926228865
7503599866838328
0306766365983082
3413049864861519
6298427146323001
4869894816851795
0211172609159855
0623101515106029
9505482247450696
4589576265840182
0165098232296847
7168720588038395
3267229946452849
9602002760041175
2756978802063379
8979560510386706
8249534204731109
7985386665524107
8795680989708219
5067382475630761
7167409133883697
3623498764383877
7651891582073608
2442370756511218
8345872332196586
6809456762457630
8675897742360752
6950275463743445
8546212862586568
5775431994199579
4770961779961384
7598434387418698
4075772468689197
3933931316304967
9385509211797941
4602221579308599
1024781232915719
0535266455387139
1412851482888505
0587695710839701
9920646475671338
1698656256223487
1910182114322133
6824400602221355
0403732822984772
0866142268605165
3518240071127311
1285782650534192
0821571445643459
4695887610862552
2810521320510886
9178587038150097
7802928537608034
8201328048802169
6353954532527478
2475325774592136
3130355290668203
7271555229443404
7128315889582702
1836363748488436
3502913245055077
7611559630126226
5349830056087028
9770406908381251
7169798041511043
7623387678165519
3150151618147696
7859411400193310
8553670361123217
7541486051032916
8437681484537471
2966913210268454
2886918034157958
1599490917967583
8851661551732110
8818591019259154
1695432337550771
6158538708587557
3520420994609582
4783565791787812
3909390599449995
6080740001190093
8499480527764979
3884619314766196
5933747544898055
2922695355184672
8934962824316146
5096196189096216
7313883075464997
6447599759619612
6684463877522156
5909708662409601
9164335773757265
7027356679555355
5045543243236389
7925449690046513
6600534938868914
9852157976516603
0859623938282836
8530737635315538
4692086634018379
5711606586843440
4293431204153265
7385362831192628
1716022912572148
4096682046982653
3410221270317818
8650692795757334
2032909409044932
0046886510217525
6278460500181721
5735768060121243
0675365413696898
1027020066358147
2480821137023849
0439316428090584
5149229612250815
2324159515825927
2822582595834942
1594099328152776
8760386031068860
2235441573916615
8396030315852339
9567237763613694
8535829557066942
6651445845504410
3996404436225621
0134693605452082
6867654474117994
1734587740129156
1489528203687120
4921843961802403
8206214061481076
3917743059148485
9343951396428747
5461518414512641
9710508131232398
6774402618033652
3831909651244142
1652132080233697
7386780860761865
0841425239502177
0015837037500256
0404624792247041
2332327416299928
0084970537505496
5921029742254860
5370222318394867
6450292906586525
5422954134762705
2110127065416697
0383795207009016
8091913406003446
6151093519229838
4504024306093053
6352083877939941
7539226071470962
4300866819252154
8129703041249048
5009392667450875
0631397141390775
5867294901335084
8023696572568269
2605062132611045
