ID_Lattes|MATRICULA|NOME|CH|mail|LP_1|PROGRAMA_1|CATEG_1|Periodo_Inicio_1|Periodo_Fim_1|Resp_prog|Resp_LP1
K4274162P5|99999|EDUARDO DE PAIVA|40|IRD@IRD.br|IRD|IRD|P|2013|2016|IRD|IRD
K4769029T2|99999|EDSON RAMOS DE ANDRADE|40|IRD@IRD.br|IRD|IRD|P|2013|2016||
K4788543U1|99999|DENISON DE SOUZA SANTOS|40|IRD@IRD.br|IRD|IRD|P|2013|2016||
K4707546A8|99999|DEJANIRA DA COSTA LAURIA|40|IRD@IRD.br|IRD|IRD|P|2013|2016||
K4785043P6|99999|WALSAN WAGNER PEREIRA|40|IRD@IRD.br|IRD|IRD|P|2013|2016||
K4220363T1|99999|SILVIA MARIA VELASQUES DE OLIVEIRA|40|IRD@IRD.br|IRD|IRD|P|2013|2016||
K4723126J6|99999|PEDRO PACHECO DE QUEIROZ FILHO|40|IRD@IRD.br|IRD|IRD|P|2013|2016||
K4708961Z8|99999|DANIEL ALEXANDRE BAPTISTA BONIFACIO|40|IRD@IRD.br|IRD|IRD|P|2013|2016||
K4707647A6|99999|CLAUDIO DE CARVALHO CONTI|40|IRD@IRD.br|IRD|IRD|P|2013|2016||
K4787718E1|99999|CLAUDIA LUCIA DE PINHO MAURICIO|40|IRD@IRD.br|IRD|IRD|P|2013|2016||
K4857766P0|99999|CARLOS JOSE DA SILVA|40|IRD@IRD.br|IRD|IRD|P|2013|2016||
K4701953Y6|99999|MARIZA RAMALHO FRANKLIN|40|IRD@IRD.br|IRD|IRD|P|2013|2016||
K4763080J1|99999|MARCUS ALEXANDRE VALLIM DE ALENCAR|40|IRD@IRD.br|IRD|IRD|P|2013|2016||
K4787910P9|99999|LUIZ TAUHATA|40|IRD@IRD.br|IRD|IRD|P|2013|2016||
K4278542T0|99999|LUIZ ANTONIO RIBEIRO DA ROSA|40|IRD@IRD.br|IRD|IRD|P|2013|2016||
K4763889U2|99999|JOAO EMILIO PEIXOTO|40|IRD@IRD.br|IRD|IRD|P|2013|2016||
K4763953E6|99999|LUCIA VIVIANA CANEVARO|40|IRD@IRD.br|IRD|IRD|P|2013|2016||
K4723379E9|99999|CARLOS EDUARDO BONACOSSA DE ALMEIDA|40|IRD@IRD.br|IRD|IRD|P|2013|2016||
K4728643E6|99999|BERNARDO MARANHAO DANTAS|40|IRD@IRD.br|IRD|IRD|P|2013|2016||
K4782250A2|99999|ANA CRISTINA DE MELO FERREIRA|40|IRD@IRD.br|IRD|IRD|P|2013|2016||
K4728159E2|99999|ALMIR FARIA CLAIN|40|IRD@IRD.br|IRD|IRD|P|2013|2016||
K4768480D9|99999|ALESSANDRO FACURE NEVES DE SALLES SOARES|40|IRD@IRD.br|IRD|IRD|P|2013|2016||
K4786785A6|99999|MARIA ANGELICA VERGARA WASSERMAN|40|IRD@IRD.br|IRD|IRD|P|2013|2016||
K8089493H5|99999|LIDIA VASCONCELLOS|40|IRD@IRD.br|IRD|IRD|P|2013|2016||
K4701333D1|99999|LENE HOLANDA SADLER VEIGA|40|IRD@IRD.br|IRD|IRD|P|2013|2016||
K4708677H6|99999|JOHN GRAHAM HUNT|40|IRD@IRD.br|IRD|IRD|P|2013|2016||
K8642514H0|99999|FRANCISCO CESAR AUGUSTO DA SILVA|40|IRD@IRD.br|IRD|IRD|P|2013|2016||
K4789162P4|99999|ELAINE RUA RODRIGUEZ ROCHEDO|40|IRD@IRD.br|IRD|IRD|P|2013|2016||
K4785290Z8|99999|JOSE GUILHERME PEREIRA PEIXOTO|40|IRD@IRD.br|IRD|IRD|P|2013|2016||
K4789895J1|99999|JOSE UBIRATAN DELGADO|40|IRD@IRD.br|IRD|IRD|P|2013|2016||
