artigoEmPeriodico	2015	http://dx.doi.org/10.15871/1517-8595/rbpa.v17n2p169-178	Cinética de Desidratação Osmótica da Banana Pacovan em Diferentes Temperaturas	Revista Brasileira de Produtos Agroindustriais	ALMEIDA, R.D. ; DUARTE, M.E.M. ; MATA, M.E.R.M.C. ; LEITE, G.V.F.	B3	
artigoEmPeriodico	2015		Computer programs for analysis of solar domestic hot water systems: RETScreen case study	Journal of Energy Challenges and Mechanics	ALTOE, L. ; OLIVEIRA FILHO, D. ; MARTINEZ, F. J. R. ; CARLO, J. C. ; MONTEIRO, P. M. B.	Qualis nao identificado	Journal of Energy Challenges and Mechanics
artigoEmPeriodico	2015	http://dx.doi.org/10.5897/AJB2015.14925	Mineral content in French type bread with sodium replacement using fluorescence spectrometry X-rays by energy dispersive	African Journal of Biotechnology	GUSMAO, T. A. S. ; GUSMAO, R. P. ; SOUSA, S. ; CAVALCANTI-MATA, M. E. R. M. ; DUARTE, M. E. M. ; FIGUEREDO, R.M.F. ; MOREIRA, R. T.	B2	
artigoEmPeriodico	2015	http://dx.doi.org/10.18378/rvads.v10i4.3740	Comportamento cinético do fermentado alcoólico de banana prata (musa ssp) frente a diferentes parâmetros	Revista Verde de Agroecologia e Desenvolvimento Sustentável	LEITE FILHO, M. T. ; PEREIRA, E. M. ; FLORENTINO, E. R. ; MATA, Mario Eduardo Rangel Moreira Cavalcanti ; PEREIRA, B. B. M.	B4	
artigoEmPeriodico	2015		The influence of lattice ions on the electrokinetic potential of primary and secondary phosphates	Separation Science and Technology (Print)	NUNES, A. P. L.; Peres, A. E. C. ; VALADAO, G. E. S.	A2	
artigoEmPeriodico	2015	http://dx.doi.org/10.3390/s151025546	A Novel Low-Cost Instrumentation System for Measuring the Water Content and Apparent Electrical Conductivity of Soils	Sensors (Basel)	SEGUNDO, ALAN ; MARTINS, JOSÉ ; MONTEIRO, PAULO ; DE OLIVEIRA, RUBENS ; FREITAS, GUSTAVO	A2	
artigoEmPeriodico	2015	http://dx.doi.org/10.1590/1809-4430	TEOR DE ÁGUA LIMITE PARA CRIOCONSERVAÇÃO DE SEMENTES DE ROMÃ (Punica granatum L.)	Engenharia Agrícola (Online)	SILVA, LUZIA MARCIA DE MELO ; CAVALCANTI MATA, MÁRIO EDUARDO RANGEL MOREIRA ; DUARTE, Maria Elita Martins	B1	
artigoEmPeriodico	2015	http://dx.doi.org/10.3390/en8054003	Simulation of Distributed Generation with Photovoltaic Microgrids-Case Study in Brazil	Energies (Basel)	XAVIER, GUSTAVO ; FILHO, DELLY ; MARTINS, JOSÉ ; MONTEIRO, PAULO ; DINIZ, ANTÔNIA	B1	
trabalhoCompletoEmCongresso	2015		Estudo do processo de desidratação osmótica e secagem de banana Pacovan	V Congresso Latino Americano de Analistas de Alimentos	ALMEIDA, Renata D. ; PEREIRA JUNIOR, B. P. A. ; DUARTE, M. E. M. ; CAVALCANTI MATA, MÁRIO EDUARDO RANGEL MOREIRA ; SOUSA, R. V. ; LEITE, G. V. F. ; SANTOS, D. G.		
trabalhoCompletoEmCongresso	2015		Caracterização morfológica e granulométrica da farinha de algaroba (Prosopis juliflora (SW) D.C	XIX Encontro Nacional e Latino Americano de Analistas de Alimentos	GUSMAO, R. P. ; CAVALCANTI MATA, MARIO EDUARDO RANGEL ; DUARTE, Maria Elita Martins ; GUSMAO, T. A. S.		
trabalhoCompletoEmCongresso	2015		Elaboração e qualidade físico-química de farinha do albedo de toranja como forma de reaproveitamento de resíduo	1o. Simpósio Nordestino de Química	LEITE FILHO, M. T. ; CAVALCANTI-MATA, M. E. R. M.		
trabalhoCompletoEmCongresso	2015		Elaboração e qualidade físico-química de geleia de abacaxi 'Pérola'	1o. Simpósio Nordestino de Química	LEITE FILHO, M. T. ; CAVALCANTI-MATA, M. E. R. M.		
trabalhoCompletoEmCongresso	2015		Análise do perfil de textura de barras de cereais elaboradas com resíduo de abacaxi	I Encontro nacional de Agroindústria	SILVA, J. I. ; RODRIGUES, L. M. S. ; SOUSA, S. ; CAVALCANTI-MATA, M. E. R. M. ; DUARTE, M. E. M. ; ALMEIDA, Renata D.		
trabalhoCompletoEmCongresso	2015		Extração de óleo de gergelim e aproveitamento dos resíduos para confecção de alimentos: Estudo de caso para biscoito	12° Congresso de Iniciação Científica da Universidade Federal de Campina Grande	VIEIRA, A. F. ; CAVALCANTI MATA, MARIO E. R. M.		
