ID_Lattes|MATRICULA|NOME|CH|mail|LP_1|PROGRAMA_1|CATEG_1|Periodo_Inicio_1|Periodo_Fim_1|Resp_prog|Resp_LP1
K4764203E4|99999|ELIDIA MARIA GUERRA|40|UFSJ@UFSJ.br|TPDS|TPDS|P|2013|2016|TPDS|TPDS
K4771132A4|99999|DANIELA LEITE FABRINO|40|UFSJ@UFSJ.br|TPDS|TPDS|P|2013|2016||
K4795229J5|99999|DANE TADEU CESTAROLLI|40|UFSJ@UFSJ.br|TPDS|TPDS|P|2013|2016||
K4799492D2|99999|RENATA CAROLINA ZANETTI LOFRANO|40|UFSJ@UFSJ.br|TPDS|TPDS|P|2013|2016||
K4701519D3|99999|ANA MARIA DE OLIVEIRA|40|UFSJ@UFSJ.br|TPDS|TPDS|P|2013|2016||
K4703778T3|99999|ANA CLAUDIA BERNARDES SILVA|40|UFSJ@UFSJ.br|TPDS|TPDS|P|2013|2016||
K4791934T9|99999|ANDRE LINCOLN BARROSO DE MAGALHAES|40|UFSJ@UFSJ.br|TPDS|TPDS|P|2013|2016||
K4768077T1|99999|TELDE NATEL CUSTODIO|40|UFSJ@UFSJ.br|TPDS|TPDS|P|2013|2016||
K4762335U6|99999|BRUNO MEIRELES XAVIER|40|UFSJ@UFSJ.br|TPDS|TPDS|P|2013|2016||
K4269948P9|99999|BOUTROS SARROUH|40|UFSJ@UFSJ.br|TPDS|TPDS|P|2013|2016||
K4727589H9|99999|ANTONIO HELVECIO TOTOLA|40|UFSJ@UFSJ.br|TPDS|TPDS|P|2013|2016||
K4766788Z7|99999|SILVANA DE QUEIROZ SILVA|40|UFSJ@UFSJ.br|TPDS|TPDS|P|2013|2016||
K4762539Y4|99999|SANDRA DE CASSIA DIAS|40|UFSJ@UFSJ.br|TPDS|TPDS|P|2013|2016||
K4771627T7|99999|ROGERIO ANTONIO PICOLI|40|UFSJ@UFSJ.br|TPDS|TPDS|P|2013|2016||
K4771475E5|99999|ANDRE AGUIAR MENDES|40|UFSJ@UFSJ.br|TPDS|TPDS|P|2013|2016||
K4775067P0|99999|MARCELO PERENCIN DE ARRUDA RIBEIRO|40|UFSJ@UFSJ.br|TPDS|TPDS|P|2013|2016||
K4250994H2|99999|MARCELO DA SILVA BATISTA|40|UFSJ@UFSJ.br|TPDS|TPDS|P|2013|2016||
K4736587Z6|99999|MARCEL OTAVIO CERRI|40|UFSJ@UFSJ.br|TPDS|TPDS|P|2013|2016||
K4282710D5|99999|LUIZ GUSTAVO MARTINS DA SILVA|40|UFSJ@UFSJ.br|TPDS|TPDS|P|2013|2016||
K4250129Y7|99999|JULIANO LEMOS BICAS|40|UFSJ@UFSJ.br|TPDS|TPDS|P|2013|2016||
K4721989U1|99999|JOSE CARLOS DE MAGALHAES|40|UFSJ@UFSJ.br|TPDS|TPDS|P|2013|2016||
K4761258E9|99999|HERALDO NUNES PITANGA|40|UFSJ@UFSJ.br|TPDS|TPDS|P|2013|2016||
K4705500H8|99999|ENIO NAZARE DE OLIVEIRA JUNIOR|40|UFSJ@UFSJ.br|TPDS|TPDS|P|2013|2016||
