
PB0:2013,1;
PB4:2013,1;
PB8:2013,1;
PT4:2013,8;
PT5:2013,1;
OA1:2017,1;
OA2:2015,1;2016,3;2017,1;
OA5:2016,1;
OC4:2013,1;
Pm:2013,2;
PB:2013,3;
PT:2013,9;
OA:2015,1;2016,4;2017,2;
OC:2013,1;
Ep:2013,4;