
PB0:2015,1;
PB2:2015,1;2016,1;
PB4:2014,1;
PB8:2014,2;2016,1;
PB9:2014,1;2016,1;
PT4:2014,1;
PT5:2014,2;2015,1;2016,1;
OA1:2014,1;
OC1:2015,1;
OC2:2014,1;
OC5:2013,1;2014,1;
Pj:2003,1;
PB:2014,4;2015,2;2016,3;
PT:2014,3;2015,1;2016,1;
OA:2014,1;
OC:2013,1;2014,2;2015,1;
Ep:2014,1;2016,1;
Eo:2014,1;