ID_Lattes|MATRICULA|NOME|CH|mail|LP_1|PROGRAMA_1|CATEG_1|Periodo_Inicio_1|Periodo_Fim_1|Resp_prog|Resp_LP1
K4761346J5|99999|MARIA DA CONCEICAO LAFAYETTE DE ALMEIDA|40|UFPE@UFPE.br|UFPE|UFPE|P|2013|2016|UFPE|UFPE
K4782131J4|99999|ISOLDA BELO DA FONTE|40|UFPE@UFPE.br|UFPE|UFPE|P|2013|2016||
K4784891U8|99999|ADRIANA FALANGOLA BENJAMIN BEZERRA|40|UFPE@UFPE.br|UFPE|UFPE|P|2013|2016||
K4783355D4|99999|ALCIDES DA SILVA DINIZ|40|UFPE@UFPE.br|UFPE|UFPE|P|2013|2016||
K4223587D6|99999|RAFAEL DA SILVEIRA MOREIRA|40|UFPE@UFPE.br|UFPE|UFPE|P|2013|2016||
K4702759J2|99999|VANESSA DE LIMA SILVA|40|UFPE@UFPE.br|UFPE|UFPE|P|2013|2016||
K4537797Z6|99999|MARIA DAS GRACAS WANDERLEY DE SALES CORIOLANO|40|UFPE@UFPE.br|UFPE|UFPE|P|2013|2016||
K4781059U0|99999|ENIVALDO CARVALHO DA ROCHA|40|UFPE@UFPE.br|UFPE|UFPE|P|2013|2016||
K4783867Y1|99999|JOSE RAIMUNDO OLIVEIRA VERGOLINO|40|UFPE@UFPE.br|UFPE|UFPE|P|2013|2016||
K4164790D6|99999|FRANCISCO JATOBA DE ANDRADE|40|UFPE@UFPE.br|UFPE|UFPE|P|2013|2016||
K4728963T2|99999|CATIA WANDERLEY LUBAMBO|40|UFPE@UFPE.br|UFPE|UFPE|P|2013|2016||
K4763003Y6|99999|ERNANI RODRIGUES DE CARVALHO NETO|40|UFPE@UFPE.br|UFPE|UFPE|P|2013|2016||
K4787145U6|99999|SERGIO CARVALHO BENICIO DE MELLO|40|UFPE@UFPE.br|UFPE|UFPE|P|2013|2016||
K4781154U3|99999|JORGE ZAVERUCHA|40|UFPE@UFPE.br|UFPE|UFPE|P|2013|2016||
K4721907D1|99999|YONY DE SA BARRETO SAMPAIO|40|UFPE@UFPE.br|UFPE|UFPE|P|2013|2016||
K4708302U4|99999|DENILSON BEZERRA MARQUES|40|UFPE@UFPE.br|UFPE|UFPE|P|2013|2016||
K4796650U6|99999|MARCOS ROBERTO GOIS DE OLIVEIRA|40|UFPE@UFPE.br|UFPE|UFPE|P|2013|2016||
K4708737E2|99999|MONICA MARIA BARBOSA GUEIROS|40|UFPE@UFPE.br|UFPE|UFPE|P|2013|2016||
K4762745D6|99999|NEISON CABRAL FERREIRA FREIRE|40|UFPE@UFPE.br|UFPE|UFPE|P|2013|2016||
K4788878A9|99999|ALEXANDRINA SALDANHA SOBREIRA DE MOURA|40|UFPE@UFPE.br|UFPE|UFPE|P|2013|2016||
K4762518Y5|99999|CHARLES ULISES DE MONTREVIL CARMONA|40|UFPE@UFPE.br|UFPE|UFPE|P|2013|2016||
K4770540E6|99999|DIOGO HENRIQUE HELAL|40|UFPE@UFPE.br|UFPE|UFPE|P|2013|2016||
K4794086A7|99999|ANTONIO CARLOS GOMES DO ESPIRITO SANTO|40|UFPE@UFPE.br|UFPE|UFPE|P|2013|2016||
K4790996U7|99999|MARIA LUCIA GURGEL DA COSTA|40|UFPE@UFPE.br|UFPE|UFPE|P|2013|2016||
K4131053U0|99999|EULER ESTEVES RIBEIRO|40|UFPE@UFPE.br|UFPE|UFPE|P|2013|2016||
K4758130T5|99999|NADI HELENA PRESSER|40|UFPE@UFPE.br|UFPE|UFPE|P|2013|2016||
K4780878P8|99999|REZILDA RODRIGUES OLIVEIRA|40|UFPE@UFPE.br|UFPE|UFPE|P|2013|2016||
K4782558A2|99999|SYLVANA MARIA BRANDAO DE AGUIAR|40|UFPE@UFPE.br|UFPE|UFPE|P|2013|2016||
K4767196Z2|99999|EMANUELA SOUSA RIBEIRO|40|UFPE@UFPE.br|UFPE|UFPE|P|2013|2016||
K4706559E1|99999|ROGERIO DUBOSSELARD ZIMMERMANN|40|UFPE@UFPE.br|UFPE|UFPE|P|2013|2016||
K4799785P2|99999|VERA MAGALHAES DA SILVEIRA|40|UFPE@UFPE.br|UFPE|UFPE|P|2013|2016||
K4460031D1|99999|GUSTAVO FERREIRA SANTOS|40|UFPE@UFPE.br|UFPE|UFPE|P|2013|2016||
K4788855Y2|99999|AIDA MARIA MONTEIRO SILVA|40|UFPE@UFPE.br|UFPE|UFPE|P|2013|2016||
K4704489J3|99999|SANDRO COZZA SAYAO|40|UFPE@UFPE.br|UFPE|UFPE|P|2013|2016||
K4793034E9|99999|JAYME BENVENUTO LIMA JUNIOR|40|UFPE@UFPE.br|UFPE|UFPE|P|2013|2016||
K4788216H2|99999|LUIS DE LA MORA|40|UFPE@UFPE.br|UFPE|UFPE|P|2013|2016||
K4751203U1|99999|LIANA CRISTINA DA COSTA CIRNE LINS|40|UFPE@UFPE.br|UFPE|UFPE|P|2013|2016||
K4261540J4|99999|JACIARA JOSEFA GOMES|40|UFPE@UFPE.br|UFPE|UFPE|P|2013|2016||
K4451492J4|99999|CYNTHIA COLETTE CHRISTIANE LUCIENNE|40|UFPE@UFPE.br|UFPE|UFPE|P|2013|2016||
K4779587J7|99999|MARCELO HENRIQUE GONCALVES DE MIRANDA|40|UFPE@UFPE.br|UFPE|UFPE|P|2013|2016||
K4733039T3|99999|GUSTAVO GOMES DA COSTA SANTOS|40|UFPE@UFPE.br|UFPE|UFPE|P|2013|2016||
K4791462Z6|99999|BRENO GUSTAVO VALADARES LINS|40|UFPE@UFPE.br|UFPE|UFPE|P|2013|2016||
K4779952Z5|99999|MARIA BETANIA DO NASCIMENTO SANTIAGO|40|UFPE@UFPE.br|UFPE|UFPE|P|2013|2016||
K4739907A7|99999|MARIA JOSE DE MATOS LUNA|40|UFPE@UFPE.br|UFPE|UFPE|P|2013|2016||
K4709306U7|99999|ALLENE CARVALHO LAGE|40|UFPE@UFPE.br|UFPE|UFPE|P|2013|2016||
K4797637E3|99999|ARTUR STAMFORD DA SILVA|40|UFPE@UFPE.br|UFPE|UFPE|P|2013|2016||
K4772045T9|99999|ANA MARIA DE BARROS|40|UFPE@UFPE.br|UFPE|UFPE|P|2013|2016||
K4079616Z5|99999|MARIA VIRGINIA LEAL|40|UFPE@UFPE.br|UFPE|UFPE|P|2013|2016||
K4705032E6|99999|MARCELO LUIZ PELIZZOLI|40|UFPE@UFPE.br|UFPE|UFPE|P|2013|2016||
K4768355D1|99999|CELMA FERNANDA TAVARES DE ALMEIDA E SILVA|40|UFPE@UFPE.br|UFPE|UFPE|P|2013|2016||
K4701565J5|99999|MARCIA CARRERA CAMPOS LEAL|40|UFPE@UFPE.br|UFPE|UFPE|P|2013|2016||
K4556835H5|99999|ANA PAULA DE OLIVEIRA MARQUES|40|UFPE@UFPE.br|UFPE|UFPE|P|2013|2016||
K4708023U3|99999|ELIANE MARIA RIBEIRO DE VASCONCELOS|40|UFPE@UFPE.br|UFPE|UFPE|P|2013|2016||
K4762397J6|99999|EDILSON FERNANDES SOUZA|40|UFPE@UFPE.br|UFPE|UFPE|P|2013|2016||
K4703317U5|99999|ILMA KRUZE GRANDE DE ARRUDA|40|UFPE@UFPE.br|UFPE|UFPE|P|2013|2016||
K4794086J4|99999|CARLA CABRAL DOS SANTOS ACCIOLY LINS|40|UFPE@UFPE.br|UFPE|UFPE|P|2013|2016||
