strict graph grafo2 {
	graph [bb="0,0,1342.5,145",
		id=grafo2,
		overlap=False
	];
	node [fontsize=8,
		label="\N",
		shape=rectangle,
		style=filled
	];
	0	 [URL="http://lattes.cnpq.br/7877403729431750",
		color="#17272B",
		fontcolor="#FFFFFF",
		height=0.23611,
		label="Saraspathy N. T. Gama de Mendonça [2]",
		pos="74,136.5",
		width=2.0556];
	11	 [URL="http://lattes.cnpq.br/2547403563036811",
		color="#17272B",
		fontcolor="#FFFFFF",
		height=0.23611,
		label="Silvana Ligia Vincenzi [3]",
		pos="74,72.5",
		width=1.4167];
	0 -- 11	 [fontsize=8,
		label=2.0,
		lp="79.5,104.5",
		pos="74,127.9 74,116 74,93.102 74,81.165"];
	13	 [URL="http://lattes.cnpq.br/6715272307281643",
		color="#17272B",
		fontcolor="#FFFFFF",
		height=0.23611,
		label="Carla A. Pizarro Schmidt [16]",
		pos="204,8.5",
		width=1.5694];
	11 -- 13	 [fontsize=8,
		label=1.0,
		lp="152.5,40.5",
		pos="89.941,63.898 114.89,51.998 162.9,29.102 187.93,17.165"];
	1	 [URL="http://lattes.cnpq.br/9781159016378038",
		color="#17272B",
		fontcolor="#FFFFFF",
		height=0.23611,
		label="Paulo Lopes de Menezes [1]",
		pos="404,136.5",
		width=1.5];
	8	 [URL="http://lattes.cnpq.br/2170981286370303",
		color="#17272B",
		fontcolor="#FFFFFF",
		height=0.23611,
		label="Claudio Leones Bazzi [3]",
		pos="470,72.5",
		width=1.3611];
	1 -- 8	 [fontsize=8,
		label=1.0,
		lp="446.5,104.5",
		pos="412.09,127.9 424.76,116 449.13,93.102 461.84,81.165"];
	2	 [URL="http://lattes.cnpq.br/6557298196355263",
		color="#17272B",
		fontcolor="#FFFFFF",
		height=0.23611,
		label="Paulo César Tonin [0]",
		pos="655,136.5",
		width=1.2083];
	3	 [URL="http://lattes.cnpq.br/1208427854093144",
		color="#17272B",
		fontcolor="#FFFFFF",
		height=0.23611,
		label="José A. Azevedo dos Santos [14]",
		pos="204,72.5",
		width=1.6944];
	3 -- 13	 [fontsize=8,
		label=14.0,
		lp="211.5,40.5",
		pos="204,63.898 204,51.998 204,29.102 204,17.165"];
	4	 [URL="http://lattes.cnpq.br/3997654537105134",
		color="#17272B",
		fontcolor="#FFFFFF",
		height=0.23611,
		label="Fabiana C. de Araujo Schutz [1]",
		pos="343,72.5",
		width=1.6667];
	4 -- 13	 [fontsize=8,
		label=1.0,
		lp="287.5,40.5",
		pos="325.96,63.898 299.28,51.998 247.95,29.102 221.18,17.165"];
	5	 [URL="http://lattes.cnpq.br/7999781322175310",
		color="#17272B",
		fontcolor="#FFFFFF",
		height=0.23611,
		label="Everton Coimbra de Araújo [2]",
		pos="535,136.5",
		width=1.625];
	5 -- 8	 [fontsize=8,
		label=2.0,
		lp="512.5,104.5",
		pos="527.03,127.9 514.55,116 490.55,93.102 478.04,81.165"];
	6	 [URL="http://lattes.cnpq.br/0829902990523071",
		color="#17272B",
		fontcolor="#FFFFFF",
		height=0.23611,
		label="Carlos Aparecido Fernandes [0]",
		pos="776,136.5",
		width=1.6528];
	7	 [URL="http://lattes.cnpq.br/3033591975237656",
		color="#17272B",
		fontcolor="#FFFFFF",
		height=0.23611,
		label="Augusto Vaghetti Luchese [0]",
		pos="910,136.5",
		width=1.5694];
	9	 [URL="http://lattes.cnpq.br/9438996788230697",
		color="#17272B",
		fontcolor="#FFFFFF",
		height=0.23611,
		label="Glaucia Cristina Moreira [0]",
		pos="1039,136.5",
		width=1.5];
	10	 [URL="http://lattes.cnpq.br/8149364045680042",
		color="#17272B",
		fontcolor="#FFFFFF",
		height=0.23611,
		label="Pedro L. de Paula Filho [0]",
		pos="1163,136.5",
		width=1.4444];
	12	 [URL="http://lattes.cnpq.br/8998670968329882",
		color="#17272B",
		fontcolor="#FFFFFF",
		height=0.23611,
		label="Daniel Rodrigues Blanco [0]",
		pos="1288,136.5",
		width=1.5139];
}
