7877403729431750
9781159016378038
6557298196355263
1208427854093144
3997654537105134
7999781322175310
0829902990523071
3033591975237656
2170981286370303
9438996788230697
8149364045680042
2547403563036811
8998670968329882
6715272307281643
