artigoEmPeriodico	2017	http://dx.doi.org/10.1016/j.amc.2016.07.036	Parallel algorithms for modular multi-exponentiation	Applied Mathematics and Computation	Borges, Fábio; Lara, Pedro ; Portugal, Renato	A2	
artigoEmPeriodico	2015	http://dx.doi.org/10.1002/sec.1152	Preserving privacy in a smart grid scenario using quantum mechanics	Security and Communication Networks	Borges, Fábio; SANTOS, RAQUELINE A. M. ; MARQUEZINO, FRANKLIN L.	Qualis nao identificado	Security and Communication Networks
artigoEmPeriodico	2014	http://dx.doi.org/10.1109/TSG.2014.2336265	EPPP4SMS: Efficient Privacy-Preserving Protocol for Smart Metering Systems and Its Simulation Using Real-World Data	IEEE Transactions on Smart Grid	Borges, Fábio; MUHLHAUSER, MAX	B2	
trabalhoCompletoEmCongresso	2016	http://dx.doi.org/10.1109/NOMS.2016.7502840	Assessing the impact of cryptographic access control solutions on multimedia delivery in information-centric networks	NOMS 2016 2016 IEEE/IFIP Network Operations and Management Symposium	MANNES, ELISA ; MAZIERO, CARLOS ; LASSANCE, LUIZ CARLOS ; BORGES, FABIO		
trabalhoCompletoEmCongresso	2015	http://dx.doi.org/10.1109/ISGT.2015.7131862	Efficient, verifiable, secure, and privacy-friendly computations for the smart grid	2015 IEEE Power Energy Society Innovative Smart Grid Technologies Conference (ISGT)	BORGES, FABIO; VOLK, FLORIAN ; MUHLHAUSER, MAX		
trabalhoCompletoEmCongresso	2015	http://dx.doi.org/10.1109/ISCC.2015.7405632	Optimized access control enforcement over encrypted content in information-centric networks	2015 IEEE Symposium on Computers and Communication (ISCC)	MANNES, ELISA ; MAZIERO, CARLOS ; LASSANCE, LUIZ ; BORGES, FABIO		
trabalhoCompletoEmCongresso	2015	http://dx.doi.org/10.1109/fdtc.2015.18	An Efficient One-Bit Model for Differential Fault Analysis on Simon Family	2015 Workshop on Fault Diagnosis and Tolerance in Cryptography (FDTC)	VASQUEZ, JUAN DEL CARMEN GRADOS ; BORGES, FABIO ; Portugal, Renato ; Lara, Pedro		
trabalhoCompletoEmCongresso	2014	http://dx.doi.org/10.1109/ISCC.2014.6912612	A privacy-enhancing protocol that provides in-network data aggregation and verifiable smart meter billing	2014 IEEE Symposium on Computers and Communication (ISCC)	BORGES, FABIO; DEMIREL, DENISE ; BOCK, LEON ; BUCHMANN, JOHANNES ; MUHLHAUSER, MAX		
trabalhoCompletoEmCongresso	2014	http://dx.doi.org/10.1109/CNS.2014.6997499	iKUP keeps users' privacy in the Smart Grid	2014 IEEE Conference on Communications and Network Security (CNS)	BORGES, FABIO; MARTUCCI, LEONARDO A.		
trabalhoCompletoEmCongresso	2014	http://dx.doi.org/10.1109/TrustCom.2014.19	Secure and Privacy-Friendly Public Key Generation and Certification	2014 IEEE 13th International Conference on Trust	BORGES, FABIO; MARTUCCI, LEONARDO A. ; BEATO, FILIPE ; MUHLHAUSER, MAX		
trabalhoCompletoEmCongresso	2014		Controle de acesso baseado em reencriptação por proxy em Redes Centradas em Informação	Simpósio Brasileiro em Segurança da Informação e de Sistemas Computacionais (SBSeg)	MANNES, E. ; MAZIERO, C. ; LASSANCE, L. C. ; Borges, Fábio		
resumoExpandidoEmCongresso	2014	Introducing asymmetric DC-Nets	2014 IEEE Conference on Communications and Network Security (CNS), 2014	BORGES, FABIO; BUCHMANN, JOHANNES ; MUHLHAUSER, MAX		
