artigoEmPeriodico	Sidnei Alves de Araújo	2016		Segmentation of Retinal Blood Vessels Based on Ultimate Elongation Opening	Lecture Notes in Computer Science	ALVES, W. A. L. ; GOBBER, C. F. ; ARAÚJO, S. A. ; HASHIMOTO, R. F.	B1	
artigoEmPeriodico	Sidnei Alves de Araújo	2016		An Intelligent Vision-Based System Applied to Visual Quality Inspection of Beans	Lecture Notes in Computer Science	BELAN, P. A. ; ARAÚJO, S. A. ; ALVES, W. A. L.	B1	
artigoEmPeriodico	Sidnei Alves de Araújo	2016		Combining Genetic Algorithm with Constructive and Refinement Heuristics for Solving the Capacitated Vehicle Routing Problem	IFIP Advances in Information and Communication Technology	LIMA, S. J. A. ; SANTOS, R. A. R. ; ARAÚJO, S. A. ; SCHIMIT, P. H. T.	B2	
artigoEmPeriodico	Sidnei Alves de Araújo	2015		Eshopps: A Computational Tool to Aid the Teaching of Shortest Path Algorithms	Journal of Engineering Science & Technology	LIMA, S. J. A. ; LOURENCO, W. S. ; ARAÚJO, S. A.	B5	
artigoEmPeriodico	Sidnei Alves de Araújo	2015	http://dx.doi.org/10.4067/S0718-33052015000200011	Simulación del proceso de biodegradación de aguas residuales de la industria de carne mediante una red neuronal artificial perceptrón multicapa	Ingeniare. Revista Chilena de Ingeniería (En línea)	SANTANA, J. C. C. ; ARAÚJO, S. A. ; BIAZUS, J. P. M. ; SOUZA, R. R.	B3	
artigoEmPeriodico	Sidnei Alves de Araújo	2015	http://dx.doi.org/10.1016/j.engappai.2015.01.004	Beans quality inspection using correlation-based granulometry	Engineering Applications of Artificial Intelligence	ARAÚJO, S. A.; PESSOTA, J. H. ; KIM, H. Y.	A2	
artigoEmPeriodico	Sidnei Alves de Araújo	2015		A Computer Vision System for Automatic Classi cation of Most Consumed Brazilian Beans	Lecture Notes in Computer Science	ARAÚJO, S. A.; ALVES, W. A. L. ; BELAN, P. A. ; ANSELMO, K. P.	B1	
artigoEmPeriodico	Sidnei Alves de Araújo	2015		Simulação e análise do atendimento em dois supermercados que utilizam sistemas de produção puxada e empurrada	Exacta (São Paulo. Impresso)	GAVA, M. C. V. ; ARAÚJO, S. A.	B5	
artigoEmPeriodico	Sidnei Alves de Araújo	2014	http://dx.doi.org/10.1590/fst.2014.0037	Use of simulated annealing in standardization and optimization of the acerola wine production	Ciência e Tecnologia de Alimentos (Impresso)	ALMEIDA, S. S. ; ALVES, W. A. L. ; ARAÚJO, S. A. ; SANTANA, J. C. C. ; NARAIN, N. ; SOUZA, R. R.	B1	
artigoEmPeriodico	Sidnei Alves de Araújo	2014	http://dx.doi.org/10.1007/s00170-014-6442-y	An intelligent vision system for detecting defects in glass products for packaging and domestic use	International Journal, Advanced Manufacturing Technology	CABRAL, J. D. D. ; ARAÚJO, S. A.	B1	
artigoEmPeriodico	Sidnei Alves de Araújo	2014	http://dx.doi.org/10.3965/j.ijabe.20140705.012	Simulation approach for optimal design of vacuum cooling on broccoli by simulated annealing technique	International Journal of Agricultural and Biological Engineering	DING, T. ; ALVES, W. A. L. ; ARAÚJO, S. A. ; SANTANA, J. C. C. ; LING, J.G. ; JIANCHU, C. ; LIU, D.H.	Qualis nao identificado	International Journal of Agricultural and Biological Engineering
artigoEmPeriodico	Sidnei Alves de Araújo	2013	http://dx.doi.org/10.1504/IJCAT.2013.053420	A comparative study of statistical methods for characterisation of materials surfaces by means of texture analysis	International Journal of Computer Applications in Technology	ARAÚJO, S. A.; ALVES, W. A. L. ; LIBRANTZ, A. F. H. ; BELAN, P. A.	B3	INTERNATIONAL JOURNAL OF COMPUTER APPLICATIONS IN TECHNOLOGY
artigoEmPeriodico	Sidnei Alves de Araújo	2013	http://dx.doi.org/10.5120/13761-1601	An Expert System for Improving Sieve Calibration Process	International Journal of Computer Applications	ADRIANOBELAN, PETERSON ; FELIPE H. LIBRANTZ, ANDRÉ ; ALVES DE ARAÚJO, SIDNEI	B3	
trabalhoCompletoEmCongresso	Sidnei Alves de Araújo	2016	http://dx.doi.org/10.1007/978-3-642-35230-0_15	Combining Genetic Algorithm with Constructive and Re-finement Heuristics for Solving the Capacitated Vehicle Routing Problem	APMS 2016 International Conference Advances in Production Management Systems	LIMA, S. J. A. ; SANTOS, R. A. R. ; ARAÚJO, S. A. ; SCHIMIT, P. H. T.		
trabalhoCompletoEmCongresso	Sidnei Alves de Araújo	2016		Segmentation of Retinal Blood Vessels Based on Ultimate Elongation Opening	13th International Conference on Image Analysis and Recognition - ICIAR 2016	ALVES, W. A. L. ; GOBBER, C. F. ; ARAÚJO, S. A. ; HASHIMOTO, R. F.		
trabalhoCompletoEmCongresso	Sidnei Alves de Araújo	2016		An Intelligent Vision-Based System Applied to Visual Quality Inspection of Beans	13th International Conference on Image Analysis and Recognition - ICIAR 2016	BELAN, P. A. ; ARAÚJO, S. A. ; ALVES, W. A. L.		
trabalhoCompletoEmCongresso	Sidnei Alves de Araújo	2016		Análise de representações cromossômicas para algoritmos genéticos na solução do problema de roteamento de veículos	XXXVI Encontro Nacional de Engenharia de Produção - ENEGEP2016	SANTOS, R. A. R. ; LIMA, S. J. A. ; ARAÚJO, S. A.		
trabalhoCompletoEmCongresso	Sidnei Alves de Araújo	2016		A strategy based on genetic algorithm and nearest neighbor heuristic for solving the capacitated vehicle routing problem	XLVIII Simpósio Brasileiro de Pesquisa Operacional - SBPO 2016	LIMA, S. J. A. ; ARAÚJO, S. A. ; SCHIMIT, P. H. T.		
trabalhoCompletoEmCongresso	Sidnei Alves de Araújo	2016		Segmentação de Imagens Speckle de Amostras de Dentes Cariados Baseada na Distância do Qui-quadrado	Seminário em Tecnologia da Informação Inteligente - SeTII2016	GAVINHO, L. G. ; DAMAZIO, J. H. ; ARAÚJO, S. A. ; BUSSADORI, S. K. ; SILVA, J. V. ; DEANA, A. M.		
trabalhoCompletoEmCongresso	Sidnei Alves de Araújo	2016		Inteligência Computacional em Serious Games: Um Estudo de Caso Para Identificar Padrões em um Jogo Para Crianças com Transtorno de Aprendizagem	Seminário em Tecnologia da Informação Inteligente ? SeTII 2016	DOMINGUES, A. M. ; BISSACO, M. A. S. ; ARAÚJO, S. A.		
trabalhoCompletoEmCongresso	Sidnei Alves de Araújo	2015		Otimização do Problema de Roteamento de Veículos Capacitado Usando Algoritmos Genéticos e as Heurísticas de Gillett e Miller e Descida de Encosta	XXXV Encontro Nacional de Engenharia de Produção - ENEGEP2015	LIMA, S. J. A. ; SANTOS, R. A. R. ; ARAÚJO, S. A.		
trabalhoCompletoEmCongresso	Sidnei Alves de Araújo	2015		An Approach Based on Genetic Algorithm for Solving 2D Cutting Problem with Items of Irregular Shapes	The 7th International Conference on Management of computational and collective IntElligence in Digital EcoSystems (MEDES'15)	GAVA, M. C. V. ; GREGORIO FILHO, A. ; ROSARIO, C. D. P. ; ARAÚJO, S. A.		
trabalhoCompletoEmCongresso	Sidnei Alves de Araújo	2015	http://dx.doi.org/10.20906/CPS/CILAMCE2015-0772	UM SISTEMA DE ANÁLISE DE IMAGENS PARA CLASSIFICAÇÃO AUTOMÁTICA DE GRÃOS DE FEIJÃO BRASILEIRO	XXXVI Iberian Latin American Congress on Computational Methods in Engineering	Belan, Peterson Adriano ; Araújo, Sidnei Alves de ; SANTANA, JOSÉ CARLOS CURVELO		
trabalhoCompletoEmCongresso	Sidnei Alves de Araújo	2015		A Computer Vision System for Automatic Classi cation of Most Consumed Brazilian Beans	11th International Symposium on Visual Computing - ISVC'15	ARAÚJO, S. A.; ALVES, W. A. L. ; BELAN, P. A. ; ANSELMO, K. P.		
trabalhoCompletoEmCongresso	Sidnei Alves de Araújo	2014		A Fuzzy Inference System for Decision Making of Players of a Business Game for Teaching Concepts of Production Management, Sales and Business Strategies	XX International Conference on Industrial Engineering and Operations Management (CIO/ICIEOM 2014)	BARROS JUNIOR, D. F. ; ARAÚJO, S. A.		
trabalhoCompletoEmCongresso	Sidnei Alves de Araújo	2014		Modelagem de um mercado consumidor virtual em um jogo de empresas usando sistemas multiagentes	XXXIV Encontro Nacional de Engenharia de Produção - ENEGEP 2014	BARROS JUNIOR, D. F. ; ARAÚJO, S. A. ; SCHIMIT, P. H. T.		
trabalhoCompletoEmCongresso	Sidnei Alves de Araújo	2014		Corte em chapas metálicas com itens irregulares usando algoritmos genéticos e processamento de imagens digitais	XXXV Ibero-Latin American Congress on Computational Methods in Engineering - CILAMCE2014	GAVA, M. C. V. ; LIBRANTZ, A. F. H. ; ARAÚJO, S. A.		
trabalhoCompletoEmCongresso	Sidnei Alves de Araújo	2014		Expert system applied to visual quality inspection of beans	XXXV Ibero-Latin American Congress on Computational Methods in Engineering - CILAMCE2014	PESSOTA, J. H. ; ARAÚJO, S. A. ; ALVES, W. A. L. ; SANTANA, J. C. C.		
trabalhoCompletoEmCongresso	Sidnei Alves de Araújo	2014		Análise da influência dos coeficientes de redes complexas no desempenho de algoritmos heurísticos para solução dos problemas caminho mínimo e caixeiro viajante	XXI Simpósio de Engenharia de Produção - SIMPEP 2014	LIMA, S. J. A. ; SCHIMIT, P. H. T. ; ARAÚJO, S. A.		
trabalhoCompletoEmCongresso	Sidnei Alves de Araújo	2014		Proposta de ferramenta web para aprendizagem de algoritmos para solução do problema de caminho mínimo	XXXIV Encontro Nacional de Engenharia de Produção - ENEGEP 2014	LOURENCO, W. S. ; LIMA, S. J. A. ; ALVES, W. A. L. ; ARAÚJO, S. A.		
trabalhoCompletoEmCongresso	Sidnei Alves de Araújo	2013		Cutting time measurement for turning process by means of audio signal nalysis	XXXIV Ibero-Latin American Congress on Numerical Methods in Engineering (CILAMCE 2013)	SILVA JR., J. F. ; SOUZA, E. M. ; ARAÚJO, S. A. ; PEREIRA, F. H. ; BAPTISTA, E. A. ; COPPINI, N. L.		
trabalhoCompletoEmCongresso	Sidnei Alves de Araújo	2013		Análise e mineração de dados em um jogo de empresas para apoio ao ensino de conceitos de gestão da produção, vendas e estratégias de negócios	XXXIII Encontro Nacional de Engenharia de Produção (ENEGEP 2013)	BARROS JUNIOR, D. F. ; ESTIVALLI, J. D. ; AMENDOLA, F. ; ARAÚJO, S. A.		
trabalhoCompletoEmCongresso	Sidnei Alves de Araújo	2013		Visual Pattern Recognition System for Automatic Quality Inspection of Glass Plates	XIX International Conference on Industrial Engineering and Operations Management (ICIEOM 2013)	CABRAL, J. D. D. ; ARAÚJO, S. A.		
trabalhoCompletoEmCongresso	Sidnei Alves de Araújo	2013		Implementation of a prototype for automatic beans selection	XIX International Conference on Industrial Engineering and Operations Management (ICIEOM 2013)	PIRES, A. C. ; SANTANA, J. C. C. ; PESSOTA, J. H. ; ARAÚJO, S. A.		
trabalhoCompletoEmCongresso	Sidnei Alves de Araújo	2013		A Computational Tool for Helping to Teach Routing Algorithms	22nd International Conference on Production Research (ICPR 2013)	LIMA, S. J. A. ; ARAÚJO, S. A.		
trabalhoCompletoEmCongresso	Sidnei Alves de Araújo	2013		Applying of Genetic Algorithm in the Simulation and Optimization of Processing of Broccoli by Vacuum Cooling	22nd International Conference on Production Research (ICPR 2013)	DING, T. ; ALVES, W. A. L. ; ARAÚJO, S. A. ; SANTANA, J. C. C. ; LIU, F. ; YE, Xing-Qian		
resumoExpandidoEmCongresso	Sidnei Alves de Araújo	2016	Detecção de Corpos D?água em Imagens Aéreas Multiespectrais Adquiridas por Drones	Seminário em Tecnologia da Informação Inteligente ? SeTII 2016, 2016, São Paulo. Anais do Seminário em Tecnologia da Informação Inteligente ? SeTII 2016. São Paulo: PPGI/UNINOVE	BRAVO, D. T. ; JARDIM, V. O. ; ARAÚJO, S. A. ; ALVES, W. A. L.		
resumoExpandidoEmCongresso	Sidnei Alves de Araújo	2016	Abordagem Computacional para Classificação Automática de Grãos de Feijão em Tempo Real	Seminário em Tecnologia da Informação Inteligente ? SeTII 2016, 2016, São Paulo. Anais do Seminário em Tecnologia da Informação Inteligente ? SeTII 2016. São Paulo: PPGI/UNINOVE	BELAN, P. A. ; PEREIRA, M. M. A. ; ARAÚJO, S. A. ; ALVES, W. A. L.		
resumoExpandidoEmCongresso	Sidnei Alves de Araújo	2013	Análise e Mineração de Dados em Jogos de Empresas	15º Simpósio de Iniciação Científica e Tecnológica (SICT 2013), 2013, São Paulo. Boletim Técnico da Faculdade de Tecnologia de São Paulo. São Paulo: CEETEPS ? Centro Estadual de Educação Tecnológica ?Paula Souza?	OLIVEIRA, L. S. ; BARROS JUNIOR, D. F. ; ARAÚJO, S. A.		
resumoExpandidoEmCongresso	Sidnei Alves de Araújo	2013	Sistema de Inspeção Automática de defeitos em produtos de vidro para embalagens e uso doméstico	15º Simpósio de Iniciação Científica e Tecnológica (SICT 2013), 2013, São Paulo. Boletim Técnico da Faculdade de Tecnologia de São Paulo. São Paulo: CEETEPS ? Centro Estadual de Educação Tecnológica ?Paula Souza?	PEREIRA, J. C. S. ; CABRAL, J. D. D. ; ARAÚJO, S. A.		
