strict digraph grafo3 {
	graph [bb="0,0,1731,81",
		id=grafo3,
		overlap=False
	];
	node [fontsize=8,
		label="\N",
		shape=rectangle,
		style=filled
	];
	0	 [URL="http://lattes.cnpq.br/1512717941866097",
		color="#17272B",
		fontcolor="#FFFFFF",
		height=0.23611,
		label="Paulo F. Ferreira Rosa [0]",
		pos="50,72.5",
		width=1.3889];
	1	 [URL="http://lattes.cnpq.br/1185487031019435",
		color="#17272B",
		fontcolor="#FFFFFF",
		height=0.23611,
		label="Paulo César Pellanda [2]",
		pos="166,72.5",
		width=1.3333];
	7	 [URL="http://lattes.cnpq.br/4578693731159389",
		color="#17272B",
		fontcolor="#FFFFFF",
		height=0.23611,
		label="José A. Apolinário Junior [1]",
		pos="109,8.5",
		width=1.5278];
	1 -> 7	 [arrowhead=normal,
		arrowsize=0.75,
		fontsize=8,
		label=0.5,
		lp="118.5,40.5",
		penwidth=2.0,
		pos="e,107.85,17.126 138.34,63.994 128.84,60.032 119.07,54.136 113,45.5 108.88,39.64 107.64,31.868 107.52,25.045"];
	13	 [URL="http://lattes.cnpq.br/5161688186852047",
		color="#17272B",
		fontcolor="#FFFFFF",
		height=0.23611,
		label="Alberto Mota Simões [1]",
		pos="231,8.5",
		width=1.3472];
	1 -> 13	 [arrowhead=normal,
		arrowsize=0.75,
		fontsize=8,
		label=0.5,
		lp="201.5,40.5",
		penwidth=2.0,
		pos="e,219.43,17.059 171.5,63.883 177.19,56.27 186.54,44.444 196,35.5 201.22,30.566 207.38,25.718 213.06,21.57"];
	7 -> 1	 [arrowhead=normal,
		arrowsize=0.75,
		fontsize=8,
		label=1.0,
		lp="145.5,40.5",
		penwidth=3.5,
		pos="e,159.01,63.898 116.05,17.165 125.48,27.424 142.35,45.775 153.85,58.286"];
	13 -> 1	 [arrowhead=normal,
		arrowsize=0.75,
		fontsize=8,
		label=1.0,
		lp="220.5,40.5",
		penwidth=3.5,
		pos="e,181.1,63.938 227.19,17.056 223,24.837 215.7,36.994 207,45.5 201.42,50.951 194.52,55.859 187.98,59.903"];
	2	 [URL="http://lattes.cnpq.br/0270661833822671",
		color="#17272B",
		fontcolor="#FFFFFF",
		height=0.23611,
		label="Maria T. M. Rocco Giraldi [0]",
		pos="289,72.5",
		width=1.5833];
	3	 [URL="http://lattes.cnpq.br/8911936841113704",
		color="#17272B",
		fontcolor="#FFFFFF",
		height=0.23611,
		label="Maria E. Soares Marques [0]",
		pos="419,72.5",
		width=1.5139];
	4	 [URL="http://lattes.cnpq.br/1766896412449188",
		color="#17272B",
		fontcolor="#FFFFFF",
		height=0.23611,
		label="Luiz F. C. Ferreira da Silva [0]",
		pos="550,72.5",
		width=1.6111];
	5	 [URL="http://lattes.cnpq.br/2431901858566512",
		color="#17272B",
		fontcolor="#FFFFFF",
		height=0.23611,
		label="Luiz A. Vieira Carneiro [0]",
		pos="678,72.5",
		width=1.4444];
	6	 [URL="http://lattes.cnpq.br/0054945070201197",
		color="#17272B",
		fontcolor="#FFFFFF",
		height=0.23611,
		label="Leonardo de Castro Oliveira [0]",
		pos="808,72.5",
		width=1.6528];
	8	 [URL="http://lattes.cnpq.br/7247460085720503",
		color="#17272B",
		fontcolor="#FFFFFF",
		height=0.23611,
		label="Itamar Borges Junior [0]",
		pos="933,72.5",
		width=1.3194];
	9	 [URL="http://lattes.cnpq.br/8610703960852975",
		color="#17272B",
		fontcolor="#FFFFFF",
		height=0.23611,
		label="Ernesto Leite Pinto [0]",
		pos="1044,72.5",
		width=1.25];
	10	 [URL="http://lattes.cnpq.br/6256072821309272",
		color="#17272B",
		fontcolor="#FFFFFF",
		height=0.23611,
		label="Maurício H. Costa Dias [0]",
		pos="1159,72.5",
		width=1.4444];
	11	 [URL="http://lattes.cnpq.br/4946117471548540",
		color="#17272B",
		fontcolor="#FFFFFF",
		height=0.23611,
		label="Carla Liberal Pagliari [0]",
		pos="1278,72.5",
		width=1.3472];
	12	 [URL="http://lattes.cnpq.br/9907968103431589",
		color="#17272B",
		fontcolor="#FFFFFF",
		height=0.23611,
		label="Antonio E. Carrilho da Cunha [0]",
		pos="1407,72.5",
		width=1.7222];
	14	 [URL="http://lattes.cnpq.br/2131496810770098",
		color="#17272B",
		fontcolor="#FFFFFF",
		height=0.23611,
		label="Rosângela Fernandes Coelho [0]",
		pos="1548,72.5",
		width=1.6806];
	15	 [URL="http://lattes.cnpq.br/3620084512865554",
		color="#17272B",
		fontcolor="#FFFFFF",
		height=0.23611,
		label="Ronaldo Moreira Salles [0]",
		pos="1679,72.5",
		width=1.4444];
}
