6108445696913310
9100840804816580
4147267117931858
8044482970381431
8508573387776521
0907141995232404
0526784663736379
8433057855369684
3620084512865554
1209382022297634
0703800843702761
9219077334380862
8935551668939735
1142751281094753
1766896412449188
5714183212530259
4311356407606972
4820764720998156
9252181606756363
8588117212005149
8882633591223095
7121542678493896
4578693731159389
3928718182243143
6739848742248437
2519031892464448
3780403894690188
8426684721256993
9142599154504673
0175609926466421
5327151543017303
5397077835816142
6385098389900462
5471630393400720
6580661934302337
5542916994841641
8271113361154427
6069988928865466
1567439670328164
2231835989303406
8667420957904391
4010680694844460
4127656890433592
6563260169480112
1649276223342580
2772647644145090
5026461009915765
9150400725408100
1415781875529432
6560372925252581
7803450287150338
3394375369156109
6509325029666357
7282979076324567
8483735047595756
5778873769416387
0081051823749824
3415584837315531
8166808280180129
2859775145102804
9135685334181472
1598564386925847
2368149262908169
5457169156572232
5625439765386209
8312487842863693
8326803963394077
5812889199187394
6235384924446479
8400994037688251
0379304660057174
9405166664210590
4350783805068740
1439356611251160
7580514830502516
9205339021417495
0472856771871140
5463635306455805
4634956299658493
2517772822853681
7892007903804607
7226228571158486
3967597911016291
6154252985072615
2063648925778579
1095232066229247
1730866180120829
5163291174440812
3424847554023065
1609339438630667
4703999380556826
8223852451533522
5026026370458800
5485069635520170
8610703960852975
3238659802153968
9290362015164639
5346255390789675
2447360664228945
1333444847300367
1290711673273506
6163500916540336
6850212601719659
4887409200189291
3384058349473146
8073126093266658
4045178362450304
3555226313391116
3925896883230808
7801915818734316
4642552041260342
7111660755182686
8691899509634494
0711187049944249
4218279548869478
8126335844977434
5495753212953624
2221574072813240
9173006904247471
7599769001608407
5170756020561542
8578984741807079
6533494438283855
4015411942050426
2046243751604691
4027464623794213
0962000436866585
9099422221250663
5461285783365535
2887736963561252
0396812904745918
9907968103431589
7108722774206104
0394387879097680
3713536541937676
6140570979422695
5604517186200940
6524305266021699
3094451148051094
0287055549224841
9994200942294205
9697912318216888
9814200778107835
0797462939535142
1264314358130221
4527212372960718
5974113679731654
1845480649434596
9343723106084822
5061257105058061
2402401592333107
1042429619393526
5923324487025477
2941030952340680
1657922277865061
0387264889300859
9816702523088706
0108780579789766
6184339885485590
5739886256942536
8039229243803003
2431901858566512
4201445789522803
7801880361548683
2080900945781449
4656361724204510
0216956794367944
9704729279343329
4362724287992760
9953672931065708
7063856452054362
8808785311091670
5065839827120323
2465974381927584
8523267137545220
6994764509865929
0588546982625730
6256072821309272
0217363549554303
4488847337702977
0781329977938009
8911936841113704
7247460085720503
0731733685444700
8209523604312539
0138378882454566
4139452169580807
8170125305987475
0407737830615201
0713332911875185
0775564802991135
1765239890846505
4943093396905176
2976460960962011
7884349917751487
8789832112362433
3566465649283245
1466881941583925
9200464668550566
0526413128748533
9865168540295859
4275306560431545
7398393031440411
8410605511559031
8632024877670486
9056013060090838
5087429585280296
3906978537652756
9873609669390197
3588063339399737
9622051867672434
0851614787625491
0840607968325055
7838061386770370
5873864530134504
5872019869692671
9868233765380165
1191984026879681
3140652045392909
6998256741796674
2337159261809169
2810746230958072
2875890657727753
4600993600625037
1310310705488241
3307991699533379
9906648459246556
4799614463973754
3775911365098640
4495045676515252
9549150456823214
4148956242627659
7462596070881991
6394513934516755
9100031659178507
2653251442521015
3165736954373606
9363093814106081
6541151752853247
4977419778481897
9869204885619151
2050101326097824
0396884335453601
1562752508279625
2368523362272656
6430809426743411
4937522238064874
2900718595063564
1512717941866097
2834267238485211
5586425507725322
3831184596906861
8718435106724860
8765800073939247
3300948625149422
0091410264297818
4648411135225077
1277988813825379
6122449364388790
6561648923024918
0374200440527446
2131496810770098
1454254574734029
4707073321898636
3693215270528658
2326190172340055
2690140004644310
8660520310001969
7328360773182221
1348048417115478
8169741292841589
3186832054420950
8890983301899546
6612471811294185
9107416256177192
3436184091592698
3427637041612950
6457176891586100
3045172461324651
9386531289414122
9477864466295551
0883059868868203
1185487031019435
0780861213362649
3216599549790744
5832750307083690
8855081325345654
6295354718502744
9470098575086282
1888879974374014
4171869730871848
0495738481276655
8852884728258056
4695065634049566
5930495824286629
6200511857275096
3943389164397216
6969904748517089
7060585515102803
4448540530244733
4656844363574218
8147979415406096
7712090792201553
5043582538018189
9903193115688735
6720778575454410
6996978543675989
0830799247917440
3428834744142893
8474278941339115
2984827105292034
5908924999836595
5557100796560295
8702989400903074
2972260357718573
8791133240954138
4054756781423727
7821964888212839
0454992785446906
4865188230255463
5219821714618333
8284539093845312
2701354118253503
6432054663518355
9770406908381251
6018662629880398
2088240093484543
7469393501786183
8272156121879504
1607835955462351
2615277241764699
9715414576652583
0222542169394489
2549292694477208
3859775879893716
5161688186852047
5637322618521832
2144213542904263
2660529918571919
7431243290535875
3219673862111725
4790830199468893
5098762865579854
2008413641076482
3820441792646415
3488706106941586
2420230989814143
6842421040986664
7266906180520143
3211921786987598
8488636838181293
3808041827295335
8119381308297686
0631326000331642
1188976882707143
4483427976324973
9047135791362182
5623076702008781
1673994067565732
4515687356330538
9454491106143607
8280108344613013
3104305157380903
5354393018365890
4814463184700990
0268732896111424
8884267861687690
0951031312269026
1787742093562001
4207644337299134
4109616924612403
2592799393618205
3902676571043694
0489671257831438
6737055993947367
0946722048975388
7246263448107666
0033704472165684
0216995732666626
2916003886317695
1284916138040160
9723021003007022
4927971338250954
0412216192834076
6167519504011024
9500245604678806
4758631784296266
7863868199687910
1005553714687743
8729201468098163
5335075258111851
0923973089321965
3309669137710269
6461641493172141
5413010232951013
3307347774628377
7586888640173599
7590138702868349
5394525279885741
2470260862745474
1024735855355094
8569666127295800
1735534304972658
3592085720374676
2856098586980132
1748072023209944
8347200950903954
9879634744752250
0082510049991077
5703262249756345
1135632256428882
2377665631775555
7090179023216094
8756886156388456
0257087042807015
5123809126449473
7198434932427353
8143514038997107
5237824569856499
9253905625004132
3184921475121101
3433128026623975
2684164678010362
0175648235036864
1886939214378140
6967504648901128
0371276268377221
7092237172958550
3477740011608862
9265789745298467
3406179810938597
6581785041401765
2049710504200235
4217301080930390
8675737468901580
6599507315597504
1889361123201566
9442474012894615
6952675437500957
4503840246599742
5649698086432648
9195923839466338
6886481560227863
5813487303525248
2544822386382845
6746396740862648
2335975330873792
6071942423077231
9165346235209757
2682091559795082
9805752805483204
1104803735902845
8818754232804062
0270661833822671
6003930390552645
4746083207060544
9018704912702572
4946117471548540
