6961717072558004
9666500788789379
3254944113298230
0067281135180613
4223137210064694
1532505326645535
2479225716217997
3025165325162182
2449347153075493
5192533875584788
6511292268901783
7640108116459444
1738906012880469
5634231159637601
7088164201134128
8041183668335400
6724295293317941
3888145024042412
3792275882221002
