artigoEmPeriodico	2016		Determinação da cinética de secagem de produtos alimentícios usando algoritmos genéticos	Revista de Agricultura Neotropical	BARBOSA, T. A. ; LOBATO, F. S.	B4	Revista de Agricultura Tropical
artigoEmPeriodico	2016	http://dx.doi.org/10.1016/j.watres.2016.05.006	Treatment of paint manufacturing wastewater by coagulation/electrochemical methods: Proposals for disposal and/or reuse of treated water	Water Research (Oxford)	DA SILVA, LARISSA F. ; BARBOSA, ANDREIA D. ; DE PAULA, HEBER M. ; ROMUALDO, LINCOLN L. ; ANDRADE, LEONARDO S.	A1	
artigoEmPeriodico	2016	http://dx.doi.org/10.1007/s00366-016-0495-5	A numerical study on the symmetrization of tangent stiffness matrix in non-linear analysis using corotational approach	ENGINEERING WITH COMPUTERS	Da SILVA, W. A.; SILVA, W. T. M. ; EVANGELISTA JUNIOR, F.	Qualis nao identificado	ENGINEERING WITH COMPUTERS
artigoEmPeriodico	2016	http://dx.doi.org/10.5216/reec.v13i1.45014	MAPEAMENTO SISTEMÁTICO DE REFERÊNCIAS DO USO DO BIM NA COMPATIBILIZAÇÃO DE PROJETOS NA CONSTRUÇÃO CIVIL	REEC - Revista Eletrônica de Engenharia Civil	DE PAULA, HEBER MARTINS; RODRIGUES, Karen Campos ; DE CASTRO MESQUITA, HYGOR ; CANEDO EDUARDO, RAPHAEL	Qualis nao identificado	REEC - Revista Eletrônica de Engenharia Civil
artigoEmPeriodico	2016	http://dx.doi.org/10.1177/1475921716671038	Impedance-based structural health monitoring and statistical method for threshold-level determination applied to 2024-T3 aluminum panels under varying temperature	Structural Health Monitoring	DE SOUZA RABELO, D. ; STEFFEN Jr, V. ; FINZI NETO, R. M. ; LACERDA, H. B.	A2	
artigoEmPeriodico	2016	http://dx.doi.org/10.14488/1676-1901.v16i1.1720	Efeitos de regras de prioridade para programação da produção em sistemas industriais complexos	Revista Produção Online	FUCHIGAMI, H. Y.; MOCCELLIN, J. V.	B2	
artigoEmPeriodico	2016	http://dx.doi.org/10.14393/BJ-v32n1a2016-32436	Design of a robotic device actuated by cables for human lower limb rehabilitation using self-adaptive differential evolution and robust optimization	Bioscience Journal (Online)	GONÇALVES, ROGÉRIO SALES ; CARVALHO, JOÃO CARLOS MENDES ; LOBATO, FRAN SERGIO	B1	
artigoEmPeriodico	2016		Otimização Multiobjetivo Robusta Aplicada para a Preparação de Alvéolos Ósseos Utilizados em Implantes Dentais	Revista Master	LOBATO, F. S.; SILVA, M.A.	Qualis nao identificado	Revista Master
artigoEmPeriodico	2016		Desenvolvimento de um Algoritmo de Otimização Auto-Adaptativo para a Determinação de um Protocolo Otimizado para a Administração de Drogas no Tratamento de Tumores	Tendências em Matemática Aplicada e Computacional	LOBATO, F. S.; Steffen Jr, V.	B2	TEMA. Tendências em Matemática Aplicada e Computacional
artigoEmPeriodico	2016	http://dx.doi.org/10.1016/j.cmpb.2016.04.004	Determination of an optimal control strategy for drug administration in tumor treatment using multi-objective optimization differential evolution	Computer Methods and Programs in Biomedicine (Print)	LOBATO, FRAN SÉRGIO; MACHADO, VINICIUS SILVÉRIO ; STEFFEN, VALDER	A2	
artigoEmPeriodico	2016	http://dx.doi.org/10.1002/net.21685	Heuristics for a hub location-routing problem	Networks (New York, N.Y. Print)	Lopes, Mauro Cardoso ; de Andrade, Carlos Eduardo ; DE QUEIROZ, THIAGO ALVES ; RESENDE, MAURICIO G. C. ; MIYAZAWA, FLÁVIO KEIDI	Qualis nao identificado	Networks (New York, N.Y. Print)
artigoEmPeriodico	2016	http://dx.doi.org/10.1007/s00170-015-7445-z	Hybrid manufacturing and remanufacturing lot sizing problem with stochastic demand, return and setup costs	International Journal, Advanced Manufacturing Technology	MACEDO, P. B. ; ALEM, D. ; SANTOS, M. O. ; LAGE JUNIOR, M. ; MORENO, A.	B1	
artigoEmPeriodico	2016	http://dx.doi.org/10.5216/reec.v13i1.39652	ANÁLISE QUALITATIVA DE SÓLIDOS ELASTOPLÁSTICOS SOB DEFORMAÇÃO FINITA UTILIZANDO ELEMENTOS DE BARRA BI-ARTICULADOS 2D E 3D	REEC - Revista Eletrônica de Engenharia Civil	MATIAS SILVA, WILLIAM TAYLOR ; DA SILVA, WELLINGTON ANDRADE ; NORONHA BRITO, MARCUS ALEXANDRE	Qualis nao identificado	REEC - Revista Eletrônica de Engenharia Civil
artigoEmPeriodico	2016	http://dx.doi.org/10.5216/reec.v12i3.39506	Uma abordagem analítica para detecção de pontos limites e de bifurcação	REEC - Revista Eletrônica de Engenharia Civil	MATIAS SILVA, WILLIAM TAYLOR ; DUQUE GUTIERREZ, MARIA PAZ ; ANDRADE DA SILVA, WELLINGTON	Qualis nao identificado	REEC - Revista Eletrônica de Engenharia Civil
artigoEmPeriodico	2016	http://dx.doi.org/10.1590/s1983-41952016000500009	Experimental analysis of reinforcing columns of reinforced concrete, with anchor steel bolts	Revista IBRACON de Estruturas e Materiais	MESQUITA, A. C. ; ROCHA, A. S. ; DELALIBERA, R. G. ; SILVA, W. A. DA	B2	
artigoEmPeriodico	2016	http://dx.doi.org/10.1590/s1983-41952016000600004	The influence of connecting pile cap-column in the mechanisms of break in the two pile caps	REVISTA IBRACON DE ESTRUTURAS E MATERIAIS	Mesquita, A.C. ; Rocha, A. S. ; DELALIBERA, R. G. ; Da SILVA, W. A.	B2	
artigoEmPeriodico	2016		Robust Multi-objective Optimization Applied to Engineering Systems Design	Latin American Journal of Solids and Structures	MOREIRA, F. R. ; LOBATO, F. S. ; CAVALINI, A. A. ; VALDER STEFFEN, JR	Qualis nao identificado	Latin American Journal of Solids and Structures
artigoEmPeriodico	2016		Resolução do problema de empacotamento ortogonal com diferentes malhas e restrições reais	Pesquisa Operacional para o Desenvolvimento	Nascimento, O. X. ; CUNHA, J. G. A. ; Queiroz, Thiago A.	B4	
artigoEmPeriodico	2016	http://dx.doi.org/10.5216/reec.V11i1.35149	USO DA MORINGA OLEIFERA NO TRATAMENTO DE ÁGUAS REDISUÁRIAS DE USINAS DE CONCRETO: MAPEAMENTO SISTEMÁTICO (doi:10.5216/reec.V11i1.35149)	REEC - Revista Eletrônica de Engenharia Civil	PAULA, H. M.; ILHA, M. S. O.	Qualis nao identificado	REEC - Revista Eletrônica de Engenharia Civil
artigoEmPeriodico	2016	http://dx.doi.org/10.4025/actascitechnol.v38i1.25699	<b>Chemical coagulants and <i>Moringa oleifera</i> seed extract for treating concrete wastewater</b>	Acta Scientiarum. Technology (Online)	PAULA, HEBER MARTINS DE; ILHA, MARINA SANGOI DE OLIVEIRA ; ANDRADE, LEONARDO SANTOS	B1	
artigoEmPeriodico	2016	http://dx.doi.org/10.1590/1679-78253098	A Study of the Thermal Runaway Phase Generated During Cyclic Loading of Viscoelastic Materials Accounting for the Prestress	Latin American Journal of Solids and Structures	Rodovalho, Luiz Fernando F. ; LIMA, A. M. G. ; BORGES, R. A. ; LACERDA, H. B.	Qualis nao identificado	Latin American Journal of Solids and Structures
artigoEmPeriodico	2016		The use of electromechanical impedance based structural health monitoring technique in concrete structures	E-Journal of Nondestructive Testing and Ultrasonics	SILVA, R. N. F. ; TSURUTA, K. M. ; Finzi Neto, Roberto Mendes ; RABELO, D. S. ; Steffen Jr, V.	Qualis nao identificado	E-Journal of Nondestructive Testing and Ultrasonics
artigoEmPeriodico	2016	http://dx.doi.org/10.15552/2236-0158/abenge.v35n1p13-24	Avaliação das Estratégias de Ensino no Curso de Engenharia Civil da Universidade Federal de Goiás - Regional Catalão	Revista de Ensino de Engenharia	SILVA, W.A. ; SARMENTO, A.P. ; OLIVEIRA, M.H. ; BEZERRA, J.E. ; PAULA, H.M. ; CARMO, K.V. ; MACHADO, D.R.	B2	
artigoEmPeriodico	2016	http://dx.doi.org/10.1016/j.ymssp.2016.03.005	Experimental evaluation of a cruciform piezoelectric energy harvester	Mechanical Systems and Signal Processing	TSURUTA, K. M. ; Rade, D. A. ; FINZI NETO, R. M. ; CAVALINI, A. A.	Qualis nao identificado	Mechanical Systems and Signal Processing
trabalhoCompletoEmCongresso	2016		Instrumento de Auditoria de Segurança Viária para Projetos Rodoviários Brasileiros	XXX Congresso de Pesquisa e Ensino em Transportes	ASSUNCAO, L. T. ; ANDRADE, M.		
trabalhoCompletoEmCongresso	2016	http://dx.doi.org/10.5151/9788580391633-08	AVALIAÇÃO DE UM SISTEMA DE BAIXO CUSTO PARA AQUISIÇÃO E DETECÇÃO DE FALHAS UTILIZANDO MÉTODO DA IMPEDÂNCIA ELETROMECÂNICA	IV SPPGI 2016	Barella, B.P. ; REZENDE, S. W. F. ; MOURA JR, J. R. V.		
trabalhoCompletoEmCongresso	2016		Calibração de um Sistema de Monitoramento de Integridade Estrutural Baseado em Impedância Eletromecânica de Baixo Custo	V Workshop de Álgebra	Barella, B.P. ; REZENDE, S. W. F. ; MOURA JR, J. R. V.		
trabalhoCompletoEmCongresso	2016		MONITORAMENTO DE FALHAS ESTRUTURAIS VIA IMPEDÂNCIA ELETROMECÂNICA USANDO UM SISTEMA DE BAIXO CUSTO	CONPEEX 2016	Barella, B.P. ; REZENDE, S. W. F. ; MOURA JR, J. R. V.		
trabalhoCompletoEmCongresso	2016		Redução de Ruídos em Sinais de Impedância Eletromecânica Utilizando o Filtro Savitzky-Golay	VII Simpósio de Matemática e Matemática Industrial	Barella, B.P. ; REZENDE, S. W. F. ; MOURA JR, J. R. V.		
trabalhoCompletoEmCongresso	2016		Aplicação do Método da Busca Aleatória na Otimização da Faixa de Frequência em um Estudo de Integridade de Estruturas	VII Simpósio de Matemática e Matemática Industrial	BENTO, J. P. M. ; Barella, B.P. ; MOURA JR, J. R. V.		
trabalhoCompletoEmCongresso	2016		Utilização do Algoritmo de Colônia de Abelhas na Otimização de Faixas de Frequência para o Monitoramento Estrutural Baseado em Impedância	VII Simpósio de Matemática e Matemática Industrial	BENTO, J. P. M. ; Barella, B.P. ; MOURA JR, J. R. V.		
trabalhoCompletoEmCongresso	2016		Otimização da Faixa de Frequência Utilizando o Algoritmo de Colônia de Formigas no Estudo da Integridade de Estruturas	VII Simpósio de Matemática e Matemática Industrial	BENTO, J. P. M. ; Barella, B.P. ; MOURA JR, J. R. V.		
trabalhoCompletoEmCongresso	2016	http://dx.doi.org/10.1109/coase.2016.7743385	Dynamic cargo stability in loading and transportation of containers	2016 IEEE International Conference on Automation Science and Engineering (CASE)	BRACHT, EVANDRO C. ; de Queiroz, Thiago A. ; SCHOUERY, RAFAEL C. S. ; MIYAZAWA, FLAVIO K.		
trabalhoCompletoEmCongresso	2016	http://dx.doi.org/10.1007/978-3-319-09858-6_27	Aplicativos para Controle por Voz de Prótese Biônica de Mão Confeccionada por Manufatura Aditiva	XXV Congresso Brasileiro de Engenharia Biomédica	CAMARGO, L. C. ; STOPPA, MARCELO H.		
trabalhoCompletoEmCongresso	2016		Estudo do Processo de Cristalização do Ácido Cítrico por Resfriamento	Congresso Brasileiro de Engenharia Química	CASTRO, C. C. ; SOUZA, T. A. A. ; LOBATO, F. S. ; MALAGONI, R. A.		
trabalhoCompletoEmCongresso	2016		Estudo Teórico-Experimental da Cinética de Secagem de Alimentos	XXI Jornada da Engenharia Química	COSTA, J. N. R. ; LOBATO, F. S. ; BATISTA, F. R. X.		
trabalhoCompletoEmCongresso	2016		NUMERICAL EVALUATION OF THE EFFECT OF UNCERTAINTIES INHERENT IN ROTATING MACHINERY USING REDUCED MODEL	XXXVII Iberian Latin American Congress on Computational Methods in Engineering - cilamce 2016	COSTA, T. N. ; GONCALVES, D. F. ; Borges, Romes A.		
trabalhoCompletoEmCongresso	2016	http://dx.doi.org/10.5151/9788580392326-10	LinA como ferramenta auxiliar no processo de ensino-aprendizagem de Álgebra Linear	Congresso Brasileiro de Informática na Educação	COSTA, V. G.; DANTAS, C. A. ; GOMES, S. L. F.		
trabalhoCompletoEmCongresso	2016		Malha de Pontos no Problema da Mochila Bidimensional Limitada	XLVIII Simpósio Brasileiro de Pesquisa Operacional	CUNHA, J. G. A. ; Queiroz, Thiago A.		
trabalhoCompletoEmCongresso	2016		ANÁLISE DE DESEMPENHO DE LAJE STEEL DECK COMO DIAFRAGMA RÍGIDO	VII Simpósio de Matemática e Matemática Industrial	CUNHA, J. P. F. B. ; COELHO, G. O. ; Da SILVA, W. A.		
trabalhoCompletoEmCongresso	2016		Otimização Multi-objetivo Robusta Aplicado ao Projeto de um Sistema de Engenharia Química	XXI Jornada da Engenharia Química	CUNHA, L. G. S. ; SILVEIRA, G. S. ; LOBATO, F. S.		
trabalhoCompletoEmCongresso	2016		Modelagem da Informação da Construção para Habitações de Interesse Social em Catalão-Goiás	Congresso de Ensino	EDUARDO, R. C. ; ROCHA, S. A. ; LIMA, A. L. C. ; Da SILVA, W. A.		
trabalhoCompletoEmCongresso	2016		Avaliação da Distância de Visibilidade de Ultrapassagem para Combinações Veiculares de Carga	XXX Congresso de Pesquisa e Ensino em Transportes	FRANÇA, M.C. ; ANDRADE, M.		
trabalhoCompletoEmCongresso	2016		Um estudo computacional de um modelo matemático para flow shop permutacional com tarefas just-in-time	XLVIII Simpósio Brasileiro de Pesquisa Operacional (SBPO)	FUCHIGAMI, H. Y.; RANGEL, S.		
trabalhoCompletoEmCongresso	2016		Uma Metodologia de Análise e Projeto de um Chassi de um Veiculo Mini Baja de Competição	IX Congresso Nacional de Engenharia Mecânica	FURTADO, F. F. A. L. ; GUIMARÃES, T. A.		
trabalhoCompletoEmCongresso	2016		Programação da produção em flow shop permutacional envolvendo medidas de atraso: uma contribuição bibliométrica	XLVIII Simpósio Brasileiro de Pesquisa Operacional (SBPO)	HORDONES, P. A. M. ; CAMARGO, V. H. ; FUCHIGAMI, H. Y.		
trabalhoCompletoEmCongresso	2016		The Influence of the Support Factor and Different Grids on the Static Stability of Packing Problems	XVIII Latin-Iberoamerican Conference on Operations Research	JUNQUEIRA, L. ; Queiroz, Thiago A.		
trabalhoCompletoEmCongresso	2016		Avaliação de Segurança Viária das Rodovias Federais 020 e 040 na Ride-DF	XXX Congresso de Pesquisa e Ensino em Transportes	LANZARO, G. A. ; ANDRADE, M.		
trabalhoCompletoEmCongresso	2016		Determinação de Equações Constitutivas Empregadas para a Avaliação do Desempenho de Hidrociclones usando Otimização Robusta	V Mostra IC da FAMAT	LOBATO, F. S.; VIEIRA, L. G. M		
trabalhoCompletoEmCongresso	2016		Estudo do Projeto de Flights em Secadores Rotativos na Secagem de Fertilizantes	XII Simpósio de Mecânica Computacional	LOBATO, FRAN SÉRGIO; ARRUDA, E. B. ; COLOMBO NETO, J. L. ; OLIVEIRA, A. ; FREITAS, G.		
trabalhoCompletoEmCongresso	2016		MINIMIZACAO DO MAKESPAN DE UM AMBIENTE FLEXIBLE FLOW SHOP DE LINHA DE MONTAGEM	VII Simpósio de Matemática e Matemática Industrial	MARTINS, J. S. ; COELHO, G. O. ; MOURA JR, J. R. V.		
trabalhoCompletoEmCongresso	2016		Ambiente Flexible Flow Line Com Tempos de Setup e Bicritério	V Workshop de Álgebra	MARTINS, J. S. ; MOURA JR, J. R. V.		
trabalhoCompletoEmCongresso	2016		Proposição de meta-heurística e limitantes inferiores para o makespan em máquinas paralelas com setup independente e diferentes datas de liberação	XLVIII Simpósio Brasileiro de Pesquisa Operacional (SBPO)	MESQUITA, F. N. ; FUCHIGAMI, H. Y.		
trabalhoCompletoEmCongresso	2016		ASSESSEMENT OF WIRELESS GUIDED SYSTEM FOR SUPERVISED MECHANIZED WELDING WITH NEAR-INFRARED ILLUMINATION	fabtech 2016	MOTA, C. P. ; VILARINHO, L. O. ; FINZI NETO, R. M.		
trabalhoCompletoEmCongresso	2016		USO DAS TRANSFORMADAS WAVELETS PARA EXTRAÇÃO DE CARACTERÍSTICAS - PARTE 1: CASO CONTÍNUO	II CONPEEX	MOURA JR, J. R. V		
trabalhoCompletoEmCongresso	2016		UTILIZANDO A PROGRAMAÇÃO INTEIRA PARA A RESOLUÇÃO DE PROBLEMAS DE PROGRAMAÇÃO DA PRODUÇÃO COM O EXCEL SOLVER	II CONPEEX	MOURA JR, J. R. V		
trabalhoCompletoEmCongresso	2016		Uso das Transformadas Wavelets para Remoção de Ruídos Parte 1: Caso Contínuo	VII Simpósio de Matemática e Matemática Industrial da UFG	MOURA JR, J. R. V		
trabalhoCompletoEmCongresso	2016		IDENTIFICAÇÃO DE FALHAS EM UMA EMPENAGEM VERTICAL USANDO IMPEDÂNCIA ELETROMECÂNICA E SIMULAÇÃO DE MONTE CARLO COM REDES NEURAIS PROBABILÍSTICAS	CILAMCE 2016	MOURA JR, J. R. V.; STEFFEN Jr, V.		
trabalhoCompletoEmCongresso	2016		REDES NEURAIS COMPETITIVAS PARA IDENTIFICAÇÃO DE FALHAS EM CONEXÕES FLANGEADAS EM TUBOS	CONEM 2016	MOURA JR, J. R. V.; STEFFEN Jr, V.		
trabalhoCompletoEmCongresso	2016		Abordagens de Programação Inteira e Programação por Restrições para Problemas de Empacotamento Bidimensional	XLVIII Simpósio Brasileiro de Pesquisa Operacional	Nascimento, O. X. ; Queiroz, Thiago A.		
trabalhoCompletoEmCongresso	2016		Comparação de Métodos para a Estabilidade Vertical de Carga no Problema de Carregamento de um Único Contêiner	XLVIII Simpósio Brasileiro de Pesquisa Operacional	Oliveira, L. A. ; Lima, V. L. ; Queiroz, Thiago A.		
trabalhoCompletoEmCongresso	2016		Efeitos da Atualização da NBR 6118 nos Projetos de Pontes Ferroviárias - Estudo de Caso	13º Congresso de Pesquisa	PANTOJA, A. N. S. ; Da SILVA, W. A.		
trabalhoCompletoEmCongresso	2016	http://dx.doi.org/10.7436/2014.tica.0	Hipercubo Latino e Polinômio do Caos Aplicados ao Estudo de Incertezas em Sistemas Mecânicos	XXXVII Iberian Latin American Congress on Computational Methods in Engineering - CILAMCE 2016	QUEIROZ, L. R. S. ; BORGES, R. A.		
trabalhoCompletoEmCongresso	2016		Solver de Busca Local no Problema Integrado de Roteamento com restrições de Empacotamento	XLVIII Simpósio Brasileiro de Pesquisa Operacional	Queiroz, Thiago A.; TOLEDO, F. M. B.		
trabalhoCompletoEmCongresso	2016		MONITORAMENTO UTILIZANDO A TÉCNICA DE ONDAS DE LAMB PARA DETECÇÃO DE DANO EM ESTRUTURAS METÁLICAS	CILAMCE - IBERIAN LATIN AMERICAN CONGRESS ON COMPUTATIONAL METHODS IN ENGINEERING	SANTOS, J. G. F. ; BORGES, D. M. ; Neto, Roberto Mendes Finzi ; ROCHA, L. A. A.		
trabalhoCompletoEmCongresso	2016		Bayesian Triangular Bound Smoothing	3rd International Symposium on Uncertainty Quantification and Stochastic Modeling	SENDIN, I. S. ; de Queiroz, Thiago A. ; Batista, Marcos A.		
trabalhoCompletoEmCongresso	2016		Abordagem para o Problema de Roteamento de Veículos com Empacotamento Bidimensional	XLVIII Simpósio Brasileiro de Pesquisa Operacional	SILVA, L. C. ; Queiroz, Thiago A. ; TOLEDO, F. M. B.		
trabalhoCompletoEmCongresso	2016		Análise dos processos de previsão da demanda e planejamento da produção em uma empresa de cosméticos	ENEGEP	SILVA, P. N. ; LAGE JUNIOR, M.		
trabalhoCompletoEmCongresso	2016		The use of electromechanical impedance based structural health monitoring technique in concrete structures	EWSHM 2016 - European Workshop on Structural Health Monitoring	SILVA, R. N. F. ; TSURUTA, K. M. ; Finzi Neto, Roberto Mendes ; RABELO, D. S. ; Steffen Jr, V.		
trabalhoCompletoEmCongresso	2016		Estudo da Influência das Condições de Operação no Processo de Cristalização do Ácido Cítrico	XXI Jornada da Engenharia Química	SOUZA, T. A. A. ; RODRIGUES, T. T. ; CASTRO, C. C. ; LOBATO, F. S. ; MALAGONI, R. A.		
trabalhoCompletoEmCongresso	2016		EXPERIMENTAL EVALUATION OF SYNTHETIC INDUCTORS APPLIED IN PASSIVE SHUNT CIRCUITS TO VIBRATION MITIGATION	CILAMCE - IBERIAN LATIN AMERICAN CONGRESS ON COMPUTATIONAL METHODS IN ENGINEERING	VICENTE, B. G. G. L. Z. ; GONCALVES, A. M. ; FINZI NETO, R. M.		
trabalhoCompletoEmCongresso	2016		Programação da Produção de Uma Fábrica de Bicicleta do Tipo Flow shop Utilizando Torsche	VII Simpósio de Matemática e Matemática Industrial	VINHAL, N. M. ; FONSECA, G. S. ; MOURA JR, J. R. V.		
resumoExpandidoEmCongresso	2016	MODELAGEM BIM: UM ESTUDO DE CASO VOLTADO PARA A COMPATIBILIZAÇÃO	II Congresso de Ensino, Pesquisa, Extensão e Cultura (Conpeex), 2016, Catalão. Anais II CONPEEX - Congresso de Ensino, Pesquisa, Extensão e Cultura UFG/RC	MESQUITA, H. C. ; RODRIGUES, K. C. ; EDUARDO, R. C. ; PAULA, HEBER MARTINS DE		
resumoExpandidoEmCongresso	2016	PLANO DE IMPLANTAÇÃO DO PROGRAMA DE USO RACIONAL DA ÁGUA EM CAMPI UNIVERSITÁRIO	II Congresso de Ensino, Pesquisa, Extensão e Cultura (Conpeex), 2016, Catalão. Anais II CONPEEX - Congresso de Ensino, Pesquisa, Extensão e Cultura UFG/RC	RODRIGUES, K. C. ; PAULA, HEBER MARTINS DE ; CANDIDO JUNIOR, J. ; ALVES, C. F.		
resumoExpandidoEmCongresso	0	Componentes tecnológicos de suporte à produção integrada. 2010. (Parecer técnico)		LAGE JUNIOR, M		
resumoExpandidoEmCongresso	0	Sistemas de Informação Gerenciais. 2007. (Desenvolvimento de material didático ou instrucional - Apostila)		LAGE JUNIOR, M		
resumoExpandidoEmCongresso	0	Modelos Probabilísticos Aplicados à Engenharia de Produção. 2006. (Desenvolvimento de material didático ou instrucional - Apostila)		LAGE JUNIOR, M		
resumoExpandidoEmCongresso	0	Minicurso de Melhoria da Qualidade. 2002. (Curso de curta duração ministrado/Outra)		LAGE JUNIOR, M		
resumoExpandidoEmCongresso	0	sistema kanban de duplo cartão. 2008. (Desenvolvimento de material didático ou instrucional - Simulador)		LAGE JUNIOR, M.; Fernandes, F. C. F.		
