
PB0:2013,29;
PB1:2013,3;
PB2:2013,9;
PB3:*itens sem ano,6;2013,1;
PB4:2013,41;
PB5:2013,7;
PB6:2013,19;
PB8:2013,9;
PB9:2013,5;
PT3:*itens sem ano,1;
PT4:2013,31;
PT5:*itens sem ano,3;2013,11;
OA0:2016,1;
OA1:2012,6;2013,5;2014,2;2015,5;2017,7;
OA2:2010,7;2011,3;2012,3;2013,4;2014,7;2015,11;2016,7;2017,9;
OA4:2015,1;2016,2;
OA5:2012,2;2015,6;2016,7;2017,7;
OA6:2011,1;
OC1:2013,3;
OC2:2013,24;
OC4:2013,17;
OC5:2013,33;
Pm:2013,9;
Pj:2005,1;2006,1;2007,1;2008,3;2009,2;2010,7;2011,11;2012,15;2013,7;
PB:*itens sem ano,6;2013,123;
PT:*itens sem ano,4;2013,42;
OA:2010,7;2011,4;2012,11;2013,9;2014,9;2015,23;2016,17;2017,23;
OC:2013,77;
Ep:2013,37;
Eo:2013,14;