5227983926300273
1200653032112910
0978837964647017
4194801952934254
8441527555085287
9705290738539434
4301368869549226
1840754571733900
2113189862374010
5916894709084624
3509267467643714
4006454732312146
2265948982068382
1434474613398524
7874296760531038
0951636943505521
9201712893785499
2840176439889517
9284531339856547
0101519503534885
4976398229077166
1164037269879584
2517772822853681
8471831156360355
1608472474770322
0414774970277777
6047184744431931
8745793746115276
0010283517576726
3451628262694747
2913023404993272
5222086307573756
8338993621160610
7270471242826721
0505123426174183
9306576520691089
9177203949863116
2654380659760043
3434650488518586
1190759512397526
4783626109335498
3294086005240137
9441903297380731
7712719010541171
5916336585782787
7388769857515061
1321820478036793
1688381217398630
3723124745578916
9840759640842299
8648945122004492
4643608666899616
6952076109453197
2264706683205045
3352469933652327
5545006407615789
1010810293243435
3413978291577451
4686871533902169
6343659264621700
6287385590475445
6053230892678344
2285962565431305
6485164320743340
9751542941540424
8022297490892415
8712751771968962
9622764718055590
0504720587589323
0631189939749830
1908593372998032
6635354260645535
1527651015984510
7282418444276881
6420724387556852
9388430460339927
8150880476098677
5240243263075069
9500245604678806
2350698030246060
5403561946400548
3018328954113011
1053988654567645
8916994738849803
0133174080937000
3302156767030647
6500130391746465
3700081997386296
0403059064247619
3174379270045864
6593994541517752
1389380766624797
5623211288240921
2724178547483628
6401872461730331
4404234627216005
2731824199139290
3705757443730771
2192755725741120
0676191681641372
8552225968161165
6038516037330973
3163130946442004
8679800047341353
4866065665837329
1471432563506193
7834785256965010
8285211326914673
4734945113670253
3494357323297553
9331509602982993
4400719201352705
5117707453585439
8626122636195184
4073088744952858
3854323052723159
1946509801000450
2169175812677859
6935433850568144
3335208724599495
4200452462649871
3796153964703348
3921950644026513
7275059047419031
0535178144031059
3997386421385499
8867164774240536
1322700169194720
3180874008915040
9897358688381968
8696858608013659
2171799811274304
0734407424837166
8545196200418432
3001244376926346
8539012340416147
7133354632837814
3801784018673235
6513046926936437
0357112879415627
9141807751298002
0550548327276659
5708396834415975
4082971128842907
7065859575921588
0011303079806761
4472600247218841
8083779845939712
1291635539001357
0654596992211296
0739122619269168
9894183030003433
1861914973833506
5717731375008770
0507944343674734
3663620663983782
3713312751406061
6370505716194947
7478013493888839
4693848330845067
1913003589198061
8077335023133373
5331291020029788
8640936276577619
4922142296922435
4804847828228300
9644142018046333
7065615446493390
4144402789627033
1211385756332232
9022248252382153
9922863822347014
6738987664840341
1085321476253560
8251598254086751
4162291555771478
2832475204932610
6790488139967667
7513603588364977
6860373312896149
7543874409101212
7317677564128141
3696834738050110
2039900917750691
9437897363207909
5318850627700828
9100224664360887
0172416050340182
7870111209439581
2634785138594199
0561292053530672
8251676116103188
9039182932747194
6789888309139223
4195785577430355
9825582909788318
2240834435918735
0096913881679975
4879728324010856
6195995084311601
2659602494903108
9777595920880378
4045178362450304
4359793845820339
9226460532838417
5446518523049572
4111659600080696
1304704585952173
1608252203113404
8388394912278741
9264617752964635
4838660532031830
2692431039506529
9814218086040607
0982882273710764
2852334711449650
8399842157129152
1649941449641846
6659754657838630
7072802337523391
5348874855184718
9748313837287886
2048806937835814
1364246301366731
9045199822095908
8103398324764428
8674286957083494
6823074076570632
7021893874375037
9300685610267922
2442547278150847
9866882903898608
0665861578886219
4706492911378470
8570066116759027
8148486577673949
4579376264162079
9715397329004566
6357563570334700
8676273277777200
3015548969659837
1682210041460939
7939379291404418
9992644919025348
4436183480921146
3076090205280493
4234623363518888
9817024516414101
2179657609596194
4163876539828813
9732945233432684
7131920754003820
1958394372634693
7458287841862567
4336175279058172
5622102962091766
7167066091950542
1550003350972703
4255764240925948
5083589331314478
0852675456496193
4563659436339486
8442317526564427
5139331351519474
0502740957226537
4060677456920208
2785266709524751
5810427753185619
2632015725707872
5048063262801476
4733812873841340
1682623730626187
3987617199625955
1175679097609016
9273702863744424
3848282835080232
2067336430076971
2182041882695851
5232107638027224
4973949421738244
2678027061464724
9386730770147178
3914893884626597
8594179234801599
7834780583735756
4677312523064693
4062679435659084
3841500441111957
1312122642835266
6499108085922209
3618714528078710
9847748213116878
7220300431133096
9982152269641673
0848357090195263
0539216632539840
7914880245898395
0865067196010328
1402454875424545
8217702624720312
1839998870902467
9282285441975437
8172124241767828
1091280846383980
8666823357523918
3371420014445349
7108111951013688
7777714279933344
8245589012231536
4791723659389854
8120961379770859
4997192134413186
6258057792238040
7142137171173296
6956968845038843
5212138735274453
7907141457776285
3368023405805386
9076845865475039
2229860377382126
3575559872183767
7759392930119043
4896052217878979
0135002527744660
3188890226171961
4338284890563991
9708672480750928
5237525900832560
0063119667740811
6821605102332980
5039690360728170
0645079189654912
6728166498098286
1644823227092147
6260596558041357
7867516471353997
3856441329329915
0112548142014331
1596449770636962
3195210233978887
0616247020379340
8386440288477782
9446820568189181
0279747646054766
4668055299744148
5464365539060185
3435575950573155
0380237710168437
4365796651193407
0674714745081970
2834522198832797
3021413107688004
4791589931798048
0174582101174353
9726259675050047
6138444339310388
1524570766770247
0454472251687601
2541435662667555
0858832006050432
2738081120678027
9981634193003068
9203454048400403
5839917790809630
1413699954898626
5201254729952245
1023733288544345
3617605026983945
7195702087655314
2360903501198654
2712714707900090
4856245127929080
0241862487783754
6129950115822256
5598171613387590
2681016875171472
6398509825377181
3052863659236008
3964565409616547
5329289392481537
9205282923078496
5370547552572834
9421249777566834
9032038659251469
6776235915192672
5317975851024937
0112828204969930
3116371029194393
5123287769635741
0107976161469463
1106857072073407
0096441655292018
0341267060519130
9622051867672434
8997858562195060
7752837354645381
0865191332253109
6206019832371404
4694142315497364
9622415604083776
7418724825594141
0923886564574568
7979345517691427
3977660018939385
5950653046708846
1104942016215240
1446664587151293
2354662228633167
2945278651389111
0236607123089481
6198885129044687
2230382763584267
4395105298004501
9900506085209467
9826735026968227
8981152353948408
1341263338653176
2086346145569786
7981549688087903
7882646067575607
2155234554770420
5535667070825818
7850124172171880
1332820060598155
5649306221294524
7715481129701421
5820341638044556
2184228456568676
3638070053255922
3151622802431017
5716873296612917
0815331928533801
9907023735765775
9105538128176033
2266269802323856
9380954830581511
8435311517599740
3638688119433520
1116245566543036
0854561383433500
5954297373850456
2017155890118770
3531728015240766
1230223107318137
8711604400822320
5444815647308540
0152063930197631
6628732243987597
8584137507032098
8681593328762521
0466568768012496
7752246036974754
9665786860945272
5512756726602398
3057001219316165
1648521074023500
1448223845901360
7476929614934397
7765070433541516
4047672393817030
2370990773271434
7250980918375600
1255820168935649
1870725463184491
7766243015529175
4494705454207588
2827412205267585
1849220604531870
7455244175383697
2379169013108798
6677187050655324
8381704257278264
0767489032266703
5373631394883825
9224861533404236
4504081896548622
4949546028857946
8618151183586924
5974284131079604
6053177921710500
4384914116033913
3996884961845110
6288422242209474
4882090058522429
4061735434383830
9163304064337159
7660322959798513
8138220414943597
1840336983035010
8549722587948451
5339877279308939
3374654785228628
7398545523093593
2731174955453222
6880433324654152
5646106475123143
6401622195719726
1531713258988427
5632013759157251
2650131039059271
5912024067464378
1328868140869976
3523143928203782
3717081258633978
8359528934404774
3483306677663174
1595591838209296
2448913475359248
3097731619270085
0696136066497209
4675810813756485
7018038846935185
4555952412875598
0593135962205202
1477079225315997
9832648827661734
0950718064055473
3671312341626386
9529740580828139
1266066639045233
8404339310887345
8125760951105592
8799344239653549
7742543971562811
9152932863563017
1930184047990209
2885913546753507
3246339978224530
4865636850648467
1646956319628219
2279792280361552
5595538682060138
5701578011158777
8201805132981288
1661283751157601
0400232298849115
3543708028518033
0007362814849903
4208059581884620
4152924401482343
1769946525156705
2655635733254789
8302163109925177
6856262543421695
9227042944225871
0661105857185766
7766890976448108
7234195960084079
2664740864324145
7131855554096423
6146944142372232
9156355272138298
3780985514602431
2845950448235863
2152475967461496
0650631024838097
1605157349099021
0875527722518904
3119189681371475
7224504768054079
5067006506847859
3862009446096908
6696856383237372
5401369683892150
7596835543262001
5554254760869075
8983483334425440
2013554111036840
7628786577802962
9787209999258590
5225588855422632
8136975065816203
2581712979222454
5594705199631576
6465314260773099
5303306968929483
0480335739932578
1050141016179365
0575383574431005
8716784570988486
0848159379957711
9313245601695093
7728473046848024
2630084070236520
5441836938389980
2782183585992593
3894119234731870
1228313832666346
5682061083005668
0778787290718573
6134133834289438
9256145672271645
8466218975360076
3719447000531011
2073311645132958
8643734175886873
3767009717402045
5872327943756110
6057687578016864
8491359374260645
0064067932936928
9095050239290124
6700293516531228
8648556155554795
5291902511656460
3757225669056317
9937016452126074
0560633898748135
0573848472271228
0459697977922620
3884521300881755
5350911984549256
1971416902291105
1843587196655459
6241846354545180
9539013107055965
6567844719949395
3939752694285365
6448889980942931
0684819088538697
6187040703676041
2925678920762151
3007794913443606
9181808998099047
9927550684534021
8086526958304657
2459608481762903
9947781822423028
1014575950191035
5142426481528206
2701172317925881
7514918598084999
2490233702308461
6471662266291019
8216914793181349
3592593288261517
5790672400001485
6161888127051479
8185155301349092
4401157933838613
9297276538202965
4872965504009836
1593623121798803
5262545895128956
4295384125347429
7340081273816424
9186593293344088
5148738006361781
1337579164863601
6217509029802638
8436515676441851
7832536123089184
6670708295250784
8904855809524041
0005704101185578
9012680909223922
6816768370547499
8479783726884704
5437762063922600
2129481123004263
8609036872819243
4385210657350212
4195594302858278
8408207746528834
7908961016619339
4510520291728075
0417476686387784
7470307315839122
0194041429175144
7823015064082512
0709324690400457
7803074980259718
2843177061335707
0304271846229471
7047949496282944
0391036221142471
8723008774409494
5449051945190578
1411009912793887
6686104600091881
8264158628375283
4858250688671963
2934800737668564
4446229538895551
1172562420644699
2885508157298419
3683706649252319
9838903489637812
9356377831965143
8635476812779360
6917976245462312
0144266771664749
4542759243110371
1322892095929658
1628167666348222
3197500103141618
8375636935011568
0438695263897215
1910073004257997
3800022078311584
5134781619983724
3523881080691169
6187221670775160
4953705856223870
9546302784474665
5638060038239782
7181547335252993
3948670894502625
3280285948628782
3794198610723464
6775918052021463
8664419948446920
8273013273490355
2130649789772469
4419790523552484
3417734567782570
0793627832164040
6979417654874483
1335485763929476
3852581196429739
6157445958371106
2396817509327075
8260056540566311
5495364420117687
1251013053012882
9896034881034788
1873505066686878
4299160485531892
1890287932686423
6722436779210499
4850035146730325
4001747699670004
1079339034274017
2720072834057575
4634520021964406
3761418169454490
0271662670324136
3532895753681553
9226639547482971
2614507367419366
5301042982020325
7444447041356496
1506079358157267
2354075525144050
4055872056358293
5483476857978177
9198589807862587
5190694082493651
0379324550884468
5507769922001047
6177692858000498
1700545931391495
2681751274592304
7925449690046513
8934962824316146
4867794655466155
8920905542032636
0362417828475021
9239738819355709
7598265633241292
9522811596351113
8240622401751507
8073731810160654
5283661065432531
2377305216969381
7331062615542814
1524045883602172
9532346446558536
4017306470784388
3844331833780478
1559769287439214
9931295892888889
2912390244432645
8905139393539858
8139481480030201
8707473792725178
9311443298836689
6841182898087392
9865056179221557
2864513791602949
7702826120694758
7653379361147439
6217296674061205
3130688050323662
5953894048846311
8663408104778587
1874607068493252
2994979403174851
5700220176674203
4702999283260777
8979992405182832
9171192196186603
9527086189389353
1572121571522063
1728910227463853
8159008194280292
5056349454495432
6084795630657031
2849917345113775
3256284655278061
7243145638158319
5464440883524955
5378838510780982
8936783646635240
8588835254294672
5683040873530688
1130012055294645
5010022819750220
0304491358206504
8690926504635230
0960024575647258
9352779706217366
9495877621904850
8987845029899480
0557976975338451
3909705457793101
6611139763553149
6667274456249301
2729764138448036
8033238297321919
6627014131017403
0432029136914154
0739450084378369
7282202947621572
0140435114807288
1061566045001511
9784990955519635
2048046353476868
3090969413342098
7080513172499497
7313722167100200
5888897744222998
8692377832738540
5084762363023436
3808235682713305
6704427249140778
6778709983077103
7817033448036400
7016993759715861
8271389556331991
2255230672645762
3625362781546332
9674541381385819
4091433441104332
4261792535819079
6706660425367523
2681764714202916
7750214852899188
4219212576554236
2796582215218356
2826365778176260
2850396342597843
1685254578695836
8563794592947521
8194639307310723
2486456470233798
1820487447148268
2338080285741014
6971207097205108
5033748295813730
1783600392779268
4246951236029687
2547861136067097
8188653678882695
4169079833539476
4115926760183892
8739431159426389
3774617443225038
7609443602759381
5668739542769825
9147853693310634
6644721827442957
5322003519160429
3325984959083987
7657475097897726
5801024266432265
3146715847594279
1441332436624261
2215364890309488
0150482241546310
7478644810461246
1740093316970974
7176155601161528
9558310314854271
4347210161034226
7161963144100182
2916855460918534
3078055042318066
5373491670322208
4219153654306371
3853897074036715
9556738277476279
7930702285450990
5422287933944134
2691497637313274
1560120900017947
7484071887086439
2701382557962687
7041836941307184
0471595469074043
5801114574367868
3856229780889922
2021264878089025
9002330620493052
3675268297420959
2799879318334876
9703158484875027
7037629618209327
1334398456531126
7395734335001459
7413318739396387
0063745071964255
0535860239259102
3492330600130998
6937937220569796
1680024679466520
2288825500228941
1455747602225273
0350268496671346
4939605873916284
2549014594120288
6808653161309336
1583097083941240
9415670242620093
6238208958412798
0852938701434556
3068108086175133
5482331342897900
1338008237590056
9839813543918575
1521815731111261
2137870992261584
7502529550855080
3368137994024629
3177120438709107
7869822301579405
8878442330474257
1161682301970625
4637772374064396
3063840248448345
7895894828171856
7615862677866434
6587855225823004
7493638629090475
9297742252463260
6866697946585083
9857505876280820
4360364965516943
9362686215096702
8355899007771241
0333390666972274
0567775244933703
1024298618876644
9873289111461387
5549137498358876
7703965468401532
6505148908771591
8026732855379621
9090502635298372
0095921943345974
6337740924268263
0049390900009593
7037211748987307
8107712722590698
1619155267346329
8068157900374950
5002025309610920
1325667605623244
7604179450699702
5693860025538327
9947670889009026
9477592433780402
9317022084022112
3176139653120353
1017559134555391
8288303170419323
