strict graph grafo2 {
	graph [bb="0,0,1642.5,145",
		id=grafo2,
		overlap=False
	];
	node [fontsize=8,
		label="\N",
		shape=rectangle,
		style=filled
	];
	0	 [URL="http://lattes.cnpq.br/3569271948805982",
		color="#17272B",
		fontcolor="#FFFFFF",
		height=0.23611,
		label="Mirco Ragni [2]",
		pos="285.5,136.5",
		width=0.94444];
	2	 [URL="http://lattes.cnpq.br/3206145669430720",
		color="#17272B",
		fontcolor="#FFFFFF",
		height=0.23611,
		label="Paulo C. da Rocha Poppe [4]",
		pos="215.5,72.5",
		width=1.5139];
	0 -- 2	 [fontsize=8,
		label=1.0,
		lp="261,104.5",
		pos="276.92,127.9 263.48,116 237.63,93.102 224.15,81.165"];
	11	 [URL="http://lattes.cnpq.br/8821536792042504",
		color="#17272B",
		fontcolor="#FFFFFF",
		height=0.23611,
		label="Angelo Amâncio Duarte [2]",
		pos="349.5,72.5",
		width=1.4722];
	0 -- 11	 [fontsize=8,
		label=1.0,
		lp="327,104.5",
		pos="293.35,127.9 305.63,116 329.27,93.102 341.59,81.165"];
	9	 [URL="http://lattes.cnpq.br/7112745645895347",
		color="#17272B",
		fontcolor="#FFFFFF",
		height=0.23611,
		label="Eduardo Brescansin de Amôres [1]",
		pos="64.5,8.5",
		width=1.7917];
	2 -- 9	 [fontsize=8,
		label=1.0,
		lp="155,40.5",
		pos="196.98,63.898 168,51.998 112.24,29.102 83.167,17.165"];
	10	 [URL="http://lattes.cnpq.br/1644931272174401",
		color="#17272B",
		fontcolor="#FFFFFF",
		height=0.23611,
		label="Iranderly Fernandes de Fernandes [2]",
		pos="215.5,8.5",
		width=1.8889];
	2 -- 10	 [fontsize=8,
		label=2.0,
		lp="221,40.5",
		pos="215.5,63.898 215.5,51.998 215.5,29.102 215.5,17.165"];
	14	 [URL="http://lattes.cnpq.br/5222182427171497",
		color="#17272B",
		fontcolor="#FFFFFF",
		height=0.23611,
		label="Artur T. Lopo de Queiroz [1]",
		pos="356.5,8.5",
		width=1.5278];
	11 -- 14	 [fontsize=8,
		label=1.0,
		lp="359,40.5",
		pos="350.36,63.898 351.7,51.998 354.29,29.102 355.63,17.165"];
	1	 [URL="http://lattes.cnpq.br/8080697890419252",
		color="#17272B",
		fontcolor="#FFFFFF",
		height=0.23611,
		label="Germano Pinto Guedes [0]",
		pos="388.5,136.5",
		width=1.4167];
	3	 [URL="http://lattes.cnpq.br/5036651780388149",
		color="#17272B",
		fontcolor="#FFFFFF",
		height=0.23611,
		label="João B. da Rocha Junior [0]",
		pos="510.5,136.5",
		width=1.4722];
	4	 [URL="http://lattes.cnpq.br/6032273849847285",
		color="#17272B",
		fontcolor="#FFFFFF",
		height=0.23611,
		label="Michele Fúlvia Angelo [3]",
		pos="632.5,136.5",
		width=1.4167];
	12	 [URL="http://lattes.cnpq.br/0704248561279452",
		color="#17272B",
		fontcolor="#FFFFFF",
		height=0.23611,
		label="Angelo Conrado Loula [3]",
		pos="632.5,72.5",
		width=1.4167];
	4 -- 12	 [fontsize=8,
		label=3.0,
		lp="638,104.5",
		pos="632.5,127.9 632.5,116 632.5,93.102 632.5,81.165"];
	5	 [URL="http://lattes.cnpq.br/2772680929789725",
		color="#17272B",
		fontcolor="#FFFFFF",
		height=0.23611,
		label="Gracinete Bastos de Souza [0]",
		pos="758.5,136.5",
		width=1.5694];
	6	 [URL="http://lattes.cnpq.br/6148546666142551",
		color="#17272B",
		fontcolor="#FFFFFF",
		height=0.23611,
		label="Roberto Almeida Bittencourt [0]",
		pos="893.5,136.5",
		width=1.6806];
	7	 [URL="http://lattes.cnpq.br/2755740550497444",
		color="#17272B",
		fontcolor="#FFFFFF",
		height=0.23611,
		label="Joao Bosco Gertrudes [0]",
		pos="1021.5,136.5",
		width=1.3611];
	8	 [URL="http://lattes.cnpq.br/5306570350415091",
		color="#17272B",
		fontcolor="#FFFFFF",
		height=0.23611,
		label="Edgar S. Nunes Junior [0]",
		pos="1138.5,136.5",
		width=1.3889];
	13	 [URL="http://lattes.cnpq.br/3697401408315559",
		color="#17272B",
		fontcolor="#FFFFFF",
		height=0.23611,
		label="Carlos A. de Freitas Rodrigues [0]",
		pos="1270.5,136.5",
		width=1.7639];
	15	 [URL="http://lattes.cnpq.br/7696000869833399",
		color="#17272B",
		fontcolor="#FFFFFF",
		height=0.23611,
		label="Antônio D. Conceição de Jesus [0]",
		pos="1416.5,136.5",
		width=1.7778];
	16	 [URL="http://lattes.cnpq.br/3398684577876218",
		color="#17272B",
		fontcolor="#FFFFFF",
		height=0.23611,
		label="Daniel A. S. Gouveia Dias-da-Costa [0]",
		pos="1570.5,136.5",
		width=2];
}
