strict graph grafo1 {
	graph [bb="0,0,5003,179",
		id=grafo1,
		overlap=False
	];
	node [fontsize=8,
		label="\N",
		shape=rectangle,
		style=filled
	];
	0	 [URL="http://lattes.cnpq.br/8929629898766359",
		color="#17272B",
		fontcolor="#FFFFFF",
		height=0.23611,
		label="Luísa A. Gachet Barbosa [16]",
		pos="111,170.5",
		width=1.5556];
	3	 [URL="http://lattes.cnpq.br/7149846081415916",
		color="#17272B",
		fontcolor="#FFFFFF",
		height=0.23611,
		label="Lubienska C. L. Jaquiê Ribeiro [5]",
		pos="111,116.5",
		width=1.7778];
	0 -- 3	 [pos="111,161.83 111,152 111,135.05 111,125.2"];
	27	 [URL="http://lattes.cnpq.br/8266551989579822",
		color="#17272B",
		fontcolor="#FFFFFF",
		height=0.23611,
		label="Marta S. Guilherme Pires [1]",
		pos="55,62.5",
		width=1.5278];
	0 -- 27	 [pos="86.613,161.98 69.665,155.33 48.335,143.8 38,125.5 27.9,107.62 41.101,83.413 49.325,71.211"];
	52	 [URL="http://lattes.cnpq.br/3986122703645318",
		color="#17272B",
		fontcolor="#FFFFFF",
		height=0.23611,
		label="Rosa C. Cecche Lintz [17]",
		pos="138,8.5",
		width=1.4167];
	0 -- 52	 [pos="135.39,161.98 152.34,155.33 173.67,143.8 184,125.5 205.74,87.019 163.62,36.206 145.61,17.151"];
	3 -- 27	 [pos="102.74,107.83 92.149,97.996 73.901,81.051 63.297,71.204"];
	3 -- 52	 [pos="112.94,107.88 117.92,88.319 131.11,36.536 136.08,17.054"];
	27 -- 52	 [pos="67.247,53.827 83.03,43.939 110.3,26.856 125.97,17.035"];
	1	 [URL="http://lattes.cnpq.br/9412302739552855",
		color="#17272B",
		fontcolor="#FFFFFF",
		height=0.23611,
		label="Luís Fernando de Ávila [0]",
		pos="237,170.5",
		width=1.4444];
	2	 [URL="http://lattes.cnpq.br/7266558656801036",
		color="#17272B",
		fontcolor="#FFFFFF",
		height=0.23611,
		label="Luis A. Angelotti Meira [0]",
		pos="360,170.5",
		width=1.4583];
	4	 [URL="http://lattes.cnpq.br/0847386182199613",
		color="#17272B",
		fontcolor="#FFFFFF",
		height=0.23611,
		label="Leonardo L. Bravo Roger [1]",
		pos="486,170.5",
		width=1.5278];
	24	 [URL="http://lattes.cnpq.br/6970261362941505",
		color="#17272B",
		fontcolor="#FFFFFF",
		height=0.23611,
		label="Paulo S. Martins Pedro [5]",
		pos="774,116.5",
		width=1.4167];
	4 -- 24	 [pos="527.57,161.99 582.25,152.12 677.77,134.87 732.44,125"];
	38	 [URL="http://lattes.cnpq.br/0497424493730558",
		color="#17272B",
		fontcolor="#FFFFFF",
		height=0.23611,
		label="Marcos Sergio Goncalves [1]",
		pos="444,116.5",
		width=1.5278];
	4 -- 38	 [pos="479.8,161.83 471.86,152 458.18,135.05 450.22,125.2"];
	44	 [URL="http://lattes.cnpq.br/2324929401155175",
		color="#17272B",
		fontcolor="#FFFFFF",
		height=0.23611,
		label="Francisco José Arnold [1]",
		pos="524,62.5",
		width=1.375];
	4 -- 44	 [pos="490.4,161.93 495.26,153.34 503.03,138.78 508,125.5 515.09,106.55 520.19,83.209 522.54,71.297"];
	49	 [URL="http://lattes.cnpq.br/8764055579040640",
		color="#17272B",
		fontcolor="#FFFFFF",
		height=0.23611,
		label="Talía S. d. Santos Ximenes [1]",
		pos="444,8.5",
		width=1.5833];
	4 -- 49	 [pos="438.18,161.97 416.6,155.93 393.06,145.05 380,125.5 353.95,86.476 410.06,35.986 433.93,17.084"];
	48	 [URL="http://lattes.cnpq.br/7138726557754661",
		color="#17272B",
		fontcolor="#FFFFFF",
		height=0.23611,
		label="Varese Salvador Timoteo [1]",
		pos="734,62.5",
		width=1.5278];
	24 -- 48	 [pos="768.1,107.83 760.54,97.996 747.5,81.051 739.93,71.204"];
	38 -- 44	 [pos="455.8,107.83 471.02,97.939 497.3,80.856 512.41,71.035"];
	38 -- 49	 [pos="444,107.88 444,88.319 444,36.536 444,17.054"];
	44 -- 49	 [pos="512.2,53.827 496.98,43.939 470.7,26.856 455.59,17.035"];
	5	 [URL="http://lattes.cnpq.br/5571022514393377",
		color="#17272B",
		fontcolor="#FFFFFF",
		height=0.23611,
		label="Jose G. Pena de Andrade [0]",
		pos="999,170.5",
		width=1.5];
	6	 [URL="http://lattes.cnpq.br/5495322642019035",
		color="#17272B",
		fontcolor="#FFFFFF",
		height=0.23611,
		label="Vitor Rafael Coluci [0]",
		pos="1117,170.5",
		width=1.2639];
	7	 [URL="http://lattes.cnpq.br/9237052618243015",
		color="#17272B",
		fontcolor="#FFFFFF",
		height=0.23611,
		label="Carolina S. Franco Picone [0]",
		pos="1237,170.5",
		width=1.5556];
	8	 [URL="http://lattes.cnpq.br/6694143241761752",
		color="#17272B",
		fontcolor="#FFFFFF",
		height=0.23611,
		label="Carmenlucia S. Giordano Penteado [0]",
		pos="1382,170.5",
		width=1.9583];
	9	 [URL="http://lattes.cnpq.br/6938680728798425",
		color="#17272B",
		fontcolor="#FFFFFF",
		height=0.23611,
		label="Antonio Carlos Zambon [0]",
		pos="1524,170.5",
		width=1.4722];
	10	 [URL="http://lattes.cnpq.br/9343261628675642",
		color="#17272B",
		fontcolor="#FFFFFF",
		height=0.23611,
		label="André L. Sampaio Gradvohl [0]",
		pos="1655,170.5",
		width=1.6528];
	11	 [URL="http://lattes.cnpq.br/8382118396658129",
		color="#17272B",
		fontcolor="#FFFFFF",
		height=0.23611,
		label="Andre Franceschi de Angelis [3]",
		pos="695,170.5",
		width=1.6806];
	11 -- 24	 [pos="706.66,161.83 721.68,151.94 747.63,134.86 762.55,125.04"];
	11 -- 48	 [pos="697.03,161.76 700.2,149.91 706.74,126.66 714,107.5 718.93,94.474 725.88,79.84 730.15,71.161"];
	37	 [URL="http://lattes.cnpq.br/0517805915866063",
		color="#17272B",
		fontcolor="#FFFFFF",
		height=0.23611,
		label="Elaine C. Catapani Poletti [2]",
		pos="611,116.5",
		width=1.5417];
	11 -- 37	 [pos="682.61,161.83 666.63,151.94 639.04,134.86 623.17,125.04"];
	37 -- 44	 [pos="598.16,107.83 581.62,97.939 553.04,80.856 536.61,71.035"];
	12	 [URL="http://lattes.cnpq.br/7150028902000426",
		color="#17272B",
		fontcolor="#FFFFFF",
		height=0.23611,
		label="Edson Luiz Ursini [0]",
		pos="1776,170.5",
		width=1.1944];
	13	 [URL="http://lattes.cnpq.br/4898006494427762",
		color="#17272B",
		fontcolor="#FFFFFF",
		height=0.23611,
		label="Diego S. Teodoro Martinez [0]",
		pos="1895,170.5",
		width=1.6111];
	14	 [URL="http://lattes.cnpq.br/5567790309424113",
		color="#17272B",
		fontcolor="#FFFFFF",
		height=0.23611,
		label="Cristiano de Mello Gallep [0]",
		pos="2027,170.5",
		width=1.5417];
	15	 [URL="http://lattes.cnpq.br/3491836142954364",
		color="#17272B",
		fontcolor="#FFFFFF",
		height=0.23611,
		label="Cassiana C. Montagner Raimundo [2]",
		pos="1974,116.5",
		width=1.9167];
	43	 [URL="http://lattes.cnpq.br/9246879554920774",
		color="#17272B",
		fontcolor="#FFFFFF",
		height=0.23611,
		label="Gisela de Aragão Umbuzeiro [5]",
		pos="2159,62.5",
		width=1.6806];
	15 -- 43	 [pos="2000.9,107.94 2036,98.08 2097,80.934 2132.1,71.07"];
	16	 [URL="http://lattes.cnpq.br/6753230320037937",
		color="#17272B",
		fontcolor="#FFFFFF",
		height=0.23611,
		label="José Carlos Magossi [0]",
		pos="2282,170.5",
		width=1.3056];
	17	 [URL="http://lattes.cnpq.br/4372943322993518",
		color="#17272B",
		fontcolor="#FFFFFF",
		height=0.23611,
		label="Ivan L. Marques Ricarte [0]",
		pos="2400,170.5",
		width=1.4722];
	18	 [URL="http://lattes.cnpq.br/5243256763404267",
		color="#17272B",
		fontcolor="#FFFFFF",
		height=0.23611,
		label="Celmar Guimarães da Silva [2]",
		pos="2159,170.5",
		width=1.6111];
	18 -- 43	 [pos="2137.7,161.88 2112.8,151.66 2076.6,131.93 2090,107.5 2099.8,89.561 2120.4,77.882 2136.6,71.096"];
	29	 [URL="http://lattes.cnpq.br/8433486304141432",
		color="#17272B",
		fontcolor="#FFFFFF",
		height=0.23611,
		label="Marcos A. Francisco Borges [2]",
		pos="2159,116.5",
		width=1.6528];
	18 -- 29	 [pos="2159,161.83 2159,152 2159,135.05 2159,125.2"];
	31	 [URL="http://lattes.cnpq.br/9002330620493052",
		color="#17272B",
		fontcolor="#FFFFFF",
		height=0.23611,
		label="Luiz Camolesi Júnior [1]",
		pos="2285,116.5",
		width=1.3472];
	18 -- 31	 [pos="2177.3,161.94 2201.2,152.08 2242.8,134.93 2266.7,125.07"];
	29 -- 43	 [pos="2159,107.83 2159,97.996 2159,81.051 2159,71.204"];
	31 -- 43	 [pos="2266.7,107.94 2242.8,98.08 2201.2,80.934 2177.3,71.07"];
	19	 [URL="http://lattes.cnpq.br/2958819814013623",
		color="#17272B",
		fontcolor="#FFFFFF",
		height=0.23611,
		label="Cassiana M. Reganhan Coneglian [1]",
		pos="2420,116.5",
		width=1.8889];
	19 -- 43	 [pos="2382.3,107.99 2332.8,98.122 2246.2,80.874 2196.7,71.003"];
	20	 [URL="http://lattes.cnpq.br/1541934303361072",
		color="#17272B",
		fontcolor="#FFFFFF",
		height=0.23611,
		label="Ivan Camargo de Oliveira [0]",
		pos="2527,170.5",
		width=1.5417];
	21	 [URL="http://lattes.cnpq.br/8810347636088336",
		color="#17272B",
		fontcolor="#FFFFFF",
		height=0.23611,
		label="Renato Falcão Dantas [0]",
		pos="2650,170.5",
		width=1.3611];
	22	 [URL="http://lattes.cnpq.br/3618876400150348",
		color="#17272B",
		fontcolor="#FFFFFF",
		height=0.23611,
		label="Regina L. de Oliveira Moraes [3]",
		pos="865,170.5",
		width=1.7083];
	22 -- 24	 [pos="851.57,161.83 834.27,151.94 804.37,134.86 787.19,125.04"];
	42	 [URL="http://lattes.cnpq.br/0016546400683999",
		color="#17272B",
		fontcolor="#FFFFFF",
		height=0.23611,
		label="Gisele Busichia Baioco [1]",
		pos="895,116.5",
		width=1.4306];
	22 -- 42	 [pos="869.43,161.83 875.1,152 884.87,135.05 890.56,125.2"];
	23	 [URL="http://lattes.cnpq.br/4793528013383985",
		color="#17272B",
		fontcolor="#FFFFFF",
		height=0.23611,
		label="Peterson Bueno de Moraes [0]",
		pos="2774,170.5",
		width=1.5833];
	25	 [URL="http://lattes.cnpq.br/3069249114434330",
		color="#17272B",
		fontcolor="#FFFFFF",
		height=0.23611,
		label="Patricia Prediger [0]",
		pos="2890,170.5",
		width=1.125];
	26	 [URL="http://lattes.cnpq.br/5082574173461443",
		color="#17272B",
		fontcolor="#FFFFFF",
		height=0.23611,
		label="Maurea Nicoletti Flynn [0]",
		pos="3000,170.5",
		width=1.4306];
	28	 [URL="http://lattes.cnpq.br/2699192560269798",
		color="#17272B",
		fontcolor="#FFFFFF",
		height=0.23611,
		label="Maria A. Carvalho de Medeiros [0]",
		pos="3135,170.5",
		width=1.8056];
	30	 [URL="http://lattes.cnpq.br/6366443994619479",
		color="#17272B",
		fontcolor="#FFFFFF",
		height=0.23611,
		label="Marco A. Garcia de Carvalho [0]",
		pos="3280,170.5",
		width=1.7083];
	32	 [URL="http://lattes.cnpq.br/4346810447071054",
		color="#17272B",
		fontcolor="#FFFFFF",
		height=0.23611,
		label="Rangel Arthur [0]",
		pos="3397,170.5",
		width=1.0278];
	33	 [URL="http://lattes.cnpq.br/9070607576528017",
		color="#17272B",
		fontcolor="#FFFFFF",
		height=0.23611,
		label="Ana E. Antunes da Silva [0]",
		pos="3506,170.5",
		width=1.4861];
	34	 [URL="http://lattes.cnpq.br/6838511087413418",
		color="#17272B",
		fontcolor="#FFFFFF",
		height=0.23611,
		label="Jaime Portugheis [0]",
		pos="3619,170.5",
		width=1.1528];
	35	 [URL="http://lattes.cnpq.br/1913450752136533",
		color="#17272B",
		fontcolor="#FFFFFF",
		height=0.23611,
		label="Ieda Geriberto Hidalgo [0]",
		pos="3730,170.5",
		width=1.4167];
	36	 [URL="http://lattes.cnpq.br/7835935043066010",
		color="#17272B",
		fontcolor="#FFFFFF",
		height=0.23611,
		label="Eloisa Dezen Kempter [0]",
		pos="3849,170.5",
		width=1.3889];
	39	 [URL="http://lattes.cnpq.br/7079057342886624",
		color="#17272B",
		fontcolor="#FFFFFF",
		height=0.23611,
		label="Guilherme Ribeiro Lotufo [0]",
		pos="3973,170.5",
		width=1.5556];
	40	 [URL="http://lattes.cnpq.br/0597865875425201",
		color="#17272B",
		fontcolor="#FFFFFF",
		height=0.23611,
		label="Guilherme Palermo Coelho [0]",
		pos="4105,170.5",
		width=1.6111];
	41	 [URL="http://lattes.cnpq.br/7466715243528129",
		color="#17272B",
		fontcolor="#FFFFFF",
		height=0.23611,
		label="Gisleiva C. d. Santos Ferreira [0]",
		pos="4242,170.5",
		width=1.6944];
	45	 [URL="http://lattes.cnpq.br/2493281934291188",
		color="#17272B",
		fontcolor="#FFFFFF",
		height=0.23611,
		label="Enelton Fagnani [0]",
		pos="4361,170.5",
		width=1.1111];
	46	 [URL="http://lattes.cnpq.br/0957577806208187",
		color="#17272B",
		fontcolor="#FFFFFF",
		height=0.23611,
		label="Nelma de M. Silva Oliveira [0]",
		pos="4477,170.5",
		width=1.6111];
	47	 [URL="http://lattes.cnpq.br/9757080572695495",
		color="#17272B",
		fontcolor="#FFFFFF",
		height=0.23611,
		label="Wislei R. Ramos Osorio [0]",
		pos="4606,170.5",
		width=1.4722];
	50	 [URL="http://lattes.cnpq.br/5530984461673946",
		color="#17272B",
		fontcolor="#FFFFFF",
		height=0.23611,
		label="Simone Andréa Pozza [0]",
		pos="4727,170.5",
		width=1.375];
	51	 [URL="http://lattes.cnpq.br/9149503296606174",
		color="#17272B",
		fontcolor="#FFFFFF",
		height=0.23611,
		label="Sandro Tonso [0]",
		pos="4831,170.5",
		width=1];
	53	 [URL="http://lattes.cnpq.br/7525387214456841",
		color="#17272B",
		fontcolor="#FFFFFF",
		height=0.23611,
		label="Ronalton Evandro Machado [0]",
		pos="4944,170.5",
		width=1.6389];
}
