8929629898766359
9412302739552855
7266558656801036
7149846081415916
0847386182199613
5571022514393377
5495322642019035
9237052618243015
6694143241761752
6938680728798425
9343261628675642
8382118396658129
7150028902000426
4898006494427762
5567790309424113
3491836142954364
6753230320037937
4372943322993518
5243256763404267
2958819814013623
1541934303361072
8810347636088336
3618876400150348
4793528013383985
6970261362941505
3069249114434330
5082574173461443
8266551989579822
2699192560269798
8433486304141432
6366443994619479
9002330620493052
4346810447071054
9070607576528017
6838511087413418
1913450752136533
7835935043066010
0517805915866063
0497424493730558
7079057342886624
0597865875425201
7466715243528129
0016546400683999
9246879554920774
2324929401155175
2493281934291188
0957577806208187
9757080572695495
7138726557754661
8764055579040640
5530984461673946
9149503296606174
3986122703645318
7525387214456841
