strict digraph grafo3 {
	graph [bb="0,0,1783,337",
		id=grafo3,
		overlap=False
	];
	node [fontsize=8,
		label="\N",
		shape=rectangle,
		style=filled
	];
	0	 [URL="http://lattes.cnpq.br/2820404320026694",
		color="#17272B",
		fontcolor="#FFFFFF",
		height=0.23611,
		label="José R. Cápua Proveti [2]",
		pos="123.5,328.5",
		width=1.3611];
	9	 [URL="http://lattes.cnpq.br/8285018770645807",
		color="#17272B",
		fontcolor="#FFFFFF",
		height=0.23611,
		label="Eduardo Perini Muniz [1]",
		pos="53.5,264.5",
		width=1.375];
	0 -> 9	 [arrowhead=normal,
		arrowsize=0.75,
		fontsize=8,
		label=0.25,
		lp="79,296.5",
		penwidth=1.25,
		pos="e,55.761,273.26 101.02,320 91.035,315.79 79.708,309.71 71.5,301.5 65.622,295.62 61.32,287.43 58.398,280.35"];
	20	 [URL="http://lattes.cnpq.br/7140925853660088",
		color="#17272B",
		fontcolor="#FFFFFF",
		height=0.23611,
		label="Paulo S. da Silva Porto [3]",
		pos="121.5,200.5",
		width=1.4167];
	0 -> 20	 [arrowhead=normal,
		arrowsize=0.75,
		fontsize=8,
		label=0.75,
		lp="131,264.5",
		penwidth=2.75,
		pos="e,121.62,209.12 123.38,320 123.06,299.82 122.18,244.11 121.74,216.88"];
	9 -> 0	 [arrowhead=normal,
		arrowsize=0.75,
		fontsize=8,
		label=0.5,
		lp="103,296.5",
		penwidth=2.0,
		pos="e,116.07,319.81 63.832,273.2 70.452,278.24 79.149,285.06 86.5,291.5 94.821,298.79 103.72,307.42 110.7,314.4"];
	9 -> 20	 [arrowhead=normal,
		arrowsize=0.75,
		fontsize=8,
		label=0.5,
		lp="77,232.5",
		penwidth=2.0,
		pos="e,100.14,209.07 55.787,255.77 58.46,247.84 63.559,235.57 71.5,227.5 77.595,221.31 85.479,216.28 93.177,212.36"];
	20 -> 0	 [arrowhead=normal,
		arrowsize=0.75,
		fontsize=8,
		label=0.5,
		lp="150,264.5",
		penwidth=2.0,
		pos="e,128.6,319.61 126.91,209.37 130.12,214.37 134.03,221.08 136.5,227.5 141.07,239.38 141.16,242.84 142.5,255.5 144.67,275.95 144.27,\
282.08 137.5,301.5 136.14,305.39 134.26,309.41 132.31,313.08"];
	20 -> 9	 [arrowhead=normal,
		arrowsize=0.75,
		fontsize=8,
		label=0.17,
		lp="101,232.5",
		penwidth=1.01,
		pos="e,62.158,255.8 113.16,209.26 105.29,216.57 93.133,227.83 82.5,237.5 77.717,241.85 72.461,246.58 67.753,250.8"];
	1	 [URL="http://lattes.cnpq.br/3741207242086712",
		color="#17272B",
		fontcolor="#FFFFFF",
		height=0.23611,
		label="Marcelo Silveira Bacelos [6]",
		pos="121.5,136.5",
		width=1.5139];
	20 -> 1	 [arrowhead=normal,
		arrowsize=0.75,
		fontsize=8,
		label=0.33,
		lp="110,168.5",
		penwidth=1.49,
		pos="e,113.25,145.16 113.67,191.6 109.47,186.8 104.72,180.3 102.5,173.5 99.967,165.74 103.59,157.65 108.32,151.12"];
	1 -> 20	 [arrowhead=normal,
		arrowsize=0.75,
		fontsize=8,
		label=0.17,
		lp="129,168.5",
		penwidth=1.01,
		pos="e,121.5,191.9 121.5,145.16 121.5,154.86 121.5,171.8 121.5,184.19"];
	6	 [URL="http://lattes.cnpq.br/8699243861996813",
		color="#17272B",
		fontcolor="#FFFFFF",
		height=0.23611,
		label="Taisa Shimosakai de Lira [4]",
		pos="54.5,72.5",
		width=1.5139];
	1 -> 6	 [arrowhead=normal,
		arrowsize=0.75,
		fontsize=8,
		label=0.67,
		lp="73,104.5",
		penwidth=2.51,
		pos="e,55.048,81.267 93.748,127.89 83.639,123.89 72.89,117.99 65.5,109.5 60.503,103.76 57.776,95.795 56.288,88.815"];
	7	 [URL="http://lattes.cnpq.br/0319559373628489",
		color="#17272B",
		fontcolor="#FFFFFF",
		height=0.23611,
		label="Gisele de L. Diniz Chaves [5]",
		pos="183.5,72.5",
		width=1.5556];
	1 -> 7	 [arrowhead=normal,
		arrowsize=0.75,
		fontsize=8,
		label=0.17,
		lp="152,104.5",
		penwidth=1.01,
		pos="e,169.1,81.141 125.12,127.97 129.11,120.22 136.09,108.08 144.5,99.5 149.77,94.124 156.33,89.238 162.55,85.189"];
	6 -> 1	 [arrowhead=normal,
		arrowsize=0.75,
		fontsize=8,
		label=1.0,
		lp="98,104.5",
		penwidth=3.5,
		pos="e,113.28,127.9 62.783,81.165 73.97,91.517 94.062,110.11 107.59,122.63"];
	7 -> 1	 [arrowhead=normal,
		arrowsize=0.75,
		fontsize=8,
		label=0.2,
		lp="174,104.5",
		penwidth=1.1,
		pos="e,135.11,127.96 179.47,81.284 175.21,89.025 167.95,100.95 159.5,109.5 154.22,114.85 147.69,119.77 141.55,123.86"];
	2	 [URL="http://lattes.cnpq.br/5401369683892150",
		color="#17272B",
		fontcolor="#FFFFFF",
		height=0.23611,
		label="Glaydston Mattos Ribeiro [2]",
		pos="59.5,8.5",
		width=1.5417];
	7 -> 2	 [arrowhead=normal,
		arrowsize=0.75,
		fontsize=8,
		label=0.4,
		lp="105,40.5",
		penwidth=1.7,
		pos="e,66.123,17.175 147.36,63.979 131.98,59.868 114.23,53.868 99.5,45.5 89.091,39.589 79.082,30.577 71.679,23.049"];
	14	 [URL="http://lattes.cnpq.br/7737476090013576",
		color="#17272B",
		fontcolor="#FFFFFF",
		height=0.23611,
		label="Leonardo da Silva Arrieche [1]",
		pos="191.5,8.5",
		width=1.6111];
	7 -> 14	 [arrowhead=normal,
		arrowsize=0.75,
		fontsize=8,
		label=0.2,
		lp="173,40.5",
		penwidth=1.1,
		pos="e,181.65,17.008 176.3,63.861 170.41,56.631 163.61,45.437 167.5,35.5 169.38,30.694 172.61,26.243 176.1,22.431"];
	17	 [URL="http://lattes.cnpq.br/5222139886054755",
		color="#17272B",
		fontcolor="#FFFFFF",
		height=0.23611,
		label="Marielce de C. Ribeiro Tosta [1]",
		pos="328.5,8.5",
		width=1.6806];
	7 -> 17	 [arrowhead=normal,
		arrowsize=0.75,
		fontsize=8,
		label=0.2,
		lp="271,40.5",
		penwidth=1.1,
		pos="e,310.57,17.165 201.28,63.898 226.94,52.928 274.45,32.613 303.59,20.153"];
	2 -> 7	 [arrowhead=normal,
		arrowsize=0.75,
		fontsize=8,
		label=1.0,
		lp="135,40.5",
		penwidth=3.5,
		pos="e,168.3,63.898 74.829,17.165 96.559,28.03 136.44,47.972 161.38,60.44"];
	14 -> 7	 [arrowhead=normal,
		arrowsize=0.75,
		fontsize=8,
		label=1.0,
		lp="194,40.5",
		penwidth=3.5,
		pos="e,184.48,63.898 190.51,17.165 189.26,26.864 187.07,43.797 185.48,56.189"];
	17 -> 7	 [arrowhead=normal,
		arrowsize=0.75,
		fontsize=8,
		label=1.0,
		lp="302,40.5",
		penwidth=3.5,
		pos="e,225.33,63.961 320.31,17.211 311.24,25.355 295.86,38.028 280.5,45.5 265.68,52.709 248.58,58.139 232.9,62.121"];
	3	 [URL="http://lattes.cnpq.br/0111900440522917",
		color="#17272B",
		fontcolor="#FFFFFF",
		height=0.23611,
		label="Gilmene Bianco [0]",
		pos="230.5,328.5",
		width=1.1111];
	4	 [URL="http://lattes.cnpq.br/5616576281329159",
		color="#17272B",
		fontcolor="#FFFFFF",
		height=0.23611,
		label="Laura Marina Pinotti [0]",
		pos="336.5,328.5",
		width=1.3194];
	5	 [URL="http://lattes.cnpq.br/3410912882231783",
		color="#17272B",
		fontcolor="#FFFFFF",
		height=0.23611,
		label="Breno Nonato de Melo [0]",
		pos="452.5,328.5",
		width=1.4028];
	8	 [URL="http://lattes.cnpq.br/5476118728173549",
		color="#17272B",
		fontcolor="#FFFFFF",
		height=0.23611,
		label="Fabio de A. Ressel Pereira [0]",
		pos="577.5,328.5",
		width=1.5694];
	10	 [URL="http://lattes.cnpq.br/6948945548186089",
		color="#17272B",
		fontcolor="#FFFFFF",
		height=0.23611,
		label="Carlos M. Nascimento Yoshioka [0]",
		pos="718.5,328.5",
		width=1.8472];
	11	 [URL="http://lattes.cnpq.br/3919161245148947",
		color="#17272B",
		fontcolor="#FFFFFF",
		height=0.23611,
		label="Wanderley Cardoso Celeste [0]",
		pos="861.5,328.5",
		width=1.625];
	12	 [URL="http://lattes.cnpq.br/1800610548349937",
		color="#17272B",
		fontcolor="#FFFFFF",
		height=0.23611,
		label="Ana Paula Meneguelo [0]",
		pos="987.5,328.5",
		width=1.375];
	13	 [URL="http://lattes.cnpq.br/6693921747312552",
		color="#17272B",
		fontcolor="#FFFFFF",
		height=0.23611,
		label="Roney Pignaton da Silva [0]",
		pos="1108.5,328.5",
		width=1.4861];
	15	 [URL="http://lattes.cnpq.br/6446351182254980",
		color="#17272B",
		fontcolor="#FFFFFF",
		height=0.23611,
		label="Maria de F. Pereira dos Santos [0]",
		pos="1243.5,328.5",
		width=1.75];
	16	 [URL="http://lattes.cnpq.br/3606604113019271",
		color="#17272B",
		fontcolor="#FFFFFF",
		height=0.23611,
		label="Ana B. Neves Brito [0]",
		pos="1370.5,328.5",
		width=1.2639];
	18	 [URL="http://lattes.cnpq.br/3981995002595753",
		color="#17272B",
		fontcolor="#FFFFFF",
		height=0.23611,
		label="Oldrich Joel Romero [0]",
		pos="1481.5,328.5",
		width=1.3194];
	19	 [URL="http://lattes.cnpq.br/1309035538142217",
		color="#17272B",
		fontcolor="#FFFFFF",
		height=0.23611,
		label="Maximilian Serguei Mesquita [0]",
		pos="1608.5,328.5",
		width=1.7083];
	21	 [URL="http://lattes.cnpq.br/0512510452476006",
		color="#17272B",
		fontcolor="#FFFFFF",
		height=0.23611,
		label="Rodrigo Dias Pereira [0]",
		pos="1735.5,328.5",
		width=1.3194];
}
