2820404320026694
3741207242086712
5401369683892150
0111900440522917
5616576281329159
3410912882231783
8699243861996813
0319559373628489
5476118728173549
8285018770645807
6948945548186089
3919161245148947
1800610548349937
6693921747312552
7737476090013576
6446351182254980
3606604113019271
5222139886054755
3981995002595753
1309035538142217
7140925853660088
0512510452476006
