ID_Lattes|MATRICULA|NOME|CH|mail|LP_1|PROGRAMA_1|CATEG_1|Periodo_Inicio_1|Periodo_Fim_1|Resp_prog|Resp_LP1
K4221199A5|99999|MARIANGELA KRAEMER LENZ ZIEDE|40|UNIARP@UNIARP.br|UNIARP|UNIARP|P|2013|2016|UNIARP|UNIARP
K4758384E6|99999|RICELLI ENDRIGO RUPPEL DA ROCHA|40|UNIARP@UNIARP.br|UNIARP|UNIARP|P|2013|2016||
K4727884J8|99999|NELSON COLOSSI|40|UNIARP@UNIARP.br|UNIARP|UNIARP|P|2013|2016||
K4778153P3|99999|MARIALVA LINDA MOOG PINTO|40|UNIARP@UNIARP.br|UNIARP|UNIARP|P|2013|2016||
K4780781P4|99999|LUIZ SALGADO KLAES|40|UNIARP@UNIARP.br|UNIARP|UNIARP|P|2013|2016||
K4737724E4|99999|LUDIMAR PEGORARO|40|UNIARP@UNIARP.br|UNIARP|UNIARP|P|2013|2016||
K4773413A1|99999|KLEBER PRADO FILHO|40|UNIARP@UNIARP.br|UNIARP|UNIARP|P|2013|2016||
K4713893H5|99999|JOEL HAROLDO BAADE|40|UNIARP@UNIARP.br|UNIARP|UNIARP|P|2013|2016||
K4784109D6|99999|IVAN DAGOBERTO FAORO|40|UNIARP@UNIARP.br|UNIARP|UNIARP|P|2013|2016||
K4727151T8|99999|EZEQUIEL THEODORO DA SILVA|40|UNIARP@UNIARP.br|UNIARP|UNIARP|P|2013|2016||
K4299425U3|99999|EVERALDO DA SILVA|40|UNIARP@UNIARP.br|UNIARP|UNIARP|P|2013|2016||
K4706983T9|99999|ADELCIO MACHADO DOS SANTOS|40|UNIARP@UNIARP.br|UNIARP|UNIARP|P|2013|2016||
