ID_Lattes|MATRICULA|NOME|CH|mail|LP_1|PROGRAMA_1|CATEG_1|Periodo_Inicio_1|Periodo_Fim_1|Resp_prog|Resp_LP1
K4770765J7|99999|VERA LUCIA DE AZEVEDO LIMA|40|FSCMPA@FSCMPA.br|FSCMPA|FSCMPA|P|2013|2016|FSCMPA|FSCMPA
K4799519H8|99999|ALEXANDRE ANTONIO MARQUES ROSA|40|FSCMPA@FSCMPA.br|FSCMPA|FSCMPA|P|2013|2016||
K4133929Z2|99999|SILVESTRE SAVINO NETO|40|FSCMPA@FSCMPA.br|FSCMPA|FSCMPA|P|2013|2016||
K4767068E6|99999|PAULO DE TARSO RIBEIRO DE OLIVEIRA|40|FSCMPA@FSCMPA.br|FSCMPA|FSCMPA|P|2013|2016||
K4164241U2|99999|DIRCE NASCIMENTO PINHEIRO|40|FSCMPA@FSCMPA.br|FSCMPA|FSCMPA|P|2013|2016||
K4728818D8|99999|JUAREZ ANTONIO SIMOES QUARESMA|40|FSCMPA@FSCMPA.br|FSCMPA|FSCMPA|P|2013|2016||
K4117051U6|99999|MARCIA MARIA BRAGANCA LOPES|40|FSCMPA@FSCMPA.br|FSCMPA|FSCMPA|P|2013|2016||
K4753720H1|99999|RENATO DA COSTA TEIXEIRA|40|FSCMPA@FSCMPA.br|FSCMPA|FSCMPA|P|2013|2016||
K4551016A5|99999|SALMA SARATY MALVEIRA|40|FSCMPA@FSCMPA.br|FSCMPA|FSCMPA|P|2013|2016||
K4164205A3|99999|BENEDITO PAULO BEZERRA|40|FSCMPA@FSCMPA.br|FSCMPA|FSCMPA|P|2013|2016||
K4783688H3|99999|PAULO ROBERTO ALVES DE AMORIM|40|FSCMPA@FSCMPA.br|FSCMPA|FSCMPA|P|2013|2016||
K4228018D7|99999|ROSIMAR NERIS MARTINS FEITOSA|40|FSCMPA@FSCMPA.br|FSCMPA|FSCMPA|P|2013|2016||
K4331392Y5|99999|WALTER WANDERLEY AMORAS|40|FSCMPA@FSCMPA.br|FSCMPA|FSCMPA|P|2013|2016||
K4775894U6|99999|INGRID MAGALI DE SOUZA PIMENTEL|40|FSCMPA@FSCMPA.br|FSCMPA|FSCMPA|P|2013|2016||
K4777731J6|99999|SILVIO EDER DIAS DA SILVA|40|FSCMPA@FSCMPA.br|FSCMPA|FSCMPA|P|2013|2016||
K4243727J7|99999|ESLEANE VILELA VASCONCELOS|40|FSCMPA@FSCMPA.br|FSCMPA|FSCMPA|P|2013|2016||
K4779883J2|99999|HELIANA HELENA DE MOURA NUNES|40|FSCMPA@FSCMPA.br|FSCMPA|FSCMPA|P|2013|2016||
K4221385J6|99999|MARIA ELIZABETE DE CASTRO RASSY|40|FSCMPA@FSCMPA.br|FSCMPA|FSCMPA|P|2013|2016||
K4700189Y3|99999|ELIETE DA CUNHA ARAUJO|40|FSCMPA@FSCMPA.br|FSCMPA|FSCMPA|P|2013|2016||
K4249028Z7|99999|ROSILENE FERREIRA GONCALVES SILVA|40|FSCMPA@FSCMPA.br|FSCMPA|FSCMPA|P|2013|2016||
K4264551H3|99999|AMIRA CONSUELO DE MELO FIGUEIRAS|40|FSCMPA@FSCMPA.br|FSCMPA|FSCMPA|P|2013|2016||
K4731482J7|99999|AURIMERY GOMES CHERMONT|40|FSCMPA@FSCMPA.br|FSCMPA|FSCMPA|P|2013|2016||
K4267476E1|99999|IRNA CARLA ROSARIO SOUZA CARNEIRO|40|FSCMPA@FSCMPA.br|FSCMPA|FSCMPA|P|2013|2016||
K4761622A3|99999|ELEONORA ARNAUD PEREIRA FERREIRA|40|FSCMPA@FSCMPA.br|FSCMPA|FSCMPA|P|2013|2016||
