
PB0:2013,7;2014,5;2015,5;2016,5;
PB4:2013,16;2014,8;2015,6;2016,13;
PB5:2013,7;2014,2;2015,1;2016,4;
PB6:2013,10;2014,12;2015,5;2016,7;
PB8:2016,1;
PT5:2013,4;2014,5;2015,6;2016,24;
OA1:2015,1;2016,1;2017,1;
OA2:2016,1;2017,2;
OA5:2016,1;
OC2:2013,2;2014,3;2015,1;2016,2;
OC3:2015,1;
OC4:2013,2;2014,1;2015,1;
OC5:2013,3;2014,2;2015,2;2016,1;
Pm:2013,1;2014,4;2015,1;2016,2;
Pj:2008,1;2009,2;2010,1;2014,1;2016,1;
PB:2013,40;2014,27;2015,17;2016,30;
PT:2013,4;2014,5;2015,6;2016,24;
OA:2015,1;2016,3;2017,3;
OC:2013,7;2014,6;2015,5;2016,3;
Ep:2013,3;2014,2;2015,1;2016,3;