artigoEmPeriodico	Renato José Sassi	2016	http://dx.doi.org/10.1109/tla.2016.7459644	Study on Daily Demand Forecasting Orders using Artificial Neural Network	Revista IEEE América Latina	Ferreira, R. P. ; Martiniano, A. ; Ferreira, Artur ; Ferreira, A. ; SASSI, R. J.	B2	
artigoEmPeriodico	Renato José Sassi	2016		Utilizando uma Rede Neural Artificial para Aproximação da Função de Evolução do Sistema de Lorentz	Revista Produção e Desenvolvimento	Martiniano, A. ; Ferreira, R. P. ; Ferreira, Artur ; Ferreira, A. ; SASSI, R. J.	B5	
artigoEmPeriodico	Renato José Sassi	2016		Dashboard Inteligente para Apoio à Tomada de Decisão em Empresa de Courier	Revista Gestão & Tecnologia	Ferreira, R. P. ; Martiniano, A. ; SASSI, R. J.	B4	
artigoEmPeriodico	Renato José Sassi	2016		Container Crane Controller with the use of a NeuroFuzzy Network	IFIP Advances in Information and Communication Technology	Ferreira, R. P. ; Martiniano, A. ; Ferreira, Artur ; Romero, M. ; SASSI, R. J.	B2	
artigoEmPeriodico	Renato José Sassi	2016		Reconhecimento Automático de Manuscritos de Endereçamento Postal com Redes Neurais Artificiais	Revista Innovare	Ferreira, R. P. ; Martiniano, A. ; Gaspar, M. A. ; SASSI, R. J.	B4	
artigoEmPeriodico	Renato José Sassi	2015	http://dx.doi.org/10.1590/s0103-65132014005000005	Aplicação de redes NeuroFuzzy ao processamento de peças automotivas por meio de injeção de polímeros	Produção (São Paulo. Impresso)	Affonso, C. ; SASSI, R. J.	C	
artigoEmPeriodico	Renato José Sassi	2015	http://dx.doi.org/10.1016/j.eswa.2015.07.075	Biological image classification using rough-fuzzy artificial neural network	Expert Systems with Applications	AFFONSO, CARLOS ; SASSI, RENATO JOSE ; BARREIROS, RICARDO MARQUES	A1	
artigoEmPeriodico	Renato José Sassi	2015		Applying Ant Colony Optimization and Kohonen Self-Organizing Map in Vehicle Routing ans Scheduling Problems	Pesquisa Naval (SDM)	Ferreira, R. P. ; SASSI, R. J. ; Silva, A. M. da	Qualis nao identificado	Pesquisa Naval (SDM)
artigoEmPeriodico	Renato José Sassi	2015		Análise da Relação entre Metodologias Tradicionais e Ágeis para o Processo de Desenvolvimento de Software: Vantagens e Desvantagens da Utilização de Tais Práticas	Revista Innovare	Oliveira, P. H. R. ; SASSI, R. J.	B4	
artigoEmPeriodico	Renato José Sassi	2015		ANÁLISE DA RELAÇÃO ENTRE METODOLOGIAS TRADICIONAIS E ÁGEIS PARA O PROCESSO DE DESENVOLVIMENTO DE SOFTWARE: VANTAGENS E DESVANTAGENS DA UTILIZAÇÃO DE TAIS PRÁTICAS	Revista Innovare	OLIVEIRA, P. H. R. ; SASSI, R. J.	B4	
artigoEmPeriodico	Renato José Sassi	2014	http://dx.doi.org/10.1504/IJBIR.2014.063068	An alternative to face worldwide financial crisis of 2008: best practices usage of a business intelligence architecture in a chemical industry	International Journal of Business Innovation and Research (Print)	Carvalho, T.V. ; SASSI, R. J.	B2	
artigoEmPeriodico	Renato José Sassi	2014		Using Sentiment Analysis to Aid Customer Satisfaction Assessment in a Brazilian Online Job Search Company	European Journal of Scientific Research	Miranda, M. D. ; SASSI, R. J.	B4	
artigoEmPeriodico	Renato José Sassi	2014		Classificação de Portfólio de Créditos Não-Performados utilizando Redes Neurais Artificiais Multilayer Perceptron	GEPROS. Gestão da Produção, Operações e Sistemas	Clesio, F. ; SASSI, R. J.	B3	
artigoEmPeriodico	Renato José Sassi	2014		Using Sentiment Analysis to Assess Customer Satisfaction in an Online Job Search Company	Lecture Notes in Business Information Processing	Miranda, M. D. ; SASSI, R. J.	B3	LECTURE NOTES IN BUSINESS INFORMATION PROCESSING
artigoEmPeriodico	Renato José Sassi	2014		Análise Comparativa entre Carteira de Investimento Formada pela Teoria dos Rough Sets e o Índice Ibovespa	FaSCi-Tech	Kaupa, P. H. ; SASSI, R. J.	B4	
artigoEmPeriodico	Renato José Sassi	2013	http://dx.doi.org/10.4028/www.scientific.net/AMR.601.216	Evaluation of Sensorial Qualities of Fruit Wines by Kohonen Neural Network	Advanced Materials Research (Online)	Santana,J.C.C. ; Dias, C.G. ; SASSI, R. J. ; Souza, R.R. ; Tambourgi, E.B.	B3	
artigoEmPeriodico	Renato José Sassi	2013	http://dx.doi.org/10.4028/www.scientific.net/AMR.601.247	Simulation and Optimization of a Biscuit Processing Production in an Industrial Scale by use of MLP and RBF Neuro Fuzzy Network	Advanced Materials Research (Online)	Menita, P.R. ; Affonso, C. ; Santana,J.C.C. ; SASSI, R. J. ; Vanalle, R. M.	B3	
artigoEmPeriodico	Renato José Sassi	2013		Application of bio-inspired metaheuristics to guillotined cutting processes optimize in an glass industry	Lecture Notes in Computer Science	Costa, F. M. ; Carvalho, T.V. ; SASSI, R. J.	B1	
artigoEmPeriodico	Renato José Sassi	2013		Inverse Halftoning by Means of Self-Organizing Maps	Advances in Intelligent Systems and Computing	Costa, F. M. ; ARAUJO, S. A. ; SASSI, R. J.	Qualis nao identificado	Advances in Intelligent Systems and Computing
artigoEmPeriodico	Renato José Sassi	2013	http://dx.doi.org/10.4028/www.scientific.net/AMR.634-638.3883	Business Intelligence as a Competitive Advantage on a Brazilian Chemical Industry in the Global Crisis of 2008, 2009 and 2010	Advanced Materials Research (Online)	CARVALHO, TIAGO VIEIRA DE ; SASSI, RENATO JOSE	B3	
artigoEmPeriodico	Renato José Sassi	2013		Improve of Business Intelligence Usage in Brazilian Chemical Industry in Global Crisis of 2008, 2009 and 2010	Communications in Computer and Information Science (Print)	Carvalho, T.V. ; SASSI, R. J.	B4	
artigoEmPeriodico	Renato José Sassi	2013	http://dx.doi.org/10.4028/www.scientific.net/AMR.860-863.2796	Improving Chemistry Supply Chain with Business Intelligence Architecture Updates	Advanced Materials Research (Online)	Carvalho, T.V. ; SASSI, R. J.	B3	
trabalhoCompletoEmCongresso	Renato José Sassi	2016	http://dx.doi.org/10.5151/marine-spolm2015-140481	UM ESTUDO SOBRE PREVISÃO DA DEMANDA DE ENCOMENDAS UTILIZANDO UMA REDE NEURAL ARTIFICIAL	XVIII Simpósio de Pesquisa Operacional Logística da Marinha	FERREIRA, ARTHUR ; FERREIRA, RICARDO PINTO ; SILVA, ANDRÉA MARTINIANO DA ; FERREIRA, ALEISTER ; SASSI, RENATO JOSÉ		
trabalhoCompletoEmCongresso	Renato José Sassi	2016		Reconhecimento de Manuscritos de Código de Endereçamento Postal com Redes Neurais Artificiais	XII Encontro Mineiro de Engenharia de Produção (EMEPRO)	Ferreira, R. P. ; Martiniano, A. ; Ferreira, Artur ; Silva, P. C. ; SASSI, R. J.		
trabalhoCompletoEmCongresso	Renato José Sassi	2016		Controlador de Ponte Rolante de Contêiner com a utilização de uma Rede NeuroFuzzy	XII Encontro Mineiro de Engenharia de Produção (EMEPRO)	Ferreira, R. P. ; Martiniano, A. ; Ferreira, Artur ; Pimentel, E, A. ; SASSI, R. J.		
trabalhoCompletoEmCongresso	Renato José Sassi	2016		Aplicação da Simulação de Monte Carlo para Construção de Gráficos de Controle no Processo de Carregamento de Etanol no Setor Sucroalcooleiro	XII Encontro Mineiro de Engenharia de Produção (EMEPRO)	Silva, P. C. ; Ferreira, R. U. ; Ferreira, R. P. ; SASSI, R. J.		
trabalhoCompletoEmCongresso	Renato José Sassi	2016		Estudo sobre o Modal Rodoviário: o Principal Meio de Transporte de Cargas no Brasil	XII Encontro Mineiro de Engenharia de Produção (EMEPRO)	Silva, L. C. G. da ; Pimentel, E, A. ; Ferreira, R. P. ; Martiniano, A. ; SASSI, R. J.		
trabalhoCompletoEmCongresso	Renato José Sassi	2016		Estudo sobre Reconhecimento de Padrões em Quadrados Mágicos utilizando Redes Neurais Artificiais	XII Encontro Mineiro de Engenharia de Produção (EMEPRO)	Ferreira, R. P. ; Martiniano, A. ; Ferreira, Artur ; Pimentel, E, A. ; SASSI, R. J.		
trabalhoCompletoEmCongresso	Renato José Sassi	2016	http://dx.doi.org/10.5748/9788599693124-13CONTECSI/PS-4026	UM ESTUDO USANDO DATA MINING COM O ALGORITMO DENSITY BASED SCAN ALGORITHM WITH NOISE (DBSCAN) NA CLUSTERIZAÇÃO DE PERFIS DE EMPREGADOS ABSENTEÍSTAS E PRESENTEÍSTAS	13th CONTECSI International Conference on Information Systems and Technology Management	FERREIRA, RICARDO PINTO ; MARTINIANO, ANDRÉA ; SASSI, RENATO JOSÉ		
trabalhoCompletoEmCongresso	Renato José Sassi	2016		A Study on Intelligent Dashboard to Support for Decision Making in Business Courier	13 º International Conference on Information Systems Technology Management (CONTECSI)	Ferreira, R. P. ; SASSI, R. J. ; Prado, K. R. M. ; Costa, I		
trabalhoCompletoEmCongresso	Renato José Sassi	2016		Container Crane Controller with the use of a NeuroFuzzy Network	International Conference Advances in Production Management Systems (APMS)	Ferreira, R. P. ; Martiniano, A. ; Ferreira, Artur ; Romero, M. ; SASSI, R. J.		
trabalhoCompletoEmCongresso	Renato José Sassi	2016		Gestão do Conhecimento e Técnicas da Inteligência Computacional: Padronização do Atendimento do Service Desk de Hospital Público	13º Congresso Brasileiro de Gestão do Conhecimento (KM Brasil)	Farias, E.B.P. ; Cardoso, M. V. ; SASSI, R. J.		
trabalhoCompletoEmCongresso	Renato José Sassi	2016		Aplicação de Sistema Especialista nas Escalas de Apoio ao Diagnóstico de Enfermagem durante a elaboração da Sistematização da Assistência de Enfermagem	I Seminário em Tecnologia da Informação Inteligente (SETII)	Farias, E.B.P. ; Cavichioli, A. ; Andrade, P.H.L ; SASSI, R. J.		
trabalhoCompletoEmCongresso	Renato José Sassi	2016		Modelagem Preditiva de Riscos de Acidentes do Trabalho uma Aplicação da Regressão de Poisson	I Seminário em Tecnologia da Informação Inteligente (SETII)	Napolitano, D. M. R. ; Ferreira, R. P. ; SASSI, R. J.		
trabalhoCompletoEmCongresso	Renato José Sassi	2016		Estudo sobre Reconhecimento de Manuscritos de Endereçamento Postal com Redes Neurais Artificiais	I Seminário em Tecnologia da Informação Inteligente (SETII)	Ferreira, R. P. ; Ferreira, Artur ; SASSI, R. J.		
trabalhoCompletoEmCongresso	Renato José Sassi	2015		Previsão da Demanda de Encomendas utilizando uma rede neural artificial do tipo Multilayer Perceptron	1º Encontro Interestadual de Engenharia de Produção (EINEPRO)	Ferreira, Artur ; Ferreira, R. P. ; Silva, A. M. da ; Ferreira, A. ; SASSI, R. J.		
trabalhoCompletoEmCongresso	Renato José Sassi	2015		Utilizando uma Rede Neural Artificial para Aproximação da Função de Evolução do Sistema de Lorentz	1º Encontro Interestadual de Engenharia de Produção (EINEPRO)	Ferreira, Artur ; Ferreira, R. P. ; Silva, A. M. da ; Ferreira, A. ; SASSI, R. J.		
trabalhoCompletoEmCongresso	Renato José Sassi	2015		Case Study in a Large Brazilian Company Over a Deployment Process of IT Management Based on ITIL Framework	12th International Conference on Information Systems and Technology Management (CONTECSI)	Cristovão, A. M. ; Costa, I. ; SASSI, R. J. ; Meira, A. ; Pinho, J. G. ; Crivelaro, M.		
trabalhoCompletoEmCongresso	Renato José Sassi	2015		Business Process Management e Teoria das Restrições Aplicadas nos Processos da Empresa de Call Center: Proposta de Melhoria na Mediação de Reclamações	XVIII SEMEAD - Seminários em Administração	Barros, A. R. ; SASSI, R. J.		
trabalhoCompletoEmCongresso	Renato José Sassi	2015		Framework Itil e Técnicas de Inteligência Computacional na Padronização do Atendimento do Service Desk de um Hospital Público	XXII Simpósio de Engenharia de Produção (SIMPEP)	Farias, E.B.P. ; SASSI, R. J.		
trabalhoCompletoEmCongresso	Renato José Sassi	2015		Aplicação da Engenharia de Requisitos no Gerenciamento de Risco na Atualização Tecnológica de Sistema Legado de Telecomunicação	XXII Simpósio de Engenharia de Produção (SIMPEP)	Oliveira, P. H. R. ; SASSI, R. J.		
trabalhoCompletoEmCongresso	Renato José Sassi	2014		Uma Análise dos Conceitos e Definições do Reuso de Componentes na Redução de Custos no Processo de Desenvolvimento de Software	X Encontro Mineiro de Engenharia de Produção (EMEPRO)	Oliveira, P. H. R. ; SASSI, R. J.		
trabalhoCompletoEmCongresso	Renato José Sassi	2014		Using Sentiment Analysis to Assess Customer Satisfaction in a Online Job Search Company	17th International Conference on Business Information Systems (BIS2014): 6th Workshop on Applications of Knowledge-Based Technologies in Business (AKTB 2014)	Miranda, M. D. ; SASSI, R. J.		
trabalhoCompletoEmCongresso	Renato José Sassi	2014		Análise dos Conceitos e Definições do Monitoramento do Processo de Negócio com BPM no Apoio à Tomada de Decisão	XXXIV Encontro Nacional de Engenharia de Produção (ENEGEP)	Barros, A. R. ; SASSI, R. J.		
trabalhoCompletoEmCongresso	Renato José Sassi	2014		Aplicação do Business Process Management na Identificação e Monitoramento de Processos Críticos: Estudo de Caso em uma Prestadora de Serviços Organizadora de Concursos Públicos	XXI Simpósio de Engenharia de Produção (SIMPEP)	Barros, A. R. ; SASSI, R. J.		
trabalhoCompletoEmCongresso	Renato José Sassi	2014		Uma Análise Comparativa entre o Processo de Desenvolvimento de Software Baseado no Modelo de Maturidade CMMI e na Norma ISO 9001:2008	XXI Simpósio de Engenharia de Produção (SIMPEP)	Oliveira, P. H. R. ; SASSI, R. J.		
trabalhoCompletoEmCongresso	Renato José Sassi	2014		Análise de Agrupamentos e Extração de Regras de Decisão em uma Base de Créditos do Tipo Non-Performing Loans: Aplicação do Mapa Auto-Organizável de Kohonen e da Teoria dos Rough Sets	XXI Simpósio de Engenharia de Produção (SIMPEP)	Clésio, F. ; SASSI, R. J.		
trabalhoCompletoEmCongresso	Renato José Sassi	2014		Atualização Tecnológica em um Sistema Legado de Conversão Contábil do Setor Financeiro	XXI Simpósio de Engenharia de Produção (SIMPEP)	Oliveira, P. H. R. ; SASSI, R. J.		
trabalhoCompletoEmCongresso	Renato José Sassi	2014		Aplicação de Técnicas de Inteligência Artificial no Auxílio ao Diagnóstico do Risco de Desenvolver Câncer Colorretal	III Simpósio Internacional de Gestão de Projetos (SINGEP)	Conceição, E. G. S ; Farias, E.B.P. ; SASSI, R. J.		
trabalhoCompletoEmCongresso	Renato José Sassi	2013		Aplicação de Redes Neurais Artificiais na Classificação de Créditos Não-Performados	IX Encontro Mineiro de Engenharia de Produção (EMEPRO)	Clesio, F. ; SASSI, R. J.		
trabalhoCompletoEmCongresso	Renato José Sassi	2013		Padronização no Atendimento do Service Desk de um Hospital Público com o uso de Sistemas Especialistas	IX Encontro Mineiro de Engenharia de Produção (EMEPRO)	Farias, E.B.P. ; SASSI, R. J.		
trabalhoCompletoEmCongresso	Renato José Sassi	2013		Standartization at Attendance the Service Desk in a Public Hospital using Artificial Intelligence Techniques	10º CONTECSI ? Congresso Internacional de Gestão da Tecnologia e Sistemas de Informação	Farias, E.B.P. ; SASSI, R. J.		
trabalhoCompletoEmCongresso	Renato José Sassi	2013		Rough Sets Theory: An Application in Selecting Stocks for Investiment at Stock Exchange from São Paulo	10º CONTECSI ? Congresso Internacional de Gestão da Tecnologia e Sistemas de Informação	Kaupa, P. H. ; SASSI, R. J.		
trabalhoCompletoEmCongresso	Renato José Sassi	2013		Using Rough Sets Theory to select stocks for investments at Stock Exchange from São Paulo	22nd International Conference on Production Research ? ICPR 22	Kaupa, P. H. ; SASSI, R. J.		
trabalhoCompletoEmCongresso	Renato José Sassi	2013		Aplicação de Redes Neurais Artificiais do tipo Multilayer Perceptron na Criação de Modelos para Classificação de um Portfólio do Tipo Non-Performing Loans	XXXIII Encontro Nacional de Engenharia de Produção (ENEGEP)	Souza, F. C. S. de ; SASSI, R. J.		
trabalhoCompletoEmCongresso	Renato José Sassi	2013		Uma Análise do Impacto nos Processos Operacionais de Tecnologia da Informação com Sua Adequação às Exigências da Lei Sarbannes-Oxley	XXXIII Encontro Nacional de Engenharia de Produção (ENEGEP)	Arrivabene, A. ; SASSI, R. J. ; Romero, M.		
trabalhoCompletoEmCongresso	Renato José Sassi	2013		Uma Análise das Influências dos Fatores de Contribuição dos Empreendimentos de Base Tecnológica da Região do Vale do Paraíba Paulista	XX Simpósio de Engenharia de Produção (SIMPEP)	Lopes, W.S. ; SASSI, R. J. ; Silva, A. F.		
trabalhoCompletoEmCongresso	Renato José Sassi	2013		Opinion Mininng Aplicado à Avaliação da Satisfação do Cliente em uma Empresa de Classificados Online de Empregos	XX Simpósio de Engenharia de Produção (SIMPEP)	Miranda, M. D. ; SASSI, R. J.		
trabalhoCompletoEmCongresso	Renato José Sassi	2013		Rough Sets: Técnica da Inteligência Computacional Aplicada no Mercado Financeiro	XX Simpósio de Engenharia de Produção (SIMPEP)	Kaupa, P. H. ; SASSI, R. J.		
trabalhoCompletoEmCongresso	Renato José Sassi	2013		Classificação de Portfólio de Créditos Não-performados utilizando Redes Neurais Artificiais Multilayer Perceptron	XX Simpósio de Engenharia de Produção (SIMPEP)	Souza, F. C. S. de ; SASSI, R. J.		
trabalhoCompletoEmCongresso	Renato José Sassi	2013		Utilização de Técnicas da Inteligência Artificial na Padronização do Atendimento no Service Desk de um Hospital Público	III Congresso Brasileiro de Engenharia de Produção (CONBREPRO)	Farias, E.B.P. ; SASSI, R. J. ; Miranda, M. D.		
trabalhoCompletoEmCongresso	Renato José Sassi	2013		Apoio à Tomada de Decisão do Enfermeiro no Uso da Sistematização da Assistência de Enfermagem: Sistema Especialista Aplicado nas Escalas de Apoio ao Diagnóstico	III Congresso Brasileiro de Engenharia de Produção (CONBREPRO)	Farias, E.B.P. ; SASSI, R. J. ; Soares, E. D.		
trabalhoCompletoEmCongresso	Renato José Sassi	2013		Satisfação do Cliente em uma Empresa de Classificados Online de Empregos: Sentiment Analysis como Ferramenta de Avaliação	III Encontro Brasileiro de Engenharia de Produção (CONBREPRO)	Miranda, M. D. ; Farias, E.B.P. ; SASSI, R. J.		
trabalhoCompletoEmCongresso	Renato José Sassi	2013		Uso de Sistema Especialista no Auxílio ao Diagnóstico por meio de Escalas de Apoio à Enfermagem	II Simpósio Internacional de Gestão de Projetos (SINGEP)	Farias, E.B.P. ; SASSI, R. J. ; Soares, E. D.		
trabalhoCompletoEmCongresso	Renato José Sassi	2013		Utilização de Técnicas da Inteligência Artificial na Padronização do Service Desk de um Hospital Público	II Simpósio Internacional de Gestão de Projetos (SINGEP)	Farias, E.B.P. ; SASSI, R. J.		
resumoExpandidoEmCongresso	Renato José Sassi	2016	Estudo de uma Rede Neural Pulsada na Visão Computacional	18º Simpósio de Iniciação Científica e Tecnológica da FATEC, 2016, São Paulo. Resumos do 18º Simpósio de Iniciação Científica e Tecnológica da FATEC	Ferreira, Artur ; Ferreira, A. ; Ferreira, R. P. ; Silva, A. M. da ; SASSI, R. J.		
resumoExpandidoEmCongresso	Renato José Sassi	2016	Estudo sobre Dosagem do Concreto com Redes Neurais Artificiais	18º Simpósio de Iniciação Científica e Tecnológica da FATEC, 2016, São Paulo. Resumos do 18º Simpósio de Iniciação Científica e Tecnológica da FATEC	Pimentel, E, A. ; Ferreira, Artur ; Ferreira, R. P. ; Silva, A. M. da ; SASSI, R. J.		
resumoExpandidoEmCongresso	Renato José Sassi	2016	Uso de Redes Neurais Artificiais na Dosagem do Concreto	24º Simpósio Internacional de Iniciação Científica e Tecnológica da USP (SIICUSP), 2016, São Paulo. Anais do 24º SIICUSP	Ferreira, Artur ; Pimentel, E, A. ; Ferreira, R. P. ; SASSI, R. J.		
resumoExpandidoEmCongresso	Renato José Sassi	2016	Usando Redes Neurais Artificiais na Classificação de Websites com Características de Phishing	I Seminário em Tecnologia da Informação Inteligente (SETII), 2016, São Paulo. Anais do I SETII	Ferreira, R. P. ; Ferreira, Artur ; Martiniano, A. ; SASSI, R. J.		
resumoExpandidoEmCongresso	Renato José Sassi	2015	Um estudo sobre Programação de Veículos com o Mapa Auto-Organizável de Kohonen	17º Simposio de Iniciação Científica e Tecnológica da FATEC, 2015, São Paulo. Boletim Técnico do 17º Simposio de Iniciação Científica e Tecnológica da FATEC	Ferreira, A. ; Adelino, T. B. ; Ferreira, R. P. ; Silva, A. M. da ; SASSI, R. J.		
resumoExpandidoEmCongresso	Renato José Sassi	2014	Inteligência Artificial no Diagnóstico do Risco de Desenvolver Câncer Colorretal	16º Simpósio de Iniciação Científica e Tecnológica da Fatec (SICT-2014), 2014, São Paulo. Resumos do 16º Simpósio de Iniciação Científica e Tecnológica da Fatec (SICT-2014)	Conceição, E. G. S ; Farias, E.B.P. ; SASSI, R. J.		
resumoExpandidoEmCongresso	Renato José Sassi	2014	Classificação de Créditos Não-performados Utilizando Redes Neurais Artificiais	16º Simpósio de Iniciação Científica e Tecnológica da Fatec (SICT-2014), 2014, São Paulo. Resumos do 16º Simpósio de Iniciação Científica e Tecnológica da Fatec (SICT-2014)	Clésio, F. ; SASSI, R. J.		
resumoExpandidoEmCongresso	Renato José Sassi	2013	A Aplicação da Lógica Fuzzy para Auxiliar a Navegação Independente de Drones	15º SIMPÓSIO DE INICIAÇÃO CIENTÍFICA E TECNOLÓGICA da FATEC (SICT-2013), 2013, São Paulo. Boletim Técnico da Faculdade de Tecnologia de São Paulo	Ferreira, R. P. ; Ferreira, A. ; Ferreira, Artur ; SILVA, A. M. ; SASSI, R. J.		
resumoExpandidoEmCongresso	Renato José Sassi	2013	Descoberta de Conhecimento em Bases de dados utilizando rede SOM	15º SIMPÓSIO DE INICIAÇÃO CIENTÍFICA E TECNOLÓGICA da FATEC (SICT-2013), 2013, São Paulo. Boletim Técnico da Faculdade de Tecnologia de São Paulo	Santos, L. F. S. ; SILVA, A. M. ; Ferreira, R. P. ; SASSI, R. J.		
resumoExpandidoEmCongresso	Renato José Sassi	2013	Opinion Mining no Apoio à Avaliação da Satisfaçãodo Cliente	15º SIMPÓSIO DE INICIAÇÃO CIENTÍFICA E TECNOLÓGICA da FATEC (SICT-2013), 2013, São Paulo. Boletim Técnico da Faculdade de Tecnologia de São Paulo	Miranda, M. D. ; Fernandes, B. T. ; Farias, E.B.P. ; SASSI, R. J.		
resumoExpandidoEmCongresso	Renato José Sassi	2013	Previsão do Índice de Criminalidade Utilizando uma Rede Neural Artificial	15º SIMPÓSIO DE INICIAÇÃO CIENTÍFICA E TECNOLÓGICA da FATEC (SICT-2013), 2013, São Paulo. Boletim Técnico da Faculdade de Tecnologia de São Paulo	Santos, L. F. S. ; Ferreira, R. P. ; SILVA, A. M. ; SASSI, R. J.		
resumoExpandidoEmCongresso	Renato José Sassi	2013	Redes Neurais Artificiais para Reconhecimento de Manuscritos de Endereçamento Postal	15º SIMPÓSIO DE INICIAÇÃO CIENTÍFICA E TECNOLÓGICA da FATEC (SICT-2013), 2013, São Paulo. Boletim Técnico da Faculdade de Tecnologia de São Paulo	Ferreira, R. P. ; SILVA, A. M. ; Vieira,A.B. ; Ferreira, A. ; SASSI, R. J.		
resumoExpandidoEmCongresso	Renato José Sassi	2013	Sistema Especialista no Auxílio ao Diagnóstico por meio de Escalas de Apoio à Enfermagem	15º SIMPÓSIO DE INICIAÇÃO CIENTÍFICA E TECNOLÓGICA da FATEC (SICT-2013), 2013, São Paulo. Boletim Técnico da Faculdade de Tecnologia de São Paulo	Farias, E.B.P. ; Soares, E. D. ; Fernandes, B. T. ; SASSI, R. J.		
resumoExpandidoEmCongresso	Renato José Sassi	2013	A Importância dos Fatores de Contribuição na Visão dos Gestores das IBTS	15º SIMPÓSIO DE INICIAÇÃO CIENTÍFICA E TECNOLÓGICA da FATEC (SICT-2013), 2013, São Paulo. Boletim Técnico da Faculdade de Tecnologia de São Paulo	Costa Filho, J. R. ; Teixeira, R. S. ; Silva, A. F. ; Lopes, W.S. ; SASSI, R. J.		
