strict graph grafo2 {
	graph [bb="0,0,1052,465",
		id=grafo2,
		overlap=False
	];
	node [fontsize=8,
		label="\N",
		shape=rectangle,
		style=filled
	];
	0	 [URL="http://lattes.cnpq.br/0891028206544818",
		color="#17272B",
		fontcolor="#FFFFFF",
		height=0.23611,
		label="Adriano De Cezaro [0]",
		pos="45,456.5",
		width=1.25];
	1	 [URL="http://lattes.cnpq.br/2005674046432508",
		color="#17272B",
		fontcolor="#FFFFFF",
		height=0.23611,
		label="Bárbara D. do Amaral Rodriguez [2]",
		pos="594,392.5",
		width=1.8611];
	14	 [URL="http://lattes.cnpq.br/2535324018884724",
		color="#17272B",
		fontcolor="#FFFFFF",
		height=0.23611,
		label="Luiz A. Oliveira Rocha [199]",
		pos="461,328.5",
		width=1.5417];
	1 -- 14	 [fontsize=8,
		label=2.0,
		lp="540.5,360.5",
		pos="577.69,383.9 552.17,372 503.05,349.1 477.44,337.16"];
	15	 [URL="http://lattes.cnpq.br/3761060945802171",
		color="#17272B",
		fontcolor="#FFFFFF",
		height=0.23611,
		label="Liércio André Isoldi [252]",
		pos="376,264.5",
		width=1.4028];
	1 -- 15	 [fontsize=8,
		label=2.0,
		lp="552.5,328.5",
		pos="588.44,383.65 577.74,369.07 552.86,337.64 525,319.5 489.03,296.08 441.57,281.15 409.98,273.06"];
	16	 [URL="http://lattes.cnpq.br/1129100746134234",
		color="#17272B",
		fontcolor="#FFFFFF",
		height=0.23611,
		label="Leonardo Ramos Emmendorfer [9]",
		pos="674,200.5",
		width=1.7917];
	1 -- 16	 [fontsize=8,
		label=1.0,
		lp="677.5,296.5",
		pos="618.78,383.89 628.03,379.85 637.78,373.92 644,365.5 680.8,315.67 677.04,234.55 674.81,209.27"];
	18	 [URL="http://lattes.cnpq.br/6854950768271660",
		color="#17272B",
		fontcolor="#FFFFFF",
		height=0.23611,
		label="Elizaldo Domingues dos Santos [246]",
		pos="499,136.5",
		width=1.9167];
	1 -- 18	 [fontsize=8,
		label=2.0,
		lp="578.5,264.5",
		pos="593.1,383.71 590.55,362.72 582.59,303.3 569,255.5 560.65,226.13 556.79,219.23 544,191.5 538.09,178.68 537.81,174.53 529,163.5 523.41,\
156.5 515.76,149.91 509.58,145.11"];
	14 -- 15	 [fontsize=8,
		label=195.0,
		lp="431.5,296.5",
		pos="449.24,319.99 441.41,314.92 430.97,307.98 422,301.5 409.02,292.11 394.54,280.6 385.35,273.16"];
	14 -- 16	 [fontsize=8,
		label=5.0,
		lp="522.5,264.5",
		pos="465.11,319.56 473.13,304.84 492.26,273.18 517,255.5 551.59,230.78 598.44,216.62 631.94,209.06"];
	14 -- 18	 [fontsize=8,
		label=195.0,
		lp="461.5,232.5",
		pos="458.63,319.85 453.76,302.93 443.73,261.19 452,227.5 460.07,194.63 482.47,160.44 493.17,145.4"];
	17	 [URL="http://lattes.cnpq.br/5324300115339036",
		color="#17272B",
		fontcolor="#FFFFFF",
		height=0.23611,
		label="Jeferson Avila Souza [65]",
		pos="239,200.5",
		width=1.3889];
	14 -- 17	 [fontsize=8,
		label=40.0,
		lp="309.5,264.5",
		pos="420.83,319.98 387.01,312.27 338.47,297.9 302,273.5 275.5,255.77 253.31,224.13 243.87,209.42"];
	15 -- 16	 [fontsize=8,
		label=5.0,
		lp="503.5,232.5",
		pos="409.84,255.98 429.14,251.34 453.67,244.89 475,237.5 485.53,233.85 487.28,230.56 498,227.5 534.23,217.14 575.9,210.75 609.6,206.9"];
	15 -- 18	 [fontsize=8,
		label=236.0,
		lp="423.5,200.5",
		pos="379.06,255.89 386.79,237.57 408.8,190.51 441,163.5 450.72,155.34 463.41,149.27 474.45,145.05"];
	15 -- 17	 [fontsize=8,
		label=58.0,
		lp="332.5,232.5",
		pos="362.26,255.89 348.3,248.29 325.94,236.47 306,227.5 290.87,220.69 273.37,213.94 260.06,209.03"];
	16 -- 18	 [fontsize=8,
		label=6.0,
		lp="624.5,168.5",
		pos="659.45,192 643.82,184.15 618.11,171.83 595,163.5 574.53,156.12 550.96,149.71 532.29,145.1"];
	20	 [URL="http://lattes.cnpq.br/4740997358938163",
		color="#17272B",
		fontcolor="#FFFFFF",
		height=0.23611,
		label="Catia M. d. Santos Machado [10]",
		pos="912,8.5",
		width=1.7083];
	16 -- 20	 [fontsize=8,
		label=1.0,
		lp="803.5,104.5",
		pos="683.62,191.82 722.06,161.13 864.33,47.554 902.52,17.071"];
	19	 [URL="http://lattes.cnpq.br/4984043849101331",
		color="#17272B",
		fontcolor="#FFFFFF",
		height=0.23611,
		label="Diana Francisca Adamatti [7]",
		pos="664,72.5",
		width=1.5417];
	18 -- 19	 [fontsize=8,
		label=1.0,
		lp="596.5,104.5",
		pos="519.23,127.9 550.99,115.97 612.16,92.978 643.86,81.068"];
	17 -- 18	 [fontsize=8,
		label=58.0,
		lp="295.5,168.5",
		pos="246.55,191.98 255.57,183.5 271.52,170.05 288,163.5 313.08,153.54 378.37,146.47 429.74,142.24"];
	17 -- 19	 [fontsize=8,
		label=4.0,
		lp="335.5,136.5",
		pos="242.66,191.94 247.05,183.68 255.2,170.67 266,163.5 372.67,92.671 527.12,76.994 608.7,73.898"];
	19 -- 20	 [fontsize=8,
		label=2.0,
		lp="807.5,40.5",
		pos="694.41,63.898 742.14,51.966 834.09,28.978 881.73,17.068"];
	2	 [URL="http://lattes.cnpq.br/4677312523064693",
		color="#17272B",
		fontcolor="#FFFFFF",
		height=0.23611,
		label="Antonio G. Oliveira Goulart [0]",
		pos="291,456.5",
		width=1.6389];
	3	 [URL="http://lattes.cnpq.br/6965119196945931",
		color="#17272B",
		fontcolor="#FFFFFF",
		height=0.23611,
		label="Alessandro de Lima Bicho [0]",
		pos="425,456.5",
		width=1.5694];
	4	 [URL="http://lattes.cnpq.br/1660157566796755",
		color="#17272B",
		fontcolor="#FFFFFF",
		height=0.23611,
		label="Marcelo Moraes Galarça [7]",
		pos="733,392.5",
		width=1.4861];
	4 -- 14	 [fontsize=8,
		label=6.0,
		lp="618.5,360.5",
		pos="699.92,383.96 647.68,372.05 546.64,349.02 494.28,337.08"];
	4 -- 15	 [fontsize=8,
		label=6.0,
		lp="620.5,328.5",
		pos="717.71,383.93 680.36,365.69 581.13,318.81 494,291.5 469.38,283.78 441.18,277.48 418.52,273.01"];
	4 -- 18	 [fontsize=8,
		label=7.0,
		lp="772.5,264.5",
		pos="740.55,383.83 750.56,372.79 767,351.35 767,329.5 767,329.5 767,329.5 767,199.5 767,158.67 647.42,144.72 568.02,139.96"];
	5	 [URL="http://lattes.cnpq.br/8800859024101679",
		color="#17272B",
		fontcolor="#FFFFFF",
		height=0.23611,
		label="Silvia S. da Costa Botelho [3]",
		pos="856,264.5",
		width=1.5556];
	5 -- 16	 [fontsize=8,
		label=1.0,
		lp="780.5,232.5",
		pos="833.68,255.9 798.66,243.97 731.18,220.98 696.21,209.07"];
	5 -- 19	 [fontsize=8,
		label=1.0,
		lp="916.5,168.5",
		pos="874.05,255.81 900.11,243.57 943.32,218.29 926,191.5 880.51,121.11 781.89,92.291 719.47,80.793"];
	6	 [URL="http://lattes.cnpq.br/5895086145314795",
		color="#17272B",
		fontcolor="#FFFFFF",
		height=0.23611,
		label="Sebastião C. Pinheiro Gomes [1]",
		pos="856,200.5",
		width=1.6944];
	5 -- 6	 [fontsize=8,
		label=1.0,
		lp="861.5,232.5",
		pos="856,255.9 856,244 856,221.1 856,209.16"];
	7	 [URL="http://lattes.cnpq.br/5484986495253646",
		color="#17272B",
		fontcolor="#FFFFFF",
		height=0.23611,
		label="Paulo R. de Freitas Teixeira [5]",
		pos="302,392.5",
		width=1.625];
	7 -- 14	 [fontsize=8,
		label=4.0,
		lp="396.5,360.5",
		pos="321.5,383.9 352.01,372 410.73,349.1 441.34,337.16"];
	7 -- 15	 [fontsize=8,
		label=5.0,
		lp="349.5,328.5",
		pos="306.81,383.8 310.02,378.64 314.3,371.69 318,365.5 338.49,331.22 362.17,289.81 371.7,273.07"];
	7 -- 18	 [fontsize=8,
		label=5.0,
		lp="270.5,264.5",
		pos="297.7,383.95 294.93,378.86 291.41,371.92 289,365.5 271.4,318.66 239.88,298.78 265,255.5 304.62,187.22 398.02,157.29 454.1,145.09"];
	7 -- 17	 [fontsize=8,
		label=2.0,
		lp="228.5,296.5",
		pos="285.08,383.87 276.52,379.41 266.41,373.14 259,365.5 236.29,342.06 231.27,333.07 223,301.5 214.13,267.65 228.72,226 235.65,209.13"];
	8	 [URL="http://lattes.cnpq.br/1606080164385644",
		color="#17272B",
		fontcolor="#FFFFFF",
		height=0.23611,
		label="Nisia Krusche [0]",
		pos="536,456.5",
		width=1.0139];
	9	 [URL="http://lattes.cnpq.br/5467937882227675",
		color="#17272B",
		fontcolor="#FFFFFF",
		height=0.23611,
		label="Elisa H. Leão Fernandes [5]",
		pos="161,456.5",
		width=1.4722];
	11	 [URL="http://lattes.cnpq.br/7670196776586335",
		color="#17272B",
		fontcolor="#FFFFFF",
		height=0.23611,
		label="Wiliam Correa Marques [7]",
		pos="161,392.5",
		width=1.4722];
	9 -- 11	 [fontsize=8,
		label=5.0,
		lp="166.5,424.5",
		pos="161,447.9 161,436 161,413.1 161,401.16"];
	11 -- 14	 [fontsize=8,
		label=1.0,
		lp="333.5,360.5",
		pos="197.49,383.96 255.11,372.05 366.55,349.02 424.3,337.08"];
	11 -- 15	 [fontsize=8,
		label=1.0,
		lp="287.5,328.5",
		pos="173.81,384 211.95,361.64 324.58,295.64 362.99,273.12"];
	11 -- 18	 [fontsize=8,
		label=2.0,
		lp="122.5,264.5",
		pos="150.79,383.93 137.8,373.32 117,352.73 117,329.5 117,329.5 117,329.5 117,199.5 117,168.17 319.74,149.59 429.82,141.8"];
	11 -- 17	 [fontsize=8,
		label=1.0,
		lp="199.5,296.5",
		pos="163.21,383.73 170.19,359.73 192.97,284.99 222,227.5 225.21,221.15 229.63,214.43 233.16,209.42"];
	10	 [URL="http://lattes.cnpq.br/6388431281829634",
		color="#17272B",
		fontcolor="#FFFFFF",
		height=0.23611,
		label="Renato G. de Souza Rodrigues [0]",
		pos="654,456.5",
		width=1.75];
	12	 [URL="http://lattes.cnpq.br/9208597675311324",
		color="#17272B",
		fontcolor="#FFFFFF",
		height=0.23611,
		label="Viviane L. Dias de Mattos [7]",
		pos="996,72.5",
		width=1.5556];
	12 -- 20	 [fontsize=8,
		label=7.0,
		lp="964.5,40.5",
		pos="985.7,63.898 969.58,51.998 938.56,29.102 922.38,17.165"];
	13	 [URL="http://lattes.cnpq.br/1131858526704034",
		color="#17272B",
		fontcolor="#FFFFFF",
		height=0.23611,
		label="Mauro de Vasconcellos Real [51]",
		pos="447,392.5",
		width=1.7222];
	13 -- 14	 [fontsize=8,
		label=34.0,
		lp="461.5,360.5",
		pos="448.72,383.9 451.4,372 456.57,349.1 459.27,337.16"];
	13 -- 15	 [fontsize=8,
		label=50.0,
		lp="380.5,328.5",
		pos="413.19,384 402.99,380.11 392.73,374.27 386,365.5 364.53,337.55 370.72,291.45 374.28,273.24"];
	13 -- 18	 [fontsize=8,
		label=41.0,
		lp="557.5,264.5",
		pos="505.55,383.89 515.5,379.94 524.66,374.1 531,365.5 583.42,294.4 521.49,176.14 503.57,145.13"];
}
