
PB0:2016,47;
PB1:2016,6;
PB2:2016,12;
PB3:*itens sem ano,10;2016,2;
PB4:2016,13;
PB5:2016,2;
PB6:2016,30;
PB8:2016,17;
PB9:2016,2;
PT2:2016,2;
PT3:*itens sem ano,1;
PT4:2016,7;
PT5:*itens sem ano,37;2016,9;
OA0:2012,1;2014,1;2015,3;
OA1:2012,1;2013,3;2014,15;2015,17;2016,16;2017,8;
OA2:2011,2;2012,1;2014,3;2015,3;2016,17;2017,11;
OA4:2012,3;2017,1;
OA5:2010,1;2012,1;2013,3;2014,1;2015,7;2016,15;2017,5;
OA6:2015,3;2017,2;
OC0:2016,1;
OC1:2016,8;
OC2:2016,17;
OC4:2016,12;
OC5:2016,18;
OC6:2016,8;
Pm:2016,4;
Pj:1998,1;1999,2;2001,2;2002,1;2003,4;2004,7;2005,8;2006,2;2007,1;2008,1;2009,3;2010,8;2011,11;2012,11;2013,21;2014,14;2015,11;2016,6;
PB:*itens sem ano,10;2016,131;
PT:*itens sem ano,38;2016,18;
OA:2010,1;2011,2;2012,7;2013,6;2014,20;2015,33;2016,48;2017,27;
OC:2016,64;
Ep:2016,16;
Eo:2016,7;