artigoEmPeriodico	2016	http://dx.doi.org/10.1016/j.procbio.2016.07.010	Combined effects of high hydrostatic pressure and specific fungal cellulase improve coconut husk hydrolysis	Process Biochemistry (1991)	ALBUQUERQUE, ERICA DUTRA ; Torres, Fernando Araripe Gonçalves ; FERNANDES, A. ALBERTO RIBEIRO ; FERNANDES, PATRICIA M.B.	A2	
artigoEmPeriodico	2016	http://dx.doi.org/10.1186/s12906-016-1401-9	Essential oils: in vitro activity against Leishmania amazonensis, cytotoxicity and chemical composition	BMC Complementary and Alternative Medicine (Online)	ANDRADE, MILENE APARECIDA ; AZEVEDO, CLÊNIA DOS SANTOS ; MOTTA, FLÁVIA NADER ; SANTOS, MARIA LUCÍLIA DOS ; SILVA, CAMILA LASSE ; SANTANA, JAIME MARTINS DE ; BASTOS, IZABELA M. D.	A2	
artigoEmPeriodico	2016	http://dx.doi.org/10.1016/j.envres.2015.11.001	Sex-related mercury bioaccumulation in fish from the Madeira River, Amazon	Environmental Research (New York, N.Y. Print)	Bastos, Wanderley R. ; DÓREA, JOSÉ G. ; BERNARDI, JOSÉ VICENTE E. ; MANZATTO, ANGELO G. ; MUSSY, MARILIA H. ; LAUTHARTTE, LEIDIANE C. ; LACERDA, LUIZ D. ; Malm, Olaf	A1	
artigoEmPeriodico	2016	http://dx.doi.org/10.1163/22941932-20160144	NIRS IDENTIFICATION OF SWIETENIA MACROPHYLLA IS ROBUST ACROSS SPECIMENS FROM 27 COUNTRIES	IAWA Journal	BERGO, M. C. J. ; PASTORE, T.C.M. ; CORADIN, V.T.R. ; WIEDENHOEFT, A. C. ; BRAGA, J. W. B.	Qualis nao identificado	IAWA Journal
artigoEmPeriodico	2016	http://dx.doi.org/10.1128/genomeA.00731-16	Draft Genome Sequence of Strain CBS 269.37, an Agent of Human Chromoblastomycosis	Genome Announcements	BOMBASSARO, AMANDA ; DE HOOG, SYBREN ; WEISS, VINICIUS A. ; SOUZA, EMANUEL M. ; LEÃO, ANIELE C. R. ; COSTA, FLÁVIA F. ; BAURA, VALTER ; TADRA-SFEIR, MICHELE Z. ; BALSANELLI, EDUARDO ; MORENO, LEANDRO F. ; RAITTZ, ROBERTO T. ; STEFFENS, MARIA BERENICE R. ; PEDROSA, FABIO O. ; SUN, JIUFENG ; XI, LIYAN ; Bocca, Anamélia L. ; FELIPE, MARIA S. ; TEIXEIRA, MARCUS ; SANTOS, GERMANA D. ; TELLES FILHO, FLÁVIO Q. ; AZEVEDO, CONCEIÇÃO M. P. S. ; GOMES, RENATA R. ; VICENTE, VÂNIA A.	Qualis nao identificado	Genome Announcements
artigoEmPeriodico	2016	http://dx.doi.org/10.1002/jsfa.7210	Phosphatase activity and its relationship with physical and chemical parameters during vermicomposting of filter cake and cattle manure	JOURNAL OF THE SCIENCE OF FOOD AND AGRICULTURE	Busato, Jader Galba; PAPA, GABRIELLA ; CANELLAS, Luciano Pasqualoto ; Adani, Fabrizio ; DE OLIVEIRA, ALINE LIMA ; LEÃO, TAIRONE PAIVA	A2	
artigoEmPeriodico	2016	http://dx.doi.org/10.4336/2016.pfb.36.86.1024	Efeito do extrato húmico solúvel em água e biofertilizante sobre o desenvolvimento de mudas de Callophyllum brasiliense	Pesquisa Florestal Brasileira (Online)	Busato, Jader Galba; Zandonadi, Daniel Basílio ; Souza, I. M. ; MARINHO, EDUARDO BARROS ; DOBBSS, Leonardo Barros ; MÓL, ALAN R	B3	
artigoEmPeriodico	2016	http://dx.doi.org/10.1016/j.drudis.2016.01.017	Exogenous nucleosome-binding molecules: a potential new class of therapeutic drugs	Drug Discovery Today	CABRAL, WANESSA F. ; MACHADO, ANGELO H.L. ; SANTOS, GUILHERME M.	Qualis nao identificado	Drug Discovery Today
artigoEmPeriodico	2016	http://dx.doi.org/10.1016/j.microc.2015.09.022	Near infrared hyperspectral imaging and MCR-ALS applied for mapping chemical composition of the wood specie Swietenia Macrophylla King (Mahogany) at microscopic level	Microchemical Journal (Print)	COLARES, C. J. C. ; PASTORE, T.C.M. ; CORADIN, V.T.R. ; MOREIRA, A. C. O. ; ALEXANDRINO, G. L. ; MARQUES, L. F. ; Poppi, Ronei J. ; BRAGA, J. W. B.	A2	
artigoEmPeriodico	2016	http://dx.doi.org/10.1128/genomeA.00735-16	Draft Genome Sequence of Strain CBS 269.64, Causative Agent of Human Chromoblastomycosis	Genome Announcements	COSTA, FLÁVIA F. ; DE HOOG, SYBREN ; RAITTZ, ROBERTO T. ; WEISS, VINICIUS A. ; LEÃO, ANIELE C. R. ; BOMBASSARO, AMANDA ; SUN, JIUFENG ; MORENO, LEANDRO F. ; SOUZA, EMANUEL M. ; PEDROSA, FABIO O. ; STEFFENS, MARIA BERENICE R. ; BAURA, VALTER ; TADRA-SFEIR, MICHELE Z. ; BALSANELLI, EDUARDO ; NAJAFZADEH, M. JAVAD ; GOMES, RENATA R. ; FELIPE, MARIA S. ; TEIXEIRA, MARCUS ; SANTOS, GERMANA D. ; XI, LIYAN ; ALVES DE CASTRO, MAURO ANTÔNIO ; VICENTE, VÂNIA A.	Qualis nao identificado	Genome Announcements
artigoEmPeriodico	2016	http://dx.doi.org/10.1186/s12934-016-0557-9	Novel homologous lactate transporter improves l-lactic acid production from glycerol in recombinant strains of Pichia pastoris	Microbial Cell Factories	DE LIMA, POLLYNE BORBOREMA ALMEIDA ; MULDER, KELLY CRISTINA LEITE ; MELO, NADIELE TAMIRES MOREIRA ; CARVALHO, LUCAS SILVA ; MENINO, GISELE SOARES ; MULINARI, EDUARDO ; DE CASTRO, VIRGILIO H. ; DOS REIS, THAILA F. ; GOLDMAN, GUSTAVO HENRIQUE ; MAGALHÃES, BEATRIZ SIMAS ; Parachin, Nádia Skorupa	Qualis nao identificado	Microbial Cell Factories
artigoEmPeriodico	2016	http://dx.doi.org/10.1016/j.jpowsour.2016.05.004	A novel sputtered Pd mesh architecture as an advanced electrocatalyst for highly efficient hydrogen production	Journal of Power Sources (Print)	DE LUCAS-CONSUEGRA, ANTONIO ; DE LA OSA, ANA R. ; CALCERRADA, ANA B. ; LINARES, JOSÉ J. ; HORWAT, DAVID	A1	
artigoEmPeriodico	2016	http://dx.doi.org/10.1186/s12934-016-0517-4	Genetic basis for hyper production of hyaluronic acid in natural and engineered microorganisms	Microbial Cell Factories	DE OLIVEIRA, JULIANA DAVIES ; CARVALHO, LUCAS SILVA ; GOMES, ANTÔNIO MILTON VIEIRA ; QUEIROZ, LÚCIO REZENDE ; MAGALHÃES, BEATRIZ SIMAS ; Parachin, Nádia Skorupa	Qualis nao identificado	Microbial Cell Factories
artigoEmPeriodico	2016	http://dx.doi.org/10.1016/j.vibspec.2016.08.006	Surface-enhanced Raman spectroscopy of molecules adsorbed on silver nanoparticles dispersed an agarose gel and their adsorption isotherms	Vibrational Spectroscopy (Print)	DE OLIVEIRA, KAROLYNE V. ; Rubim, Joel C.	B1	
artigoEmPeriodico	2016	http://dx.doi.org/10.1016/j.ijbiomac.2016.08.056	Engineering increased thermostability in the GH-10 endo-1,4-β-xylanase from Thermoascus aurantiacus CBMAI 756	International Journal of Biological Macromolecules	DE SOUZA, ANGELICA R. ; DE ARAÚJO, GABRIELA C. ; ZANPHORLIN, LETÍCIA M. ; RULLER, ROBERTO ; FRANCO, FERNANDA C. ; TORRES, FERNANDO A.G. ; MERTENS, JEFFREY A. ; BOWMAN, MICHAEL J. ; GOMES, ELENI ; DA SILVA, ROBERTO	A2	
artigoEmPeriodico	2016	http://dx.doi.org/10.21873/anticanres.11002	Altered Expression of PRKX, WNT3 and WNT16 in Human Nodular Basal Cell Carcinoma	Anticancer Research	DO CARMO, NATALIA GURGEL ; SAKAMOTO, LUIS HENRIQUE TOSHIHIRO ; POGUE, ROBERT ; DO COUTO MASCARENHAS, CINTIA ; PASSOS, SIMONE KARST ; SOARES FELIPE, MARIA SUELI ; DE ANDRADE, ROSÂNGELA VIEIRA	B1	
artigoEmPeriodico	2016	http://dx.doi.org/10.1186/s13068-016-0611-1	Identification and characterization of putative xylose and cellobiose transporters in Aspergillus nidulans	Biotechnology for Biofuels	DOS REIS, THAILA FERNANDA ; DE LIMA, POLLYNE BORBOREMA ALMEIDA ; Parachin, Nádia Skorupa ; MINGOSSI, FABIANA BOMBONATO ; DE CASTRO OLIVEIRA, JULIANA VELASCO ; RIES, LAURE NICOLAS ANNICK ; GOLDMAN, GUSTAVO HENRIQUE	Qualis nao identificado	Biotechnology for Biofuels
artigoEmPeriodico	2016	http://dx.doi.org/10.5935/1984-6835.20160043	Identification of the Major Active Ingredients in Illegal Pesticide Seized by Brazilian Federal Police and Quantification of Metsulfuron-methyl and Tebuconazole	Revista Virtual de Química	FRAGA, W.G. ; COSTA, N.R. ; ALMEIDA, F.V. ; REBELO, R.M. ; MORAES, K. O.C. ; REZENDE, J.A. ; SANTANA, M. H.P. ; MALDANER, A.O.	B2	
artigoEmPeriodico	2016	http://dx.doi.org/10.1155/2016/6592143	A Novel Structurally Stable Multiepitope Protein for Detection of HCV	Hepatitis Research and Treatment	GALDINO, ALEXSANDRO S. ; SANTOS, JOSÉ C. ; SOUZA, MARILEN Q. ; NÓBREGA, YANNA K. M. ; XAVIER, MARY-ANN E. ; FELIPE, MARIA S. S. ; FREITAS, SONIA M. ; Torres, Fernando A. G.	Qualis nao identificado	Hepatitis Research and Treatment
artigoEmPeriodico	2016	http://dx.doi.org/10.1016/j.jelechem.2016.11.053	PtAg/MnOx/C as a promising electrocatalyst for glycerol electro-oxidation in alkaline medium	JOURNAL OF ELECTROANALYTICAL CHEMISTRY	GARCIA, AMANDA C. ; FERREIRA, EDUARDO B. ; SILVA DE BARROS, VANINE V. ; LINARES, JOSE J. ; TREMILIOSI-FILHO, GERMANO	A2	
artigoEmPeriodico	2016		Case Study: The Lignosllulosic componets interferences in the thermal Behavior of Brazilian Savana Biomass	Engenharia Térmica	GHESTI, G. F.; MIRANDA, M. R. S. ; GUIMARAES, M. G. ; VIANA, N. A. ; VALE, A. T. ; VERAS, C. A. G.	B2	
artigoEmPeriodico	2016		Portfólio de Produtos Técnicos do Serviço Brasileiro de Respostas Técnicas (SBRT) elaboradas pelo Centro de Apoio ao Desenvolvimento Tecnológico da Universidade de Brasília CDT/UnB.	ParticipAção	GHESTI, G. F.; VIANA, B. F. L. ; LIMA, L. A. ; MATOS, E. H. S. F. ; SUAREZ, P. A. Z.	Qualis nao identificado	ParticipAção
artigoEmPeriodico	2016	http://dx.doi.org/10.1016/j.jssc.2016.10.027	The Role of Polymer Films on the Oxidation of Magnetite Nanoparticles	JOURNAL OF SOLID STATE CHEMISTRY	LETTI, C.J. ; Paterno, L.G. ; PEREIRA-DA-SILVA, M.A. ; Morais, P.C. ; Soler, M.A.G.	Qualis nao identificado	JOURNAL OF SOLID STATE CHEMISTRY
artigoEmPeriodico	2016	http://dx.doi.org/10.1590/1678-4162-8750	Insertion of the LINE-1 element in the C-MYC gene and immunoreactivity of C-MYC, p53, p21 and p27 proteins in different morphological patterns of the canine TVT	Arquivo Brasileiro de Medicina Veterinária e Zootecnia (Online)	LIMA, C.R.O. ; FALEIRO, M.B.R. ; RABELO, R.E. ; VULCANI, V.A.S. ; RUBINI, M.R. ; TORRES, F.A.G. ; MOURA, V.M.B.D.	B1	
artigoEmPeriodico	2016	http://dx.doi.org/10.1038/ja.2016.77	Antibiotic combinations for controlling colistin-resistant Enterobacter cloacae	Journal of Antibiotics (Tokyo. 1968)	LIMA, THAIS BERGAMIN ; SILVA, OSMAR NASCIMENTO ; DE ALMEIDA, KEYLA CAROLINE ; RIBEIRO, SUZANA MEIRA ; MOTTA, DIELLE DE OLIVEIRA ; MARIA-NETO, SIMONE ; LARA, MICHELLE BRIZOLLA ; FILHO, CARLOS ROBERTO SOUZA ; OMBREDANE, ALICIA SIMALIE ; DE FARIA JUNIOR, CELIO ; Parachin, Nadia Skorupa ; MAGALHÃES, BEATRIZ SIMAS ; FRANCO, OCTÁVIO LUIZ	Qualis nao identificado	Journal of Antibiotics (Tokyo. 1968)
artigoEmPeriodico	2016	http://dx.doi.org/10.1016/j.scitotenv.2016.07.210	A preliminary nationwide survey of the presence of emerging contaminants in drinking and source waters in Brazil	Science of the Total Environment	MACHADO, KELLY C. ; GRASSI, MARCO TADEU ; VIDAL, CRISTIANE ; Pescara, Igor C. ; Jardim, Wilson F. ; FERNANDES, ANDREIA N. ; Sodré, Fernando F. ; ALMEIDA, FERNANDA V. ; SANTANA, JOYCE S. ; CANELA, MARIA CRISTINA ; NUNES, CAMILA R.O. ; BICHINHO, KÁTIA M. ; SEVERO, FLAVIANA J.R.	A1	
artigoEmPeriodico	2016	http://dx.doi.org/10.1007/s11356-016-7105-3	Influence of the current density on the electrochemical treatment of concentrated 1-butyl-3-methylimidazolium chloride solutions on diamond electrodes	Environmental Science and Pollution Research International	MARCIONILIO, SUZANA M. L. DE OLIVEIRA ; ALVES, GISELE M. ; E SILVA, RACHEL B. GÓES ; MARQUES, PABLO J. LIMA ; MAIA, POLIANA D. ; NETO, BRENNO A. D. ; LINARES, JOSÉ J.	A2	
artigoEmPeriodico	2016	http://dx.doi.org/10.1080/03014460.2016.1189962	Traditional living in the Amazon: Extended breastfeeding, fish consumption, mercury exposure, and neurodevelopment.	Annals of Human Biology	Marques, Rejane ; ABREU, L. ; BERNARDI, JOSÉ V.E. ; Dorea, J. G.	B1	
artigoEmPeriodico	2016	http://dx.doi.org/10.1016/j.envres.2015.12.022	Neurodevelopment of Amazonian children exposed to ethyl mercury (from Thimerosal in vaccines)and methyl mercury (from fish).	Environmental Research (New York, N.Y. Print)	MARQUES, REJANE C. ; ABREU, L. ; Bernardi, J.V.E. ; DÓREA, JOSÉ	A1	
artigoEmPeriodico	2016	http://dx.doi.org/10.1016/j.ijheh.2016.05.002	Impact of organic mercury exposure and home delivery on neurodevelopment of Amazonian children.	International Journal of Hygiene and Environmental Health (Print)	MARQUES, REJANE C. ; BERNARDI, JOSÉ V.E. ; CUNHA, MÔNICA P.L. ; DÓREA, JOSÉ G.	A2	
artigoEmPeriodico	2016	http://dx.doi.org/10.3390/ijms17030207	Xylose Fermentation by Saccharomyces cerevisiae: Challenges and Prospects	International Journal of Molecular Sciences (Online)	MOYSÉS, DANUZA ; REIS, VIVIANE ; ALMEIDA, JOÃO ; MORAES, LIDIA ; TORRES, FERNANDO	B1	
artigoEmPeriodico	2016	http://dx.doi.org/10.21577/0103-5053.20160293	Detection of Counterfeit Durateston® Using Fourier Transform Infrared Spectroscopy and Partial Least Squares - Discriminant Analysis	JOURNAL OF THE BRAZILIAN CHEMICAL SOCIETY	NEVES, DIANA ; TALHAVINI, MÁRCIO ; Braga, Jez Willian ; ZACCA, JORGE ; CALDAS, ELOISA	A2	
artigoEmPeriodico	2016	http://dx.doi.org/10.1590/0103-9016-2015-0377	Impact of feeding cottonseed coproducts on reproductive system of male sheep during peripubertal period	Scientia Agricola	PAIM, TIAGO DO PRADO ; VIANA, PAULINE ; BRANDÃO, EDUARDO ; AMADOR, SAMARA ; BARBOSA, TATIANA ; CARDOSO, CAIO ; LUCCI, CAROLINA MADEIRA ; SOUZA, JURANDIR RODRIGUES DE ; MCMANUS, CONCEPTA ; ABDALLA, ADIBE LUIZ ; LOUVANDINI, HELDER	Qualis nao identificado	Scientia Agricola
artigoEmPeriodico	2016	http://dx.doi.org/10.1021/acssynbio.5b00250	The Yeast Pathway Kit: a method for metabolic pathway assembly with automatically simulated executable documentation	ACS SYNTH BIOL	PEREIRA, FILIPA ; DE AZEVEDO, FLÁVIO ; Parachin, Nádia Skorupa ; HAHN-HAEGERDAL, B. ; GORWA-GRAUSLUND, MARIE FRANCOISE ; JOHANSSON, BJORN	Qualis nao identificado	ACS SYNTH BIOL
artigoEmPeriodico	2016	http://dx.doi.org/10.1016/j.carbon.2016.08.092	Tailoring biomass-based activated carbon for CH4 storage by combining chemical activation with H3PO4 or ZnCl2 and physical activation with CO2	Carbon (New York)	Prauchner, Marcos J.; SAPAG, K. ; RODRIGUEZ-REINOSO, F.	A1	
artigoEmPeriodico	2016	http://dx.doi.org/10.1016/j.ejpb.2016.03.028	Highly efficient photodynamic therapy colloidal system based on chloroaluminum phthalocyanine/pluronic micelles	European Journal of Pharmaceutics and Biopharmaceutics	PY-DANIEL, KAREN R. ; NAMBAN, JOY S. ; DE ANDRADE, LAISE R. ; DE SOUZA, PAULO E.N. ; Paterno, Leonardo G. ; AZEVEDO, RICARDO B. ; SOLER, MARIA A.G.	A1	
artigoEmPeriodico	2016	http://dx.doi.org/10.5935/0100-4042.20150161	SEASONAL CHEMICAL COMPOSITIONS OF THE ESSENTIAL OILS OF TWO SPECIES AND THEIR ACARICIDAL PROPERTIES	Química Nova (Impresso)	RIBEIRO, P. H. S. ; SANTOS, M. L. ou dos Santos, M.L. ; DA CAMARA, C.A.G	A2	
artigoEmPeriodico	2016	http://dx.doi.org/10.1016/j.cej.2016.05.110	Elaboration of magneto-thermally recyclable nanosorbents for remote removal of toluene in contaminated water using magnetic hyperthermia	CHEMICAL ENGINEERING JOURNAL	RODOVALHO, FERNANDA L. ; CAPISTRANO, GUSTAVO ; GOMES, JULIANO A. ; Sodré, Fernando F. ; CHAKER, JULIANO A. ; CAMPOS, ALEX F.C. ; BAKUZIS, ANDRIS F. ; SOUSA, MARCELO H.	A1	
artigoEmPeriodico	2016	http://dx.doi.org/10.21577/0103-5053.20160280	Direct Determination of N-Nitrosoglyphosate in Technical Glyphosate Using Ion Chromatography with UV Detection	Journal of the Brazilian Chemical Society (Impresso)	SANTANA, MÁRIO ; MALDANER, ADRIANO ; FRAGA, WILLIAM ; ALMEIDA, FERNANDA	A2	
artigoEmPeriodico	2016	http://dx.doi.org/10.3762/bjoc.12.87	Enantioselective carbenoid insertion into C(sp )-H bonds	Beilstein Journal of Organic Chemistry	SANTIAGO, J. V. ; Machado, A. H.	A1	Journal of Organic Chemistry
artigoEmPeriodico	2016	http://dx.doi.org/10.1016/j.molcata.2016.01.009	Metal-cellulose catalytic systems for biodiesel preparation and reductive stabilization	Journal of Molecular Catalysis. A, Chemical (Print)	SANTOS, M.R. ; RODRIGUES, M.V.R. ; SANTOS, A.B.S. ; VALERIO, M.G. ; MARTINS, G.B.C. ; SUCUPIRA, R.R. ; MENEGHETTI, L. ; Suarez, P.A.Z.	A2	
artigoEmPeriodico	2016	http://dx.doi.org/10.1002/jrs.4871	The electrochemical reduction of CO on a copper electrode in 1- -butyl-3-methyl imidazolium tetrafluoroborate (BMI.BF ) monitored by surface-enhanced Raman scattering (SERS)	Journal of Raman Spectroscopy	SANTOS, VIANNEY O. ; LEITE, ISABELA R. ; Brolo, Alexandre G. ; Rubim, Joel C.	A1	
artigoEmPeriodico	2016	http://dx.doi.org/10.5935/0100-4042.20160088	CLASSIFICATION OF MINERAL WATERS BASED ON DIGITAL IMAGES ACQUIRED BY SMARTPHONES	Química Nova (Impresso)	SILVA NETO, G. F. ; FONSECA, A. ; BRAGA, J. W. B.	A2	
artigoEmPeriodico	2016	http://dx.doi.org/10.1016/j.jbiotec.2016.07.021	Production of a polar fish antimicrobial peptide in Escherichia coli using an ELP-intein tag	Journal of Biotechnology	SOUSA, DANIEL A. ; MULDER, KELLY C.L. ; NOBRE, KETHLY S. ; Parachin, Nádia S. ; FRANCO, OCTÁVIO L.	A2	
artigoEmPeriodico	2016	http://dx.doi.org/10.1016/j.toxlet.2016.07.307	Polybrominated diphenyl ethers (PBDEs), emerging environmental pollutants, are detected on sediment samples of a water recharge point of Guarani Aquifer in Brazil	Toxicology Letters	SOUZA, A.O. ; FERRARI, R.S. ; ANNUNCIAÇÃO, D. ; SODRÉ, F.F. ; DORTA, D.J.	A1	
artigoEmPeriodico	2016	http://dx.doi.org/10.1371/journal.pntd.0004732	Worldwide Phylogenetic Distributions and Population Dynamics of the Genus Histoplasma	PLoS Neglected Tropical Diseases (Online)	TEIXEIRA, MARCUS DE M. ; PATANÉ, JOSÉ S. L. ; TAYLOR, MARIA L. ; GÓMEZ, BEATRIZ L. ; THEODORO, RAQUEL C. ; DE HOOG, SYBREN ; ENGELTHALER, DAVID M. ; ZANCOPÉ-OLIVEIRA, ROSELY M. ; FELIPE, MARIA S. S. ; BARKER, BRIDGET M.	A1	
artigoEmPeriodico	2016	http://dx.doi.org/10.1016/j.colsurfb.2016.09.002	Photochemically-assisted synthesis of non-toxic and biocompatible gold nanoparticles	COLLOIDS AND SURFACES B-BIOINTERFACES	TEIXEIRA, PRISCILA R. ; SANTOS, MAYARA S.C. ; SILVA, ANA LUÍSA G. ; Báo, Sônia N. ; AZEVEDO, RICARDO B. ; SALES, MARIA JOSÉ A. ; Paterno, Leonardo G.	A1	
trabalhoCompletoEmCongresso	2016		Estudo de diferentes catalisadores para produção de materiais adsorventes de óleo a partir do pergaminho do café	XXI Congresso Brasileiro de Engenharia Química	BRUM, S. S.; Suzuki, L. L. ; DOMINGOS, M. E. G. R. ; LUDUVICE, S. ; Bianchi, M. L.		
trabalhoCompletoEmCongresso	2016		Síntese de Materiais Adsorventes a partir de Biomassa via Carbonização Hidrotermal	XXI Congresso Brasileiro de Engenharia Química	DOMINGOS, M. E. G. R. ; BRUM, S. S. ; Suzuki, L. L. ; LUDOVICE, S. ; ANTERO, R. V. P.		
trabalhoCompletoEmCongresso	2016		Influência dos parâmetros reacionais para produção de ésteres etilícos de material graxo do caroço de pequi a partir de catálise heterogênea	XXV- Congresso Iberoamericano de Catalisis	GHESTI, G. F.; GUIMARAES, M. G. ; MACEDO, J. L.		
trabalhoCompletoEmCongresso	2016		Craqueamento Termocatalítico Caroço de pequi Óleo de Pequi catalisadores heterogêneos	XXI Congresso Brasileiro de Engenharia Química	GHESTI, G. F.; GUIMARAES, M. G. ; SOUZA, M. G. S. E.		
trabalhoCompletoEmCongresso	2016		Construção de novas linhagens de Saccharomyces cerevisiae capazes de utilizar xilose para a produção de bioetanol	III Encontro de Pesquisa e Inovação da Embrapa Agroenergia (EnPI)	HONORATO, V. M. ; PAES, B. G. ; Almeida, João R.M.		
trabalhoCompletoEmCongresso	2016		Seleção de bactérias para produção de ácidos orgânicos a partir de glicerina bruta de soja	6ª CONGRESSO DA REDE BRASILEIRA DE TECNOLOGIA DE BIODIESEL; 9ª CONGRESSO BRASILEIRO DE PLANTAS OLEAGINOSAS	LIMA, J. R. C. ; LIMA, K. S. ; Almeida, João R.M. ; PACHECO, T. F. ; GONCALVES, S. B. ; DAMASO, M. C. T. ; SALUM, T. F.		
trabalhoCompletoEmCongresso	2016		Desenvolvimento de um compósito adsorvente a partir da Argila residual da Indústria de Produção de Óleo Vegetal	XXI Congresso Brasileiro de Engenharia Química	LUDOVICE, S. ; Suzuki, L. L. ; DOMINGOS, M. E. G. R. ; LE PETIT, M. ; BRUM, S. S.		
trabalhoCompletoEmCongresso	2016		Synthesis of activated carbons intended for natural gas storage by chemical activation with H3PO4 or ZnCl2 followed by gasification with CO2	11 Encontro Brasileiro Sobre Adsorção	PRAUCHNER, M. J.; RODRIGUEZ-REINOSO, F.		
trabalhoCompletoEmCongresso	2016		Seleção de linhagens industriais de Saccharomyces cerevisiae para produção de ácidos orgânicos	III Encontro de Pesquisa e Inovação da Embrapa Agroenergia (EnPI)	SERRA, L. A. ; PACHECO, T. F. ; SILVA, F. C. P. E. ; Almeida, João R.M.		
trabalhoCompletoEmCongresso	2016		DEVIATION FROM THE IDEALITY OF VEGETABLE OILS UNDER DEACIDIFICATION PROCESS	XXI Congresso Brasileiro de Engenharia Química	Silva, Simone M.; Ceriani, Roberta		
trabalhoCompletoEmCongresso	2016		Genomic and mitochondrial assembly of xylose-fermenting yeasts from Debaryomycetaceae family	III Encontro de Pesquisa e Inovação da Embrapa Agroenergia (EnPI)	STEINDORFF, A. S. ; SOUZA, M. S. ; Almeida, João R.M. ; FORMIGHIERI, E. F.		
trabalhoCompletoEmCongresso	2016		Avaliação do Comportamento de Cura de óleo de Chia (Salvia hispanica L.)	XXI Congresso Brasileiro de Engenharia Química	VASCONCELOS, M. K. ; JENSEN, A. T. ; Silva, Simone M. ; UMPIERRE, A. P. ; SILVA, F. M.		
trabalhoCompletoEmCongresso	2016		Desenvolvimento e aplicação de um método RP-UPLC- PDA para a análise simultânea de dez ácidos orgânicos derivados da bioconversão de glicerina	III Encontro de Pesquisa e Inovação da Embrapa Agroenergia (EnPI)	VIEIRA, F. S. ; SOUTO, A. L. ; COSTA, P. P. K. G. ; JUSTEN, F. ; RAMOS, T. G. S. ; LIMA, K. S. ; Almeida, João R.M. ; DAMASO, M. C. T. ; RODRIGUES, C. M.		
resumoExpandidoEmCongresso	2016	Preparo e aplicação de hidrotalcitas para produção de ésteres metílicos	XI Encontro Norte, Nordeste e Centro Oeste de Catálise, 2016, Brasília. Encontro Norte, Nordeste e Centro Oeste de Catálise - SBCat	GHESTI, G. F.; GUIMARAES, M. G. ; Curado, I.C. ; SCHULTZ, E. L. ; SOARES, I. P.		
resumoExpandidoEmCongresso	2016	Implantação do trigo sarraceno para uma produção de cervejas saudáveis	CERVECON ? Congresso Latino Americano Brasileiro de Ciência e Mercado CervejeiroCERVECON ? Congresso Latino Americano Brasileiro de Ciência e Mercado Cervejeiro, 2016, Blumenau - SC. ongresso Latino Americano Brasileiro de Ciência e Mercado Cervejeiro	GHESTI, G; BRASIL, V. C. B. ; PINHEIRO, L. G. S.		
