strict graph grafo2 {
	graph [bb="0,0,1024.5,209",
		id=grafo2,
		overlap=False
	];
	node [fontsize=8,
		label="\N",
		shape=rectangle,
		style=filled
	];
	0	 [URL="http://lattes.cnpq.br/7877403729431750",
		color="#17272B",
		fontcolor="#FFFFFF",
		height=0.23611,
		label="Saraspathy N. T. Gama de Mendonça [3]",
		pos="194,136.5",
		width=2.0556];
	11	 [URL="http://lattes.cnpq.br/2547403563036811",
		color="#17272B",
		fontcolor="#FFFFFF",
		height=0.23611,
		label="Silvana Ligia Vincenzi [5]",
		pos="192,72.5",
		width=1.4167];
	0 -- 11	 [fontsize=8,
		label=3.0,
		lp="199.5,104.5",
		pos="193.75,127.9 193.37,116 192.63,93.102 192.25,81.165"];
	13	 [URL="http://lattes.cnpq.br/6715272307281643",
		color="#17272B",
		fontcolor="#FFFFFF",
		height=0.23611,
		label="Carla A. Pizarro Schmidt [31]",
		pos="192,8.5",
		width=1.5694];
	11 -- 13	 [fontsize=8,
		label=1.0,
		lp="197.5,40.5",
		pos="192,63.898 192,51.998 192,29.102 192,17.165"];
	1	 [URL="http://lattes.cnpq.br/9781159016378038",
		color="#17272B",
		fontcolor="#FFFFFF",
		height=0.23611,
		label="Paulo Lopes de Menezes [5]",
		pos="448,200.5",
		width=1.5];
	5	 [URL="http://lattes.cnpq.br/7999781322175310",
		color="#17272B",
		fontcolor="#FFFFFF",
		height=0.23611,
		label="Everton Coimbra de Araújo [4]",
		pos="353,136.5",
		width=1.625];
	1 -- 5	 [fontsize=8,
		label=1.0,
		lp="411.5,168.5",
		pos="436.35,191.9 418.12,180 383.04,157.1 364.74,145.16"];
	8	 [URL="http://lattes.cnpq.br/2170981286370303",
		color="#17272B",
		fontcolor="#FFFFFF",
		height=0.23611,
		label="Claudio Leones Bazzi [3]",
		pos="448,72.5",
		width=1.3611];
	1 -- 8	 [fontsize=8,
		label=1.0,
		lp="453.5,136.5",
		pos="448,192 448,169.64 448,103.64 448,81.125"];
	10	 [URL="http://lattes.cnpq.br/8149364045680042",
		color="#17272B",
		fontcolor="#FFFFFF",
		height=0.23611,
		label="Pedro L. de Paula Filho [3]",
		pos="529,136.5",
		width=1.4444];
	1 -- 10	 [fontsize=8,
		label=3.0,
		lp="498.5,168.5",
		pos="457.93,191.9 473.48,180 503.39,157.1 518.99,145.16"];
	5 -- 11	 [fontsize=8,
		label=1.0,
		lp="288.5,104.5",
		pos="333.26,127.9 302.36,116 242.9,93.102 211.9,81.165"];
	5 -- 8	 [fontsize=8,
		label=2.0,
		lp="411.5,104.5",
		pos="364.65,127.9 382.88,116 417.96,93.102 436.26,81.165"];
	2	 [URL="http://lattes.cnpq.br/6557298196355263",
		color="#17272B",
		fontcolor="#FFFFFF",
		height=0.23611,
		label="Paulo César Tonin [1]",
		pos="58,136.5",
		width=1.2083];
	3	 [URL="http://lattes.cnpq.br/1208427854093144",
		color="#17272B",
		fontcolor="#FFFFFF",
		height=0.23611,
		label="José A. Azevedo dos Santos [30]",
		pos="61,72.5",
		width=1.6944];
	2 -- 3	 [fontsize=8,
		label=1.0,
		lp="65.5,104.5",
		pos="58.368,127.9 58.944,116 60.052,93.102 60.629,81.165"];
	3 -- 13	 [fontsize=8,
		label=29.0,
		lp="142.5,40.5",
		pos="77.063,63.898 102.21,51.998 150.58,29.102 175.81,17.165"];
	4	 [URL="http://lattes.cnpq.br/3997654537105134",
		color="#17272B",
		fontcolor="#FFFFFF",
		height=0.23611,
		label="Fabiana C. de Araujo Schutz [1]",
		pos="321,72.5",
		width=1.6667];
	4 -- 13	 [fontsize=8,
		label=1.0,
		lp="270.5,40.5",
		pos="305.18,63.898 280.42,51.998 232.79,29.102 207.95,17.165"];
	6	 [URL="http://lattes.cnpq.br/0829902990523071",
		color="#17272B",
		fontcolor="#FFFFFF",
		height=0.23611,
		label="Carlos Aparecido Fernandes [0]",
		pos="580,200.5",
		width=1.6528];
	7	 [URL="http://lattes.cnpq.br/3033591975237656",
		color="#17272B",
		fontcolor="#FFFFFF",
		height=0.23611,
		label="Augusto Vaghetti Luchese [0]",
		pos="714,200.5",
		width=1.5694];
	9	 [URL="http://lattes.cnpq.br/9438996788230697",
		color="#17272B",
		fontcolor="#FFFFFF",
		height=0.23611,
		label="Glaucia Cristina Moreira [0]",
		pos="843,200.5",
		width=1.5];
	12	 [URL="http://lattes.cnpq.br/8998670968329882",
		color="#17272B",
		fontcolor="#FFFFFF",
		height=0.23611,
		label="Daniel Rodrigues Blanco [0]",
		pos="970,200.5",
		width=1.5139];
}
