strict digraph grafo3 {
	graph [bb="0,0,765.5,337",
		id=grafo3,
		overlap=False
	];
	node [fontsize=8,
		label="\N",
		shape=rectangle,
		style=filled
	];
	0	 [URL="http://lattes.cnpq.br/7877403729431750",
		color="#17272B",
		fontcolor="#FFFFFF",
		height=0.23611,
		label="Saraspathy N. T. Gama de Mendonça [3]",
		pos="169,328.5",
		width=2.0556];
	11	 [URL="http://lattes.cnpq.br/2547403563036811",
		color="#17272B",
		fontcolor="#FFFFFF",
		height=0.23611,
		label="Silvana Ligia Vincenzi [5]",
		pos="169,264.5",
		width=1.4167];
	0 -> 11	 [arrowhead=normal,
		arrowsize=0.75,
		fontsize=8,
		label=1.0,
		lp="158.5,296.5",
		penwidth=3.5,
		pos="e,162.04,273.26 162.72,319.85 159.1,314.93 154.91,308.23 153,301.5 150.89,294.06 153.77,286.16 157.64,279.67"];
	11 -> 0	 [arrowhead=normal,
		arrowsize=0.75,
		fontsize=8,
		label=0.6,
		lp="174.5,296.5",
		penwidth=2.3,
		pos="e,169,319.9 169,273.16 169,282.86 169,299.8 169,312.19"];
	5	 [URL="http://lattes.cnpq.br/7999781322175310",
		color="#17272B",
		fontcolor="#FFFFFF",
		height=0.23611,
		label="Everton Coimbra de Araújo [4]",
		pos="98,200.5",
		width=1.625];
	11 -> 5	 [arrowhead=normal,
		arrowsize=0.75,
		fontsize=8,
		label=0.2,
		lp="120.5,232.5",
		penwidth=1.1,
		pos="e,100,209.28 144.76,255.93 134.57,251.78 123.21,245.77 115,237.5 109.21,231.66 105.13,223.48 102.42,216.39"];
	13	 [URL="http://lattes.cnpq.br/6715272307281643",
		color="#17272B",
		fontcolor="#FFFFFF",
		height=0.23611,
		label="Carla A. Pizarro Schmidt [31]",
		pos="245,200.5",
		width=1.5694];
	11 -> 13	 [arrowhead=normal,
		arrowsize=0.75,
		fontsize=8,
		label=0.2,
		lp="201.5,232.5",
		penwidth=1.1,
		pos="e,226.12,209.14 173.36,255.83 178.12,247.96 186.38,235.73 196,227.5 202.84,221.65 211.21,216.61 219.08,212.57"];
	5 -> 11	 [arrowhead=normal,
		arrowsize=0.75,
		fontsize=8,
		label=0.25,
		lp="145.5,232.5",
		penwidth=1.25,
		pos="e,160.29,255.9 106.78,209.16 118.74,219.61 140.31,238.45 154.64,250.96"];
	1	 [URL="http://lattes.cnpq.br/9781159016378038",
		color="#17272B",
		fontcolor="#FFFFFF",
		height=0.23611,
		label="Paulo Lopes de Menezes [5]",
		pos="54,72.5",
		width=1.5];
	5 -> 1	 [arrowhead=normal,
		arrowsize=0.75,
		fontsize=8,
		label=0.25,
		lp="31.5,136.5",
		penwidth=1.25,
		pos="e,46.669,81.081 78.087,191.99 59.706,183.78 33.82,168.63 24,145.5 15.373,125.18 29.901,101.54 41.591,87.05"];
	8	 [URL="http://lattes.cnpq.br/2170981286370303",
		color="#17272B",
		fontcolor="#FFFFFF",
		height=0.23611,
		label="Claudio Leones Bazzi [3]",
		pos="115,136.5",
		width=1.3611];
	5 -> 8	 [arrowhead=normal,
		arrowsize=0.75,
		fontsize=8,
		label=0.5,
		lp="98.5,168.5",
		penwidth=2.0,
		pos="e,105.95,145.17 94.855,191.83 92.279,184.38 89.571,172.86 93,163.5 94.668,158.95 97.524,154.64 100.64,150.9"];
	13 -> 11	 [arrowhead=normal,
		arrowsize=0.75,
		fontsize=8,
		label=0.03,
		lp="225.5,232.5",
		penwidth=0.59,
		pos="e,180.99,256 237.75,209.04 230.33,216.59 218.31,228.37 207,237.5 200.88,242.44 193.85,247.43 187.51,251.69"];
	3	 [URL="http://lattes.cnpq.br/1208427854093144",
		color="#17272B",
		fontcolor="#FFFFFF",
		height=0.23611,
		label="José A. Azevedo dos Santos [30]",
		pos="243,136.5",
		width=1.6944];
	13 -> 3	 [arrowhead=normal,
		arrowsize=0.75,
		fontsize=8,
		label=0.94,
		lp="232.5,168.5",
		penwidth=3.32,
		pos="e,235.05,145.24 236.76,191.68 232.35,186.9 227.35,180.4 225,173.5 222.4,165.86 225.81,157.78 230.34,151.22"];
	4	 [URL="http://lattes.cnpq.br/3997654537105134",
		color="#17272B",
		fontcolor="#FFFFFF",
		height=0.23611,
		label="Fabiana C. de Araujo Schutz [1]",
		pos="382,136.5",
		width=1.6667];
	13 -> 4	 [arrowhead=normal,
		arrowsize=0.75,
		fontsize=8,
		label=0.03,
		lp="327.5,168.5",
		penwidth=0.59,
		pos="e,363.17,145.11 260.12,191.97 275.19,184.52 299.05,172.91 320,163.5 331.79,158.2 344.98,152.62 356.16,148"];
	1 -> 5	 [arrowhead=normal,
		arrowsize=0.75,
		fontsize=8,
		label=0.2,
		lp="51.5,136.5",
		penwidth=1.1,
		pos="e,86.689,191.93 50.735,81.4 45.617,95.02 37.158,123.57 46,145.5 52.963,162.77 68.383,177.6 80.634,187.33"];
	1 -> 8	 [arrowhead=normal,
		arrowsize=0.75,
		fontsize=8,
		label=0.2,
		lp="103.5,104.5",
		penwidth=1.1,
		pos="e,110.69,127.77 66.815,81.218 74.087,85.958 83.087,92.458 90,99.5 96.397,106.02 102.29,114.33 106.75,121.33"];
	10	 [URL="http://lattes.cnpq.br/8149364045680042",
		color="#17272B",
		fontcolor="#FFFFFF",
		height=0.23611,
		label="Pedro L. de Paula Filho [3]",
		pos="54,8.5",
		width=1.4444];
	1 -> 10	 [arrowhead=normal,
		arrowsize=0.75,
		fontsize=8,
		label=0.6,
		lp="43.5,40.5",
		penwidth=2.3,
		pos="e,47.038,17.264 47.716,63.847 44.1,58.934 39.905,52.232 38,45.5 35.893,38.057 38.771,30.165 42.64,23.672"];
	8 -> 5	 [arrowhead=normal,
		arrowsize=0.75,
		fontsize=8,
		label=0.67,
		lp="115.5,168.5",
		penwidth=2.51,
		pos="e,100.08,191.9 112.9,145.16 110.21,154.96 105.51,172.12 102.1,184.55"];
	8 -> 1	 [arrowhead=normal,
		arrowsize=0.75,
		fontsize=8,
		label=0.33,
		lp="78.5,104.5",
		penwidth=1.49,
		pos="e,56.142,81.15 97.013,127.95 88.289,123.57 78.173,117.37 71,109.5 65.579,103.55 61.572,95.567 58.815,88.629"];
	3 -> 13	 [arrowhead=normal,
		arrowsize=0.75,
		fontsize=8,
		label=0.97,
		lp="252.5,168.5",
		penwidth=3.41,
		pos="e,244.75,191.9 243.25,145.16 243.56,154.86 244.11,171.8 244.51,184.19"];
	2	 [URL="http://lattes.cnpq.br/6557298196355263",
		color="#17272B",
		fontcolor="#FFFFFF",
		height=0.23611,
		label="Paulo César Tonin [1]",
		pos="243,72.5",
		width=1.2083];
	3 -> 2	 [arrowhead=normal,
		arrowsize=0.75,
		fontsize=8,
		label=0.03,
		lp="231.5,104.5",
		penwidth=0.59,
		pos="e,234.75,81.164 235.17,127.6 230.97,122.8 226.22,116.3 224,109.5 221.47,101.74 225.09,93.655 229.82,87.117"];
	4 -> 13	 [arrowhead=normal,
		arrowsize=0.75,
		fontsize=8,
		label=1.0,
		lp="359.5,168.5",
		penwidth=3.5,
		pos="e,287.16,191.89 374.81,145.23 366.81,153.39 353.14,166.08 339,173.5 325.34,180.67 309.5,186.03 294.75,189.96"];
	10 -> 1	 [arrowhead=normal,
		arrowsize=0.75,
		fontsize=8,
		label=1.0,
		lp="59.5,40.5",
		penwidth=3.5,
		pos="e,54,63.898 54,17.165 54,26.864 54,43.797 54,56.189"];
	2 -> 3	 [arrowhead=normal,
		arrowsize=0.75,
		fontsize=8,
		label=1.0,
		lp="248.5,104.5",
		penwidth=3.5,
		pos="e,243,127.9 243,81.165 243,90.864 243,107.8 243,120.19"];
	6	 [URL="http://lattes.cnpq.br/0829902990523071",
		color="#17272B",
		fontcolor="#FFFFFF",
		height=0.23611,
		label="Carlos Aparecido Fernandes [0]",
		pos="321,328.5",
		width=1.6528];
	7	 [URL="http://lattes.cnpq.br/3033591975237656",
		color="#17272B",
		fontcolor="#FFFFFF",
		height=0.23611,
		label="Augusto Vaghetti Luchese [0]",
		pos="455,328.5",
		width=1.5694];
	9	 [URL="http://lattes.cnpq.br/9438996788230697",
		color="#17272B",
		fontcolor="#FFFFFF",
		height=0.23611,
		label="Glaucia Cristina Moreira [0]",
		pos="584,328.5",
		width=1.5];
	12	 [URL="http://lattes.cnpq.br/8998670968329882",
		color="#17272B",
		fontcolor="#FFFFFF",
		height=0.23611,
		label="Daniel Rodrigues Blanco [0]",
		pos="711,328.5",
		width=1.5139];
}
