
PB0:2013,12;
PB4:2013,9;
PB8:2013,3;
PT4:2013,19;
OA1:2015,1;2016,2;
OA2:2015,1;2016,1;2017,1;
OC2:2013,1;
OC3:2013,10;
OC4:2013,3;
Pj:2011,1;
PB:2013,24;
PT:2013,19;
OA:2015,2;2016,3;2017,1;
OC:2013,14;
Ep:2013,2;
Eo:2013,2;