ID_Lattes|MATRICULA|NOME|CH|mail|LP_1|PROGRAMA_1|CATEG_1|Periodo_Inicio_1|Periodo_Fim_1|Resp_prog|Resp_LP1
K4218559T9|99999|CAROLINE DA GRACA JACQUES|40|UNESC@UNESC.br|UNESC|UNESC|P|2013|2016|UNESC|UNESC
K4706229A4|99999|ALCIDES GOULARTI FILHO|40|UNESC@UNESC.br|UNESC|UNESC|P|2013|2016||
K4556821H3|99999|ADRIANA CARVALHO PINTO VIEIRA|40|UNESC@UNESC.br|UNESC|UNESC|P|2013|2016||
K4706227J7|99999|GIANI RABELO|40|UNESC@UNESC.br|UNESC|UNESC|P|2013|2016||
K4739131U6|99999|DIMAS DE OLIVEIRA ESTEVAM|40|UNESC@UNESC.br|UNESC|UNESC|P|2013|2016||
K4712502P4|99999|CRISTINA KEIKO YAMAGUCHI|40|UNESC@UNESC.br|UNESC|UNESC|P|2013|2016||
K4731782A6|99999|SILVIO PARODI OLIVEIRA CAMILO|40|UNESC@UNESC.br|UNESC|UNESC|P|2013|2016||
K8592568E5|99999|REGINALDO DE SOUZA VIEIRA|40|UNESC@UNESC.br|UNESC|UNESC|P|2013|2016||
K4180575J0|99999|RAFAEL RODRIGO MUELLER|40|UNESC@UNESC.br|UNESC|UNESC|P|2013|2016||
K4772298D6|99999|MIGUELANGELO GIANEZINI|40|UNESC@UNESC.br|UNESC|UNESC|P|2013|2016||
K4767400D1|99999|MELISSA WATANABE|40|UNESC@UNESC.br|UNESC|UNESC|P|2013|2016||
K4765354Z0|99999|KELLY JOZIANE DE MENDONCA DORNELES GIANEZINI|40|UNESC@UNESC.br|UNESC|UNESC|P|2013|2016||
K8136570E6|99999|JOSE ANTONIO MATEO|40|UNESC@UNESC.br|UNESC|UNESC|P|2013|2016||
K4767982E5|99999|JOAO HENRIQUE ZANELATTO|40|UNESC@UNESC.br|UNESC|UNESC|P|2013|2016||
K4753670Y3|99999|ISMAEL GONCALVES ALVES|40|UNESC@UNESC.br|UNESC|UNESC|P|2013|2016||
K4746867T8|99999|GIOVANA ILKA JACINTO SALVARO|40|UNESC@UNESC.br|UNESC|UNESC|P|2013|2016||
