artigoEmPeriodico	Fernando Fagundes Ferreira	2013		O legado para a democratização da comunicação	OBSERVATÓRIO DA IMPRENSA (SÃO PAULO)	Fernando Fagundes ; FERREIRA, F. F.	B5	
artigoEmPeriodico	Candido Ferreira Xavier de Mendonça Neto	2013	http://dx.doi.org/10.1007/s10479-013-1357-9	A heuristic algorithm based on multi-assignment procedures for nurse scheduling	Annals of Operation Research	CONSTANTINO, ADEMIR APARECIDO ; LANDA-SILVA, DARIO ; MELO, E. L. ; MENDONÇA, C. F. X. ; RIZZATO, DOUGLAS BARONI ; ROMÃO, WESLEY	A2	
trabalhoCompletoEmCongresso	Candido Ferreira Xavier de Mendonça Neto	2015		Combining Heuristic and Utility Function for Fair Train Crew Rostering	17th International Conference on Enterprise Information Systems (ICEIS)	CONSTANTINO, A. A. ; MENDONÇA, C. F. X. ; NOVAES, A. G. ; SANTOS, A. F.		
trabalhoCompletoEmCongresso	Candido Ferreira Xavier de Mendonça Neto	2014	http://dx.doi.org/10.5220/0004883704640471	An Evolutionary Algorithm for Graph Planarisation by Vertex Deletion	16th International Conference on Enterprise Information Systems	PINHEIRO, R. L. ; CONSTANTINO, A. A. ; Mendonça Neto, C. F. X. ; LANDA-SILVA, D.		
artigoEmPeriodico	Fernando de Souza Coelho	2014	http://dx.doi.org/10.1590/0034-76121597	Revisitando as origens do ensino de graduação em administração pública no Brasil (1854-1952)	RAP. Revista Brasileira de Administração Pública	COELHO, F. S.; NICOLINI, A. M.	A2	
artigoEmPeriodico	Fernando de Souza Coelho	2014	http://dx.doi.org/10.5753/rbie.2014.22.01.79	Educação em Sistemas de Informação no Brasil: Uma Análise da Abordagem Curricular em Instituições de Ensino Superior Brasileiras	Revista Brasileira de Informática na Educação	COELHO, F. S.; ALBUQUERQUE, J. P. ; PRADO, E. P. V. ; CELSO, R. P.	B1	
artigoEmPeriodico	Fernando de Souza Coelho	2014	http://dx.doi.org/10.1590/0034-76122012	Administração pública no Brasil: reflexões sobre o campo de saber a partir da Divisão Acadêmica da Associação Nacional de Pós-Graduação e Pesquisa em Administração (2009-2013)	Revista de Administração Pública (Impresso)	COELHO, F. S.; FADUL, E. M. C. ; LUSTOSA DA COSTA, F. J. ; GOMES, R. C.	A2	
artigoEmPeriodico	Fernando de Souza Coelho	2014		Dossiê - Campo de Públicas no Brasil: definição, movimento constitutivo e desafios atuais	Administração Pública e Gestão Social	PIRES, V. A. ; MIDLEJ, S. A. ; FONSECA, S. A. ; VENDRAMINI, P. ; COELHO, F. S.	B3	
artigoEmPeriodico	Fernando de Souza Coelho	2014		Disseminação da Carreira de Especialista em Políticas Públicas e Gestão Governamental na Gestão Municipal Brasileira: um estudo exploratório	TEMAS DE ADMINISTRAÇÃO PÚBLICA (UNESP. ARARAQUARA)	CORRÊA SILVA, V. ; COELHO, F. S. ; ALMEIDA, A. G.	B4	
artigoEmPeriodico	Fernando de Souza Coelho	2013	http://dx.doi.org/10.1590/S1984-92302013000300003	Do auge à retração: análise de um dos estágios de construção do ensino de Administração pública no Brasil (1966-1982)	ORGANIZAÇÕES & SOCIEDADE (ONLINE)	COELHO, F. S.; NICOLINI, A. M.	B1	
trabalhoCompletoEmCongresso	Fernando de Souza Coelho	2016		Por uma Abordagem Metodológica de Estratégia em Governos Subnacionais em Dois Níveis: Longitudinal, a partir de Planos Plurianuais, e, em Profundidade, a partir de Múltiplas Variáveis Político-Administrativas	XL Encontro Nacional de Administração - EnANPAD	OLENSCKI, A. R. B. ; COELHO, F. S. ; PIRES, V. A. ; PERES, U. D. ; TERENCE, A.C. F.		
trabalhoCompletoEmCongresso	Fernando de Souza Coelho	2016		Fatores que Afetam a Rotatividade e Evasão de Talentos na Administração Pública Brasileira - o caso dos gestores públicos	IX Congresso Consad de Gestão Pública	MOTA, M. M. ; LEVY, E. ; COELHO, F. S.		
trabalhoCompletoEmCongresso	Fernando de Souza Coelho	2016		Gestão Social como Campo do Saber no Brasil: uma análise de sua produção científica pela modelagem de redes sociais (2005-2015)	VII Encontro Nacional de Administração Pública e Governo (EnAPG)	MENON, I. ; COELHO, F. S.		
trabalhoCompletoEmCongresso	Fernando de Souza Coelho	2015		Concepção da Primeira Escola do Legislativo no Brasil: uma Análise Histórica do Caso EL-ALMG	Encontro Nacional de Administração - EnANPAD	MELO, W. M. C. ; COELHO, F. S.		
trabalhoCompletoEmCongresso	Fernando de Souza Coelho	2015		Profissionalização do Serviço Público e democracia no Brasil: reflexão sobre as últimas três décadas	XX Congresso Internacional del CLAD sobre la Reforma del Estado y de la Administración Pública	LEVY, E. ; MOTA, M. M. ; COELHO, F. S.		
trabalhoCompletoEmCongresso	Fernando de Souza Coelho	2014		A Carreira de Especialista em Políticas Públicas e Gestão Governamental no Setor Público Brasileiro: uma análise das experiências no nível municipal	VIII Encontro Nacional de Pesquisadores em Gestão Social - ENAPEGS	CORRÊA SILVA, V. ; ALMEIDA, A. G. ; COELHO, F. S.		
trabalhoCompletoEmCongresso	Fernando de Souza Coelho	2014		A Produção Científica em Administração Pública e Políticas Públicas no Brasil: evidências de proximidade e similaridade no período 2000-2010	Encontro Nacional de Administração (EnANPAD)	CORRÊA SILVA, V. ; TROTTMANN, P. ; COELHO, F. S. ; SARTI, F. M.		
trabalhoCompletoEmCongresso	Fernando de Souza Coelho	2014		A Produção Científica em Políticas Públicas no Brasil: descrição e análise de alguns resultados de uma Investigação para o período 2000-2011	Encontro Nacional de Administração Pública e Governança - EnAPG	TROTTMANN, P. ; CORRÊA SILVA, V. ; COELHO, F. S. ; SARTI, F. M.		
trabalhoCompletoEmCongresso	Fernando de Souza Coelho	2014		As Escolas de Governo e a Profissionalização dos Servidores: uma Análise do Cefor	VI Encontro Nacional de Administração Pública e Governança - EnAPG	MELO, W. M. C. ; COELHO, F. S.		
trabalhoCompletoEmCongresso	Fernando de Souza Coelho	2013		Complexidades da Gestão de Pessoas no Setor Público	Gestão Pública dos Entes Federativos	COELHO, F. S		
trabalhoCompletoEmCongresso	Fernando de Souza Coelho	2013		A Produção Científica em Administração Pública no Brasil: descrição e análise de alguns resultados de uma investigação para o período 2000-2010	Encontro Nacional de Administração - EnANPAD	CORRÊA SILVA, V. ; TROTTMANN, P. ; COELHO, F. S. ; SARTI, F. M.		
trabalhoCompletoEmCongresso	Fernando de Souza Coelho	2013		A Análise de Campos do Saber a partir da Utilização de Redes: uma Proposta de Abordagem Qualitativo-Quantitativa	IV Encontro Nacional de Ensino e Pesquisa em Administração - EnEPQ	TROTTMANN, P. ; CORRÊA SILVA, V. ; COELHO, F. S. ; SARTI, F. M.		
artigoEmPeriodico	Paulo Antonio de Almeida Sinisgalli	2016		A sustainability analysis of environmental management approaches: prevention, mitigation and compensation	Proceedings of the International Academy of Ecology and Environmental Sciences	ROQUETTI, D. R. ; Moretto, E. M. ; DE ALMEIDA SINISGALLI, PAULO ANTONIO	B2	
artigoEmPeriodico	Paulo Antonio de Almeida Sinisgalli	2015	http://dx.doi.org/10.1016/j.worlddev.2014.11.004	The Dynamics of Co-Management and Social Capital in Protected Area Management-The Cardoso Island State Park in Brazil	World Development	SESSIN-DILASCIO, KARLA ; PRAGER, KATRIN ; IRVINE, KATHERINE N. ; DE ALMEIDA SINISGALLI, PAULO ANTONIO	A2	
artigoEmPeriodico	Paulo Antonio de Almeida Sinisgalli	2015		Understanding governance structures in community management of ecosystems and natural resources: The Marujá case study in Brazil	Ecosystem Services	SATTLER, C. ; SCHROTER, B. ; JERICO-DAMINELLO, C. ; SESSIN-DILASCIO, K. ; MEYER, C. ; MATZDORF, B. ; SINISGALLI, P.A.A. ; WORTMANN, L.	Qualis nao identificado	Ecosystem Services
artigoEmPeriodico	Paulo Antonio de Almeida Sinisgalli	2014		A comunidade do Marujá e o Parque Estadual da Ilha do Cardoso: co-manejo, serviços ecossistêmicos e processo sócio-técnico	Revista Virtual REDESMA	Romeiro, A.R. ; SINISGALLI, P.A.A. ; JERICO-DAMINELLO, C. ; SESSIN-DILASCIO, K. ; LIMA, L. ; PAIVA SOBRINHO, R.	Qualis nao identificado	Revista Virtual REDESMA
trabalhoCompletoEmCongresso	Paulo Antonio de Almeida Sinisgalli	2016		Payment for Ecosystem Services in Santa Rosa de Lima: Innovative practices to leverage social change and environmental recovery	4th Convención Internacional AGRODESARROLLO 2016 11th International Workshop 'Trees and Shrubs in Livestock Production'	SCHIMITT FILHO, A. L. ; FARLEY, J. ; SINISGALLI, P.A.A. ; FANTINI, A. C.		
trabalhoCompletoEmCongresso	Paulo Antonio de Almeida Sinisgalli	2015		Public policy and climate change: Is there evidence of the internalization of marine ecosystem servicesa daptation strategies in Brazil?	Congreso Latinoamericano de Ciencias del Mar - COLACMAR 2015	AMAZONAS, I. ; Cichoski, C. ; SINISGALLI, P.A.A. ; JACOBI, P. R. ; TURRA, A.		
trabalhoCompletoEmCongresso	Paulo Antonio de Almeida Sinisgalli	2015		A PEGADA HÍDRICA: EFICIÊNCIA NO USO DA ÁGUA E (IN)JUSTIÇA HÍDRICA	Encontro Nacional da Associação Nacional de Pós-Graduação e Pesquisa em Ambiente e Sociedade	TADEU, N. D. ; SINISGALLI, P.A.A.		
trabalhoCompletoEmCongresso	Paulo Antonio de Almeida Sinisgalli	2014		ANÁLISE DE POLÍTICAS PÚBLICAS PARA SERVIÇOS ECOSSITÊMICOS (SE) ASSOCIADOS ÀS MUDANÇAS CLIMÁTICAS EM TRÊS TIPOS DE OCUPAÇÃO DO SOLO NO ESTADO DO PARÁ- BR	Envibras2014 : Environnement et géomatique : approches comparées France - Brésil	SINISGALLI, P.A.A.; LECLECH, S. ; GRIMALDI, M. ; LAVELLE, P.		
trabalhoCompletoEmCongresso	Paulo Antonio de Almeida Sinisgalli	2014		Valoração de Impactos Econômicos decorrentes da qualidade da água das praias do município de Praia Grande (SP) no sistema único de saúde (SUS)	Congresso Brasileiro de Oceanografia - CBO 2014	YANG, S. H. ; SINISGALLI, P.A.A. ; HARARI, J.		
trabalhoCompletoEmCongresso	Paulo Antonio de Almeida Sinisgalli	2013		IMPACTOS HÍDRICOS DE LA PRODUCCIÓN DE MADERA DE EUCALIPTO EN AREA DE MATA ATLÂNTICA EN LA CUENCA DEL RIO PARAIBA DO SUL, SÃO PAULO, BRASIL	VI Jornadas de la Asociación Argentino Uruguaya de Economía Ecológica (ASAUEE)	TADEU, N. D. ; SINISGALLI, P.A.A.		
trabalhoCompletoEmCongresso	Paulo Antonio de Almeida Sinisgalli	2013		Pegada Hídrica da Bovinicultura de corte no Brasil - uma comparação entre produção em pastagem manejada e não manejada	XX Simpósio Brasileiro de Recursos Hídricos	MENDONCA, C. B. ; TADEU, N. D. ; SINISGALLI, P.A.A.		
resumoExpandidoEmCongresso	Paulo Antonio de Almeida Sinisgalli	2016	Dynamics of land use change in southern Brazil: A case study of Santa Catarina's Capital of Agroecology	IV Convención Internacional AGRODESARROLLO 2016 11th International Workshop 'Trees and Shrubs in Livestock Production', 2016, Varadero. IV Convención Internacional AGRODESARROLLO 2016 11th International Workshop 'Trees and Shrubs in Livestock Production'	AMAZONAS, I. ; ZANETTI, V. ; SCHIMITT FILHO, A. L. ; SINISGALLI, P.A.A. ; FARLEY, J. ; FANTINI, A. C.		
resumoExpandidoEmCongresso	Paulo Antonio de Almeida Sinisgalli	2013	Impacto sobre a disponibilidade hídrica quantitativa do consumo de água da produção de madeira de eucalipto produzido em área de Mata Atlântica	X Encontro da Sociedade Brasileira de Economia Ecológica, 2013, Vitória. Anais do X Encontro da Sociedade Brasileira de Economia Ecológica	TADEU, N. D. ; SINISGALLI, P.A.A.		
artigoEmPeriodico	Masayuki Oka Hase	2016	http://dx.doi.org/10.1088/1751-8113/49/6/065001	Epidemics in networks: a master equation approach	Journal of Physics. A, Mathematical and Theoretical (Print)	COTACALLAPA, M ; HASE, M O	A2	
artigoEmPeriodico	Masayuki Oka Hase	2016	http://dx.doi.org/10.1088/1742-5468/2016/04/043304	Carrying capacity in growing networks	Journal of Statistical Mechanics	HASE, M O; CASA GRANDE, H L	A2	
artigoEmPeriodico	Masayuki Oka Hase	2015	http://dx.doi.org/10.1088/1742-5468/2015/12/p12004	Entropy production for asymmetric diffusion of particles	Journal of Statistical Mechanics	HASE, M O; TOMÉ, T ; DE OLIVEIRA, M J	A2	
artigoEmPeriodico	José Ricardo Gonçalves de Mendonça	2016	http://dx.doi.org/10.1142/S0129183116500169	The inactive-active phase transition in the noisy additive (exclusive-or) probabilistic cellular automaton	International Journal of Modern Physics C	MENDONÇA, J. RICARDO G	B1	
artigoEmPeriodico	José Ricardo Gonçalves de Mendonça	2015	http://dx.doi.org/10.1016/j.physa.2015.08.001	Type-dependent irreversible stochastic spin models for genetic regulatory networks at the level of promotion-inhibition circuitry	Physica. A (Print)	MENDONÇA, J. R. G.; OLIVEIRA, M. J.	A2	
artigoEmPeriodico	José Ricardo Gonçalves de Mendonça	2013	http://dx.doi.org/10.1088/1751-8113/46/29/295001	Exact eigenspectrum of the symmetric simple exclusion process on the complete, complete bipartite and related graphs	Journal of Physics. A, Mathematical and Theoretical (Print)	MENDONÇA, J. R. G	A2	
resumoExpandidoEmCongresso	José Ricardo Gonçalves de Mendonça	2015	Fluxos sobre grafos e redes complexas	XXIII Simpósio Internacional de Iniciação Científica e Tecnológica da USP, 2015, São Paulo. Anais XXIII SIICUSP. São Paulo: USP	MITSUNAGA, H. S. ; MENDONÇA, J. R. G.		
artigoEmPeriodico	Francisco Javier Sebastian Mendizabal Alvarez	2014		As marcas de luxo de moda e as redes sociais	Modapalavra E-periódico	ALVAREZ, F. J. S. M. ou MENDIZABAL ALVAREZ, FJ.S.M; FAVERO, M. B.	B4	
artigoEmPeriodico	Francisco Javier Sebastian Mendizabal Alvarez	2014		A dinâmica da Utilização das Redes Sociais no Processo de Comunicação pelas Micro e Pequenas Empresas Textei: um estudo exploratório.	PMKT: Revista Brasileira de Pesquisas de Marketing, Opinião e Mídia	FAVERO, M. B. ; ALVAREZ, F. J. S. M. ou MENDIZABAL ALVAREZ, FJ.S.M	Qualis nao identificado	PMKT: Revista Brasileira de Pesquisas de Marketing, Opinião e Mídia
artigoEmPeriodico	Francisco Javier Sebastian Mendizabal Alvarez	2014		O comportamento das micro e pequenas empresas de moda nas redes sociais	Competência - Revista da Educação Superior do Senac-RS	FAVERO, M. B. ; ALVAREZ, F. J. S. M. ou MENDIZABAL ALVAREZ, FJ.S.M	Qualis nao identificado	Competência - Revista da Educação Superior do Senac-RS
artigoEmPeriodico	Francisco Javier Sebastian Mendizabal Alvarez	2014		O comportamento das micro e pequenas empresas de moda nas redes sociais	Competência - Revista da Educação Superior do Senac-RS	ALVAREZ, F. J. S. M. ou MENDIZABAL ALVAREZ, FJ.S.M	Qualis nao identificado	Competência - Revista da Educação Superior do Senac-RS
artigoEmPeriodico	Francisco Javier Sebastian Mendizabal Alvarez	2014		Processo Criativo e Bauman: o desenvolvimento de um abrigo para o corpo	Tríades em Revista	ALVAREZ, F. J. S. M. ou MENDIZABAL ALVAREZ, FJ.S.M	B4	
artigoEmPeriodico	Francisco Javier Sebastian Mendizabal Alvarez	2014		Processo Criativo e Bauman: o desenvolvimento de um abrigo para o corpo	Tríades em Revista	FAVERO, M. B. ; ALVAREZ, F. J. S. M. ou MENDIZABAL ALVAREZ, FJ.S.M	B4	
artigoEmPeriodico	Francisco Javier Sebastian Mendizabal Alvarez	2013		Integrated Communication in retail fashion: a study of integration between advertising and communication at the point of sale	Journal of arts & Humanities	FAVERO, M. B. ; ALVAREZ, F. J. S. M. ou MENDIZABAL ALVAREZ, FJ.S.M	Qualis nao identificado	Journal of arts & Humanities
artigoEmPeriodico	Francisco Javier Sebastian Mendizabal Alvarez	2013	http://dx.doi.org/10.5433/2236-2207.2013v4n1p65	Marcas de moda e a percepção dos consumidores	Projética	FAVERO, MARCELA ; ALVAREZ, FRANCISCO ; VIEIRA, FRACISCO GIOVANNI	B5	
trabalhoCompletoEmCongresso	Francisco Javier Sebastian Mendizabal Alvarez	2014		Comunicação de Moda: um estudo comparativo do uso do Facebook por marcas de moda internacionais e nacionais	Contexmod - 2 Congresso Científico de Têxtil e Moda	FAVERO, M. B. ; ALVAREZ, F. J. S. M. ou MENDIZABAL ALVAREZ, FJ.S.M		
trabalhoCompletoEmCongresso	Francisco Javier Sebastian Mendizabal Alvarez	2014		A importância das redes sociais para o setor de confecção: volume de propagação da mensagem	10. coloquio de moda 7a. edição internacional	FAVERO, M. B. ; ALVAREZ, F. J. S. M. ou MENDIZABAL ALVAREZ, FJ.S.M		
trabalhoCompletoEmCongresso	Francisco Javier Sebastian Mendizabal Alvarez	2014		A standardization of displays the center shopping malls: globalization as affected retail fashion	International Fashion and Design Congress - CIMODE	FAVERO, M. B. ; ALVAREZ, F. J. S. M. ou MENDIZABAL ALVAREZ, FJ.S.M		
trabalhoCompletoEmCongresso	Francisco Javier Sebastian Mendizabal Alvarez	2013		A micro e pequena empresa e as redes sociais	Semana do Administrador SEMAD 2013	FAVERO, M. B. ; ALVAREZ, F. J. S. M. ou MENDIZABAL ALVAREZ, FJ.S.M		
trabalhoCompletoEmCongresso	Francisco Javier Sebastian Mendizabal Alvarez	2013		Varejo de Moda e Comunicação de Marketing: um estudo de caso da rede de varejo Riachuelo	Encontro Nacional de Pesquisa em Moda	FAVERO, M. B. ; ALVAREZ, F. J. S. M. ou MENDIZABAL ALVAREZ, FJ.S.M		
trabalhoCompletoEmCongresso	Francisco Javier Sebastian Mendizabal Alvarez	2013		Louis Vuitton: o alto luxo e as redes sociais	9o. Coloquio de Moda	FAVERO, M. B. ; ALVAREZ, F. J. S. M. ou MENDIZABAL ALVAREZ, FJ.S.M		
artigoEmPeriodico	Flávia Mori Sarti	2016	http://dx.doi.org/10.1017/S0007114516000994	Indices for the assessment of nutritional quality of meals: a systematic review	British Journal of Nutrition	GORGULHO, B. ; POT, G. ; SARTI, F. M. ; MARCHIONI, D. M. L.	A1	
artigoEmPeriodico	Flávia Mori Sarti	2016	http://dx.doi.org/10.1590/0102-311x00067516	Factors associated with the diffusion rate of innovations: a pilot study from the perspective of the Brazilian Unified National Health System	Cadernos de Saúde Pública (Online)	SCHNEIDERS, R. E. ; RONSONI, R. M. ; SARTI, F. M. ; NITA, M. E. ; BASTOS, E. A. ; ZIMMERMANN, I. R. ; FERREIRA, F. F.	Qualis nao identificado	Cadernos de Saúde Pública (Online)
artigoEmPeriodico	Flávia Mori Sarti	2016	http://dx.doi.org/10.1016/j.telpol.2016.10.004	Evolution and determinants of digital divide in Brazil (2005-2013)	Telecommunications Policy	NISHIJIMA, M. ; IVANAUSKAS, T. M. ; SARTI, F. M.	Qualis nao identificado	Telecommunications Policy
artigoEmPeriodico	Flávia Mori Sarti	2015	http://dx.doi.org/10.1590/0102-311x00009914	Trends in child labor and the impact on health in adulthood in Brazil from 1998 to 2008	Cadernos de Saúde Pública (Online)	NISHIJIMA, M. ; SOUZA, A. P. F. ; SARTI, F. M.	Qualis nao identificado	Cadernos de Saúde Pública (Online)
artigoEmPeriodico	Flávia Mori Sarti	2015	http://dx.doi.org/10.1590/0102-311x00039014	Budget impact analysis of the percutaneous septal occluder for treatment of ostium secundum atrial septal defects in the Brazilian Unified National Health System	Cadernos de Saúde Pública (Online)	SENNA, K. M. S. ; SARTI, F. M. ; COSTA, M. G. S. ; NITA, M. E. ; SANTOS, M. S. ; TURA, B. R. ; GOULART, M. C.	Qualis nao identificado	Cadernos de Saúde Pública (Online)
artigoEmPeriodico	Flávia Mori Sarti	2015	http://dx.doi.org/10.1590/s1980-65742015000100009	The burden of abdominal obesity with physical inactivity on health expenditure in Brazil	Motriz : Revista de Educação Física (Online)	CODOGNO, J. S. ; TURI, B. C. ; SARTI, F. M. ; FERNANDES, R. A. ; MONTEIRO, H. L.	A2	
artigoEmPeriodico	Flávia Mori Sarti	2015	http://dx.doi.org/10.1377/hlthaff.2014.1453	Assessing Latin America's Progress Toward Achieving Universal Health Coverage	Health Affairs	WAGSTAFF, A. ; DMYTRACZENKO, T. ; ALMEIDA, G. ; BUISMAN, L. R. ; EOZENOU, P. H. ; BREDENKAMP, C. ; CERCONE, J. ; DIAZ, Y. ; MACEIRA, D. ; MOLINA, S. ; SARTI, F. M. ; PARAJE, G. ; RUIZ, F. ; SCOTT, J. ; VALDIVIA, M. ; WERNECK, H.	Qualis nao identificado	Health Affairs
artigoEmPeriodico	Flávia Mori Sarti	2015	http://dx.doi.org/10.5751/ES-07934-200422	Beyond protein intake: bushmeat as source of micronutrients in the Amazon	Ecology and Society: a journal of integrative science for resilience and sustainability	SARTI, F. M. ; ADAMS, C. ; MORSELLO, C. ; VAN VLIET, N. ; SCHOR, T. ; YAGUE, B. ; TELLEZ, L. ; MESA, M. P. Q. ; ANTIA, D. C.	Qualis nao identificado	Ecology and Society: a journal of integrative science for resilience and sustainability
artigoEmPeriodico	Flávia Mori Sarti	2014	http://dx.doi.org/10.1371/journal.pone.0108966	Cost-Effectiveness of Procedures for Treatment of Ostium Secundum Atrial Septal Defects Occlusion Comparing Conventional Surgery and Septal Percutaneous Implant	Plos One	COSTA, M. G. S. ; SANTOS, M. S. ; SARTI, F. M. ; SENNA, K. M. S. ; TURA, B. R. ; GOULART, M. C.	A1	
artigoEmPeriodico	Flávia Mori Sarti	2014		Avaliação do processo de terceirização da merenda escolar no município de São Paulo	Revista Gestão & Políticas Públicas	CORREIA, M. S. ; SARTI, F. M.	B3	
artigoEmPeriodico	Flávia Mori Sarti	2013	http://dx.doi.org/10.1590/s1020-49892013000200003	Analysis of the evolution and determinants of income-related inequalities in the Brazilian health system, 1998 - 2008	Revista Panamericana de Salud Publica (Print)	ALMEIDA, G. ; SARTI, F. M. ; FERREIRA, F. F. ; DIAZ, M. D. M. ; CAMPINO, A. C. C.	A2	
artigoEmPeriodico	Flávia Mori Sarti	2013	http://dx.doi.org/10.1590/S1020-49892013000200002	Measuring evolution of income-related inequalities in health and health care utilization in selected Latin American and Caribbean countries	Revista Panamericana de Salud Publica (Print)	ALMEIDA, G. ; SARTI, F. M.	A2	
artigoEmPeriodico	Flávia Mori Sarti	2013	http://dx.doi.org/10.1590/s0034-8910.2013047004073	Evolucao dos precos relativos de grupos alimentares entre 1939 e 2010, em Sao Paulo, SP	Revista de Saúde Pública (Impresso)	YUBA, T. Y. ; CARMO, H. C. E. ; SARTI, F. M. ; CAMPINO, A. C. C.	A2	
artigoEmPeriodico	Flávia Mori Sarti	2013		A estrutura de custos e a composição de insumos no tratamento de pacientes HIV no Brasil	Informações FIPE (Impresso)	NISHIJIMA, M. ; SARTI, F. M. ; CYRILLO, D. C. ; CAMPINO, A. C. C.	B5	
artigoEmPeriodico	Flávia Mori Sarti	2013	http://dx.doi.org/10.4322/nutrire.2013.009	Evolução da alimentação escolar no município de São Paulo-SP	Nutrire (São Paulo)	MAGNO, M. S. O. ; CYRILLO, D. C. ; SARTI, F. M.	B3	
artigoEmPeriodico	Flávia Mori Sarti	2013		Análise custo-efetividade aplicada a políticas públicas de segurança alimentar e nutricional no Brasil: Uma avaliação do Programa Cozinhas Comunitárias	Revista Gestão & Políticas Públicas	SARTI, F. M. ; MARCHIONI, D. M. L. ; BANDONI, D. H. ; FIGUEIREDO, I. C. R. ; BRASIL, B. G.	B3	
artigoEmPeriodico	Flávia Mori Sarti	2013		Evolução do panorama da saúde no município de São Paulo na década de 2000 a 2010: Mortalidade infantil e infraestrutura de saúde	Informações FIPE (Impresso)	RODRIGUES, M. O. ; SARTI, F. M. ; NISHIJIMA, M.	B5	
trabalhoCompletoEmCongresso	Flávia Mori Sarti	2014		A produção científica em administração pública e políticas públicas no Brasil: Evidências de proximidade e similaridade no período 2000-2010	XXXVIII Encontro Nacional da Associação Nacional de Pós-Graduação e Pesquisa em Administração	CORRÊA SILVA, V. ; TROTTMANN, P. ; COELHO, F. S. ; SARTI, F. M.		
trabalhoCompletoEmCongresso	Flávia Mori Sarti	2014		A produção científica em políticas públicas no Brasil: Descrição e análise de alguns resultados de uma investigação para o período 2000-2011	VI Encontro de Administração Pública da Associação Nacional de Pós-Graduação e Pesquisa em Administração	TROTTMANN, P. ; CORRÊA SILVA, V. ; COELHO, F. S. ; SARTI, F. M.		
trabalhoCompletoEmCongresso	Flávia Mori Sarti	2014		Falhas de mercado no SUS: Potencialidades da modelagem de sistemas complexos	XI Encontro Nacional de Economia da Saúde / VI Congresso de Economia da Saúde da América Latina e Caribe	PINHEIRO FILHO, F. P. ; SARTI, F. M.		
trabalhoCompletoEmCongresso	Flávia Mori Sarti	2013		Avaliação da Política Nacional de Saúde Bucal: Uma análise de indicadores relativos ao eixo ?promoção e proteção? da saúde oral no Brasil	VI Congresso CONSAD de Gestão Pública	CARACA, B. G. ; SARTI, F. M.		
trabalhoCompletoEmCongresso	Flávia Mori Sarti	2013		A produção científica em administração pública no Brasil: Descrição e análise de alguns resultados de uma investigação para o período 2000-2010	XXXVII Encontro da Associação Nacional de Pós-Graduação e Pesquisa em Administração (EnANPAD)	CORRÊA SILVA, V. ; TROTTMANN, P. ; COELHO, F. S. ; SARTI, F. M.		
trabalhoCompletoEmCongresso	Flávia Mori Sarti	2013		A análise de campos do saber a partir da utilização de redes: Uma proposta de abordagem qualitativo-quantitativa	IV Encontro de Ensino e Pesquisa em Administração e Contabilidade (EnEPQ)	TROTTMANN, P. ; CORRÊA SILVA, V. ; COELHO, F. S. ; SARTI, F. M.		
artigoEmPeriodico	Esteban Fernandez Tuesta	2015	http://dx.doi.org/10.1371/journal.pone.0129065	Analysis of an Advisor-Advisee Relationship: An Exploratory Study of the Area of Exact and Earth Sciences in Brazil	Plos One	TUESTA, ESTEBAN F.; DELGADO, KARINA V. ; MUGNAINI, ROGÉRIO ; DIGIAMPIETRI, LUCIANO A. ; MENA-CHALCO, JESÚS P. ; PÉREZ-ALCÁZAR, JOSÉ J.	A1	
artigoEmPeriodico	Esteban Fernandez Tuesta	2015		Análise comparativa da produtividade dos pares orientador-orientado em Ciência da Computação	RESI : Revista Eletrônica de Sistemas de Informação	TUESTA, ESTEBAN FERNANDEZ; DELGADO, KARINA V. ; DIGIAMPIETRI, LUCIANO A. ; MUGNAINI, ROGÉRIO ; MENA-CHALCO, JESÚS P. ; PÉREZ-ALCÁZAR, JOSÉ J.	B3	
artigoEmPeriodico	Esteban Fernandez Tuesta	2015		Extração, caracterização e análises de dados de currículos Lattes	RESI : Revista Eletrônica de Sistemas de Informação	DIGIAMPIETRI, LUCIANO A. ; PÉREZ-ALCÁZAR, JOSÉ J. ; MENA-CHALCO, JESÚS P. ; TUESTA, E. F. ; DELGADO, KARINA V. ; MUGNAINI, ROGÉRIO ; SILVA, G. S. ; LIMA, J. J. S.	B3	
artigoEmPeriodico	Esteban Fernandez Tuesta	2015		Resíduos agro-industrialesutilizadoscomo materias-primasen estudios de desarrollode fibras textiles.	Cuadernos del Centro de Estudios de Diseño y Comunicación	COSTA, S. M. ; TUESTA, E. F. ; COSTA, S. A.	Qualis nao identificado	Cuadernos del Centro de Estudios de Diseño y Comunicación
artigoEmPeriodico	Diego Antonio Falceta Gonçalves	2016	http://dx.doi.org/10.1051/0004-6361/201525896	<i>Planck</i> intermediate results	Astronomy & Astrophysics (Berlin. Print)	ADE, P	A2	
artigoEmPeriodico	Diego Antonio Falceta Gonçalves	2015	http://dx.doi.org/10.1088/0004-637x/805/2/109	THREE-DIMENSIONAL HYDRODYNAMICAL SIMULATIONS OF THE SUPERNOVAE-DRIVEN GAS LOSS IN THE DWARF SPHEROIDAL GALAXY URSA MINOR	Astrophysical Journal (Online)	Caproni, A. ; LANFRANCHI, G. A. ; SILVA, A. LUIZ DA ; Falceta-Gonçalves, D.	Qualis nao identificado	Astrophysical Journal (Online)
artigoEmPeriodico	Diego Antonio Falceta Gonçalves	2015	http://dx.doi.org/10.1088/0004-637X/808/1/65	FAST MAGNETIC FIELD AMPLIFICATION IN THE EARLY UNIVERSE: GROWTH OF COLLISIONLESS PLASMA INSTABILITIES IN TURBULENT MEDIA	Astrophysical Journal (Online)	Falceta-Gonçalves, D.; KOWAL, G.	Qualis nao identificado	Astrophysical Journal (Online)
artigoEmPeriodico	Diego Antonio Falceta Gonçalves	2015	http://dx.doi.org/10.1093/mnras/stv2586	Features of collisionless turbulence in the intracluster medium from simulated Faraday Rotation maps	Monthly Notices of the Royal Astronomical Society (Print)	NAKWACKI, M. S. ; KOWAL, G. ; SANTOS-LIMA, R. ; de Gouveia dal Pino, E. M. ; Falceta-Gonçalves, D. A.	A1	
artigoEmPeriodico	Diego Antonio Falceta Gonçalves	2014	http://dx.doi.org/10.1088/0004-637X/781/2/84	MAGNETIC FIELD AMPLIFICATION AND EVOLUTION IN TURBULENT COLLISIONLESS MAGNETOHYDRODYNAMICS: AN APPLICATION TO THE INTRACLUSTER MEDIUM	THE ASTROPHYSICAL JOURNAL	SANTOS-LIMA, R. ; de Gouveia dal Pino, E. M. ; Kowal, G. ; Falceta-Gonçalves, D. ; Lazarian, A. ; Nakwacki, M. S.	A1	
artigoEmPeriodico	Diego Antonio Falceta Gonçalves	2014	http://dx.doi.org/10.5194/npg-21-587-2014	Turbulence in the interstellar medium	Nonlinear Processes in Geophysics (Online)	FALCETA-GONCALVES, D.; Kowal, G. ; FALGARONE, E. ; CHIAN, A.	B1	Nonlinear Processes in Geophysics
artigoEmPeriodico	Diego Antonio Falceta Gonçalves	2014	http://dx.doi.org/10.1088/0004-637X/791/2/95	η CARINAE BABY HOMUNCULUS UNCOVERED BY ALMA	Astrophysical Journal (Online)	ABRAHAM, ZULEMA ; Falceta-Gonçalves, Diego ; BEAKLINI, PEDRO P. B.	Qualis nao identificado	Astrophysical Journal (Online)
artigoEmPeriodico	Diego Antonio Falceta Gonçalves	2014	http://dx.doi.org/10.1093/mnras/stt2393	On the alignment of PNe and local magnetic field at the Galactic centre: magnetohydrodynamical numerical simulations	Monthly Notices of the Royal Astronomical Society (Print)	FALCETA-GONÇALVES, D.; MONTEIRO, H.	A1	
artigoEmPeriodico	Diego Antonio Falceta Gonçalves	2014	http://dx.doi.org/10.1093/mnras/stu2104	Ambient magnetic field amplification in shock fronts of relativistic jets: an application to GRB afterglows	Monthly Notices of the Royal Astronomical Society (Print)	DA SILVA, G. R. ; FALCETA-GONCALVES, D. ; KOWAL, G. ; de Gouveia dal Pino, E. M.	A1	
artigoEmPeriodico	Diego Antonio Falceta Gonçalves	2014	http://dx.doi.org/10.1093/mnras/stu2127	The onset of large-scale turbulence in the interstellar medium of spiral galaxies	Monthly Notices of the Royal Astronomical Society (Print)	FALCETA-GONCALVES, D.; BONNELL, I. ; KOWAL, G. ; LEPINE, J. R. D. ; BRAGA, C. A. S.	A1	
artigoEmPeriodico	Diego Antonio Falceta Gonçalves	2013	http://dx.doi.org/10.1093/mnras/sts425	The mass-loss process in dwarf galaxies from 3D hydrodynamical simulations: the role of dark matter and starbursts	Royal Astronomical Society. Monthly Notices	Ruiz, L. O. ; FALCETA-GONCALVES, D. ; LANFRANCHI, G. A. ; Caproni, A.	Qualis nao identificado	Royal Astronomical Society. Monthly Notices
artigoEmPeriodico	Diego Antonio Falceta Gonçalves	2013	http://dx.doi.org/10.1093/mnras/stt485	On the theory of mass-loss in dwarf galaxies - I. Basic equations and the case of wave/thermal driven winds	Monthly Notices of the Royal Astronomical Society (Print)	FALCETA-GONCALVES, D	A1	
artigoEmPeriodico	Diego Antonio Falceta Gonçalves	2013	http://dx.doi.org/10.1088/0004-637X/777/2/112	MAGNETIC FIELD COMPONENTS ANALYSIS OF THE SCUPOL 850micron POLARIZATION DATA CATALOG	THE ASTROPHYSICAL JOURNAL	POIDEVIN, F. ; FALCETA-GONCALVES, D. ; Kowal, G. ; de Gouveia dal Pino, E. M. ; MAGALHAES, A. M.	A1	
trabalhoCompletoEmCongresso	Diego Antonio Falceta Gonçalves	2013		Turbulence and dynamo interlinks	IAU Symposium 294	de Gouveia dal Pino, E. M. ; LIMA, R. ; Kowal, G ; FALCETA-GONCALVES, D.		
resumoExpandidoEmCongresso	Diego Antonio Falceta Gonçalves	2013	Eta Carinae seen by ALMA	Massive Stars: From α to Ω, 2013, Rhodes. Massive Stars from alpha to omega	ABRAHAM, Z. ; FALCETA-GONÇALVES, D. ; BEAKLINI, P.		
artigoEmPeriodico	Cristina Adams	2016	http://dx.doi.org/10.1080/03014460.2016.1193222	Social and health dimensions of climate change in the Amazon: A review	Annals of Human Biology	BRONDIZIO, E. ; LIMA, A. C. B. ; SCHRAMSKI, S. ; ADAMS, C.	B1	
artigoEmPeriodico	Cristina Adams	2016	http://dx.doi.org/10.1111/btp.12385	Impacts of large-scale forest restoration on socioeconomic status and local livelihoods: what we know and do not know	Biotropica (Lawrence, KS)	ADAMS, C.; RODRIGUES, S. T. ; CALMON, M. ; KUMAR, C.	A2	
artigoEmPeriodico	Cristina Adams	2016		Comments to Piperata et al. 2016	Current Anthropology	ADAMS, C	A1	
artigoEmPeriodico	Cristina Adams	2015		The Afro-Brazilian collective land: analyzing institutional changes in the past 200 years	Latin American Research Review	FUTEMMA, C. R. ; MUNARI, L. C. ; ADAMS, C.	A1	
artigoEmPeriodico	Cristina Adams	2015		Caboclos do Marajó: Subsistência, Meio Ambiente e Mudanças na Amazônia	Ciência Hoje	NEVES, W. A. ; Murrieta, R. S. S. ; ADAMS, C.	B2	
artigoEmPeriodico	Cristina Adams	2015	http://dx.doi.org/10.15451/ec2015-7-4.6-1-12	From fish and bushmeat to chicken nuggets: the nutrition transition in a continuum from rural to urban settings in the Colombian Amazon region	Etnobiology and Conservation	van Vliet, Nathalie ; QUICENO-MESA, M. P. ; CRUZ-ANTIA, D. ; TELLEZ, L. ; MARTINS, C. ; HAIDEN, E. ; PRINCI, M. O. ; ADAMS, C. ; MORSELLO, C. ; VALENCIA, L. ; BONILLA, T. ; YAGUE, B. ; Nasi, R.	Qualis nao identificado	Etnobiology and Conservation
artigoEmPeriodico	Cristina Adams	2015	http://dx.doi.org/10.5751/ES-07934-200422	Beyond protein intake: Bushmeat as source of micronutrients in the Amazon region	Ecology and Society: a journal of integrative science for resilience and sustainability	SARTI, F. M. ; ADAMS, C. ; MORSELLO, C. ; VLIET, N. V. ; SCHOR, T. ; YAGUE, B. ; TELLEZ, L. ; QUICENO-MESA, M. P. ; CRUZ-ANTIA, D.	Qualis nao identificado	Ecology and Society: a journal of integrative science for resilience and sustainability
artigoEmPeriodico	Cristina Adams	2015	http://dx.doi.org/10.5751/ES-07771-200421	Cultural attitudes are stronger predictors of bushmeat consumption and preference than economic factors among urban Amazonians from Brazil and Colombia	Ecology and Society: a journal of integrative science for resilience and sustainability	MORSELLO, C. ; YAGU#776 ; BELTRESCHI, L. ; VLIET, N. V. ; ADAMS, C. ; SCHOR, T. ; QUICENO-MESA, M. P. ; CRUZ-ANTIA, D.	Qualis nao identificado	Ecology and Society: a journal of integrative science for resilience and sustainability
artigoEmPeriodico	Cristina Adams	2015	http://dx.doi.org/10.1111/sum.12224	Dynamics of soil chemical properties in shifting cultivation systems in the tropics: a meta-analysis	Soil Use and Management	RIBEIRO FILHO, A. A. ; ADAMS, C. ; MANFREDINI, S. ; AGUILAR, R. ; NEVES, W. A.	A2	
artigoEmPeriodico	Cristina Adams	2014	http://dx.doi.org/10.1186/1746-4269-10-7	Local and scientific knowledge for assessing the use of fallows and mature forest by large mammals in SE Brazil: identifying singularities in folkecology	Journal of Ethnobiology and Ethnomedicine	PRADO, H. M. ; Murrieta, R. S. S. ; ADAMS, C. ; BRONDIZIO, E.	A2	
artigoEmPeriodico	Cristina Adams	2013		A sucessão florestal em roças em pousio: a natureza está fora da lei?	Scientia Forestalis (IPEF)	GOMES, E. P. C. ; SUGIYAMA, M. ; ADAMS, C. ; PRADO, H. M. ; OLIVEIRA JR., C. J. F.	B1	
artigoEmPeriodico	Cristina Adams	2013	http://dx.doi.org/10.1098/rstb.2012.0378	Pesticide use and biodiversity conservation in the Amazonian agricultural frontier	PHILOSOPHICAL TRANSACTIONS OF THE ROYAL SOCIETY B-BIOLOGICAL SCIENCES	SCHIESARI, L. ; WAICHMAN, A. ; BROCK, T. ; ADAMS, C. ; GRILLITSCH, B.	A1	
artigoEmPeriodico	Cristina Adams	2013	http://dx.doi.org/10.2993/0278-0771-33.2.180	Complementary Viewpoints: Scientific and Local Knowledge of Ungulates in the Brazilian Atlantic Forest	Journal of Ethnobiology	PRADO, H. M. ; Murrieta, R. S. S. ; ADAMS, C. ; BRONDIZIO, E.	B1	
artigoEmPeriodico	Cristina Adams	2013	http://dx.doi.org/10.1080/08941920.2013.820813	-Slash and Burn- and -Shifting- Cultivation Systems in Forest Agriculture Frontiers From the Brazilian Amazon	Society & Natural Resources	van Vliet, Nathalie ; Adams, Cristina ; VIEIRA, IMA CÉLIA GUIMARÃES ; Mertz, Ole	B1	
artigoEmPeriodico	Cristina Adams	2013	http://dx.doi.org/10.1590/s1981-81222013000300013	The impacts of shifting cultivation on tropical forest soil: a review	Boletim do Museu Paraense Emílio Goeldi. Ciências Humanas	RIBEIRO FILHO, A. A. ; ADAMS, C. ; MURRIETA, R. S. S.	A2	
resumoExpandidoEmCongresso	Cristina Adams	2013	Agent-Based Modeling as a tool for policy making towards common-pool resources: palm heart harvesting and traditional communities in Brazil	14th Global Conference of the International Association for the Study of the Commons, 2013, Kita Fuji. Digital Library of the Commons	LIMA, R. V. A. ; ADAMS, C. ; RAIMBERT, C. ; FERREIRA, F. F.		
artigoEmPeriodico	Carla Morsello	2016	http://dx.doi.org/10.5380/dma.v36i0.43924	Efeitos ecológicos da exploração de produtos florestais não madeireiros: uma revisão sistemática	Desenvolvimento e Meio Ambiente (UFPR)	BRITES, ALICE DANTAS ; MORSELLO, CARLA	B1	
artigoEmPeriodico	Carla Morsello	2016	http://dx.doi.org/10.1371/journal.pone.0167691	Who Cares about Forests and Why? Individual Values Attributed to Forests in a Post-Frontier Region in Amazonia	Plos One	CARIGNANO TORRES, PATRICIA ; MORSELLO, CARLA ; PARRY, LUKE ; PARDINI, RENATA	A1	
artigoEmPeriodico	Carla Morsello	2015	http://dx.doi.org/10.5751/ES-07934-200422	Beyond protein intake: Bushmeat as source of micronutrients in the Amazon region	Ecology and Society: a journal of integrative science for resilience and sustainability	SARTI, FLAVIA M. ; ADAMS, CRISTINA ; MORSELLO, CARLA ; VAN VLIET, NATHALIE ; SCHOR, TATIANA ; YAGÜE, BLANCA ; TELLEZ, LEADY ; QUICENO-MESA, MARIA PAULA ; CRUZ, DANIEL	Qualis nao identificado	Ecology and Society: a journal of integrative science for resilience and sustainability
artigoEmPeriodico	Carla Morsello	2015	http://dx.doi.org/10.5751/es-07771-200421	Cultural attitudes are stronger predictors of bushmeat consumption and preference than economic factors among urban Amazonians from Brazil and Colombia	Ecology and Society: a journal of integrative science for resilience and sustainability	MORSELLO, CARLA; YAGÜE, BLANCA ; BELTRESCHI, LETÍCIA ; VAN VLIET, NATHALIE ; ADAMS, CRISTINA ; SCHOR, TATIANA ; QUICENO-MESA, MARIA PAULA ; CRUZ, DANIEL	Qualis nao identificado	Ecology and Society: a journal of integrative science for resilience and sustainability
artigoEmPeriodico	Carla Morsello	2015	http://dx.doi.org/10.15451/ec2015-7-4.6-1-12	From fish and bushmeat to chicken nuggets: the nutrition transition in a continuum from rural to urban settings in the Colombian Amazon region	Etnobiology and Conservation	VAN VLIET, NATHALIE ; QUICENO-MESA, MARIA PAULA ; CRUZ-ANTIA, D. ; TELLEZ, LEADY ; Martins, C. ; HAIDEN, E. ; OLIVEIRA, M. R. ; ADAMS, C ; MORSELLO, C. ; VALENCIA, L. ; BONILLA, T. ; YAGÜE, BLANCA ; NASI, R.	Qualis nao identificado	Etnobiology and Conservation
artigoEmPeriodico	Carla Morsello	2014	http://dx.doi.org/10.1016/j.ecolecon.2014.01.021	Does trading non-timber forest products drive specialisation in products gathered for consumption? Evidence from the Brazilian Amazon	Ecological Economics (Amsterdam)	MORSELLO, CARLA; DELGADO, JULIANA APARECIDA DA SILVA ; FONSECA-MORELLO, THIAGO ; BRITES, ALICE DANTAS	A1	
artigoEmPeriodico	Carla Morsello	2013	http://dx.doi.org/10.1016/j.lindif.2012.12.012	Children's use of time and traditional ecological learning. A case study in two Amazonian indigenous societies	Learning and Individual Differences	RUIZ-MALLÉN, ISABEL ; MORSELLO, CARLA ; REYES-GARCÍA, VICTORIA ; DE FARIA, RENATA BARROS MARCONDES	A1	
artigoEmPeriodico	Carla Morsello	2013	http://dx.doi.org/10.1016/j.lindif.2013.03.005	Do schooling and exposure to the dominant society through travel experiences is associated with the monetary income of ethnic minorities? A case study among three remote Amazonian indigenous groups	Learning and Individual Differences	MORSELLO, CARLA; RUIZ-MALLÉN, ISABEL	A1	
artigoEmPeriodico	Carla Morsello	2013	http://dx.doi.org/10.1098/rstb.2012.0166	A social and ecological assessment of tropical land uses at multiple scales: the Sustainable Amazon Network	Philosophical Transactions - Royal Society. Biological Sciences (Print)	GARDNER, T	A1	
artigoEmPeriodico	Camilo Rodrigues Neto	2016		A UTILIZAÇÃO DA MODELAGEM DE SISTEMAS COMPLEXOS NA CONSTRUÇÃO DE UM MERCADO DE AÇÕES ARTIFICIAL	Revista Eletrônica do Departamento de Ciências Contábeis & Departamento de Atuária e Métodos Quantitativos (REDECA)	RAMOS, W. ; Rodrigues Neto, C.	Qualis nao identificado	Revista Eletrônica do Departamento de Ciências Contábeis & Departamento de Atuária e Métodos Quantitativos (REDECA)
artigoEmPeriodico	Camilo Rodrigues Neto	2015	http://dx.doi.org/10.21149/spm.v57i5.7622	Impacto de la utilización de la red propia de una aseguradora privada sobre los costos de atención ambulatoria	Salud Pública de México (Impresa)	ZULUAGA-RAMÍREZ, MÓNICA MÁRCELA ; MACEDO-IVANAUSKAS, TERRY ; FAGUNDES-FERREIRA, FERNANDO ; RODRIGUES-NETO, CAMILO	Qualis nao identificado	Salud Pública de México (Impresa)
artigoEmPeriodico	André Cavalcanti Rocha Martins	2016	http://dx.doi.org/10.3389/fphy.2016.00007	Thou Shalt Not Take Sides: Cognition, Logic and the Need for Changing How We Believe	Frontiers in Physics	Martins, André C. R	Qualis nao identificado	Frontiers in Physics
artigoEmPeriodico	André Cavalcanti Rocha Martins	2015	http://dx.doi.org/10.1103/PhysRevE.91.012108	Two-dimensional Ising transition through a technique from two-state opinion-dynamics models	Physical Review E (Statistical, Nonlinear, and Soft Matter Physics)	Galam, Serge ; Martins, André C R	A2	
artigoEmPeriodico	André Cavalcanti Rocha Martins	2014	http://dx.doi.org/10.1016/j.physleta.2014.11.021	Opinion particles: Classical physics and opinion dynamics	Physics Letters. A (Print)	Martins, André C.R	A2	
artigoEmPeriodico	André Cavalcanti Rocha Martins	2014	http://dx.doi.org/10.1086/677387	Programmed Life Span in the Context of Evolvability	The American Naturalist	MITTELDORF, JOSHUA ; Martins, André C. R.	A1	
artigoEmPeriodico	André Cavalcanti Rocha Martins	2013	http://dx.doi.org/10.1103/PhysRevE.87.042807	Building up of individual inflexibility in opinion dynamics	Physical Review. E, Statistical, Nonlinear, and Soft Matter Physics (Print)	Martins, André C. R.; Galam, Serge	A1	
artigoEmPeriodico	André Cavalcanti Rocha Martins	2013	http://dx.doi.org/10.1016/j.physleta.2013.07.007	Trust in the CODA model: Opinion Dynamics and the reliability of other agents	Physics Letters. A (Print)	Martins, André C R	A2	
artigoEmPeriodico	André Cavalcanti Rocha Martins	2013	http://dx.doi.org/10.1016/j.physa.2013.10.009	Discrete opinion models as a limit case of the CODA model	Physica. A (Print)	Martins, André C.R	A2	
artigoEmPeriodico	André Cavalcanti Rocha Martins	2013		Entrepreneurial decision-making using the knightian uncertainty approach	RAUSP-e (São Paulo)	Saes, M. S. M. ; Martins, André C.R. ; SCHNAIDER, P. S. B.	B2	
artigoEmPeriodico	Ana Amélia Benedito Silva	2016	http://dx.doi.org/10.1186/s13102-016-0038-9	Effect of fatigue caused by a simulated handball game on ball throwing velocity, shoulder muscle strength and balance ratio: a prospective study	BMC Sports Science, Medicine and Rehabilitation	ANDRADE, MARÍLIA SANTOS ; DE CARVALHO KOFFES, FABIANA ; BENEDITO-SILVA, ANA AMÉLIA ; Da Silva, Antonio Carlos ; De Lira, Claudio Andre Barbosa	Qualis nao identificado	BMC Sports Science, Medicine and Rehabilitation
artigoEmPeriodico	Ana Amélia Benedito Silva	2016	http://dx.doi.org/10.4025/jphyseduc.v27i1.2732	Variação diurna entre matutinos e vespertinos nos tempos de reação motora e de movimento	Journal of Physical Education	MEIRA JUNIOR, CASSIO MIRANDA ; Benedito-Silva, Ana Amelia ; FALCONI, MARIANA MURIEL VITORIO	Qualis nao identificado	Journal of Physical Education
artigoEmPeriodico	Ana Amélia Benedito Silva	2015	http://dx.doi.org/10.1097/JOM.0000000000000393	Workplace Exercise and Educational Program for Improving Fitness Outcomes Related to Health in Workers	Journal of Occupational and Environmental Medicine	VILELA, BIANCA LIMA ; BENEDITO SILVA, ANA AMÉLIA ; De Lira, Claudio Andre Barbosa ; ANDRADE, MARÍLIA DOS SANTOS	Qualis nao identificado	Journal of Occupational and Environmental Medicine
artigoEmPeriodico	Ana Amélia Benedito Silva	2014		Strength field tests performance are correlated with isokinetic strength of shoulder rotator muscles in female handball players.	Journal of Sports Medicine and Physical Fitness (Testo stampato)	ANDRADE M.S. ; FACHINA, R.J.F.G. ; CRUZ, W. ; BENEDITO-SILVA, A. A. ; SILVA, A. C. ; LIRA, C. A. B.	B1	
artigoEmPeriodico	Ana Amélia Benedito Silva	2014	http://dx.doi.org/10.1186/2193-1801-3-604	The influence of acute hypoxic exposure on isokinetic muscle force production	SpringerPlus	IVAMOTO, RAFAEL KENJI ; NAKAMOTO, FERNANDA PATTI ; VANCINI, RODRIGO LUIZ ; BENEDITO-SILVA, ANA AMÉLIA ; DE LIRA, CLAUDIO ANDRE ; ANDRADE, MARÍLIA DOS	Qualis nao identificado	SpringerPlus
artigoEmPeriodico	Ana Amélia Benedito Silva	2013	http://dx.doi.org/10.1016/j.ptsp.2012.12.002	Profiling the isokinetic shoulder rotator muscle strength in 13- to 36-year-old male and female handball players	Physical Therapy in Sport	Andrade, Marilia Dos Santos ; De Lira, Claudio Andre Barbosa ; VANCINI, RODRIGO LUIZ ; DE ALMEIDA, ALEXANDRE APARECIDO ; BENEDITO-SILVA, ANA AMÉLIA ; Da Silva, Antonio Carlos	Qualis nao identificado	Physical Therapy in Sport
artigoEmPeriodico	Ana Amélia Benedito Silva	2013	http://dx.doi.org/10.1371/journal.pone.0080159	Influence of Maternal Height and Weight on Low Birth Weight: A Cross-Sectional Study in Poor Communities of Northeastern Brazil	Plos One	BRITTO, REVILANE PARENTE DE ALENCAR ; FLORÊNCIO, TELMA MARIA TOLEDO ; BENEDITO SILVA, ANA AMELIA ; SESSO, RICARDO ; CAVALCANTE, JAIRO CALADO ; SAWAYA, ANA LYDIA	A1	
artigoEmPeriodico	Ana Amélia Benedito Silva	2013	http://dx.doi.org/10.1007/s00421-012-2415-8	Free-running circadian rhythms of muscle strength, reaction time, and body temperature in totally blind people	European Journal of Applied Physiology (Print)	Ana Amélia Benedito-Silva; SQUARCINI, Camila Fabiana Rossi ; PIRES, Maria Laura Nogueira ; Lopes, Cleide ; ESTEVES, Andrea Maculano ; CORNELISSEN-GUILLAUME, GERMAINE ; MATARAZZO, CAROLINA ; GARCIA, DANILO ; SILVA, MARIA STELLA PECCIN ; Tufik, Sergio ; DE MELLO, M. T. or MELLO, M.T.	A2	
