9568978600271651
1594563006260546
4046984728286369
4058978461118686
9722066254398087
9999217523842385
0007890894387249
0122916218414168
0816918235211326
4619779231164354
8339563650267766
9274837225584499
6348215204947696
7481868767930127
0540194149670095
3424804303469383
5138758521691630
5501474017902654
