ID_Lattes|MATRICULA|NOME|CH|mail|LP_1|PROGRAMA_1|CATEG_1|Periodo_Inicio_1|Periodo_Fim_1|Resp_prog|Resp_LP1
K4760222P4|99999|FERNANDO ANTONIO DE MEDEIROS|40|UNIFAP@UNIFAP.br|UNIFAP|UNIFAP|P|2013|2016|UNIFAP|UNIFAP
K4768756P2|99999|SILVIA MARIA MATHES FAUSTINO|40|UNIFAP@UNIFAP.br|UNIFAP|UNIFAP|P|2013|2016||
K4797662H6|99999|RAIMUNDO NONATO PICANCO SOUTO|40|UNIFAP@UNIFAP.br|UNIFAP|UNIFAP|P|2013|2016||
K4217241J5|99999|MOACIR DE AZEVEDO BENTES MONTEIRO NETO|40|UNIFAP@UNIFAP.br|UNIFAP|UNIFAP|P|2013|2016||
K4209378J6|99999|SILVANA RODRIGUES DA SILVA|40|UNIFAP@UNIFAP.br|UNIFAP|UNIFAP|P|2013|2016||
K4778011J9|99999|MARCIO ROMEU RIBAS DE OLIVEIRA|40|UNIFAP@UNIFAP.br|UNIFAP|UNIFAP|P|2013|2016||
K4759163H1|99999|GIVAGO DA SILVA SOUZA|40|UNIFAP@UNIFAP.br|UNIFAP|UNIFAP|P|2013|2016||
K8913184T1|99999|JULIO CESAR SA DE OLIVEIRA|40|UNIFAP@UNIFAP.br|UNIFAP|UNIFAP|P|2013|2016||
K4709036U1|99999|MARIA IZABEL TENTES CORTES|40|UNIFAP@UNIFAP.br|UNIFAP|UNIFAP|P|2013|2016||
K4768265H6|99999|ROBERTO MESSIAS BEZERRA|40|UNIFAP@UNIFAP.br|UNIFAP|UNIFAP|P|2013|2016||
NOK|99999|VANJA SUELY CALVOSA DALMEIDA COUTO|40|UNIFAP@UNIFAP.br|UNIFAP|UNIFAP|P|2013|2016||
K4227309T2|99999|MARLUCILENA PINHEIRO DA SILVA|40|UNIFAP@UNIFAP.br|UNIFAP|UNIFAP|P|2013|2016||
K4139217D6|99999|MADSON RALIDE FONSECA GOMES|40|UNIFAP@UNIFAP.br|UNIFAP|UNIFAP|P|2013|2016||
K4587066J1|99999|ROSEMARY FERREIRA DE ANDRADE|40|UNIFAP@UNIFAP.br|UNIFAP|UNIFAP|P|2013|2016||
K4703431U7|99999|MAIRA TIYOMI SACATA TONGU NAZIMA|40|UNIFAP@UNIFAP.br|UNIFAP|UNIFAP|P|2013|2016||
K4974938J0|99999|JOCIVANIA OLIVEIRA DA SILVA|40|UNIFAP@UNIFAP.br|UNIFAP|UNIFAP|P|2013|2016||
K4769161H7|99999|EMERSON AUGUSTO CASTILHO MARTINS|40|UNIFAP@UNIFAP.br|UNIFAP|UNIFAP|P|2013|2016||
NOK|99999|ALESSANDRA AZEVEDO NASCIMENTO DE MEDEIROS|40|UNIFAP@UNIFAP.br|UNIFAP|UNIFAP|P|2013|2016||
K4215979H8|99999|ANA RITA PINHEIRO BARCESSAT|40|UNIFAP@UNIFAP.br|UNIFAP|UNIFAP|P|2013|2016||
K4775679J9|99999|ANNELI MERCEDES CELIS DE CARDENAS|40|UNIFAP@UNIFAP.br|UNIFAP|UNIFAP|P|2013|2016||
K4751205J6|99999|DEMILTO YAMAGUCHI DA PUREZA|40|UNIFAP@UNIFAP.br|UNIFAP|UNIFAP|P|2013|2016||
K4518702Y6|99999|ALVARO ADOLFO DUARTE ALBERTO|40|UNIFAP@UNIFAP.br|UNIFAP|UNIFAP|P|2013|2016||
K4587050E4|99999|ARTEMIS SOCORRO DO NASCIMENTO RODRIGUES|40|UNIFAP@UNIFAP.br|UNIFAP|UNIFAP|P|2013|2016||
K4750088Y6|99999|DEYSE DE SOUZA DANTAS|40|UNIFAP@UNIFAP.br|UNIFAP|UNIFAP|P|2013|2016||
K4723163Z6|99999|ALVARO AUGUSTO RIBEIRO DALMEIDA COUTO|40|UNIFAP@UNIFAP.br|UNIFAP|UNIFAP|P|2013|2016||
