artigoEmPeriodico	2013		Simulação numérica da deformação da coluna de hastes de um sistema de bombeio mecânico	Petro & Química	ALMEIDA, P. ; ROMERO, O. J.	B2	
artigoEmPeriodico	2013		Metodologia de posicionamento das válvulas de injeção de gás na elevação artificial por gas-lift	Petro & Química	Alves, E. F. S. ; ROMERO, O. J.	B2	
artigoEmPeriodico	2013	http://dx.doi.org/10.1007/s40313-013-0052-z	A Robust Adaptive Path-Following Controller for a Robotic Wheelchair	Journal of Control, Automation and Electrical Systems	CELESTE, W. C.; SARCINELLI FILHO, Mário ; BASTOS-FILHO, TEODIANO FREIRE ; DE LA CRUZ, CELSO ; CARELLI, Ricardo	Qualis nao identificado	Journal of Control, Automation and Electrical Systems
artigoEmPeriodico	2013	http://dx.doi.org/10.12720/jtle.1.2.104-110	A Methodology for Location of Logistics Platforms Using Geographic Information Systems	Journal of Traffic and Logistics Engineering	COSTA, BEATRIZ B. ; NASSI, CARLOS D. ; Ribeiro, Glaydston M.	Qualis nao identificado	Journal of Traffic and Logistics Engineering
artigoEmPeriodico	2013		Recuperação avançada de petróleo utilizando espumas	Petro & Química	FEJOLI, R. F. ; ROMERO, O. J.	B2	
artigoEmPeriodico	2013	http://dx.doi.org/10.1016/j.eswa.2013.04.035	Dispersion for the point-feature cartographic label placement problem	Expert Systems with Applications	GOMES, SÓSTENES PEREIRA ; Ribeiro, Glaydston Mattos ; LORENA, Luiz Antonio Nogueira	A1	
artigoEmPeriodico	2013	http://dx.doi.org/10.1590/s0102-695x2013005000060	Cytotoxic activity of marine algae against cancerous cells	Revista Brasileira de Farmacognosia (Impresso)	GUEDES, ÉLICA A. C. ; SILVA, TERESINHA G. DA ; AGUIAR, JACIANA S. ; BARROS, LURDIANA D. DE ; PINOTTI, LAURA M. ; SANT'ANA, ANTONIO E. G.	B1	
artigoEmPeriodico	2013	http://dx.doi.org/10.1016/j.cep.2013.05.009	Analysis of conical spouted bed fluid dynamics using carton mixtures	Chemical Engineering and Processing	Marques, I.I.D.R. ; Bacelos, M.S.	A1	
artigoEmPeriodico	2013	http://dx.doi.org/10.4236/mrc.2013.24017	N-Hexane Isomerization on Ni-Pt/Catalysts Supported on Mordenite	Modern Research in Catalysis	MARTINS, GEOVANA S. V. ; SANTOS, EVERTON R. F. DOS ; RODRIGUES, MEIRY G. F. ; PECCHI, GINA ; YOSHIOKA, CARLOS M. N. ; CARDOSO, DILSON	Qualis nao identificado	Modern Research in Catalysis
artigoEmPeriodico	2013	http://dx.doi.org/10.1007/s10853-012-6910-4	Influence of heat-treatment environment on Ni-ferrite nanoparticle formation from coconut water precursor	Journal of Materials Science (Dordrecht. Online)	Muniz, E. P. ; PROVETI, J. R. C. ; PEREIRA, R. D. ; Segatto, B. ; PORTO, P. S. S. ; NASCIMENTO, V. P. ; Schettino, M. A. ; Passamani, E. C.	A1	Journal of Materials Science
artigoEmPeriodico	2013		PARTIAL CHARACTERIZATION AND EVALUATION OF ANTIOXIDANT ACTIVITY FROM FRACTIONATED POLYSACCHARIDES OBTAINED OF BROWN ALGAE	International Journal of Pharmacy and Pharmaceutical Sciences	NARIYOSHI, Y. N. ; GUEDES, E. A. C. ; ROCHA, H. A. O. ; PINOTTI, L. M.	B4	
artigoEmPeriodico	2013		ANÁLISE DAS ENERGIAS ENVOLVIDAS NO PROCESSO DE DESSORÇÃO DE UMIDADE EM SEMENTES SILVESTRES	Revista de Ciências Exatas	Picelli, R. M. ; Arrieche, L.S. ; SARTORI, D.J.M.	B5	
artigoEmPeriodico	2013		Aplicação de soluções poliméricas no deslocamento de óleos pesados	Petro & Química	ROMERO, O. J.; Chuquer, E	B2	
artigoEmPeriodico	2013		Transporte de óleo multifásico em tubulações onshore: influência do atrito e da perda de calor	Petro & Química	SAAD, H. C. ; ROMERO, O. J.	B2	
artigoEmPeriodico	2013		Development of New Macadamia Products	Journal of Chemistry and Chemical Engineering	SILVA, T.C.A. ; ARRIECHE, L. S. ; Sartori, D.J.M.	B2	
trabalhoCompletoEmCongresso	2013		Secagem de fatias cilíndricas de bananas em um secador solar artesanal híbrido	X Congresso Brasileiro de Engenharia Química Iniciação Científica	ALMAGRO, A. S. ; SALES, A. B. ; PORTO, P. S. S. ; MUNIZ, E. P. ; Proveti, J. R. C.		
trabalhoCompletoEmCongresso	2013		Secagem de fatias cilíndricas de bananas em um secador solar artesanal híbrido	X Congresso Brasileiro de Engenharia Química Iniciação Científica	Almagro, A.S. ; Sales, A.B. ; Muniz, E.P. ; PROVETI, J. R. C. ; PORTO, P. S. S.		
trabalhoCompletoEmCongresso	2013		Estudo sobre a cinética de secagem do carpelo da macadâmia em camada fina	XXXVI Congresso Brasileiro de Sistemas Particulados	ALMEIDA, P. S. ; BACELOS, M.S. ; XAVIER, T. P. ; BARROZO, M ; LIRA, T. S.		
trabalhoCompletoEmCongresso	2013		Estimação de parâmetros cinéticos da secagem da casca da macadâmia em camada fina	COBEQIC 2013	ALMEIDA, P. S. ; XAVIER, T. P. ; BARROZO, M. A. S. ; Marcelo S. Bacelos ; Lira, T. S.		
trabalhoCompletoEmCongresso	2013		PURIFICAÇÃO DE PENICILINA G ACILASE RECOMBINANTE DE ESCHERICHIA COLI POR ADSORÇÃO IÔNICA	XIX SINAFERM - Simpósio Nacional de Bioprocessos X SIMPÓSIO DE HIDRÓLISE ENZIMÁTICA DE BIOMASSAS	ALTARUGIO, L. M. ; VELEZ, A. M. ; PINOTTI, L. M. ; TARDIOLI, P. W. ; GIORDANO, R. L. C.		
trabalhoCompletoEmCongresso	2013		Isotermas de equilíbrio do carpelo da macadâmia: discriminação de equações utilizando medidas de não linearidade	XXXVI Congresso Brasileiro de Sistemas Particulados	BARCELOS, K. M. ; BACELOS, M.S. ; XAVIER, T.P. ; BARROZO, M.A.S. ; LIRA, T. S.		
trabalhoCompletoEmCongresso	2013		Discriminação de equações para isotermas da umidade de equilíbrio da casca de macadâmia	COBEQIC 2013	BARCELOS, K. M. ; XAVIER, T. P. ; BARROZO, M. A. S. ; Marcelo S. Bacelos ; Lira, T. S.		
trabalhoCompletoEmCongresso	2013		Determinação da energia de ativação da pirólise do carpelo de macadâmia utilizando modelos isoconversionais	XXXVI Congresso Brasileiro de Sistemas Particulados	BASILIO, A. ; BACELOS, M.S. ; XAVIER, T. P. ; BARROZO, M.A.S. ; LIRA, T. S.		
trabalhoCompletoEmCongresso	2013	http://dx.doi.org/10.5151/chemeng-cobec-ic-02-ft-049	ESTIMAÇÃO DE PARÂMETROS E COMPARAÇÃO DE MODELOS CINÉTICOS DA PIRÓLISE DA CASCA DE MACADÂMIA	X Congresso Brasileiro de Engenharia Química	BASILIO, A. ; XAVIER, T. P. ; BARROZO, M. A. S. ; Marcelo S. Bacelos ; Lira, T. S.		
trabalhoCompletoEmCongresso	2013		Transesterificação de Gordura Residual Via Rota Enzimática	XIX Simpósio Nacional de Bioprocessos/X Simpósio de Hidrólise Enzimática de Biomassas	BENEVIDES, L. C. ; CASSINI, S. T. A. ; LIRA, T. S. ; PINOTTI, L. M.		
trabalhoCompletoEmCongresso	2013		A Paralellization Strategy to Improve Performance of Graph Partitioning Heuristics	2nd International Conference on Computer Engineering Mathematical Sciences 2013	BINDA, L. R. S. ; SILVA, Roney Pignaton da ; SILVA, S. T.		
trabalhoCompletoEmCongresso	2013		Avaliação da injeção de soluções poliméricas utilizando o software Eclipse (70701)	Congresso Brasileiro de P D em Petróleo e Gás	Bortoloti, G. B. ; ROMERO, O. J.		
trabalhoCompletoEmCongresso	2013		AVALIAÇÃO DE CRITÉRIOS DE DESEMPENHO COMO APOIO À ESTRATÉGIA DE PRODUÇÃO: ESTUDO DE CASO EM UMA EMPRESA DE BENEFICIAMENTO DE ALHO	Simpósio de Engenharia de Produção	CAMPOS, R. L. ; CHAVES, G. L. D. ; FRAGA, K. P.		
trabalhoCompletoEmCongresso	2013		A Methodology for Location of Logistics Platforms Using Geographic Information Systems	2nd International Conference on Traffic and Logistic Engineering (ICTLE 2013)	COSTA, B. B. ; NASSI, C. D. ; Ribeiro, Glaydston Mattos		
trabalhoCompletoEmCongresso	2013	http://dx.doi.org/10.5151/chemeng-cobec-ic-02-ft-034	INVESTIGAÇÃO DE MODELOS SEMI-EMPÍRICOS DE CINÉTICA DE SECAGEM DE PIMENTA-DO-REINO SECA SOB CONVECÇÃO NATURAL	X Congresso Brasileiro de Engenharia Química	COVRE, V.R. ; LIRA, T.S. ; BACELOS, M.S.		
trabalhoCompletoEmCongresso	2013		Evolution of infrared spectroscopic parameters during nickel ferrite formation from proteic sol-gel synthesis	Ninth International Latin American Conference On Powder Technology - PTECH 2013	FIOROTTI, J. C. ; Muniz, E.P. ; Porto, Paulo S.S. ; Pereira, R.D. ; Proveti, J. R. C. ; Gobbi, L.C.A. ; CAETANO, Edson Passamani		
trabalhoCompletoEmCongresso	2013		Estudo do Processo de Formação de Ferritas Produzidas com o Método Sol-Gel Protéico	Jornada de Iniciação Científica da UFES	FIOROTTI, J. C. ; Muniz, E.P.		
trabalhoCompletoEmCongresso	2013		Teste de Conceito de um Novo Produto: Um chocolate composto de extratos vegetais	Encontro Nacional de Engenharia de Produção	FONTOURA, W. B. ; CHAVES, G. L. D.		
trabalhoCompletoEmCongresso	2013		Teste de Conceito de um Chocolate composto de Extratos Vegetais: um estudo de caso em São Mateus - ES	XXI SIMPEP - Simpósio de Engenharia de Produção	FONTOURA, W. B. ; CHAVES, G. L. D. ; ARRIECHE, L. S.		
trabalhoCompletoEmCongresso	2013		Análise de um processo de atendimento de emergência por meio da teoria de filas	Simpósio de Engenharia de Produção	FRAGA, K. P. ; Ribeiro, Glaydston Mattos		
trabalhoCompletoEmCongresso	2013		Testes de pressão em reservatórios de gás (70813)	7 PDPETRO	GARUZZI, R. P. ; ROMERO, O. J.		
trabalhoCompletoEmCongresso	2013		SIMULAÇÃO DO PROCESSO DE DESASFALTAÇÃO A PROPANO SUPERCRÍTICO	X Congresso Brasileiro de Engenharia Química - Iniciação Científica	GHIZZI, A.M. ; GOMES, H. A. R. ; BRITO, A. B. N.		
trabalhoCompletoEmCongresso	2013		Produção de Lipases por Penicillium sp	X Congresso Brasileiro de Engenharia Química Iniciação Científica	LIMA, R. C. ; SILVA, H. N. L. ; PINOTTI, L. M.		
trabalhoCompletoEmCongresso	2013		Caracterização do Setor de Biodiesel no Moçambique	XV Congresso Brasileiro de Energia	MATAVEL, N. I. ; CHAVES, G. L. D.		
trabalhoCompletoEmCongresso	2013		Simulação da unidade de destilação a vácuo na produção de gasóleo para lubrificantes	III Encontro Petrobras e Universidades de Novas Tecnologias para Avaliação de Petróleos	MENEGUELO, A. P		
trabalhoCompletoEmCongresso	2013		STUDY ABOUT GEOLOGICAL SEQUESTRATION OF CO2 IN MATURE HYDROCARBON FIELDS USING SOFTWARES WITH INFORMATION RESERVOIR CHARACTERIZATION. In: 2º Congresso Brasileiro de CO2 na Indústria do Petróleo, Gás e Biocombustíveis, 2013, Rio de Janeiro	2º Congresso Brasileiro de CO2 na Indústria do Petróleo	MENEGUELO, A. P.; ZUCATELLI, P. J.		
trabalhoCompletoEmCongresso	2013		LOGÍSTICA REVERSA: A GESTÃO DO FLUXO REVERSO DE RESÍDUOS DE SAÚDE	Simpósio de Engenharia de Produção	MONTALVO, P. G. R. ; CHAVES, G. L. D. ; MATIAS, Y. R. M.		
trabalhoCompletoEmCongresso	2013	http://dx.doi.org/10.2118/148875-MS	Effect of Polymer Injection on the Mobility Ratio and Oil Recovery	SPE Heavy Oil Conference and Exhibition	MORELATO, PABLO ; RODRIGUES, LORENNZO ; ROMERO, OLDRICH JOEL		
trabalhoCompletoEmCongresso	2013		Estudo da modelagem e simulação da incrustação carbonática. In: V Encontro Nacional de Hidráulica de Poços de Petróleo e Gás, 2013, Teresópolis	Encontro Nacional de Hidráulica de Poços de Petróleo e Gás	PEREIRA, Fabio de Assis Ressel; MARTINS, A. L. ; COSMO, R. P. ; BARROS, W. Q. ; RIBEIRO, D. C.		
trabalhoCompletoEmCongresso	2013		Estudo do efeito 'flash' na precipitação carbonática em poços petrolíferos	XXXVI Congresso Brasileiro de Sistemas Particulados	PEREIRA, Fabio de Assis Ressel; MARTINS, A. L. ; RIBEIRO, D. C. ; COSMO, R. P. ; VIANA, M. C.		
trabalhoCompletoEmCongresso	2013		Estudo da injeção de sólidos como alternativa para remediação de resíduos da perfuração. In: 7 Congresso Brasileiro de PD em Petróleo e Gás, 2013, Aracajú	Congresso Brasileiro de PD em Petróleo e Gás	PEREIRA, Fabio de Assis Ressel; ROCHA, S. M. S. ; LEAO, R. X. A.		
trabalhoCompletoEmCongresso	2013		Delimitação das Hinterlands dos Portos Capixabas por meio de um Sistema de Informações Geográficas	XXXIII - Encontro Nacional de Engenharia de Produção	PIMENTEL, C. J. V. ; DAMAZIO, L. C. ; GONCALVES, W. ; Ribeiro, Glaydston Mattos		
trabalhoCompletoEmCongresso	2013		Meta-Heurística Clustering Search Aplicada ao Problema de Rodtulação Cartográfica de Pontos	XLV SBPO - Simpósio Brasileiro de Pesquisa Operacional	RABELLO, R. L. ; MAURI, Geraldo Regis ; Ribeiro, Glaydston Mattos ; LORENA, Luiz Antonio Nogueira		
trabalhoCompletoEmCongresso	2013	http://dx.doi.org/10.5151/chemeng-cobec-ic-02-ft-060	DETERMINAÇÃO DA UMIDADE DE EQUILÍBRIO DE SORÇÃO DA PIMENTA-DO-REINO	X Congresso Brasileiro de Engenharia Química	RAMALHO, A.P.S. ; LIRA, T.S. ; BACELOS, M. S.		
trabalhoCompletoEmCongresso	2013		Meta-Heurística ALNS para Resolução do Problema de Alocação de Berços	XXVII ANPET - Congresso Nacional de Pesquisa e Ensino em Transportes	Ribeiro, Glaydston Mattos; MAURI, Geraldo Regis ; Lorena, Luiz Antonio N. ; Laporte, Gilbert		
trabalhoCompletoEmCongresso	2013		Impacto da tecnologia ASP na produção de petróleo (70888)	Congresso Brasileiro de P D em Petróleo e Gás	ROMERO, O. J.; CALIMAN, I. ; SAAD, H. C. ; RIBEIRO, I. M. C.		
trabalhoCompletoEmCongresso	2013		Deposição de parafina durante o transporte de óleo multifásico em tubulações offshore (70706)	Congresso Brasileiro de P D em Petróleo e Gás	ROMERO, O. J.; SAAD, H. C. ; ALVES, E. F. S.		
trabalhoCompletoEmCongresso	2013		Injeção de espumas em reservatórios de petróleo (70889)	Congresso Brasileiro de P D em Petróleo e Gás	ROMERO, O. J.; ZUCATELLI, P. J. ; FEJOLI, R. F. ; SALZMANN, S. V.		
trabalhoCompletoEmCongresso	2013		EMBALAGENS DE AGROTÓXICOS X PILHAS E BATERIAS: COMO A LEGISLAÇÃO INFLUENCIA A EFICIÊNCIA DA LOGÍSTICA REVERSA	Simpósio de Engenharia de Produção	RONCHI, R. M. N. ; CHAVES, G. L. D.		
trabalhoCompletoEmCongresso	2013		Produção de Lipases por Bacillus megaterium. In: X Congresso Brasileiro de Engenharia Química Iniciação Científica, 2013, Vassouras	X Congresso Brasileiro de Engenharia Química Iniciação Científica	SILVA, H. N. L. ; LIMA, R. C. ; PINOTTI, L. M.		
trabalhoCompletoEmCongresso	2013		Pigment separation by adsorption on coconut shell	The Filtration Event - FILTECH 2013	SOTO, D. B. ; GOMES, M. P. ; PORTO, P. S. S. ; ROCHA, S. M. S.		
trabalhoCompletoEmCongresso	2013		Secagem e Extração da Pectina do Albedo da Casca de Laranja	X Congresso Brasileiro de Engenharia Química Iniciação Científica	STHEL, M. S. ; Muniz, E.P. ; PROVETI, J. R. C. ; PORTO, P. S. S.		
trabalhoCompletoEmCongresso	2013		MEDIDAS DE DESEMPENHO LOGÍSTICO: UM LEVANTAMENTO NAS INDÚSTRIAS DE GRANDE PORTE DOS ESTADOS DO ESPÍRITO SANTO, MINAS GERAIS E RIO DE JANEIRO	Encontro Nacional de Engenharia de Produção	ZON, C. S. ; TONINI, N. B. ; PORTO, J. M. ; CHAVES, G. L. D.		
resumoExpandidoEmCongresso	2013	Síntese e Caracterização de Compósitos a partir de Poliuretanos Rígidos e Fibras de Coco Modificadas com 4,4´-difenilmetano diisocianato (MDI)	12 CBPol - Congresso Brasileiro de Polímeros, 2013, Florianópolis. http://www.eventweb.com.br/cbpol/home-event/schedule.php?sessao=q=Gilmene+Biancoarea=todastipo=todosbusca_por=autor#	Melo, B. N. ; BIANCO, G. ; MEIRELES, C. S. ; ALVES, T. C. ; LAMONATO, A.		
resumoExpandidoEmCongresso	2013	Estudo sobre o sequestro geológico de CO2 em aquíferos salinos utilizando simulador com informações de caracterização de reservatórios	13th International Congress of the Brazilian Geophysical Society, 2013, Rio de Janeiro. 13 th International COngress of the Brazilian Geophysical Society EXPOGEf. Rio de Janeiro: SB Gf - Sociedade Brasileira de Geofísica	MENEGUELO, A. P.; ZUCATELLI, P. J. ; MAXIMIANO, C. A. ; GIURIATTO, J. L.		
resumoExpandidoEmCongresso	2013	Diagnostico do processo e custos de produção na construção de embarcações artesanais no Espírito Santo	Simpósio de Engenharia de Produção, 2013, Bauru. XX Simpósio de Engenharia de Produção	OLIVEIRA, R. ; TOSTA, M. C. R. ; Walter, Y.		
