
PB0:2016,19;
PB1:2016,1;
PB2:2016,3;
PB3:*itens sem ano,1;
PB4:2016,14;
PB5:2016,5;
PB6:2016,3;
PB8:2016,14;
PT4:2016,10;
PT5:2016,4;
OA1:2014,1;2015,1;2016,2;2017,1;
OA2:2013,5;2014,2;2015,9;2016,35;2017,12;
OA4:2014,2;2015,1;2016,1;2017,4;
OA5:2014,1;2015,2;2016,7;2017,6;
OA6:2016,1;2017,2;
OC2:2016,15;
OC4:2016,6;
OC5:2016,10;
OC6:2016,4;
Pj:1998,1;2000,1;2003,1;2004,2;2007,1;2008,1;2009,1;2010,5;2011,2;2012,5;2013,5;2014,5;2015,2;
PB:*itens sem ano,1;2016,59;
PT:2016,14;
OA:2013,5;2014,6;2015,13;2016,46;2017,25;
OC:2016,35;
Ep:2016,6;
Eo:2016,2;