trabalhoCompletoEmCongresso	Candido Ferreira Xavier de Mendonça Neto	2014	http://dx.doi.org/10.5220/0004883704640471	An Evolutionary Algorithm for Graph Planarisation by Vertex Deletion	16th International Conference on Enterprise Information Systems	PINHEIRO, R. L. ; CONSTANTINO, A. A. ; Mendonça Neto, C. F. X. ; LANDA-SILVA, D.		
artigoEmPeriodico	Fernando de Souza Coelho	2014	http://dx.doi.org/10.1590/0034-76121597	Revisitando as origens do ensino de graduação em administração pública no Brasil (1854-1952)	RAP. Revista Brasileira de Administração Pública	COELHO, F. S.; NICOLINI, A. M.	A2	
artigoEmPeriodico	Fernando de Souza Coelho	2014	http://dx.doi.org/10.5753/rbie.2014.22.01.79	Educação em Sistemas de Informação no Brasil: Uma Análise da Abordagem Curricular em Instituições de Ensino Superior Brasileiras	Revista Brasileira de Informática na Educação	COELHO, F. S.; ALBUQUERQUE, J. P. ; PRADO, E. P. V. ; CELSO, R. P.	B1	
artigoEmPeriodico	Fernando de Souza Coelho	2014	http://dx.doi.org/10.1590/0034-76122012	Administração pública no Brasil: reflexões sobre o campo de saber a partir da Divisão Acadêmica da Associação Nacional de Pós-Graduação e Pesquisa em Administração (2009-2013)	Revista de Administração Pública (Impresso)	COELHO, F. S.; FADUL, E. M. C. ; LUSTOSA DA COSTA, F. J. ; GOMES, R. C.	A2	
artigoEmPeriodico	Fernando de Souza Coelho	2014		Dossiê - Campo de Públicas no Brasil: definição, movimento constitutivo e desafios atuais	Administração Pública e Gestão Social	PIRES, V. A. ; MIDLEJ, S. A. ; FONSECA, S. A. ; VENDRAMINI, P. ; COELHO, F. S.	B3	
artigoEmPeriodico	Fernando de Souza Coelho	2014		Disseminação da Carreira de Especialista em Políticas Públicas e Gestão Governamental na Gestão Municipal Brasileira: um estudo exploratório	TEMAS DE ADMINISTRAÇÃO PÚBLICA (UNESP. ARARAQUARA)	CORRÊA SILVA, V. ; COELHO, F. S. ; ALMEIDA, A. G.	B4	
trabalhoCompletoEmCongresso	Fernando de Souza Coelho	2014		A Carreira de Especialista em Políticas Públicas e Gestão Governamental no Setor Público Brasileiro: uma análise das experiências no nível municipal	VIII Encontro Nacional de Pesquisadores em Gestão Social - ENAPEGS	CORRÊA SILVA, V. ; ALMEIDA, A. G. ; COELHO, F. S.		
trabalhoCompletoEmCongresso	Fernando de Souza Coelho	2014		A Produção Científica em Administração Pública e Políticas Públicas no Brasil: evidências de proximidade e similaridade no período 2000-2010	Encontro Nacional de Administração (EnANPAD)	CORRÊA SILVA, V. ; TROTTMANN, P. ; COELHO, F. S. ; SARTI, F. M.		
trabalhoCompletoEmCongresso	Fernando de Souza Coelho	2014		A Produção Científica em Políticas Públicas no Brasil: descrição e análise de alguns resultados de uma Investigação para o período 2000-2011	Encontro Nacional de Administração Pública e Governança - EnAPG	TROTTMANN, P. ; CORRÊA SILVA, V. ; COELHO, F. S. ; SARTI, F. M.		
trabalhoCompletoEmCongresso	Fernando de Souza Coelho	2014		As Escolas de Governo e a Profissionalização dos Servidores: uma Análise do Cefor	VI Encontro Nacional de Administração Pública e Governança - EnAPG	MELO, W. M. C. ; COELHO, F. S.		
artigoEmPeriodico	Paulo Antonio de Almeida Sinisgalli	2014		A comunidade do Marujá e o Parque Estadual da Ilha do Cardoso: co-manejo, serviços ecossistêmicos e processo sócio-técnico	Revista Virtual REDESMA	Romeiro, A.R. ; SINISGALLI, P.A.A. ; JERICO-DAMINELLO, C. ; SESSIN-DILASCIO, K. ; LIMA, L. ; PAIVA SOBRINHO, R.	Qualis nao identificado	Revista Virtual REDESMA
trabalhoCompletoEmCongresso	Paulo Antonio de Almeida Sinisgalli	2014		ANÁLISE DE POLÍTICAS PÚBLICAS PARA SERVIÇOS ECOSSITÊMICOS (SE) ASSOCIADOS ÀS MUDANÇAS CLIMÁTICAS EM TRÊS TIPOS DE OCUPAÇÃO DO SOLO NO ESTADO DO PARÁ- BR	Envibras2014 : Environnement et géomatique : approches comparées France - Brésil	SINISGALLI, P.A.A.; LECLECH, S. ; GRIMALDI, M. ; LAVELLE, P.		
trabalhoCompletoEmCongresso	Paulo Antonio de Almeida Sinisgalli	2014		Valoração de Impactos Econômicos decorrentes da qualidade da água das praias do município de Praia Grande (SP) no sistema único de saúde (SUS)	Congresso Brasileiro de Oceanografia - CBO 2014	YANG, S. H. ; SINISGALLI, P.A.A. ; HARARI, J.		
artigoEmPeriodico	Francisco Javier Sebastian Mendizabal Alvarez	2014		As marcas de luxo de moda e as redes sociais	Modapalavra E-periódico	ALVAREZ, F. J. S. M. ou MENDIZABAL ALVAREZ, FJ.S.M; FAVERO, M. B.	B4	
artigoEmPeriodico	Francisco Javier Sebastian Mendizabal Alvarez	2014		A dinâmica da Utilização das Redes Sociais no Processo de Comunicação pelas Micro e Pequenas Empresas Textei: um estudo exploratório.	PMKT: Revista Brasileira de Pesquisas de Marketing, Opinião e Mídia	FAVERO, M. B. ; ALVAREZ, F. J. S. M. ou MENDIZABAL ALVAREZ, FJ.S.M	Qualis nao identificado	PMKT: Revista Brasileira de Pesquisas de Marketing, Opinião e Mídia
artigoEmPeriodico	Francisco Javier Sebastian Mendizabal Alvarez	2014		O comportamento das micro e pequenas empresas de moda nas redes sociais	Competência - Revista da Educação Superior do Senac-RS	FAVERO, M. B. ; ALVAREZ, F. J. S. M. ou MENDIZABAL ALVAREZ, FJ.S.M	Qualis nao identificado	Competência - Revista da Educação Superior do Senac-RS
artigoEmPeriodico	Francisco Javier Sebastian Mendizabal Alvarez	2014		O comportamento das micro e pequenas empresas de moda nas redes sociais	Competência - Revista da Educação Superior do Senac-RS	ALVAREZ, F. J. S. M. ou MENDIZABAL ALVAREZ, FJ.S.M	Qualis nao identificado	Competência - Revista da Educação Superior do Senac-RS
artigoEmPeriodico	Francisco Javier Sebastian Mendizabal Alvarez	2014		Processo Criativo e Bauman: o desenvolvimento de um abrigo para o corpo	Tríades em Revista	ALVAREZ, F. J. S. M. ou MENDIZABAL ALVAREZ, FJ.S.M	B4	
artigoEmPeriodico	Francisco Javier Sebastian Mendizabal Alvarez	2014		Processo Criativo e Bauman: o desenvolvimento de um abrigo para o corpo	Tríades em Revista	FAVERO, M. B. ; ALVAREZ, F. J. S. M. ou MENDIZABAL ALVAREZ, FJ.S.M	B4	
trabalhoCompletoEmCongresso	Francisco Javier Sebastian Mendizabal Alvarez	2014		Comunicação de Moda: um estudo comparativo do uso do Facebook por marcas de moda internacionais e nacionais	Contexmod - 2 Congresso Científico de Têxtil e Moda	FAVERO, M. B. ; ALVAREZ, F. J. S. M. ou MENDIZABAL ALVAREZ, FJ.S.M		
trabalhoCompletoEmCongresso	Francisco Javier Sebastian Mendizabal Alvarez	2014		A importância das redes sociais para o setor de confecção: volume de propagação da mensagem	10. coloquio de moda 7a. edição internacional	FAVERO, M. B. ; ALVAREZ, F. J. S. M. ou MENDIZABAL ALVAREZ, FJ.S.M		
trabalhoCompletoEmCongresso	Francisco Javier Sebastian Mendizabal Alvarez	2014		A standardization of displays the center shopping malls: globalization as affected retail fashion	International Fashion and Design Congress - CIMODE	FAVERO, M. B. ; ALVAREZ, F. J. S. M. ou MENDIZABAL ALVAREZ, FJ.S.M		
artigoEmPeriodico	Flávia Mori Sarti	2014	http://dx.doi.org/10.1371/journal.pone.0108966	Cost-Effectiveness of Procedures for Treatment of Ostium Secundum Atrial Septal Defects Occlusion Comparing Conventional Surgery and Septal Percutaneous Implant	Plos One	COSTA, M. G. S. ; SANTOS, M. S. ; SARTI, F. M. ; SENNA, K. M. S. ; TURA, B. R. ; GOULART, M. C.	A1	
artigoEmPeriodico	Flávia Mori Sarti	2014		Avaliação do processo de terceirização da merenda escolar no município de São Paulo	Revista Gestão & Políticas Públicas	CORREIA, M. S. ; SARTI, F. M.	B3	
trabalhoCompletoEmCongresso	Flávia Mori Sarti	2014		A produção científica em administração pública e políticas públicas no Brasil: Evidências de proximidade e similaridade no período 2000-2010	XXXVIII Encontro Nacional da Associação Nacional de Pós-Graduação e Pesquisa em Administração	CORRÊA SILVA, V. ; TROTTMANN, P. ; COELHO, F. S. ; SARTI, F. M.		
trabalhoCompletoEmCongresso	Flávia Mori Sarti	2014		A produção científica em políticas públicas no Brasil: Descrição e análise de alguns resultados de uma investigação para o período 2000-2011	VI Encontro de Administração Pública da Associação Nacional de Pós-Graduação e Pesquisa em Administração	TROTTMANN, P. ; CORRÊA SILVA, V. ; COELHO, F. S. ; SARTI, F. M.		
trabalhoCompletoEmCongresso	Flávia Mori Sarti	2014		Falhas de mercado no SUS: Potencialidades da modelagem de sistemas complexos	XI Encontro Nacional de Economia da Saúde / VI Congresso de Economia da Saúde da América Latina e Caribe	PINHEIRO FILHO, F. P. ; SARTI, F. M.		
artigoEmPeriodico	Diego Antonio Falceta Gonçalves	2014	http://dx.doi.org/10.1088/0004-637X/781/2/84	MAGNETIC FIELD AMPLIFICATION AND EVOLUTION IN TURBULENT COLLISIONLESS MAGNETOHYDRODYNAMICS: AN APPLICATION TO THE INTRACLUSTER MEDIUM	THE ASTROPHYSICAL JOURNAL	SANTOS-LIMA, R. ; de Gouveia dal Pino, E. M. ; Kowal, G. ; Falceta-Gonçalves, D. ; Lazarian, A. ; Nakwacki, M. S.	A1	
artigoEmPeriodico	Diego Antonio Falceta Gonçalves	2014	http://dx.doi.org/10.5194/npg-21-587-2014	Turbulence in the interstellar medium	Nonlinear Processes in Geophysics (Online)	FALCETA-GONCALVES, D.; Kowal, G. ; FALGARONE, E. ; CHIAN, A.	B1	Nonlinear Processes in Geophysics
artigoEmPeriodico	Diego Antonio Falceta Gonçalves	2014	http://dx.doi.org/10.1088/0004-637X/791/2/95	η CARINAE BABY HOMUNCULUS UNCOVERED BY ALMA	Astrophysical Journal (Online)	ABRAHAM, ZULEMA ; Falceta-Gonçalves, Diego ; BEAKLINI, PEDRO P. B.	Qualis nao identificado	Astrophysical Journal (Online)
artigoEmPeriodico	Diego Antonio Falceta Gonçalves	2014	http://dx.doi.org/10.1093/mnras/stt2393	On the alignment of PNe and local magnetic field at the Galactic centre: magnetohydrodynamical numerical simulations	Monthly Notices of the Royal Astronomical Society (Print)	FALCETA-GONÇALVES, D.; MONTEIRO, H.	A1	
artigoEmPeriodico	Diego Antonio Falceta Gonçalves	2014	http://dx.doi.org/10.1093/mnras/stu2104	Ambient magnetic field amplification in shock fronts of relativistic jets: an application to GRB afterglows	Monthly Notices of the Royal Astronomical Society (Print)	DA SILVA, G. R. ; FALCETA-GONCALVES, D. ; KOWAL, G. ; de Gouveia dal Pino, E. M.	A1	
artigoEmPeriodico	Diego Antonio Falceta Gonçalves	2014	http://dx.doi.org/10.1093/mnras/stu2127	The onset of large-scale turbulence in the interstellar medium of spiral galaxies	Monthly Notices of the Royal Astronomical Society (Print)	FALCETA-GONCALVES, D.; BONNELL, I. ; KOWAL, G. ; LEPINE, J. R. D. ; BRAGA, C. A. S.	A1	
artigoEmPeriodico	Cristina Adams	2014	http://dx.doi.org/10.1186/1746-4269-10-7	Local and scientific knowledge for assessing the use of fallows and mature forest by large mammals in SE Brazil: identifying singularities in folkecology	Journal of Ethnobiology and Ethnomedicine	PRADO, H. M. ; Murrieta, R. S. S. ; ADAMS, C. ; BRONDIZIO, E.	A2	
artigoEmPeriodico	Carla Morsello	2014	http://dx.doi.org/10.1016/j.ecolecon.2014.01.021	Does trading non-timber forest products drive specialisation in products gathered for consumption? Evidence from the Brazilian Amazon	Ecological Economics (Amsterdam)	MORSELLO, CARLA; DELGADO, JULIANA APARECIDA DA SILVA ; FONSECA-MORELLO, THIAGO ; BRITES, ALICE DANTAS	A1	
artigoEmPeriodico	André Cavalcanti Rocha Martins	2014	http://dx.doi.org/10.1016/j.physleta.2014.11.021	Opinion particles: Classical physics and opinion dynamics	Physics Letters. A (Print)	Martins, André C.R	A2	
artigoEmPeriodico	André Cavalcanti Rocha Martins	2014	http://dx.doi.org/10.1086/677387	Programmed Life Span in the Context of Evolvability	The American Naturalist	MITTELDORF, JOSHUA ; Martins, André C. R.	A1	
artigoEmPeriodico	Ana Amélia Benedito Silva	2014		Strength field tests performance are correlated with isokinetic strength of shoulder rotator muscles in female handball players.	Journal of Sports Medicine and Physical Fitness (Testo stampato)	ANDRADE M.S. ; FACHINA, R.J.F.G. ; CRUZ, W. ; BENEDITO-SILVA, A. A. ; SILVA, A. C. ; LIRA, C. A. B.	B1	
artigoEmPeriodico	Ana Amélia Benedito Silva	2014	http://dx.doi.org/10.1186/2193-1801-3-604	The influence of acute hypoxic exposure on isokinetic muscle force production	SpringerPlus	IVAMOTO, RAFAEL KENJI ; NAKAMOTO, FERNANDA PATTI ; VANCINI, RODRIGO LUIZ ; BENEDITO-SILVA, ANA AMÉLIA ; DE LIRA, CLAUDIO ANDRE ; ANDRADE, MARÍLIA DOS	Qualis nao identificado	SpringerPlus
