ID_Lattes|MATRICULA|NOME|CH|mail|LP_1|PROGRAMA_1|CATEG_1|Periodo_Inicio_1|Periodo_Fim_1|Resp_prog|Resp_LP1
K4209315H1|99999|ANGELA MARIA DE SOUZA|40|UNILA@UNILA.br|UNILA|UNILA|P|2013|2016|UNILA|UNILA
K4794163Y2|99999|ANDREA CIACCHI|40|UNILA@UNILA.br|UNILA|UNILA|P|2013|2016||
K4760829P4|99999|ANALIA CHERNAVSKY|40|UNILA@UNILA.br|UNILA|UNILA|P|2013|2016||
K4791142J4|99999|ALEXANDRE CAMERA VARELLA|40|UNILA@UNILA.br|UNILA|UNILA|P|2013|2016||
K4784822D5|99999|ALAI GARCIA DINIZ|40|UNILA@UNILA.br|UNILA|UNILA|P|2013|2016||
K4763702Z0|99999|RUBENS DE TOLEDO JUNIOR|40|UNILA@UNILA.br|UNILA|UNILA|P|2013|2016||
K4223025Y1|99999|RODRIGO FAUSTINONI BONCIANI|40|UNILA@UNILA.br|UNILA|UNILA|P|2013|2016||
K4207363D9|99999|PAULO RENATO DA SILVA|40|UNILA@UNILA.br|UNILA|UNILA|P|2013|2016||
K4352272H8|99999|MERCEDES YASMIN LOPEZ LENCI|40|UNILA@UNILA.br|UNILA|UNILA|P|2013|2016||
K4239054P5|99999|MARCELO MARINHO|40|UNILA@UNILA.br|UNILA|UNILA|P|2013|2016||
K4763318Y4|99999|LUIS EDUARDO ALVARADO PRADA|40|UNILA@UNILA.br|UNILA|UNILA|P|2013|2016||
K4745104H1|99999|LAURA JANAINA DIAS AMATO|40|UNILA@UNILA.br|UNILA|UNILA|P|2013|2016||
K4703770T4|99999|JOHNNY OCTAVIO OBANDO MORAN|40|UNILA@UNILA.br|UNILA|UNILA|P|2013|2016||
K4787021U4|99999|JANICE THEODORO DA SILVA|40|UNILA@UNILA.br|UNILA|UNILA|P|2013|2016||
K4352379E8|99999|ANTONIO DE LA PENA GARCIA|40|UNILA@UNILA.br|UNILA|UNILA|P|2013|2016||
K4438656H0|99999|MARIA FERNANDA MAIDANA|40|UNILA@UNILA.br|UNILA|UNILA|P|2013|2016||
K4791711D7|99999|MARIA ETA VIEIRA|40|UNILA@UNILA.br|UNILA|UNILA|P|2013|2016||
K4210740U2|99999|HERNAN VENEGAS MARCELO|40|UNILA@UNILA.br|UNILA|UNILA|P|2013|2016||
K4756150A9|99999|GIANE DA SILVA MARIANO LESSA|40|UNILA@UNILA.br|UNILA|UNILA|P|2013|2016||
K4753674E8|99999|DIANA ARAUJO PEREIRA|40|UNILA@UNILA.br|UNILA|UNILA|P|2013|2016||
K4763493J6|99999|DEBORA COTA|40|UNILA@UNILA.br|UNILA|UNILA|P|2013|2016||
K4335532J8|99999|BRUNO LOPEZ PETZOLDT|40|UNILA@UNILA.br|UNILA|UNILA|P|2013|2016||
K4518546H2|99999|BARBARA MAISONNAVE ARISI|40|UNILA@UNILA.br|UNILA|UNILA|P|2013|2016||
