artigoEmPeriodico	Rinaldo dos Santos Araújo	2015	http://dx.doi.org/10.1590/s1413-41522015020000111627	Estudo de oxidação avançada de corantes básicos via reação Fenton (Fe2+/H2O2)	Engenharia Sanitária e Ambiental (Online)	PAULINO, T. R. S. ; ARAÚJO, RINALDO DOS SANTOS ; SALGADO, B. C. B.	B1	
artigoEmPeriodico	Rinaldo dos Santos Araújo	2015	http://dx.doi.org/10.1016/j.ijbiomac.2015.03.038	Chitosan/mangiferin particles for Cr(VI) reduction and removal	International Journal of Biological Macromolecules	SAMPAIO, CAROLINE DE G. ; FROTA, LUCAS S. ; MAGALHÃES, HERBERT S. ; DUTRA, LILIAN M.U. ; QUEIROZ, DANILO C. ; ARAÚJO, RINALDO S. ; BECKER, HELENA ; DE SOUZA, JOSÉ R.R. ; RICARDO, NÁGILA M.P.S. ; TREVISAN, MARIA T.S.	A2	
artigoEmPeriodico	Rinaldo dos Santos Araújo	2015	http://dx.doi.org/10.14295/transportes.v23i3.888	Procedimento para coleta dinâmica embarcada de emissões provenientes de veículos transportadores de carga em área urbana	Transportes (Rio de Janeiro)	FONTENELE DIAS, HELRY LUVILLANY ; BERTONCINI, BRUNO VIEIRA ; MOURA DE OLIVEIRA, MONA LISA ; ÁVILA CAVALCANTE, FRANCISCO SALES ; ARAÚJO, RINALDO DOS SANTOS	B2	
artigoEmPeriodico	Rinaldo dos Santos Araújo	2015	http://dx.doi.org/10.14295/transportes.v23i3.896	Avaliação das emissões de escapamento veicular em condições específicas do motor: partida e marcha-lenta	Transportes (Rio de Janeiro)	AGUIAR, SUZANA DE OLIVEIRA ; ARAÚJO, RINALDO DOS SANTOS ; CAVALCANTE, FRANCISCO SALES ÁVILA ; LIMA, RITA KAROLINNY CHAVES DE ; BERTONCINI, BRUNO VIEIRA ; LIMA, RITA KAROLINNY CHAVES DE ; OLIVEIRA, MONA LISA MOURA	B2	
trabalhoCompletoEmCongresso	Rinaldo dos Santos Araújo	2015		Análise das condições higiênico-sanitárias e estrutura física do centro de abastecimento de pescados em uma cidade do Vale do Jaguaribe - Ceará	VII Congresso Latino Americano e XIII Congresso Brasileiro de Higienistas de Alimentos	SILVA, F. R. ; SANTOS, A. S. ; FIORIO, B. C. ; MENDES, A. E. P. ; ARAÚJO, RINALDO DOS SANTOS		
trabalhoCompletoEmCongresso	Rinaldo dos Santos Araújo	2015		Avaliação da qualidade microbiológica de pitaya vermelha (hylocereus costaricensis) comercializada na cidade de Limoeiro do Norte - Ceará	VII Congresso Latino Americano e XIII Congresso Brasileiro de Higienistas de Alimentos	SANTOS, A. S. ; OLIVEIRA, V. M. S. ; GOMES, J. S. ; SOUZA, P. A. ; ARAÚJO, RINALDO DOS SANTOS		
trabalhoCompletoEmCongresso	Rinaldo dos Santos Araújo	2015		Qualidade microbiológica de queijo coalho comercializado na cidade de Limoeiro do Norte - Ceará	VII Congresso Latino Americano e XIII Congresso Brasileiro de Higienistas de Alimentos	SANTOS, A. S. ; GOMES, J. S. ; OLIVEIRA, V. M. S. ; SOUZA, G. C. ; ARAÚJO, RINALDO S.		
trabalhoCompletoEmCongresso	Rinaldo dos Santos Araújo	2015		Quantificação do material particulado fino (MP 2,5) e grosso (MP 10) no centro urbano do município de Russas-CE	28o Congresso Brasileiro de Engenharia Sanitária e Ambiental	MOREIRA, J. R. ; SILVA, A. C. ; SOUSA, M. G. F. ; ARAÚJO, RINALDO DOS SANTOS		
trabalhoCompletoEmCongresso	Rinaldo dos Santos Araújo	2015		Avaliação do teor de BTEX na atmosfera urbana da cidade de Fortaleza-Ceará	28o Congresso Brasileiro de Engenharia Sanitária e Ambiental	BRITO, P. H. F. ; CASTRO, A. H. S. ; LIMA, R. M. ; OLIVEIRA, M. L. M. ; ARAÚJO, RINALDO DOS SANTOS		
trabalhoCompletoEmCongresso	Rinaldo dos Santos Araújo	2015		Degradação de azo corante em efluente aquoso sintético usando anodo de TI/Ru0,3Ti0,4Sn0,3O2	28o Congresso Brasileiro de Engenharia Sanitária e Ambiental	MARANHAO, M. L. ; LIMA, R. M. M. ; NOGUEIRA, M. I. C. ; Aquino, M. D. ; ARAÚJO, RINALDO DOS SANTOS		
trabalhoCompletoEmCongresso	Rinaldo dos Santos Araújo	2015		Degradação catalítica de resíduo de petróleo cru usando material mesoporoso Al-SBA-15	18o Congresso Brasileiro de Catálise	LIMA, C. S. ; BRITO, P. H. F. ; Lima, R.K.C ; SALGADO, B. C. B. ; ALCANTARA, A. P. M. P. ; GONDIM, A. D. ; OLIVEIRA, M. L. M. ; ARAÚJO, RINALDO DOS SANTOS		
trabalhoCompletoEmCongresso	Rinaldo dos Santos Araújo	2015		Utilização de titânio suportado em esferas de sílica na degradação do corante azul de metileno	18o Congresso Brasileiro de Catálise	SALGADO, B. C. B. ; SANTIAGO, M. M. ; ALMEIDA, L. P. C. ; SANTOS, E. M. A. ; ARAÚJO, RINALDO S.		
trabalhoCompletoEmCongresso	Rinaldo dos Santos Araújo	2015		Adsorção e fotocatálise do azul de metileno via esferas macroporosas de sílica revestidas com dióxido de titânio	18o Congresso Brasileiro de Catálise	SALGADO, B. C. B. ; SILVA, D. A. ; ARAÚJO, RINALDO S. ; VALENTINI, A.		
resumoExpandidoEmCongresso	Rinaldo dos Santos Araújo	2015	Emissões de NOx e Particulados de um Veículo Urbano de Carga: Análises em Condições de Tráfego na Cidade de Fortaleza	XVIII CBMET - Congresso Brasileiro de Meteorologia, 2014, Recife - PE. Anais do XVIII CBMET - Congresso Brasileiro de Meteorologia	CASSIANO, D. R. ; AZEVEDO, J. A. H. ; ARAÚJO, R. S ; OLIVEIRA, M. L. M.		
artigoEmPeriodico	Antônio Carlos Santana dos Santos	2015	http://dx.doi.org/10.1016/j.renene.2015.04.025	Estimating the offshore wind resources of the State of Ceará in Brazil	Renewable Energy	LIMA, DANIELLE K.S. ; LEÃO, RUTH P.S. ; DOS SANTOS, ANTÔNIO C.S. ; DE MELO, FRANCISCA D.C. ; COUTO, VINÍCIUS M. ; DE NORONHA, AURÉLIO W.T. ; OLIVEIRA, DEMERCIL S.	A1	
trabalhoCompletoEmCongresso	Antônio Carlos Santana dos Santos	2015		Canonical Sea Surface Temperature Patterns in Atlantic Ocean in Coupled Models(AR4) and Oservations	11th internacional Conference on Southern Hermisphere Meteology and Oceanography	SILVA, E.M. ; SANTOS, A. C. S. ; VASCONCELOS JUNIOR, F. C. ; SILVA, M. L. ; SALES, D. C.		
trabalhoCompletoEmCongresso	Antônio Carlos Santana dos Santos	2015		Atuação da OMJ Entre os anos 1982-2013 desde a região de controle do indico-pacifico até o neb	Simpósio Internacional de Climatologia	SILVA, M. L. ; SANTOS, A. C. S. ; BARBOSA, A. C. B. ; ALVES, J. M. B. ; OLIVEIRA, C. J. ; VASCONCELOS JUNIOR, F. C. ; SOMBRA, S. S. ; SALES, D. C. ; OLIVEIRA, F. W. C.		
trabalhoCompletoEmCongresso	Antônio Carlos Santana dos Santos	2015		Models IPCC(AR4 and AR5) in South America:comparisons with observations and future projections	XII Congreso Argentino de Meteorología	ALVES, J. M. B. ; SANTOS, A. C. S. ; SILVA, E.M. ; OLIVEIRA, C. J. ; SOMBRA, S. S. ; SALES, D. C. ; SILVA, M. L. ; VASCONCELOS JUNIOR, F. C. ; CHAVES, R. R.		
trabalhoCompletoEmCongresso	Antônio Carlos Santana dos Santos	2015		Intraseasonal oscilations: observations between regions indian-pacific and northeast Brazil	XII Congresso Argentino de Meteorlogía	ALVES, J. M. B. ; SANTOS, A. C. S. ; SILVA, M. L. ; BARBOSA, A. C. B. ; VASCONCELOS JUNIOR, F. C. ; SILVA, E.M. ; SALES, D. C.		
trabalhoCompletoEmCongresso	Antônio Carlos Santana dos Santos	2015		Sea surface temperature dipoles in atlantic Ocean in coupled models(AR4): comparisons with observations	XII Congreso Argetino de Meteorología	ALVES, J. M. B. ; SANTOS, A. C. S. ; SILVA, E.M. ; SILVA, M. L. ; OLIVEIRA, C. J. ; SOMBRA, S. S. ; VASCONCELOS JUNIOR, F. C. ; SALES, D. C.		
