strict graph grafo1 {
	graph [bb="0,0,1366,233",
		id=grafo1,
		overlap=False
	];
	node [fontsize=8,
		label="\N",
		shape=rectangle,
		style=filled
	];
	0	 [URL="http://lattes.cnpq.br/3666289112976187",
		color="#17272B",
		fontcolor="#FFFFFF",
		height=0.23611,
		label="Virginia Parente [1]",
		pos="192,224.5",
		width=1.1111];
	5	 [URL="http://lattes.cnpq.br/2633839778514121",
		color="#17272B",
		fontcolor="#FFFFFF",
		height=0.23611,
		label="Edmilson Moutinho dos Santos [32]",
		pos="126,170.5",
		width=1.8472];
	0 -- 5	 [pos="182.26,215.83 169.78,206 148.28,189.05 135.78,179.2"];
	12	 [URL="http://lattes.cnpq.br/2035937453943199",
		color="#17272B",
		fontcolor="#FFFFFF",
		height=0.23611,
		label="Hirdan K. de Medeiros Costa [31]",
		pos="179,62.5",
		width=1.75];
	0 -- 12	 [pos="199.51,215.98 217.29,197.22 259.04,147.04 239,107.5 230.3,90.332 211.4,78.243 197.12,71.137"];
	5 -- 12	 [pos="127.4,161.91 129.83,149.88 135.48,125.9 145,107.5 152.28,93.44 164.18,79.336 171.8,71.016"];
	9	 [URL="http://lattes.cnpq.br/4429686299726303",
		color="#17272B",
		fontcolor="#FFFFFF",
		height=0.23611,
		label="Celio Bermann [5]",
		pos="192,116.5",
		width=1.0556];
	5 -- 9	 [pos="135.74,161.83 148.22,152 169.72,135.05 182.22,125.2"];
	18	 [URL="http://lattes.cnpq.br/0752588872656748",
		color="#17272B",
		fontcolor="#FFFFFF",
		height=0.23611,
		label="Murilo T. Werneck Fagá [3]",
		pos="177,8.5",
		width=1.4861];
	5 -- 18	 [pos="121.63,161.88 111.12,142.47 86.767,90.117 107,53.5 117,35.408 137.9,23.748 154.27,17.008"];
	19	 [URL="http://lattes.cnpq.br/2457667975987644",
		color="#17272B",
		fontcolor="#FFFFFF",
		height=0.23611,
		label="Jose R. Simoes Moreira [1]",
		pos="52,8.5",
		width=1.4444];
	5 -- 19	 [pos="120.59,161.97 114.58,153.41 104.84,138.89 98,125.5 77.901,86.139 60.624,35.849 54.435,17.042"];
	12 -- 18	 [pos="178.7,53.827 178.33,43.996 177.68,27.051 177.3,17.204"];
	12 -- 19	 [pos="160.53,53.939 136.45,44.08 94.578,26.934 70.489,17.07"];
	9 -- 12	 [pos="190.08,107.83 187.62,97.996 183.39,81.051 180.93,71.204"];
	1	 [URL="http://lattes.cnpq.br/8333273103512768",
		color="#17272B",
		fontcolor="#FFFFFF",
		height=0.23611,
		label="Suani Teixeira Coelho [5]",
		pos="310,62.5",
		width=1.3889];
	21	 [URL="http://lattes.cnpq.br/1388529283382853",
		color="#17272B",
		fontcolor="#FFFFFF",
		height=0.23611,
		label="José Goldemberg [6]",
		pos="342,8.5",
		width=1.1667];
	1 -- 21	 [pos="314.72,53.827 320.77,43.996 331.2,27.051 337.26,17.204"];
	2	 [URL="http://lattes.cnpq.br/5831942962758025",
		color="#17272B",
		fontcolor="#FFFFFF",
		height=0.23611,
		label="Sonia S. Pereira Mercedes [4]",
		pos="349,170.5",
		width=1.5556];
	2 -- 9	 [pos="326.17,161.94 296.4,152.08 244.64,134.93 214.86,125.07"];
	3	 [URL="http://lattes.cnpq.br/0483804524873121",
		color="#17272B",
		fontcolor="#FFFFFF",
		height=0.23611,
		label="Hédio Tatizawa [1]",
		pos="417,116.5",
		width=1.0972];
	2 -- 3	 [pos="359.03,161.83 371.89,152 394.05,135.05 406.93,125.2"];
	13	 [URL="http://lattes.cnpq.br/9611146545395324",
		color="#17272B",
		fontcolor="#FFFFFF",
		height=0.23611,
		label="Ildo Luis Sauer [4]",
		pos="417,62.5",
		width=1.0694];
	2 -- 13	 [pos="350.02,161.69 351.91,149.35 356.85,124.96 368,107.5 377.72,92.274 394.11,79.082 405.23,71.213"];
	3 -- 13	 [pos="417,107.83 417,97.996 417,81.051 417,71.204"];
	13 -- 21	 [pos="405.93,53.827 391.75,43.996 367.31,27.051 353.11,17.204"];
	17	 [URL="http://lattes.cnpq.br/0339375192824635",
		color="#17272B",
		fontcolor="#FFFFFF",
		height=0.23611,
		label="Roberto Zilles [2]",
		pos="471,8.5",
		width=1.0278];
	13 -- 17	 [pos="424.97,53.827 435.18,43.996 452.77,27.051 463,17.204"];
	4	 [URL="http://lattes.cnpq.br/4541077008718244",
		color="#17272B",
		fontcolor="#FFFFFF",
		height=0.23611,
		label="Fernando Selles Ribeiro [1]",
		pos="526,62.5",
		width=1.4583];
	4 -- 17	 [pos="517.88,53.827 507.49,43.996 489.56,27.051 479.15,17.204"];
	6	 [URL="http://lattes.cnpq.br/5788186365234727",
		color="#17272B",
		fontcolor="#FFFFFF",
		height=0.23611,
		label="Colombo C. Gaeta Tassinari [0]",
		pos="310,224.5",
		width=1.6528];
	7	 [URL="http://lattes.cnpq.br/1216234757318996",
		color="#17272B",
		fontcolor="#FFFFFF",
		height=0.23611,
		label="Adnei Melges de Andrade [0]",
		pos="444,224.5",
		width=1.5556];
	8	 [URL="http://lattes.cnpq.br/0137727203004910",
		color="#17272B",
		fontcolor="#FFFFFF",
		height=0.23611,
		label="Alexandre Piantini [0]",
		pos="562,224.5",
		width=1.2222];
	10	 [URL="http://lattes.cnpq.br/6015534907764450",
		color="#17272B",
		fontcolor="#FFFFFF",
		height=0.23611,
		label="Arnaldo Gakiya Kanashiro [0]",
		pos="681,224.5",
		width=1.5833];
	11	 [URL="http://lattes.cnpq.br/2806240414211429",
		color="#17272B",
		fontcolor="#FFFFFF",
		height=0.23611,
		label="Geraldo Francisco Burani [0]",
		pos="811,224.5",
		width=1.5278];
	14	 [URL="http://lattes.cnpq.br/9592400848216776",
		color="#17272B",
		fontcolor="#FFFFFF",
		height=0.23611,
		label="André F. Simões Cooper [0]",
		pos="938,224.5",
		width=1.4861];
	15	 [URL="http://lattes.cnpq.br/0600185970893679",
		color="#17272B",
		fontcolor="#FFFFFF",
		height=0.23611,
		label="Patricia H. L. d. Santos Matai [0]",
		pos="1071,224.5",
		width=1.7083];
	16	 [URL="http://lattes.cnpq.br/1352455663841540",
		color="#17272B",
		fontcolor="#FFFFFF",
		height=0.23611,
		label="Sergio Almeida Pacca [0]",
		pos="1200,224.5",
		width=1.375];
	20	 [URL="http://lattes.cnpq.br/3092201772041167",
		color="#17272B",
		fontcolor="#FFFFFF",
		height=0.23611,
		label="José R. Moreira Filho [0]",
		pos="1317,224.5",
		width=1.3611];
}
