strict digraph grafo3 {
	graph [bb="0,0,2321,337",
		id=grafo3,
		overlap=False
	];
	node [fontsize=8,
		label="\N",
		shape=rectangle,
		style=filled
	];
	0	 [URL="http://lattes.cnpq.br/2852377357599198",
		color="#17272B",
		fontcolor="#FFFFFF",
		height=0.23611,
		label="André Guimarães de Oliveira [0]",
		pos="61,328.5",
		width=1.6944];
	1	 [URL="http://lattes.cnpq.br/2268246279249818",
		color="#17272B",
		fontcolor="#FFFFFF",
		height=0.23611,
		label="Delson U. da Silva Schramm [0]",
		pos="201,328.5",
		width=1.6806];
	2	 [URL="http://lattes.cnpq.br/9318885964891395",
		color="#17272B",
		fontcolor="#FFFFFF",
		height=0.23611,
		label="Marilia Paixão Linhares [1]",
		pos="332,328.5",
		width=1.4583];
	27	 [URL="http://lattes.cnpq.br/2882524776546697",
		color="#17272B",
		fontcolor="#FFFFFF",
		height=0.23611,
		label="Fernando J. Luna de Oliveira [1]",
		pos="332,264.5",
		width=1.6806];
	2 -> 27	 [arrowhead=normal,
		arrowsize=0.75,
		fontsize=8,
		label=1.0,
		lp="321.5,296.5",
		penwidth=3.5,
		pos="e,325.72,273.15 325.04,319.74 319.5,312.6 313.13,301.63 316,291.5 317.16,287.4 319.17,283.31 321.38,279.62"];
	27 -> 2	 [arrowhead=normal,
		arrowsize=0.75,
		fontsize=8,
		label=1.0,
		lp="337.5,296.5",
		penwidth=3.5,
		pos="e,332,319.9 332,273.16 332,282.86 332,299.8 332,312.19"];
	3	 [URL="http://lattes.cnpq.br/0089739298242263",
		color="#17272B",
		fontcolor="#FFFFFF",
		height=0.23611,
		label="Maria Cristina Canela [0]",
		pos="457,328.5",
		width=1.3611];
	4	 [URL="http://lattes.cnpq.br/9501907577020110",
		color="#17272B",
		fontcolor="#FFFFFF",
		height=0.23611,
		label="Marcelo Silva Sthel [1]",
		pos="589,328.5",
		width=1.2639];
	17	 [URL="http://lattes.cnpq.br/7775566747895072",
		color="#17272B",
		fontcolor="#FFFFFF",
		height=0.23611,
		label="Victor Haber Pérez [1]",
		pos="566,264.5",
		width=1.25];
	4 -> 17	 [arrowhead=normal,
		arrowsize=0.75,
		fontsize=8,
		label=0.42,
		lp="569.5,296.5",
		penwidth=1.76,
		pos="e,562.98,273.27 577.39,319.81 571.59,315.26 565.16,308.93 562,301.5 559.27,295.07 559.66,287.44 560.98,280.87"];
	26	 [URL="http://lattes.cnpq.br/2019663762572783",
		color="#17272B",
		fontcolor="#FFFFFF",
		height=0.23611,
		label="Maria P. Pessanha de Castro [1]",
		pos="514,136.5",
		width=1.6528];
	4 -> 26	 [arrowhead=normal,
		arrowsize=0.75,
		fontsize=8,
		label=0.17,
		lp="419.5,232.5",
		penwidth=1.01,
		pos="e,476.94,145.01 543.71,321.63 504.38,316.15 452.56,307.9 445,301.5 398.18,261.88 401.97,207.2 445,163.5 451.8,156.59 460.62,151.49 \
469.67,147.74"];
	28	 [URL="http://lattes.cnpq.br/1898007894731106",
		color="#17272B",
		fontcolor="#FFFFFF",
		height=0.23611,
		label="Helion Vargas [3]",
		pos="657,200.5",
		width=1.0278];
	4 -> 28	 [arrowhead=normal,
		arrowsize=0.75,
		fontsize=8,
		label=0.42,
		lp="637.5,264.5",
		penwidth=1.76,
		pos="e,653.19,209.25 593.5,319.86 599.61,309.44 610.82,290.17 620,273.5 628.73,257.65 630.73,253.59 639,237.5 642.58,230.53 646.48,222.76 \
649.73,216.23"];
	17 -> 4	 [arrowhead=normal,
		arrowsize=0.75,
		fontsize=8,
		label=0.42,
		lp="588.5,296.5",
		penwidth=1.76,
		pos="e,586.69,319.99 569.43,273.17 571.69,278.32 574.65,285.26 577,291.5 579.59,298.35 582.19,306.03 584.3,312.54"];
	17 -> 26	 [arrowhead=normal,
		arrowsize=0.75,
		fontsize=8,
		label=0.17,
		lp="526.5,200.5",
		penwidth=1.01,
		pos="e,513.03,145.41 556.29,255.96 544.97,246.5 526.81,229.13 519,209.5 511.72,191.2 511.5,168.24 512.41,153.23"];
	17 -> 28	 [arrowhead=normal,
		arrowsize=0.75,
		fontsize=8,
		label=0.42,
		lp="627.5,232.5",
		penwidth=1.76,
		pos="e,646.28,209 577.64,255.82 585.41,250.67 595.85,243.72 605,237.5 616.77,229.5 629.95,220.38 640.1,213.31"];
	26 -> 4	 [arrowhead=normal,
		arrowsize=0.75,
		fontsize=8,
		label=0.33,
		lp="508.5,232.5",
		penwidth=1.49,
		pos="e,569.52,319.96 511.45,145.18 504.73,166.9 488.57,230.06 512,273.5 522.88,293.67 544.98,307.96 562.72,316.75"];
	26 -> 17	 [arrowhead=normal,
		arrowsize=0.75,
		fontsize=8,
		label=0.33,
		lp="551.5,200.5",
		penwidth=1.49,
		pos="e,562.9,256 517.15,145.12 525.6,165.61 548.93,222.13 560.01,248.98"];
	26 -> 28	 [arrowhead=normal,
		arrowsize=0.75,
		fontsize=8,
		label=0.33,
		lp="608.5,168.5",
		penwidth=1.49,
		pos="e,641.27,191.95 533.74,145.09 546.68,150.14 563.93,157.01 579,163.5 597.72,171.56 618.68,181.27 634.15,188.57"];
	28 -> 4	 [arrowhead=normal,
		arrowsize=0.75,
		fontsize=8,
		label=0.21,
		lp="663.5,264.5",
		penwidth=1.13,
		pos="e,601.73,319.95 657.92,209.18 659.19,222.96 660.22,252.4 649,273.5 639.56,291.26 621.84,306.08 608.1,315.67"];
	28 -> 17	 [arrowhead=normal,
		arrowsize=0.75,
		fontsize=8,
		label=0.21,
		lp="593.5,232.5",
		penwidth=1.13,
		pos="e,568.44,255.85 621.52,209.08 609.25,213.02 596.08,218.88 586,227.5 579.45,233.1 574.64,241.39 571.38,248.61"];
	28 -> 26	 [arrowhead=normal,
		arrowsize=0.75,
		fontsize=8,
		label=0.08,
		lp="567.5,168.5",
		penwidth=0.74,
		pos="e,521.79,145.23 619.81,193.19 601.2,189.14 578.72,182.84 560,173.5 548.03,167.52 536.17,158.14 527.5,150.45"];
	9	 [URL="http://lattes.cnpq.br/5294781291958691",
		color="#17272B",
		fontcolor="#FFFFFF",
		height=0.23611,
		label="Max Erik Soffner [3]",
		pos="699,8.5",
		width=1.1667];
	28 -> 9	 [arrowhead=normal,
		arrowsize=0.75,
		fontsize=8,
		label=0.13,
		lp="640.5,104.5",
		penwidth=0.89,
		pos="e,685.7,17.008 653.33,191.73 643.74,170.27 620.05,108.8 640,63.5 647.98,45.371 665.39,30.678 679.24,21.222"];
	13	 [URL="http://lattes.cnpq.br/9683055091801104",
		color="#17272B",
		fontcolor="#FFFFFF",
		height=0.23611,
		label="Edson Corrêa da Silva [4]",
		pos="699,72.5",
		width=1.3889];
	28 -> 13	 [arrowhead=normal,
		arrowsize=0.75,
		fontsize=8,
		label=0.25,
		lp="699.5,136.5",
		penwidth=1.25,
		pos="e,698.57,81.242 663.62,191.7 667.6,186.73 672.55,180.02 676,173.5 690.59,145.95 695.98,109.34 697.93,88.924"];
	11	 [URL="http://lattes.cnpq.br/0394733398229079",
		color="#17272B",
		fontcolor="#FFFFFF",
		height=0.23611,
		label="Juraci Aparecido Sampaio [2]",
		pos="797,136.5",
		width=1.5556];
	28 -> 11	 [arrowhead=normal,
		arrowsize=0.75,
		fontsize=8,
		label=0.13,
		lp="749.5,168.5",
		penwidth=0.89,
		pos="e,781.91,145.11 676.77,191.99 689.72,186.97 706.98,180.1 722,173.5 740.07,165.56 760.22,155.84 775.07,148.5"];
	9 -> 28	 [arrowhead=normal,
		arrowsize=0.75,
		fontsize=8,
		label=0.17,
		lp="896.5,104.5",
		penwidth=1.01,
		pos="e,694.34,199.99 741.21,13.15 770.91,16.642 811.23,23.263 845,35.5 868.58,44.046 881.41,41.806 894,63.5 898.02,70.419 895.84,73.714 \
894,81.5 886.69,112.45 884.99,123.53 862,145.5 818.86,186.72 748.15,197.39 702.08,199.67"];
	9 -> 13	 [arrowhead=normal,
		arrowsize=0.75,
		fontsize=8,
		label=0.83,
		lp="706.5,40.5",
		penwidth=2.99,
		pos="e,699,63.898 699,17.165 699,26.864 699,43.797 699,56.189"];
	13 -> 28	 [arrowhead=normal,
		arrowsize=0.75,
		fontsize=8,
		label=0.25,
		lp="678.5,136.5",
		penwidth=1.25,
		pos="e,657.77,191.74 694.08,81.231 687.81,91.437 677.04,110.15 671,127.5 664.42,146.4 660.64,169.23 658.71,184.04"];
	13 -> 9	 [arrowhead=normal,
		arrowsize=0.75,
		fontsize=8,
		label=0.63,
		lp="687.5,40.5",
		penwidth=2.39,
		pos="e,690.75,17.164 691.17,63.602 686.97,58.803 682.22,52.303 680,45.5 677.47,37.741 681.09,29.655 685.82,23.117"];
	13 -> 11	 [arrowhead=normal,
		arrowsize=0.75,
		fontsize=8,
		label=0.13,
		lp="745.5,104.5",
		penwidth=0.89,
		pos="e,775.38,127.96 705.86,81.187 713.21,89.074 725.52,101.32 738,109.5 747.34,115.62 758.36,120.92 768.34,125.11"];
	11 -> 28	 [arrowhead=normal,
		arrowsize=0.75,
		fontsize=8,
		label=0.25,
		lp="787.5,168.5",
		penwidth=1.25,
		pos="e,694.23,197.17 793.16,145.09 788.56,153.38 780.07,166.42 769,173.5 748.99,186.29 723.39,192.81 701.72,196.12"];
	11 -> 13	 [arrowhead=normal,
		arrowsize=0.75,
		fontsize=8,
		label=0.25,
		lp="777.5,104.5",
		penwidth=1.25,
		pos="e,719.94,81.045 789.91,127.84 782.33,119.98 769.68,107.76 757,99.5 747.7,93.444 736.75,88.133 726.89,83.917"];
	29	 [URL="http://lattes.cnpq.br/5208824640229110",
		color="#17272B",
		fontcolor="#FFFFFF",
		height=0.23611,
		label="Roberto W. de Assis Franco [3]",
		pos="826,72.5",
		width=1.6389];
	11 -> 29	 [arrowhead=normal,
		arrowsize=0.75,
		fontsize=8,
		label=0.5,
		lp="840.5,104.5",
		penwidth=2.0,
		pos="e,830.17,81.064 813.87,127.82 821.16,123.55 828.93,117.46 833,109.5 836.33,102.98 835.26,95.054 833.07,88.3"];
	29 -> 11	 [arrowhead=normal,
		arrowsize=0.75,
		fontsize=8,
		label=0.33,
		lp="820.5,104.5",
		penwidth=1.49,
		pos="e,800.56,127.9 822.41,81.165 817.79,91.05 809.65,108.45 803.83,120.9"];
	16	 [URL="http://lattes.cnpq.br/7938119508337389",
		color="#17272B",
		fontcolor="#FFFFFF",
		height=0.23611,
		label="Simonne Teixeira [2]",
		pos="826,8.5",
		width=1.1806];
	29 -> 16	 [arrowhead=normal,
		arrowsize=0.75,
		fontsize=8,
		label=0.67,
		lp="833.5,40.5",
		penwidth=2.51,
		pos="e,826,17.165 826,63.898 826,54.229 826,37.302 826,24.891"];
	5	 [URL="http://lattes.cnpq.br/0795050823229745",
		color="#17272B",
		fontcolor="#FFFFFF",
		height=0.23611,
		label="Leonardo Mota de Oliveira [0]",
		pos="751,328.5",
		width=1.5972];
	6	 [URL="http://lattes.cnpq.br/9607334909366654",
		color="#17272B",
		fontcolor="#FFFFFF",
		height=0.23611,
		label="Rodrigo de Oliveira Rodrigues [0]",
		pos="991,328.5",
		width=1.7639];
	7	 [URL="http://lattes.cnpq.br/5033930756866717",
		color="#17272B",
		fontcolor="#FFFFFF",
		height=0.23611,
		label="Jan Schripsema [0]",
		pos="1162,328.5",
		width=1.0833];
	8	 [URL="http://lattes.cnpq.br/6747215104363265",
		color="#17272B",
		fontcolor="#FFFFFF",
		height=0.23611,
		label="Raimundo Braz Filho [3]",
		pos="1293,328.5",
		width=1.3472];
	10	 [URL="http://lattes.cnpq.br/5325753251589251",
		color="#17272B",
		fontcolor="#FFFFFF",
		height=0.23611,
		label="Milton Masahiko Kanashiro [2]",
		pos="1216,264.5",
		width=1.6389];
	8 -> 10	 [arrowhead=normal,
		arrowsize=0.75,
		fontsize=8,
		label=0.17,
		lp="1241.5,296.5",
		penwidth=1.01,
		pos="e,1218.1,273.04 1265.7,319.95 1254.8,315.88 1242.8,309.92 1234,301.5 1227.9,295.7 1223.6,287.38 1220.7,280.21"];
	12	 [URL="http://lattes.cnpq.br/9573924260693571",
		color="#17272B",
		fontcolor="#FFFFFF",
		height=0.23611,
		label="Ivo J. Curcino Vieira [4]",
		pos="1301,200.5",
		width=1.3194];
	8 -> 12	 [arrowhead=normal,
		arrowsize=0.75,
		fontsize=8,
		label=0.83,
		lp="1304.5,264.5",
		penwidth=2.99,
		pos="e,1300.5,209.12 1293.5,320 1294.8,299.82 1298.3,244.11 1300,216.88"];
	10 -> 8	 [arrowhead=normal,
		arrowsize=0.75,
		fontsize=8,
		label=0.25,
		lp="1268.5,296.5",
		penwidth=1.25,
		pos="e,1283.6,319.72 1225.9,273.19 1232.4,278.34 1241.3,285.29 1249,291.5 1258.6,299.18 1269.2,307.89 1277.6,314.82"];
	10 -> 12	 [arrowhead=normal,
		arrowsize=0.75,
		fontsize=8,
		label=0.25,
		lp="1254.5,232.5",
		penwidth=1.25,
		pos="e,1280.4,209.06 1221.2,255.79 1226.8,247.89 1236.4,235.63 1247,227.5 1254.9,221.4 1264.6,216.22 1273.4,212.12"];
	23	 [URL="http://lattes.cnpq.br/5377483143596229",
		color="#17272B",
		fontcolor="#FFFFFF",
		height=0.23611,
		label="Christiane Fernandes Horn [5]",
		pos="1098,72.5",
		width=1.5833];
	10 -> 23	 [arrowhead=normal,
		arrowsize=0.75,
		fontsize=8,
		label=0.25,
		lp="997.5,168.5",
		penwidth=1.25,
		pos="e,1051,81.047 1164.2,255.98 1104.8,244.18 1010.4,215.01 971,145.5 951.89,111.81 1000.9,92.682 1043.4,82.74"];
	24	 [URL="http://lattes.cnpq.br/1510655084439926",
		color="#17272B",
		fontcolor="#FFFFFF",
		height=0.23611,
		label="Adolfo Horn Junior [5]",
		pos="1132,200.5",
		width=1.2639];
	10 -> 24	 [arrowhead=normal,
		arrowsize=0.75,
		fontsize=8,
		label=0.25,
		lp="1154.5,232.5",
		penwidth=1.25,
		pos="e,1133.3,209.12 1179.9,255.97 1168.2,252.07 1156,246.22 1147,237.5 1141.3,231.95 1137.6,223.88 1135.4,216.79"];
	12 -> 8	 [arrowhead=normal,
		arrowsize=0.75,
		fontsize=8,
		label=0.63,
		lp="1324.5,264.5",
		penwidth=2.39,
		pos="e,1298.3,319.57 1305.5,209.44 1308.1,214.46 1311.3,221.17 1313,227.5 1318.5,247.25 1318.8,253.21 1316,273.5 1314.2,286.32 1313,289.58 \
1308,301.5 1306.4,305.36 1304.3,309.36 1302.2,313.03"];
	12 -> 10	 [arrowhead=normal,
		arrowsize=0.75,
		fontsize=8,
		label=0.13,
		lp="1280.5,232.5",
		penwidth=0.89,
		pos="e,1231.5,255.91 1293.7,209.23 1286.2,216.92 1273.9,228.81 1262,237.5 1254.6,242.88 1246,248.01 1238.3,252.26"];
	30	 [URL="http://lattes.cnpq.br/4021506958174837",
		color="#17272B",
		fontcolor="#FFFFFF",
		height=0.23611,
		label="Leda Mathias [1]",
		pos="1292,136.5",
		width=1];
	12 -> 30	 [arrowhead=normal,
		arrowsize=0.75,
		fontsize=8,
		label=0.25,
		lp="1278.5,168.5",
		penwidth=1.25,
		pos="e,1282.5,145.26 1287.8,191.87 1281.5,187.41 1274.5,181.15 1271,173.5 1267.5,165.74 1271.6,157.49 1277.2,150.85"];
	23 -> 10	 [arrowhead=normal,
		arrowsize=0.75,
		fontsize=8,
		label=0.1,
		lp="1202.5,168.5",
		penwidth=0.8,
		pos="e,1215.4,255.89 1127.3,81.109 1137.8,85.099 1149.1,90.986 1157,99.5 1197.6,142.99 1210.6,216.36 1214.5,248.1"];
	23 -> 24	 [arrowhead=normal,
		arrowsize=0.75,
		fontsize=8,
		label=0.8,
		lp="1154.5,136.5",
		penwidth=2.9,
		pos="e,1135.5,191.82 1119.3,81.151 1127.5,85.263 1136.1,91.227 1141,99.5 1156.7,126.28 1146.2,164.24 1138.3,184.84"];
	22	 [URL="http://lattes.cnpq.br/5657929114457821",
		color="#17272B",
		fontcolor="#FFFFFF",
		height=0.23611,
		label="Alexandre Moura Stumbo [1]",
		pos="1035,136.5",
		width=1.5417];
	23 -> 22	 [arrowhead=normal,
		arrowsize=0.75,
		fontsize=8,
		label=0.1,
		lp="1077.5,104.5",
		penwidth=0.8,
		pos="e,1043.4,127.87 1090.9,81.056 1083.9,88.417 1072.8,99.87 1063,109.5 1058.6,113.84 1053.6,118.47 1049.2,122.61"];
	24 -> 10	 [arrowhead=normal,
		arrowsize=0.75,
		fontsize=8,
		label=0.1,
		lp="1184.5,232.5",
		penwidth=0.8,
		pos="e,1205.7,255.9 1142.4,209.16 1156.7,219.7 1182.5,238.78 1199.5,251.3"];
	24 -> 23	 [arrowhead=normal,
		arrowsize=0.75,
		fontsize=8,
		label=0.8,
		lp="1122.5,136.5",
		penwidth=2.9,
		pos="e,1100.1,81.125 1130,192 1124.5,171.73 1109.4,115.63 1102.1,88.531"];
	24 -> 22	 [arrowhead=normal,
		arrowsize=0.75,
		fontsize=8,
		label=0.1,
		lp="1067.5,168.5",
		penwidth=0.8,
		pos="e,1039,145.14 1100.5,191.99 1087.7,187.92 1073.3,181.96 1062,173.5 1054.3,167.75 1047.8,159.21 1043.1,151.9"];
	30 -> 12	 [arrowhead=normal,
		arrowsize=0.75,
		fontsize=8,
		label=1.0,
		lp="1302.5,168.5",
		penwidth=3.5,
		pos="e,1299.9,191.9 1293.1,145.16 1294.5,154.86 1297,171.8 1298.8,184.19"];
	22 -> 23	 [arrowhead=normal,
		arrowsize=0.75,
		fontsize=8,
		label=0.5,
		lp="1057.5,104.5",
		penwidth=2.0,
		pos="e,1078.7,81.108 1037.1,127.82 1039.6,119.94 1044.4,107.7 1052,99.5 1057.5,93.553 1064.7,88.61 1071.8,84.689"];
	22 -> 24	 [arrowhead=normal,
		arrowsize=0.75,
		fontsize=8,
		label=0.5,
		lp="1094.5,168.5",
		penwidth=2.0,
		pos="e,1120.1,191.9 1047,145.16 1063.7,155.84 1094.1,175.29 1113.7,187.79"];
	16 -> 29	 [arrowhead=normal,
		arrowsize=0.75,
		fontsize=8,
		label=1.0,
		lp="815.5,40.5",
		penwidth=3.5,
		pos="e,819.72,63.847 819.04,17.264 813.5,24.396 807.13,35.365 810,45.5 811.16,49.602 813.17,53.693 815.38,57.375"];
	14	 [URL="http://lattes.cnpq.br/0726021224038168",
		color="#17272B",
		fontcolor="#FFFFFF",
		height=0.23611,
		label="Carlos E. Novo Gatts [0]",
		pos="1408,328.5",
		width=1.3333];
	15	 [URL="http://lattes.cnpq.br/5193228545481595",
		color="#17272B",
		fontcolor="#FFFFFF",
		height=0.23611,
		label="Rosana Aparecida Giacomini [0]",
		pos="1535,328.5",
		width=1.6944];
	18	 [URL="http://lattes.cnpq.br/1200771569783721",
		color="#17272B",
		fontcolor="#FFFFFF",
		height=0.23611,
		label="Roberto da T. Faria Júnior [0]",
		pos="1670,328.5",
		width=1.5556];
	19	 [URL="http://lattes.cnpq.br/7255962059886608",
		color="#17272B",
		fontcolor="#FFFFFF",
		height=0.23611,
		label="Sergio L. Cardoso Serrao [0]",
		pos="1799,328.5",
		width=1.5139];
	20	 [URL="http://lattes.cnpq.br/5932980808143497",
		color="#17272B",
		fontcolor="#FFFFFF",
		height=0.23611,
		label="Nilson S. Peres Stahl [0]",
		pos="1919,328.5",
		width=1.3194];
	21	 [URL="http://lattes.cnpq.br/2332629104748207",
		color="#17272B",
		fontcolor="#FFFFFF",
		height=0.23611,
		label="Edmilson José Maria [0]",
		pos="2032,328.5",
		width=1.3194];
	25	 [URL="http://lattes.cnpq.br/9665893319289013",
		color="#17272B",
		fontcolor="#FFFFFF",
		height=0.23611,
		label="Marcelo da Silva Gomes [0]",
		pos="2151,328.5",
		width=1.4861];
	31	 [URL="http://lattes.cnpq.br/5744415641833528",
		color="#17272B",
		fontcolor="#FFFFFF",
		height=0.23611,
		label="Maria R. Garcia Vega [0]",
		pos="2272,328.5",
		width=1.3611];
}
