strict graph grafo1 {
	graph [bb="0,0,3465.5,125",
		id=grafo1,
		overlap=False
	];
	node [fontsize=8,
		label="\N",
		shape=rectangle,
		style=filled
	];
	0	 [URL="http://lattes.cnpq.br/",
		color="#17272B",
		fontcolor="#FFFFFF",
		height=0.23611,
		label="[Nome-nao-identificado] [0]",
		pos="53.5,116.5",
		width=1.4861];
	1	 [URL="http://lattes.cnpq.br/4015451841111880",
		color="#17272B",
		fontcolor="#FFFFFF",
		height=0.23611,
		label="Marcelo I. Ferreira Ferraz [3]",
		pos="180.5,116.5",
		width=1.5417];
	5	 [URL="http://lattes.cnpq.br/5493564382050585",
		color="#17272B",
		fontcolor="#FFFFFF",
		height=0.23611,
		label="Lessí I. Farias Pinheiro [3]",
		pos="67.5,62.5",
		width=1.4167];
	1 -- 5	 [pos="163.83,107.83 142.34,97.939 105.22,80.856 83.875,71.035"];
	27	 [URL="http://lattes.cnpq.br/6157255488660799",
		color="#17272B",
		fontcolor="#FFFFFF",
		height=0.23611,
		label="Mônica de Moura Pires [2]",
		pos="294.5,62.5",
		width=1.4306];
	1 -- 27	 [pos="197.32,107.83 219,97.939 256.45,80.856 277.98,71.035"];
	33	 [URL="http://lattes.cnpq.br/1731706608106563",
		color="#17272B",
		fontcolor="#FFFFFF",
		height=0.23611,
		label="Naisy Silva Soares [1]",
		pos="180.5,62.5",
		width=1.2222];
	1 -- 33	 [pos="180.5,107.83 180.5,97.996 180.5,81.051 180.5,71.204"];
	9	 [URL="http://lattes.cnpq.br/9289298095076064",
		color="#17272B",
		fontcolor="#FFFFFF",
		height=0.23611,
		label="João P. de C. Nunes Pereira [2]",
		pos="67.5,8.5",
		width=1.625];
	5 -- 9	 [pos="67.5,53.827 67.5,43.996 67.5,27.051 67.5,17.204"];
	31	 [URL="http://lattes.cnpq.br/3312232105089762",
		color="#17272B",
		fontcolor="#FFFFFF",
		height=0.23611,
		label="Salvador D. Pozzo Trevizan [1]",
		pos="334.5,8.5",
		width=1.6389];
	27 -- 31	 [pos="300.4,53.827 307.96,43.996 321,27.051 328.57,17.204"];
	2	 [URL="http://lattes.cnpq.br/5428256895565798",
		color="#17272B",
		fontcolor="#FFFFFF",
		height=0.23611,
		label="Carla R. F. Freire Guimarães [0]",
		pos="477.5,116.5",
		width=1.6806];
	3	 [URL="http://lattes.cnpq.br/6488290754626724",
		color="#17272B",
		fontcolor="#FFFFFF",
		height=0.23611,
		label="Geovânia Silva de Sousa [0]",
		pos="610.5,116.5",
		width=1.5];
	4	 [URL="http://lattes.cnpq.br/4025227752576820",
		color="#17272B",
		fontcolor="#FFFFFF",
		height=0.23611,
		label="Zina A. Caceres Benavides [0]",
		pos="740.5,116.5",
		width=1.5972];
	6	 [URL="http://lattes.cnpq.br/7345698017961040",
		color="#17272B",
		fontcolor="#FFFFFF",
		height=0.23611,
		label="Carlos E. Iwai Drumond [0]",
		pos="869.5,116.5",
		width=1.4722];
	7	 [URL="http://lattes.cnpq.br/7289592650871795",
		color="#17272B",
		fontcolor="#FFFFFF",
		height=0.23611,
		label="Andrea da Silva Gomes [0]",
		pos="992.5,116.5",
		width=1.4444];
	8	 [URL="http://lattes.cnpq.br/7880060241219293",
		color="#17272B",
		fontcolor="#FFFFFF",
		height=0.23611,
		label="Guilhardes de Jesus Júnior [1]",
		pos="342.5,116.5",
		width=1.5694];
	8 -- 27	 [pos="335.42,107.83 326.34,97.996 310.7,81.051 301.61,71.204"];
	8 -- 31	 [pos="345.99,107.84 350.88,96.111 358.72,73.002 354.5,53.5 351.59,40.051 344.2,25.776 339.26,17.253"];
	10	 [URL="http://lattes.cnpq.br/3417734567782570",
		color="#17272B",
		fontcolor="#FFFFFF",
		height=0.23611,
		label="Andre L. Batista Ribeiro [0]",
		pos="1116.5,116.5",
		width=1.4861];
	11	 [URL="http://lattes.cnpq.br/9205464082942072",
		color="#17272B",
		fontcolor="#FFFFFF",
		height=0.23611,
		label="Jorge H. de Oliveira Sales [0]",
		pos="1244.5,116.5",
		width=1.5556];
	12	 [URL="http://lattes.cnpq.br/4221004979116020",
		color="#17272B",
		fontcolor="#FFFFFF",
		height=0.23611,
		label="Susana Marrero Iglesias [1]",
		pos="1371.5,116.5",
		width=1.4583];
	24	 [URL="http://lattes.cnpq.br/1838276397621049",
		color="#17272B",
		fontcolor="#FFFFFF",
		height=0.23611,
		label="Dany Sanchez Dominguez [1]",
		pos="1371.5,62.5",
		width=1.5694];
	12 -- 24	 [pos="1371.5,107.83 1371.5,97.996 1371.5,81.051 1371.5,71.204"];
	13	 [URL="http://lattes.cnpq.br/3225963678857568",
		color="#17272B",
		fontcolor="#FFFFFF",
		height=0.23611,
		label="Sérgio Mota Alves [0]",
		pos="1486.5,116.5",
		width=1.2222];
	14	 [URL="http://lattes.cnpq.br/5034444360451621",
		color="#17272B",
		fontcolor="#FFFFFF",
		height=0.23611,
		label="Paulo Eduardo Ambrósio [2]",
		pos="1603.5,116.5",
		width=1.5139];
	21	 [URL="http://lattes.cnpq.br/0087804302005744",
		color="#17272B",
		fontcolor="#FFFFFF",
		height=0.23611,
		label="Francisco B. Souza Oliveira [2]",
		pos="1603.5,62.5",
		width=1.6389];
	14 -- 21	 [pos="1603.5,107.83 1603.5,97.996 1603.5,81.051 1603.5,71.204"];
	15	 [URL="http://lattes.cnpq.br/5466915298318577",
		color="#17272B",
		fontcolor="#FFFFFF",
		height=0.23611,
		label="Martha X. Torres Delgado [0]",
		pos="1732.5,116.5",
		width=1.5694];
	16	 [URL="http://lattes.cnpq.br/7196165938116027",
		color="#17272B",
		fontcolor="#FFFFFF",
		height=0.23611,
		label="Maria V. Manso Guevara [0]",
		pos="1862.5,116.5",
		width=1.5278];
	17	 [URL="http://lattes.cnpq.br/6096624359077545",
		color="#17272B",
		fontcolor="#FFFFFF",
		height=0.23611,
		label="Luciano A. de Souza Bernardes [0]",
		pos="2000.5,116.5",
		width=1.7917];
	18	 [URL="http://lattes.cnpq.br/7122524744613697",
		color="#17272B",
		fontcolor="#FFFFFF",
		height=0.23611,
		label="Gildson Queiroz de Jesus [0]",
		pos="2137.5,116.5",
		width=1.5139];
	19	 [URL="http://lattes.cnpq.br/2560106052820991",
		color="#17272B",
		fontcolor="#FFFFFF",
		height=0.23611,
		label="Gesil S. Amarante Segundo [0]",
		pos="2268.5,116.5",
		width=1.625];
	20	 [URL="http://lattes.cnpq.br/1153836209203304",
		color="#17272B",
		fontcolor="#FFFFFF",
		height=0.23611,
		label="Felix Mas Milian [0]",
		pos="2386.5,116.5",
		width=1.1528];
	22	 [URL="http://lattes.cnpq.br/2383628271548614",
		color="#17272B",
		fontcolor="#FFFFFF",
		height=0.23611,
		label="Flávio Pietrobon Costa [0]",
		pos="2497.5,116.5",
		width=1.4167];
	23	 [URL="http://lattes.cnpq.br/8384020879567133",
		color="#17272B",
		fontcolor="#FFFFFF",
		height=0.23611,
		label="Esbel T. Valero Orellana [0]",
		pos="2620.5,116.5",
		width=1.5];
	25	 [URL="http://lattes.cnpq.br/5785651071977693",
		color="#17272B",
		fontcolor="#FFFFFF",
		height=0.23611,
		label="César A. Bravo Pariente [0]",
		pos="2745.5,116.5",
		width=1.4722];
	26	 [URL="http://lattes.cnpq.br/7382773322716590",
		color="#17272B",
		fontcolor="#FFFFFF",
		height=0.23611,
		label="Eduardo Palmeira da Silva [0]",
		pos="2873.5,116.5",
		width=1.5694];
	28	 [URL="http://lattes.cnpq.br/9498414767391075",
		color="#17272B",
		fontcolor="#FFFFFF",
		height=0.23611,
		label="Ricardo Candéa Sá Barreto [0]",
		pos="3005.5,116.5",
		width=1.5972];
	29	 [URL="http://lattes.cnpq.br/6838445286046040",
		color="#17272B",
		fontcolor="#FFFFFF",
		height=0.23611,
		label="Moema M. B. Cartibani Midlej [0]",
		pos="3145.5,116.5",
		width=1.7778];
	30	 [URL="http://lattes.cnpq.br/2981039601206887",
		color="#17272B",
		fontcolor="#FFFFFF",
		height=0.23611,
		label="Socrates J. Moquete Guzman [0]",
		pos="3288.5,116.5",
		width=1.6944];
	32	 [URL="http://lattes.cnpq.br/6508153637251662",
		color="#17272B",
		fontcolor="#FFFFFF",
		height=0.23611,
		label="Ronaldo Lima Gomes [0]",
		pos="3416.5,116.5",
		width=1.3611];
}
