2157389826914281
0147388038108142
1314320018956166
5831090704410417
7196165938116027
9319255410460786
0854503014875068
2840176439889517
1129064154382192
9698542232697549
4197266977644156
3440813963635500
3225963678857568
9227316422809854
5610389792440437
4208022446018195
6480693545638285
9811955933040382
0293321489114247
2040449011461769
5939213464648031
2679073082540151
7418724825594141
4015451841111880
7172491133426747
1153836209203304
4686871533902169
2981039601206887
3795848668647630
6454563366923578
3577967628416027
3350273914280971
9089935159387682
8655277884027052
5712754800430026
0487113229071944
1671412186243307
2684502347873472
1448223845901360
4221004979116020
9782872857744532
0360996453471995
4680167587057822
3445836800631171
4699257035323345
8256363068321801
9076845865475039
1338514748652744
4760571555520549
8948908566296790
7970368357155231
1162104080055205
0092226104911153
9237713158265249
5810768872321992
4998776475342320
5806548413537559
5897155172383680
4794269960272173
2023294299618632
0799552418973959
9119800002530075
0725312844547101
6432937105994323
7397919125277407
1254594084292483
6628601391972703
5271399292011537
8772604911040818
2779461697536185
4128051734077960
7452055608188290
6232927330347386
3444911432321582
5038275940032826
5466915298318577
0592576058333460
2935389347278930
3803335892269540
8998580012215576
3037257300670364
5560265259109481
8509299951934973
8089013193709509
8787784443554068
8823313314953689
7384125261756164
6955720245737112
1792782553161360
5760077157985726
5702794746614923
6367001935718729
4023576935528326
8584294285135417
1245053764107506
3369384489217489
9973271398422396
2353742060060121
8141292906227847
0298842308902876
2679203450212926
0920624030229788
0790886337083611
5112475018681357
7706272031416112
3852822052453636
8384020879567133
0025368332027430
4786666656881793
6427868646219751
2560106052820991
4655298104101859
9081528425917959
2093554044196945
7402537389948539
8280280053853901
3325542395822197
6815470414920137
2335265233931027
3694204644729141
5754913226872247
4091709928353457
1044002003893499
4766893108664888
7647668756519784
3300376974424875
7307238902576135
9046617515633941
9304472342900823
0353705043616506
2543058948461241
0519619339414940
9210975132094266
5339716699988324
5072328222757420
9408313070091894
6464748680504383
3456657917390333
5160817149255422
8968027675260189
7742754432467907
4142783458220635
0138717846176845
2908589410457132
2785704399495895
8145575896303897
4864081027460457
8189455773560480
0965680889190191
5315513484223932
0843933323801986
5706200091973418
5201737963224526
6734142797283098
8082241561290480
1120718170017178
4168349074559399
4551527159457891
9427918286750662
3060961635991169
9289298095076064
1357542636768944
8792980690580924
3188890226171961
5882265393423312
4036808925343874
0022091921157418
0867012472209598
1174194948048451
3957875629580994
8581837673008028
5898851138882202
9933359787666209
9821585244827807
6301487519481175
6855382097221938
5738608742598468
5285780811057236
2002269877815458
4297831645535891
3489006978828435
1113478969762923
9843620217463551
7452772512084530
5959542723441576
7787346177012417
4737850358546904
2034038808467771
0029803620389112
3358950548026220
4639305640909138
8240034013281714
1189185311123488
7029395945890194
1109457876454708
9004278476364196
8019334712520483
3302431723262783
1323852883705085
5098240205990564
2579038822923817
4493140717229623
0487633508593207
9114671113378697
9223762726072731
4580309446559271
1386670520349091
6926188473133379
7119886675051877
2048340677678671
0721257416354302
7134911859941077
8116836060125065
0888188783738720
5428256895565798
7647847858765996
4319406479057362
9498414767391075
1812768012522975
4202320591135016
4525825306674111
7257092578585046
9722256192257977
9746001568823184
4945776375901762
9458893237322252
5754907354967975
0471422400500456
4687565162239428
7366914739479957
1378612984760136
1838276397621049
4334062255754321
6299500798546420
9904455667774816
5439106437713254
4812942995925935
0229734734009338
9393221532502927
3023791355274575
7536181384159078
7215067259768975
1569614985704317
2887557267146279
6214805328982969
5921917398670939
8949540199759267
2016327710582448
0868977096675534
7308693412991554
2924123968658962
2854303926268729
8272246436523725
7805475447201086
0203667980247686
4429289946216273
8215754365980649
2413227407052492
8822296976490321
9515213632193334
6009243812014497
5034444360451621
7122524744613697
9263433880201517
6011406165941581
7584037714736754
5290146136914883
3899932582057103
1377022547816780
5169320824794921
1626421093815873
8609440038026862
7708934111715000
7341201808952338
4688635154263621
8725538245085080
0257744922714589
8910143407945506
9515413771092455
5416767068643649
9630816378078767
0304868455345274
8386874839708382
4706240560167644
4848461642307498
7588242353760459
6728625638297991
3272432819561001
4298517538688750
3023506645752042
1033658951252242
6838445286046040
7847360339861508
7965309968940289
1807799204495966
0521113309452505
4042603373489188
9200018459978918
1098194556761187
5411152684158779
4933394290482248
9205464082942072
6059511809784483
3851020859440427
3654477895753230
1427995261811123
3457422157745095
2239049931866686
1717073791867022
4146451868592517
4981294967234125
5728108084133745
5227463730344712
2136128476908311
0203370273515187
1210523778329026
6508153637251662
5493564382050585
3271551006760889
1087897780314757
7894919608963320
9293293865178033
3822087347221447
0241196956032440
2912390244432645
3198350508846033
4544827824639967
0228436305452574
1731706608106563
9139125336083863
2452972220712182
1250385390165950
0107443653772269
6923977651005774
1515622183810159
9712554912460830
1320834851806669
7544896311721707
2371730431088108
7880060241219293
6394458676003586
2862967578132402
7701403722616145
0842211346277294
3822640010593663
1519235832088241
6543563161403421
6082113007855811
5238586185694013
8321004413233815
4920084083921738
4373797404389169
3333115830597692
8114650350450031
1863413471975285
1822002106754789
4539096702003833
3341287910165035
2026008221421545
1653376349568970
3283521888343765
3417734567782570
6962420846568664
0790547144392708
5317345443322862
1600458018861105
9175973357017549
9448595881487365
7363256951151017
5785651071977693
7062879414561730
2245699269572998
3312232105089762
7833602860741308
6062083648431964
7345698017961040
9222328149519812
6008438655616231
0460442476107612
6157255488660799
8555822670280183
0693701175447129
7431069829487169
0311116834453042
8974704552703809
0362417828475021
6902123392794607
6096624359077545
8063969754559439
2386095406586983
4991764535879111
7013578586855961
5732851562413206
5834283034031897
7819653999314901
1025157978990218
8370025222766215
0024327504516685
8274409384297485
9168722643424017
2568875299879353
0985758309817479
2207713052062289
6460980313335849
1242248104619082
5135942414349095
0035810401254065
8291565326035472
6725413897416818
5979088350946090
1608166528142462
3640608958277159
9721459046220757
8573784856325636
9862160835431921
6443066463952891
2295885579063119
0908909287685265
5424725805274920
0884558786808814
0087804302005744
8779279236738059
4581359492260880
6488290754626724
1685254578695836
8477370107109017
3614364436561701
5579921599621295
1804674320656268
0792818577063168
6189254128999229
7716042222856938
4927994639570545
7501951379596973
6509594616230305
0477617276709551
5920864355787944
1795814147371859
9832376873931272
1595358007418855
4140908385855725
1763438905453826
5151214329134966
1078373459119684
8568828903640681
6548055244465358
2383628271548614
1287332124317790
0367017675742830
6478616036659953
7037629618209327
1007816901824719
1857287570673279
1365164019854533
8670191446900036
7530159713722817
5001068241844405
4025227752576820
8781390666125679
9805588720432078
8086526958304657
5309220777809047
1542783849817296
1443260585180322
6503018517997465
2450550585532014
0479104531771418
9488535852971361
0925261242613896
4471953930821073
7401911259032572
6866697946585083
5664104836641684
3865613954489625
6998862911891355
9034316737839418
7338984107200411
2766964943214654
5136090206587404
5355192520694868
6148859181629453
8211592519737657
7132086798192759
