strict graph grafo1 {
	graph [bb="0,0,1520.5,233",
		id=grafo1,
		overlap=False
	];
	node [fontsize=8,
		label="\N",
		shape=rectangle,
		style=filled
	];
	0	 [URL="http://lattes.cnpq.br/8539341671152883",
		color="#17272B",
		fontcolor="#FFFFFF",
		height=0.23611,
		label="Anna A. Figueirêdo de Almeida [1]",
		pos="663,62.5",
		width=1.8194];
	19	 [URL="http://lattes.cnpq.br/0764511052669622",
		color="#17272B",
		fontcolor="#FFFFFF",
		height=0.23611,
		label="Ulisses Umbelino dos Anjos [15]",
		pos="474,8.5",
		width=1.7083];
	0 -- 19	 [pos="635.52,53.939 599.68,44.08 537.36,26.934 501.52,17.07"];
	1	 [URL="http://lattes.cnpq.br/7925449690046513",
		color="#17272B",
		fontcolor="#FFFFFF",
		height=0.23611,
		label="Ronei Marcos de Moraes [35]",
		pos="537,224.5",
		width=1.5556];
	1 -- 19	 [pos="534.76,215.88 524.98,182.68 486.13,50.717 476.28,17.249"];
	5	 [URL="http://lattes.cnpq.br/8338527087554463",
		color="#17272B",
		fontcolor="#FFFFFF",
		height=0.23611,
		label="Jordana de Almeida Nogueira [9]",
		pos="321,170.5",
		width=1.7222];
	1 -- 5	 [pos="505.59,215.94 464.64,206.08 393.42,188.93 352.45,179.07"];
	8	 [URL="http://lattes.cnpq.br/7564660473747042",
		color="#17272B",
		fontcolor="#FFFFFF",
		height=0.23611,
		label="Kátia S. Q. Silva Ribeiro [4]",
		pos="455,170.5",
		width=1.5];
	1 -- 8	 [pos="524.9,215.83 509.31,205.94 482.37,188.86 466.88,179.04"];
	12	 [URL="http://lattes.cnpq.br/4561729191450640",
		color="#17272B",
		fontcolor="#FFFFFF",
		height=0.23611,
		label="Cesar Cavalcanti da Silva [3]",
		pos="620,170.5",
		width=1.5278];
	1 -- 12	 [pos="549.25,215.83 565.03,205.94 592.3,188.86 607.97,179.04"];
	13	 [URL="http://lattes.cnpq.br/0240551533292579",
		color="#17272B",
		fontcolor="#FFFFFF",
		height=0.23611,
		label="Liliane d. Santos Machado [42]",
		pos="799,170.5",
		width=1.6389];
	1 -- 13	 [pos="574.82,215.99 624.56,206.12 711.46,188.87 761.19,179"];
	15	 [URL="http://lattes.cnpq.br/3915051035089861",
		color="#17272B",
		fontcolor="#FFFFFF",
		height=0.23611,
		label="Rodrigo P. de Toledo Vianna [11]",
		pos="238,62.5",
		width=1.75];
	1 -- 15	 [pos="480.86,220.1 408.53,214.83 287.6,202.8 250,179.5 225.06,164.04 220.86,153.48 212,125.5 205.66,105.47 221.09,82.955 230.81,71.353"];
	18	 [URL="http://lattes.cnpq.br/3186920393443928",
		color="#17272B",
		fontcolor="#FFFFFF",
		height=0.23611,
		label="Ana M. Gondim Valença [22]",
		pos="803,62.5",
		width=1.5694];
	1 -- 18	 [pos="581.71,215.95 612.07,209.47 652.31,198.14 684,179.5 735.48,149.22 781.51,92.065 797.25,71.294"];
	5 -- 19	 [pos="328.38,161.78 354.29,134.69 440.9,44.11 466.69,17.14"];
	14	 [URL="http://lattes.cnpq.br/6866270928240455",
		color="#17272B",
		fontcolor="#FFFFFF",
		height=0.23611,
		label="Joao Agnaldo do Nascimento [8]",
		pos="282,116.5",
		width=1.6944];
	5 -- 14	 [pos="315.25,161.83 307.87,152 295.16,135.05 287.78,125.2"];
	8 -- 19	 [pos="455.92,161.78 459.13,134.69 469.89,44.11 473.09,17.14"];
	8 -- 14	 [pos="429.84,161.94 397.04,152.08 340,134.93 307.19,125.07"];
	12 -- 19	 [pos="605.72,161.89 591.77,154 570.43,140.71 555,125.5 519.14,90.154 488.77,37.032 478.09,17.269"];
	16	 [URL="http://lattes.cnpq.br/5580004940091667",
		color="#17272B",
		fontcolor="#FFFFFF",
		height=0.23611,
		label="Eufrásio de A. Lima Neto [6]",
		pos="620,116.5",
		width=1.5417];
	12 -- 16	 [pos="620,161.83 620,152 620,135.05 620,125.2"];
	13 -- 18	 [pos="799.29,161.88 800.03,142.32 801.98,90.536 802.71,71.054"];
	15 -- 19	 [pos="272.06,53.994 316.87,44.122 395.15,26.874 439.95,17.003"];
	14 -- 15	 [pos="275.51,107.83 267.19,97.996 252.85,81.051 244.52,71.204"];
	16 -- 19	 [pos="611.53,107.85 597.95,95.728 570.25,71.632 545,53.5 525.68,39.628 501.98,25.472 487.43,17.089"];
	16 -- 18	 [pos="646.61,107.94 681.31,98.08 741.65,80.934 776.36,71.07"];
	2	 [URL="http://lattes.cnpq.br/9931973391211710",
		color="#17272B",
		fontcolor="#FFFFFF",
		height=0.23611,
		label="Ana T. M. Cavalcanti da Silva [7]",
		pos="799,224.5",
		width=1.7361];
	2 -- 13	 [pos="799,215.83 799,206 799,189.05 799,179.2"];
	10	 [URL="http://lattes.cnpq.br/0616539963047807",
		color="#17272B",
		fontcolor="#FFFFFF",
		height=0.23611,
		label="Neir Antunes Paes [4]",
		pos="929,170.5",
		width=1.2083];
	2 -- 10	 [pos="817.9,215.94 842.55,206.08 885.42,188.93 910.07,179.07"];
	3	 [URL="http://lattes.cnpq.br/4055146648812877",
		color="#17272B",
		fontcolor="#FFFFFF",
		height=0.23611,
		label="Tatiene Correia de Souza [4]",
		pos="1069,224.5",
		width=1.5139];
	7	 [URL="http://lattes.cnpq.br/6515725808648467",
		color="#17272B",
		fontcolor="#FFFFFF",
		height=0.23611,
		label="Caliandra M. B. Luna Lima [2]",
		pos="1059,170.5",
		width=1.625];
	3 -- 7	 [pos="1067.5,215.83 1065.6,206 1062.4,189.05 1060.5,179.2"];
	11	 [URL="http://lattes.cnpq.br/2198188215129698",
		color="#17272B",
		fontcolor="#FFFFFF",
		height=0.23611,
		label="Tarciana Liberal Pereira [2]",
		pos="1189,170.5",
		width=1.4722];
	3 -- 11	 [pos="1086.4,215.94 1109.2,206.08 1148.8,188.93 1171.5,179.07"];
	4	 [URL="http://lattes.cnpq.br/2328238717105962",
		color="#17272B",
		fontcolor="#FFFFFF",
		height=0.23611,
		label="Hemílio F. Campos Coêlho [3]",
		pos="58,224.5",
		width=1.6111];
	4 -- 19	 [pos="49.216,215.87 37.305,204.55 18.247,182.38 25,161.5 49.287,86.392 90.932,77.911 166,53.5 248.83,26.565 349.51,16.105 412.7,12.051"];
	4 -- 15	 [pos="50.265,215.85 38.98,203.74 20.531,179.66 32,161.5 66.687,106.59 141.47,81.811 190.75,71.097"];
	4 -- 14	 [pos="81.117,215.95 104.85,207.91 142.65,194.33 174,179.5 210.35,162.3 250.89,137.37 270.34,125.01"];
	9	 [URL="http://lattes.cnpq.br/1760765397044137",
		color="#17272B",
		fontcolor="#FFFFFF",
		height=0.23611,
		label="Josemberg Moura de Andrade [2]",
		pos="103,170.5",
		width=1.7222];
	4 -- 9	 [pos="64.64,215.83 73.148,206 87.812,189.05 96.333,179.2"];
	9 -- 14	 [pos="129.03,161.94 162.97,152.08 221.99,134.93 255.94,125.07"];
	6	 [URL="http://lattes.cnpq.br/6526050617910624",
		color="#17272B",
		fontcolor="#FFFFFF",
		height=0.23611,
		label="Jozemar Pereira dos Santos [2]",
		pos="938,224.5",
		width=1.6111];
	6 -- 10	 [pos="936.67,215.83 934.97,206 932.04,189.05 930.33,179.2"];
	17	 [URL="http://lattes.cnpq.br/8680871640499952",
		color="#17272B",
		fontcolor="#FFFFFF",
		height=0.23611,
		label="Luiz M. de A. Lima Filho [0]",
		pos="1197,224.5",
		width=1.5417];
	20	 [URL="http://lattes.cnpq.br/5348717261204017",
		color="#17272B",
		fontcolor="#FFFFFF",
		height=0.23611,
		label="Flávia E. L. de Lima Ferreira [0]",
		pos="1331,224.5",
		width=1.6806];
	21	 [URL="http://lattes.cnpq.br/6080000618358423",
		color="#17272B",
		fontcolor="#FFFFFF",
		height=0.23611,
		label="Sergio Ribeiro dos Santos [0]",
		pos="1465,224.5",
		width=1.5417];
}
