ID_Lattes|MATRICULA|NOME|CH|mail|LP_1|PROGRAMA_1|CATEG_1|Periodo_Inicio_1|Periodo_Fim_1|Resp_prog|Resp_LP1
NOK|99999|PATRICIA AVELLO NICOLA PEREIRA|40|UNIVASF@UNIVASF.br|UNIVASF|UNIVASF|P|2013|2016|UNIVASF|UNIVASF
K4751766E3|99999|ANDRE LUIZ DEMANTOVA GURJAO|40|UNIVASF@UNIVASF.br|UNIVASF|UNIVASF|P|2013|2016||
K4556453T6|99999|DIEGO LUZ MOURA|40|UNIVASF@UNIVASF.br|UNIVASF|UNIVASF|P|2013|2016||
NOK|99999|LUCIA MARISY SOUZA RIBEIRO DE OLIVEIRA|40|UNIVASF@UNIVASF.br|UNIVASF|UNIVASF|P|2013|2016||
K4759806Z1|99999|ORLANDO LAITANO LIONELLO NETO|40|UNIVASF@UNIVASF.br|UNIVASF|UNIVASF|P|2013|2016||
K4728784H2|99999|GLAUCIO BEZERRA BRANDAO|40|UNIVASF@UNIVASF.br|UNIVASF|UNIVASF|P|2013|2016||
K4732844P8|99999|GABRIELA LEMOS DE AZEVEDO MAIA|40|UNIVASF@UNIVASF.br|UNIVASF|UNIVASF|P|2013|2016||
K4771491J3|99999|CHEILA NATALY GALINDO BEDOR|40|UNIVASF@UNIVASF.br|UNIVASF|UNIVASF|P|2013|2016||
NOK|99999|LUCIANA DA SILVA TIMOSSI|40|UNIVASF@UNIVASF.br|UNIVASF|UNIVASF|P|2013|2016||
NOK|99999|SERGIO ARON AJZEN|40|UNIVASF@UNIVASF.br|UNIVASF|UNIVASF|P|2013|2016||
K4778984D9|99999|RICARDO ARGENTON RAMOS|40|UNIVASF@UNIVASF.br|UNIVASF|UNIVASF|P|2013|2016||
K4706556U8|99999|ELIANA MATTOS LACERDA|40|UNIVASF@UNIVASF.br|UNIVASF|UNIVASF|P|2013|2016||
K4265619Y1|99999|JOSE CARLOS DE MOURA|40|UNIVASF@UNIVASF.br|UNIVASF|UNIVASF|P|2013|2016||
K4721185U6|99999|NEIDE MARIKO TANAKA|40|UNIVASF@UNIVASF.br|UNIVASF|UNIVASF|P|2013|2016||
K4760087E3|99999|MATEUS MATIUZZI DA COSTA|40|UNIVASF@UNIVASF.br|UNIVASF|UNIVASF|P|2013|2016||
K4556333H5|99999|SERGIO RODRIGUES MOREIRA|40|UNIVASF@UNIVASF.br|UNIVASF|UNIVASF|P|2013|2016||
K4773444E4|99999|FERDINANDO OLIVEIRA CARVALHO|40|UNIVASF@UNIVASF.br|UNIVASF|UNIVASF|P|2013|2016||
K4799388U7|99999|RENE GERALDO CORDEIRO SILVA JUNIOR|40|UNIVASF@UNIVASF.br|UNIVASF|UNIVASF|P|2013|2016||
K4737869H6|99999|FABRICIO CIESLAK|40|UNIVASF@UNIVASF.br|UNIVASF|UNIVASF|P|2013|2016||
K4229975Z2|99999|MARCELO DOMINGUES DE FARIA|40|UNIVASF@UNIVASF.br|UNIVASF|UNIVASF|P|2013|2016||
K4765541A8|99999|JACKSON ROBERTO GUEDES DA SILVA ALMEIDA|40|UNIVASF@UNIVASF.br|UNIVASF|UNIVASF|P|2013|2016||
K4358584U7|99999|RODRIGO PEREIRA RAMOS|40|UNIVASF@UNIVASF.br|UNIVASF|UNIVASF|P|2013|2016||
K4777031J7|99999|JULIANELI TOLENTINO DE LIMA|40|UNIVASF@UNIVASF.br|UNIVASF|UNIVASF|P|2013|2016||
K4213733U2|99999|LEONARDO RODRIGUES SAMPAIO|40|UNIVASF@UNIVASF.br|UNIVASF|UNIVASF|P|2013|2016||
K4774029A3|99999|MARCIA BENTO MOREIRA|40|UNIVASF@UNIVASF.br|UNIVASF|UNIVASF|P|2013|2016||
K4792921D8|99999|EDUARD MONTGOMERY MEIRA COSTA|40|UNIVASF@UNIVASF.br|UNIVASF|UNIVASF|P|2013|2016||
