ID_Lattes|MATRICULA|NOME|CH|mail|LP_1|PROGRAMA_1|CATEG_1|Periodo_Inicio_1|Periodo_Fim_1|Resp_prog|Resp_LP1
K4791896H6|99999|JOAO JOSE GRANATE SA E MELO MARQUES|40|UFLA@UFLA.br|UFLA|UFLA|P|2013|2016|UFLA|UFLA
K4702230A2|99999|FATIMA RESENDE LUIZ FIA|40|UFLA@UFLA.br|UFLA|UFLA|P|2013|2016||
K4780115Y8|99999|FATIMA MARIA DE SOUZA MOREIRA|40|UFLA@UFLA.br|UFLA|UFLA|P|2013|2016||
K4227033A2|99999|DOUGLAS RAMOS GUELFI SILVA|40|UFLA@UFLA.br|UFLA|UFLA|P|2013|2016||
K4848617T1|99999|CARLOS ALBERTO SILVA|40|UFLA@UFLA.br|UFLA|UFLA|P|2013|2016||
K4784276J8|99999|ANTONIO CARLOS DA SILVA ZANZINI|40|UFLA@UFLA.br|UFLA|UFLA|P|2013|2016||
K4778453J5|99999|ANDRE GERALDO CORNELIO RIBEIRO|40|UFLA@UFLA.br|UFLA|UFLA|P|2013|2016||
K4779492D0|99999|ANDERSON CLEITON JOSE|40|UFLA@UFLA.br|UFLA|UFLA|P|2013|2016||
K4795405J1|99999|ALEX BAGER|40|UFLA@UFLA.br|UFLA|UFLA|P|2013|2016||
K4709325A0|99999|ADELIR APARECIDA SACZK|40|UFLA@UFLA.br|UFLA|UFLA|P|2013|2016||
K4793615E6|99999|MARCO AURELIO LEITE FONTES|40|UFLA@UFLA.br|UFLA|UFLA|P|2013|2016||
K4753474Y2|99999|RUBENS MANOEL DOS SANTOS|40|UFLA@UFLA.br|UFLA|UFLA|P|2013|2016||
K4785677U6|99999|ZUY MARIA MAGRIOTIS|40|UFLA@UFLA.br|UFLA|UFLA|P|2013|2016||
K4787212Y3|99999|SORAYA ALVARENGA BOTELHO|40|UFLA@UFLA.br|UFLA|UFLA|P|2013|2016||
K4764359E6|99999|RONALDO FIA|40|UFLA@UFLA.br|UFLA|UFLA|P|2013|2016||
K4783346Y6|99999|NILTON CURI|40|UFLA@UFLA.br|UFLA|UFLA|P|2013|2016||
K4784755P0|99999|MARX LEANDRO NAVES SILVA|40|UFLA@UFLA.br|UFLA|UFLA|P|2013|2016||
K4723778E6|99999|LUIS CLAUDIO PATERNO SILVEIRA|40|UFLA@UFLA.br|UFLA|UFLA|P|2013|2016||
K4775380A5|99999|RENATO ELIAS FONTES|40|UFLA@UFLA.br|UFLA|UFLA|P|2013|2016||
K4781029U5|99999|CLAUDIO MILTON MONTENEGRO CAMPOS|40|UFLA@UFLA.br|UFLA|UFLA|P|2013|2016||
K4728903U6|99999|GERALDO CESAR DE OLIVEIRA|40|UFLA@UFLA.br|UFLA|UFLA|P|2013|2016||
K4765664T9|99999|LUIS ANTONIO COIMBRA BORGES|40|UFLA@UFLA.br|UFLA|UFLA|P|2013|2016||
K4796372T2|99999|JOSE ALDO ALVES PEREIRA|40|UFLA@UFLA.br|UFLA|UFLA|P|2013|2016||
K4730088U5|99999|MARCELO MARCIO ROMANIELLO|40|UFLA@UFLA.br|UFLA|UFLA|P|2013|2016||
K4762120T2|99999|LUIZ ANTONIO AUGUSTO GOMES|40|UFLA@UFLA.br|UFLA|UFLA|P|2013|2016||
K4787390Z7|99999|ARNALDO PEREIRA VIEIRA|40|UFLA@UFLA.br|UFLA|UFLA|P|2013|2016||
K4137605Z8|99999|MAURICEIA SILVA DE PAULA VIEIRA|40|UFLA@UFLA.br|UFLA|UFLA|P|2013|2016||
K4799665Y8|99999|LUIZ FERNANDO COUTINHO DE OLIVEIRA|40|UFLA@UFLA.br|UFLA|UFLA|P|2013|2016||
K4791896J9|99999|MARCO AURELIO CARBONE CARNEIRO|40|UFLA@UFLA.br|UFLA|UFLA|P|2013|2016||
K4764347E6|99999|MARCIO POZZOBON PEDROSO|40|UFLA@UFLA.br|UFLA|UFLA|P|2013|2016||
K4795752J7|99999|YURI LOPES ZINN|40|UFLA@UFLA.br|UFLA|UFLA|P|2013|2016||
K4730237Z5|99999|THIAGO RODRIGO DE PAULA ASSIS|40|UFLA@UFLA.br|UFLA|UFLA|P|2013|2016||
K4796620J9|99999|VERA SIMONE SCHAEFER KALSING|40|UFLA@UFLA.br|UFLA|UFLA|P|2013|2016||
K4319642D4|99999|MARIA DE LOURDES SOUZA OLIVEIRA|40|UFLA@UFLA.br|UFLA|UFLA|P|2013|2016||
K4708825Z4|99999|WANIA REZENDE SILVA|40|UFLA@UFLA.br|UFLA|UFLA|P|2013|2016||
K4700988Y6|99999|MARIA DAS GRACAS PAULA|40|UFLA@UFLA.br|UFLA|UFLA|P|2013|2016||
K4840937P0|99999|SABRINA SOARES DA SILVA|40|UFLA@UFLA.br|UFLA|UFLA|P|2013|2016||
K4234269U0|99999|VIVIANE SANTOS PEREIRA|40|UFLA@UFLA.br|UFLA|UFLA|P|2013|2016||
K4730856U9|99999|LUCIANA BRAGA SILVEIRA|40|UFLA@UFLA.br|UFLA|UFLA|P|2013|2016||
