artigoEmPeriodico	2014	http://dx.doi.org/10.7198/s2237-0722201400040002	TECHNOLOGICAL FORECASTING ON A CURE DIABETES MELLITUS	Revista GEINTEC: gestao, inovacao e tecnologias	ACIOLI, G. R. ; OLIVEIRA JÚNIOR, A. M.	B4	
artigoEmPeriodico	2014		Mapeamento da inovação em empresas sergipanas: uma aplicação de regressão logísitca	Revista da Estatística da Universidade Federal de Ouro Preto	AMORIM, A. A. ; BARRETO, I. D. C. ; RUSSO, S. L.	Qualis nao identificado	Revista da Estatística da Universidade Federal de Ouro Preto
artigoEmPeriodico	2014	http://dx.doi.org/10.7198/S2237-0722201300050023	KINETIC STUDY OF THE DRYING, EXTRACTION, AND CHARACTERIZATION THERMAL STABILITY OF OIL SEEDS OF PASSION OF THE KILL (PASSIFLORA cincinnata Mast.)	Revista GEINTEC: gestao, inovacao e tecnologias	ANDRADE, J.K.S. ; SILVA, G.F. ; BARRETTO, L.C.O. ; SANTOS, J.A.B.	B4	
artigoEmPeriodico	2014	http://dx.doi.org/10.15517/pensarmov.v12i2.17861	CARACTERÍSTICAS DE LA PRÁCTICA DE ACTIVIDADES FÍSICAS Y DEPORTIVAS EN PREADOLESCENTES EN ARACAJU (Versión traducida al español)	Revista de Ciencias del Ejercicio y de la Salud	ARAGÃO, IURI ROSENO MATOS ; Macedo, Ricardo Fontes ; De-Bortoli, Robelius	Qualis nao identificado	Revista de Ciencias del Ejercicio y de la Salud
artigoEmPeriodico	2014	http://dx.doi.org/10.7198/S2237-0722201400040009	INDUSTRIAL POLICY IN THE STATE IN SERGIPE BIOTECH SECTOR: The if BioMudaSe	Revista GEINTEC: gestao, inovacao e tecnologias	BARBOSA JUNIOR, R. R. S. ; GOMES, I. M. A. ; FERREIRA, C. S.	B4	
artigoEmPeriodico	2014	http://dx.doi.org/10.7198/S2237-0722201400010024	SEPARATION PHENOMENA LOGISTIC REGRESSION	Revista GEINTEC: gestao, inovacao e tecnologias	BARRETO, I. D. C. ; BARRETO, I.D.C. ; RUSSO, S. L. ; BRASIL, G.H. ; SIMON, V.H.	B4	
artigoEmPeriodico	2014	http://dx.doi.org/10.7198/s2237-0722201400040008	Anacardium occidentale L .: EXPLORATION TECHNOLOGY APPLIED TO Bioactive compounds TECHNOLOGY IN FOOD PRODUCTS	Revista GEINTEC: gestao, inovacao e tecnologias	BARRETTO, L. C. O. ; MOREIRA, J. J. S. ; SILVA, G. F. ; BRITO, L. B.	B4	
artigoEmPeriodico	2014	http://dx.doi.org/10.9771/s.cprosp.2014.007.022	PROSPECÇÃO TECNOLÓGICA SOBRE Jatropha curcas L.	Cadernos de Prospecção	BARRETTO, LILIA CALHEIROS DE OLIVEIRA ; GOIS, MANUELA VILANOVA ; OLIVEIRA, DIAN SOUZA DE ; GAMA, GENNARO JUNHO ; SILVA, GABRIEL FRANCISCO DA ; BERY, CARLA CRISLAN DE SOUZA ; SANTOS, JOÃO ANTÔNIO BELMINO DOS	B4	
artigoEmPeriodico	2014		OUTLIERS DETECTION USING CONTROL CHARTS FOR OIL WELLS	Journal of Asian Scientific Research	Evangelista, D. F. M. ; Filho, J. A. A. ; Machado, Glaucio José Couri ; SILVA, Gabriel Francisco da ; RUSSO, S. L.	Qualis nao identificado	Journal of Asian Scientific Research
artigoEmPeriodico	2014		OUTLIERS DETECTION USING CONTROL CHARTS FOR OIL WELLS	Asian Economic and Social Society/ Journal of Asian Scientific Research	EVANGELISTA, D. F. M. ; RUSSO, S.L. ; FILHO, J. A. A. ; SILVA, G. F. S. ; José Couri Machado, Glaucio	Qualis nao identificado	Asian Economic and Social Society/ Journal of Asian Scientific Research
artigoEmPeriodico	2014		Factors Conditioning Failure of Micro and Small Businesses of the Information Technology and Communication (ICT): Study of Multiple Cases, Aracaju (SE), Brazil	Business Management Dynamics	FRANCA, M. C. L. ; IRACEMA ; RUSSO, S. L. ; MACHADO, G. J. C.	B2	
artigoEmPeriodico	2014		Factors Conditioning Fail ure of Micro and Small Businesses of the Information T echnology and Communicatio n (ICT ): Study o f Multiple Cases, Aracaju (S E ), Brazil	Business Management Dynamics	França, M. C. L. ; Gomes, Iracema Machado de Aragão ; José Couri Machado, Glaucio ; RUSSO, S. L.	B2	
artigoEmPeriodico	2014	http://dx.doi.org/10.1590/s0100-67622014000200006	Diversidade genética entre indivíduos de Spondias lutea L. procedentes do baixo são francisco sergipano, por meio de marcadores rapd	Revista Árvore (Impresso)	GOIS, Itamara Bomfim ; FERREIRA, Robério Anastácio ; Silva-Mann, Renata ; BLANK, MARIA DE FÁTIMA ARRIGONI ; SANTOS NETO, ELÍSIO MARINHO	A2	
artigoEmPeriodico	2014	http://dx.doi.org/10.1590/s0100-67622014000400005	Variabilidade genética em populações naturais de Ziziphus joazeiro Mart., por meio de marcadores moleculares RAPD	Revista Árvore (Impresso)	GOIS, Itamara Bomfim ; FERREIRA, Robério Anastácio ; Silva-Mann, Renata ; PANTALEÃO, SILMARA MORAES ; GOIS, CAMILA BOMFIM ; OLIVEIRA, RODRIGO SANTANA CALDAS	A2	
artigoEmPeriodico	2014	http://dx.doi.org/10.1590/S1806-66902014000200009	Caracterização genética de mulungu (Erythrina velutina Willd.) em áreas de baixa ocorrência	Revista Ciência Agronômica (UFC. Online)	GONÇALVES, LUCIANA OLIVEIRA ; PINHEIRO, JOSÉ BALDIN ; ZUCCHI, MARIA IMACULADA ; Silva-Mann, Renata	B1	
artigoEmPeriodico	2014	http://dx.doi.org/10.9771/S.CPROSP.2014.007.016	POTENCIAL TECNOLÓGICO DE BIOPOLÍMEROS E CRISTAIS PROTÉICOS RESULTANTES DA BIORREMEDIAÇÃO AMBIENTAL E MICROORGANISMOS	Cadernos de Prospecção	GONÇALVES, ODETE ; LUNA, SAIONARA ; SANTOS, LAURO TIAGO SOUZA ; Quintella, Cristina M.	C	
artigoEmPeriodico	2014		Flow Behavior of Santa Maria Airport Landings through Intervention Models	Business Management Dynamics	GUIMARÃES, DAIANE COSTA ; ANDRADE FILHO, J. A. ; SANTANA, J. R. ; RUSSO, S.L.	B2	
artigoEmPeriodico	2014	http://dx.doi.org/10.7198/S2237-0722201300050032	ANALYSIS OF PRODUCTION OF COCONUT IN THE STATE OF SERGIPE IN THE FACE OF INCREASING OF CULTIVATION IN THE NORTHEAST OF BRAZIL	Revista GEINTEC: gestao, inovacao e tecnologias	JESUS JÚNIOR, L.A. ; TOMMASI, A.C. ; OLIVEIRA JÚNIOR, A.M. ; RUSSO, S.L.	B4	
artigoEmPeriodico	2014		IDENTIFICAÇÃO DAS AÇÕES DE INOVAÇÃO TECNOLÓGICA EM EMPRESAS DE ARACAJU/SE	Revista Brasileira de Gestão e Inovação	JESUS, M. F. N. ; José Couri Machado, Glaucio ; Machado, Glaucio José Couri ; RUSSO, S. L.	Qualis nao identificado	Revista Brasileira de Gestão e Inovação
artigoEmPeriodico	2014	http://dx.doi.org/10.7198/S2237-0722201300050024	EVALUATION OF PROTEIN CONCENTRATE PRODUCTION BY FERMENTATION FROM Moringa Oleifera LAM	Revista GEINTEC: gestao, inovacao e tecnologias	LIMA, L.A.L.C. ; COSTA, D.G. ; NUNES, T.P. ; OLIVEIRA JUNIOR, A.M.	B4	
artigoEmPeriodico	2014	http://dx.doi.org/10.7198/S2237-0722201400010017	DEVELOPMENT, PHYSICAL-CHEMYCAL, MICROBYOLOGICAL AND SENSORY ANALISES OF TAMARIND JAM	Revista GEINTEC: gestao, inovacao e tecnologias	MAIA, J.D. ; TRAVÁLIA, B.M. ; ANDRADE, T.A. ; SILVA, G.K.C. ; ANDRADE, J.K.S. ; OLIVEIRA JÚNIOR, A.M. ; MOREIRA, J.J.S.	B4	
artigoEmPeriodico	2014	http://dx.doi.org/10.9771/s.cprosp.2014.007.021	MAPEAMENTO PATENTÁRIO DE RECUPERAÇÃO AVANÇADA DE PETRÓLEO (EOR) COM ADITIVOS POLIMÉRICOS/BIOPOLIMÉRICOS E SURFACTANTES	Cadernos de Prospecção	MARQUES, LANDSON SOARES ; CARVALHO, ROBERT R. ; SOUZA, MARCIELE A. ; SANTOS, LAURO TIAGO S. ; GUIMARÃES, ALEXANDRE KAMEI ; Quintella, Cristina M.	C	
artigoEmPeriodico	2014	http://dx.doi.org/10.9771/s.cprosp.2014.007.026	PROSPECÇÃO TECNOLÓGICA SOBRE RECUPERAÇÃO AVANÇADA DE PETRÓLEO (EOR) COM ASSOCIAÇÕES DE FLUÍDOS DE NATUREZAS QUÍMICAS DIFERENTES	Cadernos de Prospecção	MARQUES, LANDSON SOARES ; COLA, PLÍNIO RODRIGO ; SANTOS, LAURO TIAGO S. ; GUIMARÃES, ALEXANDRE KAMEI ; Quintella, Cristina M.	C	
artigoEmPeriodico	2014		ESTUDOS PROSPECTIVOS DA PERFILAGEM APLICADA EM POÇOS DE PETRÓLEO	Cadernos de Prospecção	MEDEIROS FILHO, A. R. ; PIRES, E. A. ; SILVA, R. ; RUSSO, S. L.	B4	
artigoEmPeriodico	2014	http://dx.doi.org/10.1016/j.saa.2014.09.088	Validation of LED spectrofluorimeter for determination of both biodiesel and nontransesterified residual cooking oil in diesel samples	Spectrochimica Acta. Part A, Molecular and Biomolecular Spectroscopy (Print)	MEIRA, M. ; QUINTELLA, C. M. ; COSTA NETO, P. R. ; PEPE, I. M. ; RIBEIRO, E.M.O ; SILVA, W. L. ; CID, A. L. D (Alexandre Lopez Del Cid) ; GUIMARÃES, ALEXANDRE KAMEI	A2	
artigoEmPeriodico	2014	http://dx.doi.org/10.5539/ijc.v6n4p24	Determination of Adulterants in Diesel by Multivariate Calibration Associated With LED Spectrofluorimetry	International Journal of Chemistry	Meira, Marilena ; Quintella, Cristina M. ; RIBEIRO, ERIKA M. DE O. ; Guimarães, Alexandre K. ; SILVA, WEIDSON LEAL	B1	
artigoEmPeriodico	2014	http://dx.doi.org/10.5539/ijc.v6n4	Identification of Adulteration of Olive Oil with Other Edible Oils by LED-induced Fluorescence and Multivariate Calibration	International Journal of Chemistry	Meira, Marilena ; Quintella, Cristina M. ; RIBEIRO, ERIKA MARIA DE OLIVEIRA ; SANTOS, MARIANA A. ; LUNA, SAIONARA ; DEL CID, ALEXANDRE LOPES	B1	
artigoEmPeriodico	2014	http://dx.doi.org/10.7198/S2237-0722201300050009	PERCEPTION ON NATIONAL INDICATORS OF SCIENCE, TECHNOLOGY ANDINNOVATIONIN THE FIELDOFHUMAN RESOURCES	Revista GEINTEC: gestao, inovacao e tecnologias	MENEZES, C.C.N. ; OLIVEIRA, L.B. ; SANTOS, M.S. ; SANTOS, J.A.B. ; WARTHA, E.R.S.A.	B4	
artigoEmPeriodico	2014	http://dx.doi.org/10.7198/S2237-0722201400040007	MAPPING OF CREATIVE INDUSTRIES IN SERGIPE	Revista GEINTEC: gestao, inovacao e tecnologias	MENEZES, E. T. N. ; RUSSO, S. L.	B4	
artigoEmPeriodico	2014		PRODUÇÃO E CARACTERIZAÇÃO DE TOMATE CEREJA ORGÂNICO (Lycopersicum var. cerasiforme) SECO	Revista Magistra	MOURA, C. P. B. ; ESCOBAR, S. A. C. ; SANTOS, J. A. B. ; SILVA, A. G. ; CONSTANT, P. B. L.	B3	Revista Magistro
artigoEmPeriodico	2014	http://dx.doi.org/10.7198/S2237-0722201400040006	CONTRACTS ININTELLECTUAL PROPERTY IN NORTHEASTERN UNIVERSITY SHAFT	Revista GEINTEC: gestao, inovacao e tecnologias	MOURA, S. P. B. ; RUSSO, S. L.	B4	
artigoEmPeriodico	2014	http://dx.doi.org/10.9771/S.CPROSP.2014.007.061	PROSPECÇÃO TECNOLÓGICA SOBRE O CORANTE NATURAL DE URUCUM (BIXA ORELLANA L.)	Cadernos de Prospecção	OLEGÁRIO, LARY SOUZA ; SANTOS, JOÃO ANTONIO B.	B4	
artigoEmPeriodico	2014		Condicionamento osmótico em sementes de limão ?Volkameriano? (Citrus volkameriana Tan. and Pasq.)	Scientia Plena	OLIVEIRA, Andrea dos Santos ; SANTOS, Michelle da Fonseca ; FERREIRA, Roberio Anastácio ; BLANK, Arie Fitzgerald ; Silva-Mann, Renata	B3	
artigoEmPeriodico	2014		PROSPECÇÃO TECNOLÓGICA SOBRE O CONTROLE E COMBATE DA TUBERCULOSE BOVINA (Mycobacterium bovis)	Proceeding of ISTI/SIMTEC	OLIVEIRA, L. B. ; BARRETO, I. D. C. ; VIEIRA, S. D. ; CAMARGO, M. E. ; RUSSO, S. L.	Qualis nao identificado	Proceeding of ISTI/SIMTEC
artigoEmPeriodico	2014	http://dx.doi.org/10.7198/S2237-0722201300050030	TECHNOLOGICAL RESEARCH ON THE BOVINE BRUCELLOSIS (Brucella Abortus)	Revista GEINTEC: gestao, inovacao e tecnologias	OLIVEIRA, L.B. ; SANTOS, I.N.N. ; CRUZ, R.S. ; CAMARGO, M.E. ; RUSSO, S.L.	B4	
artigoEmPeriodico	2014	http://dx.doi.org/10.9771/s.cprosp.2014.007.024	MAPEAMENTO TECNOLOGICO DE PATENTES PARA O TRATAMENTO DA MASTITE BOVINA	Cadernos de Prospecção	OLIVEIRA, LUANA BRITO DE ; MENEZES, CLÁUDIA CARDINALE NUNES ; PIRES, EDILSON ARAÚJO ; MEDEIROS FILHO, ADONIS REIS ; Russo, Suzana Leitão ; CAMARGO, MARIA EMÍLIA DE	B4	
artigoEmPeriodico	2014		Applied multiple regression for autocorrelated sugarcane data	African Journal of Agricultural Research	PEDROSO, G. T. ; SILVA-MANN, R. ; CAMARGO, M. E. ; RUSSO, S. L.	B1	
artigoEmPeriodico	2014	http://dx.doi.org/10.4236/fns.2014.55053	Catechin and Epicatechin Contents in Wines Obtained from Brazilian Exotic Tropical Fruits	Food and Nutrition Sciences	Ramalho, S. A ; Gualberto, N. C ; LEITE NETA, M. T. S. ; BATISTA, R. A. ; ARAUJO, S. M. ; MOREIRA, J. J. S. ; Narendra Narain	B4	Food and Nutrition Sciences (Online)
artigoEmPeriodico	2014	http://dx.doi.org/10.1007/s13399-014-0146-2	Overview of the challenges in the production of biodiesel	Biomass Conversion and Biorefinery	Ribeiro, E.M.O ; MEIRA, M. ; QUINTELLA, C. M. ; GONCALVES, H. R. ; GUIMARÃES, ALEXANDRE KAMEI	Qualis nao identificado	Biomass Conversion and Biorefinery
artigoEmPeriodico	2014	http://dx.doi.org/10.4236/oalib.1100598	Monitoring of Soybean Oil Transesterification by Spectrofluorimetry and Multivariate Calibration	OALib	RIBEIRO, ERIKA MARIA DE OLIVEIRA ; Quintella, Cristina Maria ; Meira, Marilena ; LUNA, SAIONARA ; GUIMARAES, ALEXANDRE KAMEI ; SILVA, WEIDSON LEAL	Qualis nao identificado	OALib
artigoEmPeriodico	2014		Statistical Control of Water Quality in the Aracaju, Sergipe, Brazil	Australian Journal of Basic and Applied Sciences	RUSSO, S. L. ; SANTOS, M. V. V. dos ; ARAUJO, L. S. ; PAIXÃO, A. E. A. ; ANDRADE FILHO, J. A. ; CAMARGO, M.E.	Qualis nao identificado	Australian Journal of Basic and Applied Sciences
artigoEmPeriodico	2014		TECHNOLOGICAL INNOVATION IN FIRMS OF ARACAJU CITY/ BRAZIL	International Journal of Engineering Research And Management	RUSSO, S.L.; JESUS, M. F. N. ; Santana, José Ricardo de ; FABRIS, Jonas Pedro	Qualis nao identificado	International Journal of Engineering Research And Management
artigoEmPeriodico	2014	http://dx.doi.org/10.7198/S2237-0722201400040004	PERCEPTION OF TECHNICAL AND SCIENTIFIC STAFF OF A COMPANY PUBLIC RESEARCH ON INTELLECTUAL PROPERTY SERGIPE	Revista GEINTEC: gestao, inovacao e tecnologias	SANTOS, A. P. ; SOARES, S. M. ; TATUM, C. T. S. ; RUSSO, S. L.	B4	
artigoEmPeriodico	2014	http://dx.doi.org/10.7198/S2237-0722201400010023	Technological prospection of essential oil of aroeira (Schinus terebinthifolius Raddi.)	Revista GEINTEC: gestao, inovacao e tecnologias	SANTOS, A. R. F. ; SILVA-MANN, R. ; MENDONCA, V. M. ; RABBANI, A. R. C.	B4	
artigoEmPeriodico	2014	http://dx.doi.org/10.7198/S2237-0722201300050008	OBTENTION, FREEZE-DRYING AND CHARACTERIZATION OF LEMON GRASS (Cymbopogon citratus D.C.) AND HIBISCUS (Hibiscus sabdariffa L.) EXTRACTS	Revista GEINTEC: gestao, inovacao e tecnologias	SANTOS, B.S. ; BARRETTO, L.C.O. ; SANTOS, J.A.B. ; SILVA, G.F.	B4	
artigoEmPeriodico	2014	http://dx.doi.org/10.4238/2014.November.27.11	Cross-species transferability of microsatellite markers in the genus Lippia	Genetics and Molecular Research	SANTOS, C.P. ; ROCHA, D.S. ; BAJAY, M.M. ; SANTOS, F.R.C. ; CAMPOS, J.B. ; PINHEIRO, J.B. ; ZUCCHI, M.I. ; SILVA-MANN, R. ; Arrigoni-Blank, M.F. ; Blank, A.F.	A2	
artigoEmPeriodico	2014	http://dx.doi.org/10.7198/S2237-0722201300050001	PHYSICAL AND CHEMICAL CHARACTERIZATION OF PURPLE CABBAGE (Brassica oleracea)	Revista GEINTEC: gestao, inovacao e tecnologias	SANTOS, G.R. ; DIAS, S.S. ; CONSTANT, P.B.L. ; SANTOS, J.A.B.	B4	
artigoEmPeriodico	2014		Composição Florística de Plantas Infestantes em Sistemas Agroflorestais no Agreste Central Sergipano	Cadernos de Agroecologia	SANTOS, M. J. C.; SANTOS, F.R.	B4	
artigoEmPeriodico	2014		O Papel dos Sistemas Agroflorestais na Substituição da Produção de Lenha Nativa	Cadernos de Agroecologia	SANTOS, M. J. C.; SANTOS, F.R.	B4	
artigoEmPeriodico	2014		Parâmetros Interdimensionais de Clones de Eucalipto em Sistema Silvipastoril na Região Semiárido	Cadernos de Agroecologia	SANTOS, M. J. C.; SANTOS, F.R. ; RIBEIRO, M. J. B.	B4	
artigoEmPeriodico	2014		ESTUDO PROSPECTIVO SOBRE TECNOLOGIA ASSISTIVA PARA PESSOA COM SURDEZ NO ÂMBITO EDUCACIONAL	Cadernos de Prospecção	Santos, S. A ; DALL?AGNOL, R. P. ; PIRES, E. A. ; MOREIRA, J. J. S. ; BRITO, L. B.	C	
artigoEmPeriodico	2014	http://dx.doi.org/10.7198/s2237-0722201400040013	MEDICAL HERBS POTENTIAL ASSESSMENT: lemongrass (Cymbopogon citratus DC), GREEN TEA (Camellia sinensis L.) And HIBISCO (Hibiscus sabdariffa L.) FOR OBTAINING TEAS OF SOLUBLE	Revista GEINTEC: gestao, inovacao e tecnologias	SANTOS, U. V. ; SANTOS, B. S. ; SILVA, G. F. ; CONSTANT, P. B. L. ; SANTOS, J. A. B.	B4	
artigoEmPeriodico	2014	http://dx.doi.org/10.7198/s2237-0722201400040013	MEDICAL HERBS POTENTIAL ASSESSMENT: lemongrass (Cymbopogon citratus DC), GREEN TEA (Camellia sinensis L.) And HIBISCO (Hibiscus sabdariffa L.) FOR OBTAINING TEAS OF SOLUBLE	Revista GEINTEC: gestao, inovacao e tecnologias	SANTOS, U. V. ; SANTOS, B. S. ; SILVA, G. F. ; CONSTANT, P. B. L. ; SANTOS, J. A. B.	B4	
artigoEmPeriodico	2014	http://dx.doi.org/10.4025/actascitechnol.v36i3.17645	<b>The use of sodium alginate-based coating and cellulose acetate in papaya post-harvest preservation</b>	Acta Scientiarum. Technology (Impresso)	SILVA, D. A. ; OLIVEIRA, J. K. ; Santos, C.M ; BERY, C. C. S. ; PAGANI, A. A. C. ; SANTOS, J. A. B.	B1	
artigoEmPeriodico	2014		MORINGA OLEIFERA LAM. IDENTIFICATION OF OPPORTUNITIES FOR THE BRAZILIAN MARKET THROUGH PATENT LANDSCAPE ANALYSIS	Revista GEINTEC: gestao, inovacao e tecnologias	SILVA, G. F. ; OLIVEIRA, D. S. ; Lilia Calheiros de Oliveira ; GOIS, J. M. V. ; SANTOS, J. A. B. ; G, G.J.	B4	
artigoEmPeriodico	2014	http://dx.doi.org/10.7198/S2237-0722201300050002	ANALYSIS OF INDICATORS OF DEVELOPMENT OF SCIENTIFIC AND TECHNOLOGICAL PRODUCTION IN UNIVERSIDADE FEDERAL DE SERGIPE	Revista GEINTEC: gestao, inovacao e tecnologias	SILVA, R. ; MEDEIROS FILHO, A.R. ; PIRES, E.A. ; SANTOS, J.A.B.	B4	
artigoEmPeriodico	2014	http://dx.doi.org/10.9771/s.cprosp.2014.007.020	ANÁLISE PROSPECTIVA DO USO DE SPRAY DRYING NA OBTENÇÃO DE DESIDRATADOS DE FRUTAS TROPICAIS	Cadernos de Prospecção	SILVA, RAFAELA ; PIRES, EDILSON ARAÚJO ; MEDEIROS FILHO, ADONIS REIS DE ; SANTOS, JOÃO ANTONIO BELMINO DOS	C	
artigoEmPeriodico	2014		The Use of Performance Indicators for Evaluating Models of Drying Jackfruit (Artocarpus heterophyllus L.): Page, Midilli, and Lewis	World Academy of Science, Engineering and Technology (Online)	SOARES, D. S. C. ; COSTA, D. G. ; SANTOS, J. T. S. ; ABUD, A. K. S. ; NUNES, T. P. ; OLIVEIRA JÚNIOR, A. M.	B2	
artigoEmPeriodico	2014		Evaluation of Hancornia speciosa Gomes Lyophilization at Different Stages of Maturation	World Academy of Science, Engineering and Technology (Online)	SOARES, D. S. C. ; SANTOS, J. T. S. ; COSTA, D. G. ; ABUD, A. K. S. ; NUNES, T. P. ; OLIVEIRA JÚNIOR, A. M.	B2	
artigoEmPeriodico	2014	http://dx.doi.org/10.5897/JABSD2014.223	Characterization of wild genotypes of Aroeira: subsidy for plant breeding	Journal of Agricultural Biothecnologyand Sustainable development	SOUZA, D. C. L. ; GOMES, L. J. ; BLANK, Arie Fitzgerald ; GOIS, Itamara Bomfim ; ALVES, Pericles Barreto ; Silva-Mann, Renata	Qualis nao identificado	Journal of Agricultural Biothecnologyand Sustainable development
artigoEmPeriodico	2014	http://dx.doi.org/10.1590/s0100-67622014000600015	Indicadores de sustentabilidade para conservação genética de Erythrina velutina Willd., em área de mata ciliar	Revista Árvore (Impresso)	SOUZA, D. C. L. ; SILVA-MANN, R. ; MELO, MARÍLIA FREITAS DE VASCONCELOS	A2	
artigoEmPeriodico	2014	http://dx.doi.org/10.1007/s11746-013-2354-5	Identification of Vegetable Oil or Biodiesel Added to Diesel Using Fluorescence Spectroscopy and Principal Component Analysis	JOURNAL OF THE AMERICAN OIL CHEMISTS' SOCIETY (ONLINE)	TOMAZZONI, GIANCARLO ; MEIRA, MARILENA ; QUINTELLA, C. M. ; ZAGONEL, G. F. ; COSTA, BILL JORGE ; OLIVEIRA, PAULO ROBERTO ; PEPE, IURI MUNIZ ; DA COSTA NETO, PEDRO RAMOS	B2	
artigoEmPeriodico	2014	http://dx.doi.org/10.7198/S2237-0722201300050005	CHARACTERIZATION OF CROP PRODUCTION (BEANS, CORN, CASSAVA, CASTOR BEAN, SISAL) AND LIVESTOCK (CATTLE, GOAT AND SHEEP) IN THE TERRITORY OF SISAL (BAHIA)	Revista GEINTEC: gestao, inovacao e tecnologias	TOMMASI, A.C. ; JESUS JÚNIOR, L.A. ; OLIVEIRA JÚNIOR, A.M. ; MARTINS, C.A.	B4	
artigoEmPeriodico	2014	http://dx.doi.org/10.4238/2014.November.27.12	Molecular characterization of bromeliads from northeast Brazil	Genetics and Molecular Research	VIEIRA, S.D. ; RABBANI, A.R.C. ; SANTOS, F. ; SILVA-MANN, R. ; Arrigoni-Blank, M.F. ; PRATA, A.P.N. ; RESENDE, L.V. ; Pasqual, M. ; Blank, A.F.	A2	
artigoEmPeriodico	2014	http://dx.doi.org/10.7198/s2237-0722201400020010	MICROBIOLOGICAL EVALUATION OF CRUSHING BOARDS AND HAMMERS USED FOR CONSUMPTION OF CRAB IN ARACAJU, SERGIPE	Revista GEINTEC: gestao, inovacao e tecnologias	XAVIER, A.C.R. ; TRAVÁLIA, B.M. ; ARIMATÉA, C.C. ; MAIA, J.D. ; OLIVEIRA JUNIOR, A.M. ; NUNES, T.P.	B4	
trabalhoCompletoEmCongresso	2014	http://dx.doi.org/10.7198/S2318-3403201400020043	PROSPECÇÃO TECNOLÓGICA SOBRE A CURA DO DIABETES MELLITUS	5th International Symposium on Technological Innovation	ACIOLI, G. R. ; OLIVEIRA JUNIOR, A. M.		
trabalhoCompletoEmCongresso	2014		ANÁLISE ENERGÉTICA E EXERGÉTICA NO SISTEMA DE GERAÇÃO DE ALTO DESEMPENHO COM O GRUPO MOTOR DE COMBUSTÃO INTERNA USANDO GÁS NATURAL	Congresso Nacional de Engenharia Mecanica - CONEM	CAVALCANTE, A. W. A. ; SANTOS, C. A. C. ; ANDRADE, J. H. ; ROCHA, M. A.		
trabalhoCompletoEmCongresso	2014		CONTROLE DE VAZÃO PARA CHILLERS DE ABSORÇÃO COM PAR ÁGUA-BROMETO DE LÍTIO	CONEM 2014	CEZAR, K. L. ; CALDAS, A. M. A. ; SANTOS, C. A. C. ; ALENCAR, R. ; FERNANDES, T. A. ; Silva, T. A.		
trabalhoCompletoEmCongresso	2014		AVALIAÇÃO DO POTENCIAL DE PRODUÇÃO DE ENZIMAS CELULOLÍTICAS POR FERMENTAÇÃO SEMI-SÓLIDA POR MEIO DE PLANEJAMENTO EXPERIMENTAL	XX Congresso Brasileiro de Engenharia Química	FRANCA, R. L. S. ; ABUD, A. K. S. ; ARAUJO, M. L. ; OLIVEIRA JÚNIOR, A. M.		
trabalhoCompletoEmCongresso	2014	http://dx.doi.org/10.5151/chemeng-cobeq2014-1312-19943-177854	AVALIAÇÃO DO POTENCIAL DE PRODUÇÃO DE ENZIMAS CELULOLÍTICAS POR FERMENTAÇÃO SEMI-SÓLIDA POR MEIO DE PLANEJAMENTO EXPERIMENTAL	XX Congresso Brasileiro de Engenharia Química	FRANÇA, R. L. S. ; ARAÚJO, M. L. ; ABUD, A. K. S. ; Oliveira Jr, A. M.		
trabalhoCompletoEmCongresso	2014	http://dx.doi.org/10.5151/chemeng-cobeq2014-1339-19793-160877	IDENTIFICABILIDADE ESTRUTURAL DE SISTEMA DE VAPOR DE UNIDADE INDUSTRIAL DE FERTILIZANTES	XX Congresso Brasileiro de Engenharia Química	FRANÇA, R. L. S. ; MARTINS, P. R. ; SILVA, R. P. ; Oliveira Jr, A. M.		
trabalhoCompletoEmCongresso	2014		Técncia de Medição de Vazao não intrusiva para sistema de Refrigeração que usam o par água Brometo de litio	VII Congresso Iberico de Ciencias Y Tecnicas Del Frio	FREITAS, Alisson de Oliveira ; CEZAR, K. L. ; SANTOS, C. A. C.		
trabalhoCompletoEmCongresso	2014	http://dx.doi.org/10.5151/marine-spolm2014-126486	ALGORITMO PARA REDUÇÃO DE ERROS DE MEDIDAS EM POÇOS DE PETRÓLEO ATRAVÉS DE FILTRAGEM	XVII Simpósio de Pesquisa Operacional e Logística da Marinha	GUIMARÃES, DAIANE COSTA ; SILVA, MAYARA LAYSA DE OLIVEIRA ; Russo, Suzana Leitão		
trabalhoCompletoEmCongresso	2014		Política Industrial no Estado de Sergipe: o caso da BioMudaSE	International Symposiium on Technological Innovations - ISTI / Simpósio Intern de Inovação Tecnológica - SIMTEC	JUNIOR BARBOSA, R.R.S. ; GOMES, I.M.A. ; Ferraz, Couto		
trabalhoCompletoEmCongresso	2014		Controle de Recirculação para Chiller de Absorção com H2O / LIBR	VII Congresso Iberico de Ciencias Y Tecnicas Del Frio	LIMA, C. K. ; SANTOS, C. A. C. ; CALDAS, A. M. A. ; Cordeiro, M. C. L ; FERNANDES, T. A. ; ALENCAR, R. ; Silva, T. A.		
trabalhoCompletoEmCongresso	2014	http://dx.doi.org/10.7198/S2318-3403201400020046	PANORAMA SOBRE A PROTEÇÃO DA PROPRIEDADE INTELECTUAL DOS NÚCLEOS DE INOVAÇÃO TECNOLÓGICA VINCULADOS AOS INSTITUTOS FEDERAIS DE EDUCAÇÃO, CIÊNCIA E TECNOLOGIA	5th International Symposium on Technological Innovation	LOUREIRO, R. N. A. ; MACHADO, G. J. C. ; GOMES, I. M. A.		
trabalhoCompletoEmCongresso	2014		Panorama sobre a Proteção da Propriedade Intelectual dos NITs dos IFs	ISTI/SIMTEC	LOUREIRO, R. N. A. ; MACHADO, G. J. C. ; GOMES, I.M.A.		
trabalhoCompletoEmCongresso	2014	http://dx.doi.org/10.7198/S2318-3403201400020033	PEDIDO DE REGISTRO DE MARCA E AS EMRESAS SERGIPANAS	5th International Symposium on Technological Innovation	MEDEIROS FILHO, A. R. ; RUSSO, S. L.		
trabalhoCompletoEmCongresso	2014	http://dx.doi.org/10.7198/S2318-3403201400020004	MAPEAMENTO DE INDÚSTRIAS CRIATIVAS EM SERGIPE	5th International Symposium On Technological Innovation	MENEZES, EDMARA ; Russo, Suzana		
trabalhoCompletoEmCongresso	2014	http://dx.doi.org/10.7198/S2318-3403201400020013	UM OLHAR SOBRE A PESQUISA COM ÓLEOS ESSENCIAIS NO BRASIL A PARTIR DA BASE DE DADOS SCIELO	5th International Symposium on Technological Innovation	MOREIRA, R. D. ; LEÃO, K. M. M. ; BARRETO, J. R. S. ; OLIVEIRA JUNIOR, A. M. ; SANTOS, J. A. B. ; MOREIRA, J. J. S.		
trabalhoCompletoEmCongresso	2014	http://dx.doi.org/10.7198/S2318-3403201400020031	CONTRATOS EM PROPRIEDADE INTELECTUAL NAS UNIVERSIDADES DO EIXO NORDESTE	5th International Symposium on Technological Innovation	MOURA, S. P. B. ; RUSSO, S. L.		
trabalhoCompletoEmCongresso	2014		Análise Custo-Benefício do Registro de Marca pelas PMEs	IV ProspeCTI	NASCIMENTO, R. L. L. ; Gomes, Iracema Machado de Aragão ; SANTOS, R. M.		
trabalhoCompletoEmCongresso	2014		COMPORTAMENTO DE Salmonella Typhimurium ÁCIDO-TOLERANTE INOCULADA EM POLPA DE MANGABA E JENIPAPO	IV SEMANA ACADEMICA DE ENGENHARIA DE ALIMENTOS	NEVES, B. S. S. ; SANTOS, G. S. ; ARAUJO, J. M. ; NUNES, T. P. ; OLIVEIRA JÚNIOR, A. M.		
trabalhoCompletoEmCongresso	2014	http://dx.doi.org/10.7198/S2318-3403201400020032	PROSPECÇÃO TECNOLÓGICA SOBRE O CONTROLE E COMBATE DA TUBERCULOSE BOVINA (Mycobacterium bovis)	5th International Symposium on Technological Innovation	OLIVEIRA, L. B. ; BARRETO, I. D. C. ; VIEIRA, S. D. ; CAMARGO, M. E. ; RUSSO, S. L.		
trabalhoCompletoEmCongresso	2014		ESTUDO E AVALIAÇÃO DE UMA PLANTA PILOTO DE MICRO COGERAÇÃO A PARTIR DE UM MOTOR DE COMBUSTÃO INTERNA ALIMENTADO A GÁS NATURAL	Congresso Nacional de Engenharia Mecanica - CONEM	ROCHA, M. A. ; SANTOS, C. A. C. ; CAVALCANTE, A. W. A.		
trabalhoCompletoEmCongresso	2014		AJUSTAMENTO EXPONENCIAL NO PARÂMETRO COLIFORMES TOTAIS NA QUALIDADE DA ÁGUA NO MUNICÍPIO DE ARACAJU DE 2009 A 2013 ATRAVÉS DE SÉRIES TEMPORAIS	III Congresso Nacional de Estatística	RODRIGUES, C. S. ; RODRIGUES JR, J. ; SANTOS, M. V. V. dos ; SANTOS, S. G. de S. ; RUSSO, S. L.		
trabalhoCompletoEmCongresso	2014		Uma aplicação de Séries Temporais e Inteligência Computacional na Previsão do Mercado de Seguros de Automóveis Sergipano	III Congresso de Estatística	ROSA, S. S. S. ; SANTOS, A. C. ; BARRETO, I. D. C. ; ANDRADE FILHO, J. A. ; RUSSO, S. L.		
trabalhoCompletoEmCongresso	2014		Estudo Analítico da Transferência simultânea de calor e massa em absorvedores de tubo circulares com filme fino através da técnica de transformada integral generalizada	V II CYTEF	SANTOS, C. A. C.; SILVA, F. W. ; ANDRADE, J. H.		
trabalhoCompletoEmCongresso	2014		AVALIAÇÃO DAS ATIVIDADES ENZIMÁTICAS DE PECTINASE E POLIGALACTURONASE COM DIFERENTES PROPORÇÕES DE CASCA DE COCO VERDE E SABUGO DE MILHO	XX Congresso Brasileiro de Engenharia Química	SANTOS, K. M. A. ; ARAUJO, M. L. ; SILVA, G. F. ; ABUD, A. K. S. ; OLIVEIRA JÚNIOR, A. M.		
trabalhoCompletoEmCongresso	2014		ADVANTAGE ANALYSIS OF EMISSIONS THE INTERNAL COMBUSTION ENGINES BASED ON USING FUEL MINERAL DIESEL AND BIODIESEL	ENCIT 2014	SANTOS, L. B. ; SANTOS, C. A. C. ; CAVALCANTE, A. W. A. ; SANTOS, L. P.		
trabalhoCompletoEmCongresso	2014	http://dx.doi.org/10.5151/chemeng-cobeq2014-0045-27362-152978	INFLUÊNCIA DE INIBIDORES NO PROCESSO DE FERMENTAÇÃO ETANÓLICA DE XILOSE POR PACHYSOLEN TANNOPHILUS	XX Congresso Brasileiro de Engenharia Química	SILVA, A. S. ; Oliveira Jr, A. M. ; ABUD, A. K. S.		
trabalhoCompletoEmCongresso	2014	http://dx.doi.org/10.5151/chemeng-cobeq2014-0056-27290-182291	INFLUÊNCIA DE INIBIDORES NA FERMENTAÇÃO ETANÓLICA DE XILOSE POR PICHIA STIPITIS	XX Congresso Brasileiro de Engenharia Química	SILVA, A. S. ; Oliveira Jr, A. M. ; ABUD, A. K. S.		
trabalhoCompletoEmCongresso	2014	http://dx.doi.org/10.7198/S2318-3403201400020056	A EVOLUÇÃO DA PÓS-GRADUAÇÃO NO BRASIL	5th International Symposium on Technological Innovation	SILVA, M. L. O. ; FABRIS, J. P. ; RUSSO, S. L.		
trabalhoCompletoEmCongresso	2014		The use of performance indicators for evaluating models of drying jackfruit: Page, Midilli, and Lewis	INTERNATIONAL CONFERENCE ON FOOD ENGINEERING AND BIOTECHNOLOGY	SOARES, D. S. C. ; COSTA, D. G. ; SANTOS, J. T. S. ; ABUD, A. K. S. ; NUNES, T. P. ; OLIVEIRA JÚNIOR, A. M.		
trabalhoCompletoEmCongresso	2014		Evaluation of Hancornia speciosa Gomes Lyophilization at Different Stages of Maturation	INTERNATIONAL CONFERENCE ON FOOD ENGINEERING AND BIOTECHNOLOGY	SOARES, D. S. C. ; SANTOS, J. T. S. ; COSTA, D. G. ; ABUD, A. K. S. ; NUNES, T. P. ; FIGUEIREDO, A. V. D. ; OLIVEIRA JÚNIOR, A. M.		
trabalhoCompletoEmCongresso	2014		AVALIAÇÃO DOS ASPECTOS QUÍMICOS, MICROBIOLÓGICOS E SENSORIAIS DO QUEIJO PETIT SUISSE DE LEITE DE CABRA POTENCIALMENTE PROBIÓTICO	IV SEMANA ACADEMICA DE ENGENHARIA DE ALIMENTOS	SOARES, D. S. C. ; SANTOS, J. T. S. ; MOTA, L. O. ; COSTA, D. G. ; MOREIRA, J. J. S. ; NUNES, T. P. ; OLIVEIRA JÚNIOR, A. M.		
trabalhoCompletoEmCongresso	2014	http://dx.doi.org/10.7198/S2318-3403201400020028	PERFIL DA INOVAÇÃO TECNOLÓGICA EM EMPRESAS SERGIPANAS	5th International Symposium on Technological Innovation	SOUZA, A. A. A. ; RUSSO, S. L. ; ANDRADE FILHO, J. A. ; PAIXÃO, A. E. A. ; CAMARGO, M. E.		
trabalhoCompletoEmCongresso	2014		DETERMINAÇÃO EXPERIMENTAL DO COEFICIENTE CONVECTIVO NO COZIMENTO DA SALSICHA EM MOLHO DE TOMATE	IV SEMANA ACADEMICA DE ENGENHARIA DE ALIMENTOS	SOUZA, M. S. S. ; GOES, C. A. ; NUNES, T. P. ; OLIVEIRA JÚNIOR, A. M.		
resumoExpandidoEmCongresso	2014	Evaluation of phenolic compounds during storage of cashew apple bagasse (Anacardium occidentale L.)	V Congresso Internacional de Ciencia y tecnologia de Alimentos, 2014, Córdoba. Cicyta 2014. Córdoba	BARRETO, L. C. O. ; ANDRADE, T.A. ; MOREIRA, J. J. S. ; FREITAS, S. P.		
resumoExpandidoEmCongresso	2014	Enhacement of phenolic compounds from cashew apple bagasse assisted by enzymatic hydrolysis	V Congresso Internacional de Ciencia y Tecnologia de Alimentos, 2014, Córdoba. Cicyta 2014. Córdoba	BARRETO, L. C. O. ; LEAO, K. M. ; ANDRADE, T.A. ; MOREIRA, J. J. S. ; FREITAS, S. P.		
resumoExpandidoEmCongresso	2014	Effect of pectinase treatment in Isabel's grape Sking (Vitis Labrusca) on the availability of phenolic compounds	V Congresso Interncaional de Ciencia y Tecnologia de Alimentos, 2014, Córdoba. CICYTA 2014. Córdoba	BARRETO, L. C. O. ; MELO, T. S. ; ANDRADE, T.A. ; LEAO, K. M. ; MOREIRA, J. J. S.		
resumoExpandidoEmCongresso	2014	407-Técnica de Medição de vazao nao intrusivo para sistema de refrigeração que usam par água Brometo de Lítio (H2O/LiBr)	VII Congresso Iberico de Ciencias Y Tecnica del Frio e V Congresso Iberoamericano de Ciencias Y Tecnicas del Frio, 2014, Tarragona. CYTEF 2014. Tarragona: cytef 2014	CALDAS, A. M. A. ; SANTOS, C. A. C. ; CEZAR, K. L.		
resumoExpandidoEmCongresso	2014	CONTROLE DE RECIRCULAÇÃO PARA CHILLERS DE ABSORÇÃO COM H2O/LiBr	CYTEF 2014, 2014, Tarragona. CYTEF 2014	CEZAR, K. L. ; SANTOS, C. A. C. ; CALDAS, A. M. A. ; Cordeiro, M. C. L ; FERNANDES, T. A. ; ALENCAR, R. ; Silva, T. A.		
resumoExpandidoEmCongresso	2014	PROYECTO SEGUNDO TIEMPO EN BELO HORIZONTE, BRASIL:acercamiento de las características físicas infantiles	XX Simposio Internacional en Cencias del Deporte, el Ejercicio y la Salud, 2014, San José. Memoria General de Conferências, Póster y Talleres. San José: Edufi-UCR	De-Bortoli, Robelius; Trindade, C. H. R. ; De Bortoli, Â. L.		
resumoExpandidoEmCongresso	2014	Previsão da Produção de Feijão Através dos Modelos Box e Jenkins	III Congresso Nacional de Estatística, 2014, São Cristóvão. III Congresso Nacional de Estatística. São Cristóvão: UFS	GUIMARAES, D. C. ; SANTOS, A. C. ; SANTOS, D. G. dos ; SANTOS, E. G. H. ; RUSSO, S. L.		
resumoExpandidoEmCongresso	2014	UM OLHAR SOBRE A PESQUISA COM ÓLEOS ESSENCIAIS NO BRASIL A PARTIR DA BASE DE DADOS SCIELO	5th International Symposium on Technological Innovation	MOREIRA, R. D. ; LEÃO, K. M. M. ; BARRETO, J. R. S. ; OLIVEIRA JUNIOR, A. M. ; SANTOS, J. A. B. ; MOREIRA, J. J. S.		
resumoExpandidoEmCongresso	2014	LEVANTAMENTO ETNOBOTÂNICO DE PLANTAS MEDICINAIS UTILIZADAS PELA POPULAÇÃO RURALEM ÁREAS DE ASSENTAMENTOS NA REGIÃO SEMIÁRIDO SERGIPANO	III Simpósio Regional de Desenvolvimento Rural, 2014, Itabaiana. III Simpósio Regional de Desenvolvimento Rural	RIBEIRO, M. J. B. ; SANTOS, F.R. ; SANTOS, M. J. C.		
resumoExpandidoEmCongresso	2014	453-Estudo analítico da transferencia simultanea de calor e massa em absorvedores de tubos circulares com filme fino através da técnica de transformada integral generalizada	CYTEF 2014, 2014, Tarragono. CYTEF 2014. Tarragona: cytef 2014	SANTOS, CARLOS A.C		
resumoExpandidoEmCongresso	2014	COMPOSIÇÃO DE QUINTAIS AGROFLORESTAIS EM ÁREAS DE AGRICULTURA FAMILIAR E DIVISÃO DE TRABALHO NO POVOADO ZANGUE-SE	III Simpósio Regional de Desenvolvimento Rural, 2014, Itabaiana. III Simpósio Regional de Desenvolvimento Rural	SANTOS, F.R. ; SANTOS, M. J. C. ; RIBEIRO, M. J. B.		
resumoExpandidoEmCongresso	2014	Comparison between biomass yield and SOC in young agroforestry systems of varying chronosequence in Sergipe, Brazil	The World Congress on Agroforestry 2014, 2014, Delhi, India. The World Congress on Agroforestry	SANTOS, M. J. C.; BARDHAN, S. ; SANTOS, F.R. ; SHIBU, J.		
resumoExpandidoEmCongresso	2014	SISTEMAS AGROFLORESTAIS PARA A CONECTIVIDADE NA MELHORIA DA PAISAGEM FRAGMENTADA NA AGRICULTURA FAMILIAR	III Simpósio Regional de Desenvolvimento Rural, 2014, Itabaiana. III Simpósio Regional de Desenvolvimento Rural	SANTOS, M. J. C.; SANTOS, F.R. ; RIBEIRO, M. J. B.		
resumoExpandidoEmCongresso	2014	GESTÃO DA PROPRIEDADE INTELECTUAL EM EMPRESAS DE BASE TECNOLÓGICA VINCULADAS À INCUBADORA TECNOLÓGICA DE CAMPINA GRANDE	5th International Symposium on Technological Innovation	SILVA, R. ; SANTOS, J. A. B. ; SILVA, G. F. ; MOREIRA, J. J. S.		
