
PB0:2013,32;
PB1:2013,4;
PB2:2013,5;
PB3:*itens sem ano,2;2013,1;
PB4:2013,27;
PB5:2013,3;
PB6:2013,9;
PB8:2013,34;
PB9:2013,1;
PT3:*itens sem ano,1;2013,1;
PT4:2013,2;
PT5:2013,10;
OA0:2016,1;
OA1:2014,2;2015,2;2016,3;2017,4;
OA2:2004,1;2005,1;2014,1;2015,8;2016,12;2017,9;
OA4:2005,1;2006,1;2013,4;
OA5:2013,1;2014,2;2016,1;
OA6:2006,7;
OC2:2013,8;
OC3:2013,24;
OC4:2013,37;
OC5:2013,21;
OC6:2013,7;
Pm:2013,1;
Pj:2004,1;2005,2;2006,2;2007,1;2008,3;2009,2;2010,5;2011,4;2012,4;2013,6;
PB:*itens sem ano,2;2013,116;
PT:*itens sem ano,1;2013,13;
OA:2004,1;2005,2;2006,8;2013,5;2014,5;2015,10;2016,17;2017,13;
OC:2013,97;
Ep:2013,63;
Eo:2013,13;