strict graph grafo2 {
	graph [bb="0,0,1799,209",
		id=grafo2,
		overlap=False
	];
	node [fontsize=8,
		label="\N",
		shape=rectangle,
		style=filled
	];
	0	 [URL="http://lattes.cnpq.br/2314309546470778",
		color="#17272B",
		fontcolor="#FFFFFF",
		height=0.23611,
		label="Sergio Muñoz [0]",
		pos="36.5,200.5",
		width=1.0139];
	1	 [URL="http://lattes.cnpq.br/4802548698016081",
		color="#17272B",
		fontcolor="#FFFFFF",
		height=0.23611,
		label="Saul de Castro Leite [3]",
		pos="137.5,200.5",
		width=1.2917];
	10	 [URL="http://lattes.cnpq.br/3572434390881704",
		color="#17272B",
		fontcolor="#FFFFFF",
		height=0.23611,
		label="Raul Fonseca Neto [4]",
		pos="83.5,136.5",
		width=1.2361];
	1 -- 10	 [fontsize=8,
		label=3.0,
		lp="120,168.5",
		pos="130.88,191.9 120.51,180 100.57,157.1 90.176,145.16"];
	12	 [URL="http://lattes.cnpq.br/2487554612123446",
		color="#17272B",
		fontcolor="#FFFFFF",
		height=0.23611,
		label="Carlos C. Hasenclever Borges [3]",
		pos="138.5,72.5",
		width=1.7222];
	1 -- 12	 [fontsize=8,
		label=2.0,
		lp="144,136.5",
		pos="137.56,192 137.74,169.64 138.26,103.64 138.44,81.125"];
	10 -- 12	 [fontsize=8,
		label=3.0,
		lp="120,104.5",
		pos="90.244,127.9 100.8,116 121.11,93.102 131.7,81.165"];
	2	 [URL="http://lattes.cnpq.br/6653435398940498",
		color="#17272B",
		fontcolor="#FFFFFF",
		height=0.23611,
		label="Rodrigo Weber dos Santos [5]",
		pos="331.5,200.5",
		width=1.5833];
	8	 [URL="http://lattes.cnpq.br/9374460427113373",
		color="#17272B",
		fontcolor="#FFFFFF",
		height=0.23611,
		label="Marcelo Lobosco [3]",
		pos="408.5,136.5",
		width=1.1667];
	2 -- 8	 [fontsize=8,
		label=3.0,
		lp="381,168.5",
		pos="340.94,191.9 355.72,180 384.16,157.1 398.98,145.16"];
	13	 [URL="http://lattes.cnpq.br/9127577198387019",
		color="#17272B",
		fontcolor="#FFFFFF",
		height=0.23611,
		label="Bernardo Martins Rocha [1]",
		pos="294.5,136.5",
		width=1.4861];
	2 -- 13	 [fontsize=8,
		label=1.0,
		lp="321,168.5",
		pos="326.96,191.9 319.86,180 306.2,157.1 299.07,145.16"];
	17	 [URL="http://lattes.cnpq.br/5293684092572886",
		color="#17272B",
		fontcolor="#FFFFFF",
		height=0.23611,
		label="Ciro de Barros Barbosa [1]",
		pos="324.5,72.5",
		width=1.4306];
	2 -- 17	 [fontsize=8,
		label=1.0,
		lp="226,136.5",
		pos="293.58,191.95 268.12,184.7 236.41,170.94 220.5,145.5 200.29,113.2 255.25,91.609 292.76,81.049"];
	24	 [URL="http://lattes.cnpq.br/4797934811107085",
		color="#17272B",
		fontcolor="#FFFFFF",
		height=0.23611,
		label="Luis P. da Silva Barra [4]",
		pos="585.5,72.5",
		width=1.3611];
	2 -- 24	 [fontsize=8,
		label=2.0,
		lp="723,136.5",
		pos="388.51,192.35 493.05,179.1 705.25,151.55 710.5,145.5 738.81,112.87 672.21,91.522 625.76,81.068"];
	8 -- 17	 [fontsize=8,
		label=1.0,
		lp="378,104.5",
		pos="398.2,127.9 382.08,116 351.06,93.102 334.88,81.165"];
	8 -- 24	 [fontsize=8,
		label=1.0,
		lp="514,104.5",
		pos="430.2,127.9 464.27,115.97 529.89,92.978 563.9,81.068"];
	3	 [URL="http://lattes.cnpq.br/8602778120667424",
		color="#17272B",
		fontcolor="#FFFFFF",
		height=0.23611,
		label="Rafael A. Bonfim de Queiroz [0]",
		pos="467.5,200.5",
		width=1.6944];
	4	 [URL="http://lattes.cnpq.br/6986138014246480",
		color="#17272B",
		fontcolor="#FFFFFF",
		height=0.23611,
		label="Luciana C. Dias Campos [1]",
		pos="522.5,136.5",
		width=1.5];
	4 -- 24	 [fontsize=8,
		label=1.0,
		lp="564,104.5",
		pos="530.23,127.9 542.32,116 565.58,93.102 577.71,81.165"];
	5	 [URL="http://lattes.cnpq.br/3074561832181610",
		color="#17272B",
		fontcolor="#FFFFFF",
		height=0.23611,
		label="Priscila V. Z. Capriles Goliatt [0]",
		pos="608.5,200.5",
		width=1.7083];
	6	 [URL="http://lattes.cnpq.br/9998509212446471",
		color="#17272B",
		fontcolor="#FFFFFF",
		height=0.23611,
		label="Patricia Habib Hallak [0]",
		pos="736.5,200.5",
		width=1.3472];
	7	 [URL="http://lattes.cnpq.br/9672291905868428",
		color="#17272B",
		fontcolor="#FFFFFF",
		height=0.23611,
		label="Michèle C. Resende Farage [0]",
		pos="861.5,200.5",
		width=1.6111];
	9	 [URL="http://lattes.cnpq.br/4710759665420538",
		color="#17272B",
		fontcolor="#FFFFFF",
		height=0.23611,
		label="Flavio Barbosa de Souza [0]",
		pos="991.5,200.5",
		width=1.5];
	11	 [URL="http://lattes.cnpq.br/9030707448549156",
		color="#17272B",
		fontcolor="#FFFFFF",
		height=0.23611,
		label="Leonardo Goliatt da Fonseca [2]",
		pos="1123.5,200.5",
		width=1.6667];
	15	 [URL="http://lattes.cnpq.br/6681044486435612",
		color="#17272B",
		fontcolor="#FFFFFF",
		height=0.23611,
		label="Afonso C. de Castro Lemonge [4]",
		pos="991.5,136.5",
		width=1.7361];
	11 -- 15	 [fontsize=8,
		label=1.0,
		lp="1070,168.5",
		pos="1107.3,191.9 1082,180 1033.2,157.1 1007.8,145.16"];
	19	 [URL="http://lattes.cnpq.br/4695699230584970",
		color="#17272B",
		fontcolor="#FFFFFF",
		height=0.23611,
		label="Flávia de Souza Bastos [1]",
		pos="1123.5,136.5",
		width=1.4167];
	11 -- 19	 [fontsize=8,
		label=1.0,
		lp="1129,168.5",
		pos="1123.5,191.9 1123.5,180 1123.5,157.1 1123.5,145.16"];
	23	 [URL="http://lattes.cnpq.br/0375745110240885",
		color="#17272B",
		fontcolor="#FFFFFF",
		height=0.23611,
		label="Helio J. Corrêa Barbosa [6]",
		pos="1073.5,72.5",
		width=1.4583];
	11 -- 23	 [fontsize=8,
		label=1.0,
		lp="1192,136.5",
		pos="1138.5,191.85 1161,179.27 1199.4,153.05 1183.5,127.5 1167.7,102.13 1136.1,88.343 1110.8,81.066"];
	15 -- 23	 [fontsize=8,
		label=2.0,
		lp="1042,104.5",
		pos="1001.6,127.9 1017.3,116 1047.6,93.102 1063.4,81.165"];
	25	 [URL="http://lattes.cnpq.br/7733681743453751",
		color="#17272B",
		fontcolor="#FFFFFF",
		height=0.23611,
		label="Heder Soares Bernardino [7]",
		pos="1019.5,8.5",
		width=1.5139];
	15 -- 25	 [fontsize=8,
		label=3.0,
		lp="1007,72.5",
		pos="992.1,127.85 993.23,114.6 996.09,86.601 1001.5,63.5 1005.5,46.565 1012.5,27.392 1016.5,17.063"];
	23 -- 25	 [fontsize=8,
		label=5.0,
		lp="1055,40.5",
		pos="1066.9,63.898 1056.5,51.998 1036.6,29.102 1026.2,17.165"];
	14	 [URL="http://lattes.cnpq.br/1092810690505352",
		color="#17272B",
		fontcolor="#FFFFFF",
		height=0.23611,
		label="Alexandre Abrahão Cury [0]",
		pos="1256.5,200.5",
		width=1.5139];
	16	 [URL="http://lattes.cnpq.br/6907017215672171",
		color="#17272B",
		fontcolor="#FFFFFF",
		height=0.23611,
		label="Henrique Steinherz Hippert [0]",
		pos="1387.5,200.5",
		width=1.6111];
	18	 [URL="http://lattes.cnpq.br/0311818140902541",
		color="#17272B",
		fontcolor="#FFFFFF",
		height=0.23611,
		label="Grigori Chapiro [0]",
		pos="1503.5,200.5",
		width=1.0972];
	20	 [URL="http://lattes.cnpq.br/8621487041613032",
		color="#17272B",
		fontcolor="#FFFFFF",
		height=0.23611,
		label="Wilhelm Passarella Freire [0]",
		pos="1616.5,200.5",
		width=1.5417];
	21	 [URL="http://lattes.cnpq.br/2440193189134197",
		color="#17272B",
		fontcolor="#FFFFFF",
		height=0.23611,
		label="Elson Magalhães Toledo [1]",
		pos="648.5,136.5",
		width=1.4861];
	21 -- 24	 [fontsize=8,
		label=1.0,
		lp="627,104.5",
		pos="640.77,127.9 628.68,116 605.42,93.102 593.29,81.165"];
	22	 [URL="http://lattes.cnpq.br/9559119135506333",
		color="#17272B",
		fontcolor="#FFFFFF",
		height=0.23611,
		label="Felipe d. Santos Loureiro [0]",
		pos="1744.5,200.5",
		width=1.5139];
}
