1212612218707017
6285365653139950
9928404342655513
2517619300805032
6481885701494821
9037349417947599
6555805379309351
8362310485767606
6829166075411185
6111103400518032
5980323623922088
3084257779683900
8651405055383384
2132611954955159
1268773789851994
0722445222056063
0813524311650663
2208298461229427
