strict graph grafo1 {
	graph [bb="0,0,2084.5,125",
		id=grafo1,
		overlap=False
	];
	node [fontsize=8,
		label="\N",
		shape=rectangle,
		style=filled
	];
	0	 [URL="http://lattes.cnpq.br/8539341671152883",
		color="#17272B",
		fontcolor="#FFFFFF",
		height=0.23611,
		label="Anna A. Figueirêdo de Almeida [0]",
		pos="226.95,116.5",
		width=1.8194];
	1	 [URL="http://lattes.cnpq.br/7925449690046513",
		color="#17272B",
		fontcolor="#FFFFFF",
		height=0.23611,
		label="Ronei Marcos de Moraes [9]",
		pos="364.95,116.5",
		width=1.5];
	8	 [URL="http://lattes.cnpq.br/7564660473747042",
		color="#17272B",
		fontcolor="#FFFFFF",
		height=0.23611,
		label="Kátia S. Q. Silva Ribeiro [1]",
		pos="231.95,62.5",
		width=1.5];
	1 -- 8	 [pos="345.61,107.94 320.39,98.08 276.54,80.934 251.31,71.07"];
	13	 [URL="http://lattes.cnpq.br/0240551533292579",
		color="#17272B",
		fontcolor="#FFFFFF",
		height=0.23611,
		label="Liliane d. Santos Machado [11]",
		pos="540.95,62.5",
		width=1.6389];
	1 -- 13	 [pos="390.54,107.94 423.91,98.08 481.94,80.934 515.33,71.07"];
	15	 [URL="http://lattes.cnpq.br/3915051035089861",
		color="#17272B",
		fontcolor="#FFFFFF",
		height=0.23611,
		label="Rodrigo P. de Toledo Vianna [1]",
		pos="364.95,62.5",
		width=1.6944];
	1 -- 15	 [pos="364.95,107.83 364.95,97.996 364.95,81.051 364.95,71.204"];
	18	 [URL="http://lattes.cnpq.br/3186920393443928",
		color="#17272B",
		fontcolor="#FFFFFF",
		height=0.23611,
		label="Ana M. Gondim Valença [4]",
		pos="540.95,8.5",
		width=1.5139];
	1 -- 18	 [pos="377.61,107.88 410.08,88.319 496.06,36.536 528.41,17.054"];
	19	 [URL="http://lattes.cnpq.br/0764511052669622",
		color="#17272B",
		fontcolor="#FFFFFF",
		height=0.23611,
		label="Ulisses Umbelino dos Anjos [4]",
		pos="164.95,8.5",
		width=1.6528];
	1 -- 19	 [pos="310.87,108.69 215.69,96.667 28.116,72.827 26.951,71.5 0,40.813 56.707,24.53 105.38,16.475"];
	8 -- 19	 [pos="222.06,53.827 209.39,43.996 187.56,27.051 174.87,17.204"];
	13 -- 18	 [pos="540.95,53.827 540.95,43.996 540.95,27.051 540.95,17.204"];
	2	 [URL="http://lattes.cnpq.br/9931973391211710",
		color="#17272B",
		fontcolor="#FFFFFF",
		height=0.23611,
		label="Ana T. M. Cavalcanti da Silva [3]",
		pos="540.95,116.5",
		width=1.7361];
	2 -- 13	 [pos="540.95,107.83 540.95,97.996 540.95,81.051 540.95,71.204"];
	3	 [URL="http://lattes.cnpq.br/4055146648812877",
		color="#17272B",
		fontcolor="#FFFFFF",
		height=0.23611,
		label="Tatiene Correia de Souza [0]",
		pos="821.95,116.5",
		width=1.5139];
	4	 [URL="http://lattes.cnpq.br/2328238717105962",
		color="#17272B",
		fontcolor="#FFFFFF",
		height=0.23611,
		label="Hemílio F. Campos Coêlho [0]",
		pos="952.95,116.5",
		width=1.6111];
	5	 [URL="http://lattes.cnpq.br/8338527087554463",
		color="#17272B",
		fontcolor="#FFFFFF",
		height=0.23611,
		label="Jordana de Almeida Nogueira [2]",
		pos="97.951,62.5",
		width=1.7222];
	5 -- 19	 [pos="107.84,53.827 120.5,43.996 142.33,27.051 155.02,17.204"];
	6	 [URL="http://lattes.cnpq.br/6526050617910624",
		color="#17272B",
		fontcolor="#FFFFFF",
		height=0.23611,
		label="Jozemar Pereira dos Santos [1]",
		pos="1087,116.5",
		width=1.6111];
	10	 [URL="http://lattes.cnpq.br/0616539963047807",
		color="#17272B",
		fontcolor="#FFFFFF",
		height=0.23611,
		label="Neir Antunes Paes [1]",
		pos="1087,62.5",
		width=1.2083];
	6 -- 10	 [pos="1087,107.83 1087,97.996 1087,81.051 1087,71.204"];
	7	 [URL="http://lattes.cnpq.br/6515725808648467",
		color="#17272B",
		fontcolor="#FFFFFF",
		height=0.23611,
		label="Caliandra M. B. Luna Lima [0]",
		pos="1222,116.5",
		width=1.625];
	9	 [URL="http://lattes.cnpq.br/1760765397044137",
		color="#17272B",
		fontcolor="#FFFFFF",
		height=0.23611,
		label="Josemberg Moura de Andrade [0]",
		pos="1361,116.5",
		width=1.7222];
	11	 [URL="http://lattes.cnpq.br/2198188215129698",
		color="#17272B",
		fontcolor="#FFFFFF",
		height=0.23611,
		label="Tarciana Liberal Pereira [0]",
		pos="1494,116.5",
		width=1.4722];
	12	 [URL="http://lattes.cnpq.br/4561729191450640",
		color="#17272B",
		fontcolor="#FFFFFF",
		height=0.23611,
		label="Cesar Cavalcanti da Silva [2]",
		pos="693.95,116.5",
		width=1.5278];
	12 -- 19	 [pos="686.38,107.73 672.49,94.031 641.37,65.871 608.95,53.5 540.19,27.268 328.92,15.737 224.56,11.535"];
	16	 [URL="http://lattes.cnpq.br/5580004940091667",
		color="#17272B",
		fontcolor="#FFFFFF",
		height=0.23611,
		label="Eufrásio de A. Lima Neto [3]",
		pos="711.95,62.5",
		width=1.5417];
	12 -- 16	 [pos="696.6,107.83 700.01,97.996 705.87,81.051 709.28,71.204"];
	16 -- 18	 [pos="687.08,53.939 654.66,44.08 598.28,26.934 565.84,17.07"];
	14	 [URL="http://lattes.cnpq.br/6866270928240455",
		color="#17272B",
		fontcolor="#FFFFFF",
		height=0.23611,
		label="Joao Agnaldo do Nascimento [0]",
		pos="1626,116.5",
		width=1.6944];
	17	 [URL="http://lattes.cnpq.br/8680871640499952",
		color="#17272B",
		fontcolor="#FFFFFF",
		height=0.23611,
		label="Luiz M. de A. Lima Filho [0]",
		pos="1761,116.5",
		width=1.5417];
	20	 [URL="http://lattes.cnpq.br/5348717261204017",
		color="#17272B",
		fontcolor="#FFFFFF",
		height=0.23611,
		label="Flávia E. L. de Lima Ferreira [0]",
		pos="1895,116.5",
		width=1.6806];
	21	 [URL="http://lattes.cnpq.br/6080000618358423",
		color="#17272B",
		fontcolor="#FFFFFF",
		height=0.23611,
		label="Sergio Ribeiro dos Santos [0]",
		pos="2029,116.5",
		width=1.5417];
}
