strict graph grafo2 {
	graph [bb="0,0,2523,610.83",
		id=grafo2,
		overlap=False
	];
	node [fontsize=8,
		label="\N",
		shape=rectangle,
		style=filled
	];
	0	 [URL="http://lattes.cnpq.br/0163735914142185",
		color="#17272B",
		fontcolor="#FFFFFF",
		height=0.23611,
		label="Alice T. Cybis Pereira [0]",
		pos="49.5,592.5",
		width=1.375];
	1	 [URL="http://lattes.cnpq.br/5138758521691630",
		color="#17272B",
		fontcolor="#FFFFFF",
		height=0.23611,
		label="Alexandre Leopoldo Gonçalves [6]",
		pos="182.5,592.5",
		width=1.8056];
	5	 [URL="http://lattes.cnpq.br/2900995280822495",
		color="#17272B",
		fontcolor="#FFFFFF",
		height=0.23611,
		label="Mario A. Ribeiro Dantas [4]",
		pos="81.5,528.5",
		width=1.4861];
	1 -- 5	 [fontsize=8,
		label=4.0,
		lp="136,560.5",
		pos="165.72,584 155.34,579.14 141.87,572.45 130.5,565.5 116.09,556.69 100.55,544.83 90.924,537.17"];
	11	 [URL="http://lattes.cnpq.br/7634477387447702",
		color="#17272B",
		fontcolor="#FFFFFF",
		height=0.23611,
		label="José Leomar Todesco [2]",
		pos="104.5,492.5",
		width=1.3611];
	1 -- 11	 [fontsize=8,
		label=1.0,
		lp="178,560.5",
		pos="179.69,583.59 174.37,569.45 161.7,539.45 143.5,519.5 136.7,512.05 127.34,505.71 119.49,501.16"];
	13	 [URL="http://lattes.cnpq.br/6695591100082194",
		color="#17272B",
		fontcolor="#FFFFFF",
		height=0.23611,
		label="João Artur de Souza [24]",
		pos="476.5,528.5",
		width=1.3472];
	1 -- 13	 [fontsize=8,
		label=1.0,
		lp="353,560.5",
		pos="218.26,583.96 274.72,572.05 383.93,549.02 440.53,537.08"];
	15	 [URL="http://lattes.cnpq.br/3098548295086867",
		color="#17272B",
		fontcolor="#FFFFFF",
		height=0.23611,
		label="Gertrudes Aparecida Dandolini [25]",
		pos="338.5,392.5",
		width=1.8333];
	1 -- 15	 [fontsize=8,
		label=1.0,
		lp="248,492.5",
		pos="186.05,583.69 196.64,560.96 229.74,493.59 270.5,447.5 287.58,428.19 312.18,410.58 326.64,401.02"];
	29	 [URL="http://lattes.cnpq.br/5695753044496038",
		color="#17272B",
		fontcolor="#FFFFFF",
		height=0.23611,
		label="Denilson Sell [6]",
		pos="525.5,200.5",
		width=0.98611];
	11 -- 29	 [fontsize=8,
		label=1.0,
		lp="158,360.5",
		pos="106.84,483.86 118.29,446.96 169.42,287.63 208.5,255.5 230.09,237.75 411.87,214.73 490.02,205.54"];
	13 -- 15	 [fontsize=8,
		label=22.0,
		lp="430,456.5",
		pos="470.24,519.61 458.34,504.8 431.3,472.11 405.5,447.5 386.69,429.56 362.5,411.06 348.93,401.05"];
	13 -- 29	 [fontsize=8,
		label=1.0,
		lp="723,360.5",
		pos="524.98,523.3 595.36,515.85 717.5,497.2 717.5,457.5 717.5,457.5 717.5,457.5 717.5,359.5 717.5,312.59 764.24,292.57 735.5,255.5 714.28,\
228.13 615.08,212.21 560.95,205.42"];
	31	 [URL="http://lattes.cnpq.br/9580200413725994",
		color="#17272B",
		fontcolor="#FFFFFF",
		height=0.23611,
		label="Andrea Valéria Steil [3]",
		pos="202.5,136.5",
		width=1.3056];
	13 -- 31	 [fontsize=8,
		label=1.0,
		lp="135,328.5",
		pos="428.11,522.42 332.49,509.43 128.5,465.74 128.5,329.5 128.5,329.5 128.5,329.5 128.5,199.5 128.5,172.01 158.87,154.3 180.7,145.12"];
	36	 [URL="http://lattes.cnpq.br/2693759912446687",
		color="#17272B",
		fontcolor="#FFFFFF",
		height=0.23611,
		label="Roberto C. d. Santos Pacheco [2]",
		pos="401.5,72.5",
		width=1.7083];
	13 -- 36	 [fontsize=8,
		label=1.0,
		lp="791,296.5",
		pos="524.78,525.26 604.63,520.23 755.5,504.5 755.5,457.5 755.5,457.5 755.5,457.5 755.5,359.5 755.5,298.68 803.33,296.65 817.5,237.5 824.25,\
209.3 810.43,176.92 795.5,163.5 746.97,119.88 560.97,92.135 462.88,80.223"];
	14	 [URL="http://lattes.cnpq.br/8153758173673961",
		color="#17272B",
		fontcolor="#FFFFFF",
		height=0.23611,
		label="Gregório J. Varvakis Rados [3]",
		pos="338.5,456.5",
		width=1.625];
	13 -- 14	 [fontsize=8,
		label=1.0,
		lp="414,492.5",
		pos="453.36,519.92 439.97,515.23 422.97,508.73 408.5,501.5 386.41,490.47 362.41,474.4 349.03,465.04"];
	26	 [URL="http://lattes.cnpq.br/8977816806473448",
		color="#17272B",
		fontcolor="#FFFFFF",
		height=0.23611,
		label="Édis Mafra Lapolli [5]",
		pos="449.5,328.5",
		width=1.2361];
	13 -- 26	 [fontsize=8,
		label=1.0,
		lp="468,424.5",
		pos="475.47,519.98 471.2,488.62 454.81,368.41 450.53,337.03"];
	28	 [URL="http://lattes.cnpq.br/1586141465559053",
		color="#17272B",
		fontcolor="#FFFFFF",
		height=0.23611,
		label="Cristiano J. C. de Almeida Cunha [8]",
		pos="525.5,264.5",
		width=1.8889];
	13 -- 28	 [fontsize=8,
		label=2.0,
		lp="529,392.5",
		pos="486.47,519.62 500.26,507.75 523.5,483.85 523.5,457.5 523.5,457.5 523.5,457.5 523.5,327.5 523.5,307.9 524.51,284.83 525.1,273.13"];
	15 -- 29	 [fontsize=8,
		label=2.0,
		lp="303,296.5",
		pos="332.91,383.78 317.45,361.39 277.23,295.5 308.5,255.5 330.68,227.13 434.65,211.52 490.24,205.08"];
	15 -- 31	 [fontsize=8,
		label=1.0,
		lp="227,264.5",
		pos="327.68,383.95 307.95,369.75 265.77,337.25 239.5,301.5 204.2,253.47 202.8,233.01 199.5,173.5 198.96,163.73 200.19,152.5 201.24,145.22"];
	15 -- 36	 [fontsize=8,
		label=1.0,
		lp="319,232.5",
		pos="332.91,383.56 322.67,368.45 301.21,334.14 293.5,301.5 292.48,297.17 292.63,295.86 293.5,291.5 311.39,202.04 375.98,108.35 395.72,\
81.251"];
	15 -- 26	 [fontsize=8,
		label=3.0,
		lp="410,360.5",
		pos="353.16,383.91 362.94,378.8 376.05,371.86 387.5,365.5 404.69,355.95 424.28,344.48 436.76,337.09"];
	15 -- 28	 [fontsize=8,
		label=1.0,
		lp="381,328.5",
		pos="341.12,383.93 348.17,364.84 369.44,314.63 405.5,291.5 420.93,281.6 439.54,275.42 457.44,271.57"];
	29 -- 31	 [fontsize=8,
		label=1.0,
		lp="370,168.5",
		pos="490.22,194.41 457.53,189.55 407.6,181.76 364.5,173.5 318.8,164.74 266.29,152.71 233.75,145.01"];
	29 -- 36	 [fontsize=8,
		label=1.0,
		lp="483,136.5",
		pos="519.53,191.84 513.64,184.41 504.27,172.9 495.5,163.5 465.59,131.46 427.03,96.294 410.11,81.141"];
	32	 [URL="http://lattes.cnpq.br/6668948766545628",
		color="#17272B",
		fontcolor="#FFFFFF",
		height=0.23611,
		label="Clarissa Stefani Teixeira [8]",
		pos="1114.5,136.5",
		width=1.4861];
	29 -- 32	 [fontsize=8,
		label=1.0,
		lp="860,168.5",
		pos="561.02,195.76 660.5,185.29 942.36,155.62 1060.9,143.14"];
	31 -- 36	 [fontsize=8,
		label=1.0,
		lp="258,104.5",
		pos="210.63,127.83 219.97,119.48 236.13,106.39 252.5,99.5 279.97,87.938 312.37,81.518 339.93,77.952"];
	39	 [URL="http://lattes.cnpq.br/4712989817231486",
		color="#17272B",
		fontcolor="#FFFFFF",
		height=0.23611,
		label="Paulo Mauricio Selig [2]",
		pos="141.5,8.5",
		width=1.3333];
	36 -- 39	 [fontsize=8,
		label=1.0,
		lp="293,40.5",
		pos="369.88,63.96 319.94,52.051 223.36,29.021 173.31,17.085"];
	14 -- 15	 [fontsize=8,
		label=1.0,
		lp="344,424.5",
		pos="338.5,447.9 338.5,436 338.5,413.1 338.5,401.16"];
	14 -- 39	 [fontsize=8,
		label=1.0,
		lp="50,232.5",
		pos="313.43,447.92 242.34,425.69 44.5,358.34 44.5,297.5 44.5,297.5 44.5,297.5 44.5,71.5 44.5,41.321 78.248,25.173 105.93,17.003"];
	25	 [URL="http://lattes.cnpq.br/0628224413850063",
		color="#17272B",
		fontcolor="#FFFFFF",
		height=0.23611,
		label="Tarcísio Vanzin [3]",
		pos="1132.5,264.5",
		width=1.0972];
	14 -- 25	 [fontsize=8,
		label=1.0,
		lp="914,360.5",
		pos="396.85,448.05 398.41,447.86 399.97,447.68 401.5,447.5 591.52,425.23 648.29,462.85 829.5,401.5 895.99,378.99 902.02,351.51 964.5,\
319.5 992.86,304.97 1000.3,301.69 1030.5,291.5 1052.5,284.08 1077.8,277.62 1097.7,273"];
	26 -- 28	 [fontsize=8,
		label=1.0,
		lp="497,296.5",
		pos="458.82,319.9 473.41,308 501.47,285.1 516.1,273.16"];
	35	 [URL="http://lattes.cnpq.br/9547378691159321",
		color="#17272B",
		fontcolor="#FFFFFF",
		height=0.23611,
		label="Ana M. Bencciveni Franzoni [1]",
		pos="378.5,264.5",
		width=1.6806];
	26 -- 35	 [fontsize=8,
		label=1.0,
		lp="423,296.5",
		pos="440.79,319.9 427.17,308 400.95,285.1 387.28,273.16"];
	28 -- 29	 [fontsize=8,
		label=1.0,
		lp="531,232.5",
		pos="525.5,255.9 525.5,244 525.5,221.1 525.5,209.16"];
	28 -- 31	 [fontsize=8,
		label=1.0,
		lp="218,200.5",
		pos="457.44,256.44 454.08,256.12 450.75,255.8 447.5,255.5 423.63,253.28 251.12,252.6 232.5,237.5 203.64,214.09 201.76,164.05 202.16,145.04"];
	25 -- 32	 [fontsize=8,
		label=1.0,
		lp="1140,200.5",
		pos="1133.3,255.8 1135,238.78 1137.6,196.85 1128.5,163.5 1126.7,156.97 1123,150.26 1119.9,145.3"];
	2	 [URL="http://lattes.cnpq.br/5353319785806627",
		color="#17272B",
		fontcolor="#FFFFFF",
		height=0.23611,
		label="Aires Jose Rover [0]",
		pos="927.5,592.5",
		width=1.1389];
	3	 [URL="http://lattes.cnpq.br/0512122110804047",
		color="#17272B",
		fontcolor="#FFFFFF",
		height=0.23611,
		label="Patricia de Sá Freire [8]",
		pos="821.5,592.5",
		width=1.2917];
	3 -- 13	 [fontsize=8,
		label=5.0,
		lp="675,560.5",
		pos="779.54,583.96 713.19,572.04 584.78,548.96 518.44,537.04"];
	3 -- 15	 [fontsize=8,
		label=4.0,
		lp="792,492.5",
		pos="820.17,583.79 816.31,563.82 803.13,510.08 769.5,483.5 713.66,439.36 510.94,411.81 404.61,400.07"];
	3 -- 29	 [fontsize=8,
		label=2.0,
		lp="820,392.5",
		pos="823.73,583.79 825.56,576.5 827.67,565.27 826.5,555.5 810.16,419.25 835.02,365.89 753.5,255.5 739.06,235.94 729.42,235.61 706.5,227.5 \
657.87,210.3 598.04,204.46 560.83,202.49"];
	3 -- 31	 [fontsize=8,
		label=1.0,
		lp="94,360.5",
		pos="774.93,590.75 656.73,588.63 351.44,581.64 308.5,565.5 162.66,510.66 82.5,453.31 82.5,297.5 82.5,297.5 82.5,297.5 82.5,199.5 82.5,\
165.15 121.8,149.81 155.42,142.97"];
	3 -- 36	 [fontsize=8,
		label=1.0,
		lp="1245,328.5",
		pos="867.94,584.82 871.18,584.37 874.39,583.93 877.5,583.5 958.09,572.49 1239.5,610.83 1239.5,529.5 1239.5,529.5 1239.5,529.5 1239.5,\
135.5 1239.5,96.544 655.96,79.43 462.78,74.832"];
	16	 [URL="http://lattes.cnpq.br/1602495591542111",
		color="#17272B",
		fontcolor="#FFFFFF",
		height=0.23611,
		label="Francisco A. Pereira Fialho [7]",
		pos="1145.5,328.5",
		width=1.6111];
	3 -- 16	 [fontsize=8,
		label=1.0,
		lp="1127,456.5",
		pos="868.05,584.26 952.31,570.83 1121.5,542.28 1121.5,529.5 1121.5,529.5 1121.5,529.5 1121.5,391.5 1121.5,370.72 1133.4,348.51 1140.4,\
337.16"];
	16 -- 28	 [fontsize=8,
		label=2.0,
		lp="632,296.5",
		pos="1087.4,320.28 1084.4,320 1081.4,319.73 1078.5,319.5 978.29,311.53 725.19,320.59 626.5,301.5 610.51,298.41 569.18,282.72 544.63,273.1"];
	16 -- 32	 [fontsize=8,
		label=1.0,
		lp="1182,232.5",
		pos="1152.6,319.83 1161.1,309.97 1175.1,291.93 1180.5,273.5 1182.8,265.83 1182,263.35 1180.5,255.5 1172.1,212.23 1168.8,199.59 1143.5,\
163.5 1138.5,156.41 1131.3,149.91 1125.3,145.18"];
	16 -- 25	 [fontsize=8,
		label=1.0,
		lp="1145,296.5",
		pos="1143.9,319.9 1141.4,308 1136.6,285.1 1134.1,273.16"];
	37	 [URL="http://lattes.cnpq.br/0396579652444165",
		color="#17272B",
		fontcolor="#FFFFFF",
		height=0.23611,
		label="Richard P. Luiz de Sousa [4]",
		pos="914.5,264.5",
		width=1.5139];
	16 -- 37	 [fontsize=8,
		label=3.0,
		lp="1088,296.5",
		pos="1129.3,319.86 1111.5,311.78 1082,299.16 1055.5,291.5 1027.4,283.38 995.39,277.23 968.98,272.96"];
	4	 [URL="http://lattes.cnpq.br/3451735515197297",
		color="#17272B",
		fontcolor="#FFFFFF",
		height=0.23611,
		label="Adonias d. Santos Neri [0]",
		pos="1037.5,592.5",
		width=1.4167];
	6	 [URL="http://lattes.cnpq.br/4838614492836820",
		color="#17272B",
		fontcolor="#FFFFFF",
		height=0.23611,
		label="Maria José Baldessar [1]",
		pos="869.5,328.5",
		width=1.3333];
	6 -- 37	 [fontsize=8,
		label=1.0,
		lp="900,296.5",
		pos="875.02,319.9 883.65,308 900.27,285.1 908.94,273.16"];
	7	 [URL="http://lattes.cnpq.br/9274837225584499",
		color="#17272B",
		fontcolor="#FFFFFF",
		height=0.23611,
		label="Márcio Vieira de Souza [0]",
		pos="1158.5,592.5",
		width=1.4444];
	8	 [URL="http://lattes.cnpq.br/1472689109850138",
		color="#17272B",
		fontcolor="#FFFFFF",
		height=0.23611,
		label="Marcelo Macedo [16]",
		pos="1030.5,264.5",
		width=1.1944];
	8 -- 29	 [fontsize=8,
		label=1.0,
		lp="863,232.5",
		pos="987.4,256.97 984.05,256.47 980.72,255.98 977.5,255.5 891.32,242.78 869.97,238.09 783.5,227.5 704.18,217.78 610.82,209.04 561.03,\
204.59"];
	8 -- 32	 [fontsize=8,
		label=7.0,
		lp="1101,200.5",
		pos="1040.9,255.78 1053.3,246.15 1073.8,228.61 1086.5,209.5 1100.6,188.29 1109.2,158.9 1112.7,145.16"];
	12	 [URL="http://lattes.cnpq.br/4046984728286369",
		color="#17272B",
		fontcolor="#FFFFFF",
		height=0.23611,
		label="Joao B. da Mota Alves [2]",
		pos="888.5,200.5",
		width=1.4028];
	8 -- 12	 [fontsize=8,
		label=1.0,
		lp="973,232.5",
		pos="1013.1,255.9 985.83,244 933.4,221.1 906.05,209.16"];
	18	 [URL="http://lattes.cnpq.br/1282804646377460",
		color="#17272B",
		fontcolor="#FFFFFF",
		height=0.23611,
		label="Fernando A. Ostuni Gauthier [9]",
		pos="1017.5,200.5",
		width=1.6806];
	8 -- 18	 [fontsize=8,
		label=9.0,
		lp="1030,232.5",
		pos="1028.9,255.9 1026.4,244 1021.6,221.1 1019.1,209.16"];
	12 -- 31	 [fontsize=8,
		label=1.0,
		lp="592,168.5",
		pos="838.06,194.94 710.11,183.38 374.29,153.03 249.81,141.78"];
	12 -- 32	 [fontsize=8,
		label=1.0,
		lp="1020,168.5",
		pos="916.21,191.9 959.71,179.97 1043.5,156.98 1086.9,145.07"];
	9	 [URL="http://lattes.cnpq.br/7242368838666168",
		color="#17272B",
		fontcolor="#FFFFFF",
		height=0.23611,
		label="Luciane Maria Fadel [3]",
		pos="1021.5,392.5",
		width=1.3056];
	24	 [URL="http://lattes.cnpq.br/0196218903676581",
		color="#17272B",
		fontcolor="#FFFFFF",
		height=0.23611,
		label="Vania Ribas Ulbricht [4]",
		pos="1021.5,328.5",
		width=1.3333];
	9 -- 24	 [fontsize=8,
		label=3.0,
		lp="1027,360.5",
		pos="1021.5,383.9 1021.5,372 1021.5,349.1 1021.5,337.16"];
	24 -- 25	 [fontsize=8,
		label=1.0,
		lp="1050,296.5",
		pos="1024.5,319.73 1028.1,311.53 1034.8,298.81 1044.5,291.5 1058.5,280.97 1076.7,274.69 1092.9,270.95"];
	10	 [URL="http://lattes.cnpq.br/7383221421443606",
		color="#17272B",
		fontcolor="#FFFFFF",
		height=0.23611,
		label="Lia Caetano Bastos [0]",
		pos="1273.5,592.5",
		width=1.25];
	17	 [URL="http://lattes.cnpq.br/9722066254398087",
		color="#17272B",
		fontcolor="#FFFFFF",
		height=0.23611,
		label="Fernando Jose Spanhol [0]",
		pos="1387.5,592.5",
		width=1.4167];
	19	 [URL="http://lattes.cnpq.br/1017331751698527",
		color="#17272B",
		fontcolor="#FFFFFF",
		height=0.23611,
		label="Eduardo Moreira da Costa [0]",
		pos="1512.5,592.5",
		width=1.5556];
	20	 [URL="http://lattes.cnpq.br/2747052673337424",
		color="#17272B",
		fontcolor="#FFFFFF",
		height=0.23611,
		label="Eduardo Juan Soriano-Sierra [0]",
		pos="1646.5,592.5",
		width=1.6667];
	21	 [URL="http://lattes.cnpq.br/4889416945801003",
		color="#17272B",
		fontcolor="#FFFFFF",
		height=0.23611,
		label="Silvio S. da Luz Filho [0]",
		pos="1773.5,592.5",
		width=1.3611];
	22	 [URL="http://lattes.cnpq.br/5098313138514050",
		color="#17272B",
		fontcolor="#FFFFFF",
		height=0.23611,
		label="Rosa Maria Vicari [0]",
		pos="1884.5,592.5",
		width=1.2083];
	23	 [URL="http://lattes.cnpq.br/4005300337391516",
		color="#17272B",
		fontcolor="#FFFFFF",
		height=0.23611,
		label="Rogerio Cid Bastos [0]",
		pos="1991.5,592.5",
		width=1.2639];
	27	 [URL="http://lattes.cnpq.br/5966868764284331",
		color="#17272B",
		fontcolor="#FFFFFF",
		height=0.23611,
		label="Marina Keiko Nakayama [2]",
		pos="620.5,328.5",
		width=1.5139];
	27 -- 28	 [fontsize=8,
		label=1.0,
		lp="584,296.5",
		pos="608.85,319.9 590.62,308 555.54,285.1 537.24,273.16"];
	38	 [URL="http://lattes.cnpq.br/8018788492846096",
		color="#17272B",
		fontcolor="#FFFFFF",
		height=0.23611,
		label="Ricardo Azambuja Silveira [1]",
		pos="669.5,264.5",
		width=1.5972];
	27 -- 38	 [fontsize=8,
		label=1.0,
		lp="653,296.5",
		pos="626.51,319.9 635.91,308 654.01,285.1 663.44,273.16"];
	30	 [URL="http://lattes.cnpq.br/9955844127080187",
		color="#17272B",
		fontcolor="#FFFFFF",
		height=0.23611,
		label="Luiz Otávio Pimentel [0]",
		pos="2103.5,592.5",
		width=1.3472];
	33	 [URL="http://lattes.cnpq.br/9456227813420650",
		color="#17272B",
		fontcolor="#FFFFFF",
		height=0.23611,
		label="Carlos A. Monguilhott Remor [0]",
		pos="2232.5,592.5",
		width=1.7222];
	34	 [URL="http://lattes.cnpq.br/8542512634940524",
		color="#17272B",
		fontcolor="#FFFFFF",
		height=0.23611,
		label="Araci Hack Catapan [0]",
		pos="2359.5,592.5",
		width=1.2917];
	40	 [URL="http://lattes.cnpq.br/4588973096462209",
		color="#17272B",
		fontcolor="#FFFFFF",
		height=0.23611,
		label="Vinícius Medina Kern [0]",
		pos="2473.5,592.5",
		width=1.375];
}
