0.15
1.073
0.15
1.08456
0.15
0.780862
0.348489
0.15
1.86973
0.838143
0.15
0.442772
0.433597
2.89857
0.689954
3.05032
1.31734
0.15
1.07245
0.15
0.15
0.15
0.15
0.15
1.04712
0.713379
0.845324
0.671783
1.41187
0.948009
0.15
0.616717
1.10499
0.15
0.15
0.294055
0.514904
0.927025
0.4394
0.565629
0.15
