0.0 0.0 1.0 1.0 0.0 0.0 0.0 0.0 0.0 0.0 8.0 0.0 0.0 0.0 0.0 
0.0 0.0 1.0 0.0 0.0 0.0 0.0 0.0 0.0 0.0 0.0 0.0 0.0 0.0 0.0 
1.0 1.0 0.0 0.0 0.0 0.833333333333 0.333333333333 0.0 0.333333333333 0.0 1.5 0.0 0.0 0.0 0.0 
1.0 0.0 0.0 0.0 1.0 0.0 0.0 0.0 0.0 0.0 1.0 0.0 0.0 0.0 0.0 
0.0 0.0 0.0 1.0 0.0 0.0 0.0 0.0 9.0 0.0 0.0 0.0 0.0 0.0 0.0 
0.0 0.0 0.833333333333 0.0 0.0 0.0 0.333333333333 0.0 0.833333333333 0.0 0.5 2.5 0.0 0.0 0.0 
0.0 0.0 0.333333333333 0.0 0.0 0.333333333333 0.0 0.0 0.333333333333 0.0 0.0 4.5 0.0 0.0 4.5 
0.0 0.0 0.0 0.0 0.0 0.0 0.0 0.0 0.0 0.0 0.0 0.0 0.0 0.0 0.0 
0.0 0.0 0.333333333333 0.0 9.0 0.833333333333 0.333333333333 0.0 0.0 0.0 0.0 0.5 0.0 0.0 0.0 
0.0 0.0 0.0 0.0 0.0 0.0 0.0 0.0 0.0 0.0 0.0 0.0 0.0 0.0 0.0 
8.0 0.0 1.5 1.0 0.0 0.5 0.0 0.0 0.0 0.0 0.0 0.0 0.0 0.0 0.0 
0.0 0.0 0.0 0.0 0.0 2.5 4.5 0.0 0.5 0.0 0.0 0.0 0.0 0.0 4.5 
0.0 0.0 0.0 0.0 0.0 0.0 0.0 0.0 0.0 0.0 0.0 0.0 0.0 0.0 0.0 
0.0 0.0 0.0 0.0 0.0 0.0 0.0 0.0 0.0 0.0 0.0 0.0 0.0 0.0 0.0 
0.0 0.0 0.0 0.0 0.0 0.0 4.5 0.0 0.0 0.0 0.0 4.5 0.0 0.0 0.0 
