ID_Lattes|MATRICULA|NOME|CH|mail|LP_1|PROGRAMA_1|CATEG_1|Periodo_Inicio_1|Periodo_Fim_1|Resp_prog|Resp_LP1
K4787206D8|99999|MARILIA DE ARRUDA CARDOSO SMITH|40|FAMEMA@FAMEMA.br|FAMEMA|FAMEMA|P|2013|2016|FAMEMA|FAMEMA
K4777370H6|99999|MARIA JOSE SANCHES MARIN|40|FAMEMA@FAMEMA.br|FAMEMA|FAMEMA|P|2013|2016||
K4762095A3|99999|MARIA ANGELICA SPADELLA|40|FAMEMA@FAMEMA.br|FAMEMA|FAMEMA|P|2013|2016||
K4775064P6|99999|MARCOS RENATO DE ASSIS|40|FAMEMA@FAMEMA.br|FAMEMA|FAMEMA|P|2013|2016||
K4799689Y5|99999|MARA QUAGLIO CHIRELLI|40|FAMEMA@FAMEMA.br|FAMEMA|FAMEMA|P|2013|2016||
K4773970Z6|99999|LUCIENI DE OLIVEIRA CONTERNO|40|FAMEMA@FAMEMA.br|FAMEMA|FAMEMA|P|2013|2016||
K4735564H8|99999|LUCIAMARE PERINETTI ALVES MARTINS|40|FAMEMA@FAMEMA.br|FAMEMA|FAMEMA|P|2013|2016||
K4796373Y4|99999|CARLOS ALBERTO LAZARINI|40|FAMEMA@FAMEMA.br|FAMEMA|FAMEMA|P|2013|2016||
K4794401T3|99999|AGNALDO BRUNO CHIES|40|FAMEMA@FAMEMA.br|FAMEMA|FAMEMA|P|2013|2016||
K4137895T9|99999|ZAMIR CALAMITA|40|FAMEMA@FAMEMA.br|FAMEMA|FAMEMA|P|2013|2016||
K4721452Y0|99999|SPENCER LUIZ MARQUES PAYAO|40|FAMEMA@FAMEMA.br|FAMEMA|FAMEMA|P|2013|2016||
K4762072Z0|99999|RAQUEL FANTIN DOMENICONI|40|FAMEMA@FAMEMA.br|FAMEMA|FAMEMA|P|2013|2016||
K4790939E0|99999|PEDRO MARCO KARAN BARBOSA|40|FAMEMA@FAMEMA.br|FAMEMA|FAMEMA|P|2013|2016||
K4780432Y0|99999|PAULO MARCONDES CARVALHO JUNIOR|40|FAMEMA@FAMEMA.br|FAMEMA|FAMEMA|P|2013|2016||
K4763021U2|99999|PAULO HENRIQUE WAIB|40|FAMEMA@FAMEMA.br|FAMEMA|FAMEMA|P|2013|2016||
K4777377Z5|99999|OSNI LAZARO PINHEIRO|40|FAMEMA@FAMEMA.br|FAMEMA|FAMEMA|P|2013|2016||
K4791350Z5|99999|SILVIA FRANCO DA ROCHA TONHON|40|FAMEMA@FAMEMA.br|FAMEMA|FAMEMA|P|2013|2016||
K4763127D6|99999|RINALDO HENRIQUE AGUILAR DA SILVA|40|FAMEMA@FAMEMA.br|FAMEMA|FAMEMA|P|2013|2016||
K4777790E9|99999|RICARDO SHOITI KOMATSU|40|FAMEMA@FAMEMA.br|FAMEMA|FAMEMA|P|2013|2016||
K4777370H6|99999|MARIA JOSE SANCHES MARIN|40|FAMEMA@FAMEMA.br|FAMEMA|FAMEMA|P|2013|2016||
K4799689Y5|99999|MARA QUAGLIO CHIRELLI|40|FAMEMA@FAMEMA.br|FAMEMA|FAMEMA|P|2013|2016||
K4790398T6|99999|MAGALI APARECIDA ALVES DE MORAES|40|FAMEMA@FAMEMA.br|FAMEMA|FAMEMA|P|2013|2016||
K4763794T5|99999|LUZMARINA APARECIDA DORETO BRACCIALLI|40|FAMEMA@FAMEMA.br|FAMEMA|FAMEMA|P|2013|2016||
K4736724E2|99999|IEDA FRANCISCHETTI|40|FAMEMA@FAMEMA.br|FAMEMA|FAMEMA|P|2013|2016||
K4508382D4|99999|HISSACHI TSUJI|40|FAMEMA@FAMEMA.br|FAMEMA|FAMEMA|P|2013|2016||
K4703188J3|99999|ELZA DE FATIMA RIBEIRO HIGA|40|FAMEMA@FAMEMA.br|FAMEMA|FAMEMA|P|2013|2016||
K4779892Z1|99999|CAMILA MUGNAI VIEIRA|40|FAMEMA@FAMEMA.br|FAMEMA|FAMEMA|P|2013|2016||
K4518519T9|99999|ANTONIO HENRIQUE RODRIGUES DOS PASSOS|40|FAMEMA@FAMEMA.br|FAMEMA|FAMEMA|P|2013|2016||
K4737734T4|99999|ANTONIO CARLOS SIQUEIRA JUNIOR|40|FAMEMA@FAMEMA.br|FAMEMA|FAMEMA|P|2013|2016||
