ID_Lattes|MATRICULA|NOME|CH|mail|LP_1|PROGRAMA_1|CATEG_1|Periodo_Inicio_1|Periodo_Fim_1|Resp_prog|Resp_LP1
K4775888A0|99999|ANDREIA ANTONIUK PRESTA|40|UNOESC@UNOESC.br|UNOESC|UNOESC|P|2013|2016|UNOESC|UNOESC
K4771654P8|99999|RUDY JOSE NODARI JUNIOR|40|UNOESC@UNOESC.br|UNOESC|UNOESC|P|2013|2016||
K4775811T5|99999|MARCO AURELIO ECHART MONTANO|40|UNOESC@UNOESC.br|UNOESC|UNOESC|P|2013|2016||
K4779541Z5|99999|MARCELO CARLOS BORTOLUZZI|40|UNOESC@UNOESC.br|UNOESC|UNOESC|P|2013|2016||
K4708700T6|99999|JOVANI ANTONIO STEFFANI|40|UNOESC@UNOESC.br|UNOESC|UNOESC|P|2013|2016||
K4778639J0|99999|GLAUBER WAGNER|40|UNOESC@UNOESC.br|UNOESC|UNOESC|P|2013|2016||
K4760078H7|99999|GEISSON MARCOS NARDI|40|UNOESC@UNOESC.br|UNOESC|UNOESC|P|2013|2016||
NOK|99999|FERNANDA MAURER D AGOSTINI|40|UNOESC@UNOESC.br|UNOESC|UNOESC|P|2013|2016||
K4777319A7|99999|ELIANE SALETE FILIPPIM|40|UNOESC@UNOESC.br|UNOESC|UNOESC|P|2013|2016||
K4775883J3|99999|VILMA BELTRAME|40|UNOESC@UNOESC.br|UNOESC|UNOESC|P|2013|2016||
K4796009H6|99999|ALEXIS TROTT|40|UNOESC@UNOESC.br|UNOESC|UNOESC|P|2013|2016||
K4564196U1|99999|ELCIO LUIZ BONAMIGO|40|UNOESC@UNOESC.br|UNOESC|UNOESC|P|2013|2016||
K4767635E6|99999|CLAUDRIANA LOCATELLI|40|UNOESC@UNOESC.br|UNOESC|UNOESC|P|2013|2016||
K4736833J8|99999|SIRLEI FAVERO CETOLIN|40|UNOESC@UNOESC.br|UNOESC|UNOESC|P|2013|2016||
K4787076E6|99999|BRUNO RODOLFO SCHLEMPER JUNIOR|40|UNOESC@UNOESC.br|UNOESC|UNOESC|P|2013|2016||
