1.53002
0.15
0.15
0.718644
1.67786
0.15
1.4946
1.11061
0.441471
0.15
1.69567
0.505606
0.755426
0.994438
1.68278
0.443184
0.92151
0.15
0.666141
0.15
2.04356
0.15
0.729517
1.47147
0.31704
1.30187
0.15
0.15
0.15
0.530502
0.892735
0.15
0.530502
0.427542
1.7406
0.451031
0.925658
