ID_Lattes|MATRICULA|NOME|CH|mail|LP_1|PROGRAMA_1|CATEG_1|Periodo_Inicio_1|Periodo_Fim_1|Resp_prog|Resp_LP1
K4794961J8|99999|ANDREA HENTZ DE MELLO|40|UNIFESSPA@UNIFESSPA.br|UNIFESSPA|UNIFESSPA|P|2013|2016|UNIFESSPA|UNIFESSPA
K4779198H1|99999|IVAN COSTA LIMA|40|UNIFESSPA@UNIFESSPA.br|UNIFESSPA|UNIFESSPA|P|2013|2016||
K4732935D7|99999|NILSA BRITO RIBEIRO|40|UNIFESSPA@UNIFESSPA.br|UNIFESSPA|UNIFESSPA|P|2013|2016||
K4706397Y7|99999|ROSANA QUARESMA MANESCHY|40|UNIFESSPA@UNIFESSPA.br|UNIFESSPA|UNIFESSPA|P|2013|2016||
K4796585D6|99999|CELIA REGINA CONGILIO|40|UNIFESSPA@UNIFESSPA.br|UNIFESSPA|UNIFESSPA|P|2013|2016||
K4775706J5|99999|DANIELLA MARIA DOS SANTOS DIAS|40|UNIFESSPA@UNIFESSPA.br|UNIFESSPA|UNIFESSPA|P|2013|2016||
K4700787D6|99999|WILLIAM SANTOS DE ASSIS|40|UNIFESSPA@UNIFESSPA.br|UNIFESSPA|UNIFESSPA|P|2013|2016||
K4236476A6|99999|PIERRE TEISSERENC|40|UNIFESSPA@UNIFESSPA.br|UNIFESSPA|UNIFESSPA|P|2013|2016||
K4756788P3|99999|ALEXANDRE SILVA DOS SANTOS FILHO|40|UNIFESSPA@UNIFESSPA.br|UNIFESSPA|UNIFESSPA|P|2013|2016||
K4760843Z0|99999|HILDETE PEREIRA DOS ANJOS|40|UNIFESSPA@UNIFESSPA.br|UNIFESSPA|UNIFESSPA|P|2013|2016||
K4782722A1|99999|MARCELO DOMINGOS SAMPAIO CARNEIRO|40|UNIFESSPA@UNIFESSPA.br|UNIFESSPA|UNIFESSPA|P|2013|2016||
K4700719D0|99999|LUIS MAURO SANTOS SILVA|40|UNIFESSPA@UNIFESSPA.br|UNIFESSPA|UNIFESSPA|P|2013|2016||
K4638430H7|99999|MAURILIO DE ABREU MONTEIRO|40|UNIFESSPA@UNIFESSPA.br|UNIFESSPA|UNIFESSPA|P|2013|2016||
K4790869T6|99999|EDMA DO SOCORRO SILVA MOREIRA|40|UNIFESSPA@UNIFESSPA.br|UNIFESSPA|UNIFESSPA|P|2013|2016||
K4783300T3|99999|ROSA ELIZABETH ACEVEDO MARIN|40|UNIFESSPA@UNIFESSPA.br|UNIFESSPA|UNIFESSPA|P|2013|2016||
K4744174A6|99999|IDELMA SANTIAGO DA SILVA|40|UNIFESSPA@UNIFESSPA.br|UNIFESSPA|UNIFESSPA|P|2013|2016||
