artigoEmPeriodico	Jose Simao de Paula Pinto	2015		Empresa y tecnologías de la información: una mirada a Bolivia y América Del Sur	Revista Iberoamericana de Ciencia Tecnología y Sociedad (En Línea)	ARANDA, M. A. D. ; PINTO, J. S. P.	B2	
artigoEmPeriodico	Jose Simao de Paula Pinto	2015		AS TEORIAS DA CRIAÇÃO DO CONHECIMENTO ORGANIZACIONAL E O PROCESSO DE PRODUÇÃO DO CONHECIMENTO NA TERAPIA COMUNITÁRIA	Perspectivas em Gestão & Conhecimento	HOLZMANN, E. R. F. ; SILVA, Helena de Fatima Nunes ; DE PAULA PINTO, JOSE SIMAO	B1	
artigoEmPeriodico	Helena de Fátima Nunes Silva	2015		The Effective Knowledge Management In Local Brazilian Building Incorporation And Construction Enterprises	IOSRJEN Journal of Engineering	KRAINER, J. A. ; SILVA, H. F. N. ; KRAINER, C. W. M. ; ROMANO, C. A.	Qualis nao identificado	IOSRJEN Journal of Engineering
artigoEmPeriodico	Helena de Fátima Nunes Silva	2015		AS TEORIAS DA CRIAÇÃO DO CONHECIMENTO ORGANIZACIONAL E O PROCESSO DE PRODUÇÃO DO CONHECIMENTO NA TERAPIA COMUNITÁRIA	Perspectivas em Gestão & Conhecimento	HOLZMANN, E. R. F. ; SILVA, Helena de Fatima Nunes ; DE PAULA PINTO, JOSE SIMAO	B1	
artigoEmPeriodico	Helena de Fátima Nunes Silva	2015		Formas de compartilhamento de informações e do conhecimento na cooperação internacional de pesquisadores	Informação & Sociedade (UFPB. Online)	QUEIROZ, F. C. B. P. ; SILVA, H. F. N. ; QUANDT, C. O.	A2	
artigoEmPeriodico	Helena de Fátima Nunes Silva	2015		Programas de Enterprise Information Management (EIM) como suporte a tomada de decisão	Revista Iberoamericana de Ciencias Empresariales y economía	BALBINO, J. N. ; RAZZOLINI Fº, E. ; SILVA, H. F. N.	B3	
artigoEmPeriodico	Helena de Fátima Nunes Silva	2015	http://dx.doi.org/10.5433/1981-8920.2015v20n3p297	Criação e compartilhamento de conhecimento: perfis profissionais para o futuro da indústria paranaense	Informação & Informação (UEL. Online)	SCROCH SATO, KAROLINE APARECIDA ; Silva, Helena de Fátima Nunes ; DRAGO, ISABELA ; BREDA, SÔNIA MARIA	B2	
artigoEmPeriodico	Edson Ronaldo Guarido Filho	2015	http://dx.doi.org/10.5700/rausp1201	O que faz um nome? Status, conselho de administração e características organizacionais como antecedentes da reputação corporativa	Revista de Administração (FEA-USP)	ROSSONI, L. ; GUARIDO FILHO, E. R.	B1	
artigoEmPeriodico	Edson Ronaldo Guarido Filho	2015	http://dx.doi.org/10.1590/1678-69712015/administracao.v16n6p94-125	ORGANIZAÇÕES E AMBIENTE LEGAL: A CONSTRUÇÃO DO SISTEMA DE IDENTIFICAÇÃO CIVIL BRASILEIRO	RAM. REVISTA DE ADMINISTRAÇÃO MACKENZIE (ONLINE)	CARNEIRO, T. G. ; EBERLE, V. ; GODRI, L. ; GUARIDO FILHO, E. R.	B1	
artigoEmPeriodico	Edson Ronaldo Guarido Filho	2015	http://dx.doi.org/10.15603/1982-8756/roc.v11n22p383-419	Isomorfismo Normativo Versus Isomorfismo Mandatório na Adoção de Práticas Organizacionais	REVISTA ORGANIZAÇÕES EM CONTEXTO (ONLINE)	NEJM, I. M. ; GUARIDO FILHO, E. R. ; GONCALVES, S. A.	B4	
artigoEmPeriodico	Edson Ronaldo Guarido Filho	2015		Análise do discurso no institucionalismo organizacional: possibilidades a partir do discurso midiático	RECADM : Revista Eletrônica de Ciência Administrativa	OLIVEIRA, S. A. ; FRAGOSO, R. ; GUARIDO FILHO, E. R.	B2	
trabalhoCompletoEmCongresso	Edson Ronaldo Guarido Filho	2015		O Processo de Formação da Supertele Brasileira:a Mudança Legal Endógena em uma Visão Articulada dos Conceitos de Ganhos de Influência e Institutional Work	XXXIX Encontro da Anpad (EnAnpad)	SANA, G. A. ; EBERLE, V. ; GUARIDO FILHO, E. R.		
trabalhoCompletoEmCongresso	Edson Ronaldo Guarido Filho	2015		O Desempenho Organizacional como Condicionante da Estratégia: O caso de uma Empresa Brasileira do Mercado de Construção Pesada	XXXIX Encontro da Anpad (EnAnpad)	CARVALHO, D. M. ; EBERLE, V. ; GUARIDO FILHO, E. R.		
trabalhoCompletoEmCongresso	Edson Ronaldo Guarido Filho	2015		Análise do formalismo do planejamento estratégico em uma empresa brasileira de construção civil	9th Iberoamerican Academy of Management Conference	CARVALHO, D. M. ; EBERLE, V. ; GUARIDO FILHO, E. R.		
artigoEmPeriodico	Edelvino Razzolini Filho	2015		Uso da Informação como apoio à Decisão dos Gestores da Saúde Pública em um Hospital Universitário do Paraná	Revista de Saúde Pública de Santa Catarina	ALBINI, C. M. N. ; RAZZOLINI Fº, E.	B5	
artigoEmPeriodico	Denise Maria Woranovicz Carvalho	2015		Introdução às estratégias de marketing para produtos cárneos	Revista Nacional da Carne	Garcia, CER ; NANTES, K. C. ; SECCHI, L. G. ; CARVALHO, D. M. W.	B4	
artigoEmPeriodico	Denise Fukumi Tsunoda	2015		Mineração de dados para análise da relação entre as características socioeconômicas de concluintes do ensino superior e o desempenho desses estudantes no ENADE 2012	Percurso (Curitiba)	NOGUEIRA, E. D. A. ; TSUNODA, D. F.	B5	
artigoEmPeriodico	Denise Fukumi Tsunoda	2015	http://dx.doi.org/10.5380/atoz.v4i1.42319	Proposta de um modelo de maturidade para sítios de governo eletrônico	AtoZ: novas práticas em informação e conhecimento	LECHAKOSKI, RAFAEL DE MELLO ; Tsunoda, Denise Fukumi	B4	
artigoEmPeriodico	Denise Fukumi Tsunoda	2015		Realidade Aumentada: Tecnologias Inovadoras para o Ensino em Engenharia e Arquitetura	Percurso (Curitiba)	Ishida, C. Y. ; FREITAS, M.C.D. ; TSUNODA, D. F. ; MACHADO, G. D. ; CONCEICAO, F. H.	B5	
artigoEmPeriodico	Vera Karam de Chueiri	2015	http://dx.doi.org/10.1590/0102-6445259-288/95	(Des)ordem constitucional: engrenagens da máquina ditatorial no Brasil pós-64	Lua Nova: Revista de Cultura e Política	CHUEIRI, V. K. de; CAMARA, H. F.	Qualis nao identificado	Lua Nova: Revista de Cultura e Política
trabalhoCompletoEmCongresso	Vera Karam de Chueiri	2015	http://dx.doi.org/10.17931/dcfp_v2_art11	Ratio Decidendi e Stare Decisis - Estudo da força vinculante do precedente constitucional	I Congresso Internacional de Direito Constitucional e Filosofia Política	MARIA DE QUEIROZ BARBOZA, ESTEFÂNIA ; HENRIQUE MUNIZ DA CONCEIÇÃO, LUCAS ; KARAM DE CHUEIRI, VERA		
artigoEmPeriodico	Cicero Aparecido Bezerra	2015		Rumo à consolidação das dimensões da inovatividade e seu impacto no desempenho inovador	GEPROS. Gestão da Produção, Operações e Sistemas (Online)	BEZERRA, C. A.; FERNANDES, M. A.	B4	
artigoEmPeriodico	Cicero Aparecido Bezerra	2015		Relações entre gestão do conhecimento, inovação e faturamento: um estudo em empresas graduadas no estado do Paraná	Revista Alcance (Online)	BEZERRA, C. A.; QUANDT, C. O.	B3	
artigoEmPeriodico	Cicero Aparecido Bezerra	2015		Scientific publications on innovation: an analysis using text mining	REBRAE. Revista Brasileira de Estratégia (Impresso)	BEZERRA, C. A.; GUIMARAES, A. J. R.	B2	
artigoEmPeriodico	Cicero Aparecido Bezerra	2015	http://dx.doi.org/10.1590/0104-530X1568-14	Dimensões da inovatividade organizacional e seu impacto no desempenho inovador: proposição e avaliação de um modelo	Gestão & Produção	QUANDT, CARLOS OLAVO ; BEZERRA, CICERO APARECIDO ; FERRARESI, ALEX ANTÔNIO	Qualis nao identificado	Gestão & Produção
artigoEmPeriodico	Cicero Aparecido Bezerra	2015		Quem é o ''Bicho Verde''? Um estudo do comportamento verde de alunos do Estado do Paraná	Organizações e Sustentabilidade	DACIE, F. P. ; PANHOCA, L. ; ESPEJO, M. M. dos S. B. ; BEZERRA, C. A.	B4	Amazônia, Organizações e Sustentabilidade
trabalhoCompletoEmCongresso	Cicero Aparecido Bezerra	2015		Quem é o 'Bicho verde'? Um estudo do comportamento verde de alunos do estado do Paraná	CSEAR South América	DACIE, F. P. ; PANHOCA, L. ; ESPEJO, M. M. dos S. B. ; BEZERRA, C. A.		
trabalhoCompletoEmCongresso	Cicero Aparecido Bezerra	2015		O perfil das publicações da conferência do Centre for Social Environmental Accounting Research - CSEAR	CSEAR South América	ANZILAGO, M. ; SANTOS, E. A. ; DACIE, F. P. ; BEZERRA, C. A.		
artigoEmPeriodico	Celso Yoshikazu Ishida	2015		Avaliação da Qualificação de Mão de Obra de Curitiba-PR para a Copa do Mundo FIFA 2014	Percurso (Curitiba)	SOUZA, T. ; FREITAS, M.C. D. ; KUNTZ, V. H. ; Ishida, C. Y. ; SANTOS, L. R. N.	B5	
artigoEmPeriodico	Celso Yoshikazu Ishida	2015		Realidade Aumentada: Tecnologias Inovadoras para o Ensino em Engenharia e Arquitetura	Percurso (Curitiba)	Ishida, C. Y. ; FREITAS, M.C.D. ; TSUNODA, D. F. ; MACHADO, G. D. ; CONCEICAO, F. H.	B5	
artigoEmPeriodico	Patricia Zeni Marchiori	2015	http://dx.doi.org/10.11606/issn.2178-2075.v6i2p44-65	Gamificação, elementos de jogos e estratégia: uma matriz de referência	InCID: Revista de Ciência da Informação e Documentação	COSTA, AMANDA CRISTINA SANTOS ; MARCHIORI, PATRÍCIA ZENI	B3	
artigoEmPeriodico	Maria do Carmo Duarte Freitas	2015	http://dx.doi.org/10.3916/C44-2015-07	Un repositorio digital de contenido fílmico como recurso didáctico	Comunicar (Huelva)	MARTINEZ, M. A. T. ; FREITAS, M.C. D. ; KEMCZINSKI, A.	Qualis nao identificado	Comunicar (Huelva)
artigoEmPeriodico	Maria do Carmo Duarte Freitas	2015	http://dx.doi.org/10.6084/m9.figshare.1284664	A Digital Repository of Filmic Content as a Teaching Resource	COMUNICAR (HUELVA. INTERNET)	MARTINEZ, M. A. T. ; FREITAS, M.C. D. ; KEMCZINSKI, A.	Qualis nao identificado	COMUNICAR (HUELVA. INTERNET)
artigoEmPeriodico	Maria do Carmo Duarte Freitas	2015		Contribuição da Engenharia da Informação no Gerenciamento Visual: Estudo de Caso em uma Empresa de Grande Porte em Curitiba	Iberoamerican Journal of Project Management	MERCADO, C. I. N. ; FREITAS, M.C. D. ; BIZ, A. A. ; STEFANO, N.	Qualis nao identificado	Iberoamerican Journal of Project Management
artigoEmPeriodico	Maria do Carmo Duarte Freitas	2015	http://dx.doi.org/10.18226/21789061.v7iss3p319	Pronatec 2014 World Cup courses geared to tourism in Curitiba, PR: Assessment tool by heading	Rosa dos Ventos	FEGER, J. E. ; FREITAS, MARIA DO CARMO DUARTE ; KUNTZ, V. H. ; SEHN, MARCIANO FELIPE ; SANTOS, L. R. N.	B3	
artigoEmPeriodico	Maria do Carmo Duarte Freitas	2015		Realidade Aumentada: Tecnologias Inovadoras para o Ensino em Engenharia e Arquitetura	Percurso (Curitiba)	ISHIDA, C. Y. ; FREITAS, M.C. D. ; TSUNODA, D. F. ; MACHADO, G. D. ; CONCEICAO, F. H.	B5	
artigoEmPeriodico	Maria do Carmo Duarte Freitas	2015		Gerenciamento do Fluxo da Informação: estratégia convergindo com a prática do Lean Office	Intersaberes (Facinter)	MASSUQUETO, K. ; FREITAS, M.C.D.	Qualis nao identificado	Intersaberes (Facinter)
artigoEmPeriodico	Maria do Carmo Duarte Freitas	2015		Quadro atual dos livros didáticos digitais	Iberoamerican Journal of Project Management (IJoPM)	ALMEIDA, P. S. ; FREITAS, M.C. D. ; STEFANO, N. ; ZATTAR, I. C.	Qualis nao identificado	Iberoamerican Journal of Project Management (IJoPM)
artigoEmPeriodico	Maria do Carmo Duarte Freitas	2015		The application of statistical control processes tools and the analysis of failures to improve the processes of construction in civil engineering	Revista Tecnologia (UNIFOR)	QUEIROZ, F. C. B. P. ; FREITAS, M.C. D. ; QUEIROZ, J. V. ; HEKIS, H. R. ; SOUZA, R. P.	B4	
artigoEmPeriodico	Maria do Carmo Duarte Freitas	2015		Relatos pessoais sobre a trajetória de um periódico científico	Revista Latino-Americana de Inovação e Engenharia de Produção	FREITAS, M.C.D	Qualis nao identificado	Revista Latino-Americana de Inovação e Engenharia de Produção
artigoEmPeriodico	Maria do Carmo Duarte Freitas	2015		O USO DO AUDIOVISUAL NAS AULAS DE HISTÓRIA DE ESCOLAS PARTICULARES DE CURITIBA SEGUNDO A PERSPECTIVA DOS PROFESSORES.	Percurso (Curitiba)	SILVA, A. N. ; FREITAS, M.C.D.	B5	
artigoEmPeriodico	Maria do Carmo Duarte Freitas	2015		Avaliação da Qualificação de Mão de Obra de Curitiba-PR para a Copa do Mundo FIFA 2014	PERCURSO (CURITIBA)	SOUZA, T. ; FREITAS, M.C. D. ; KUNTZ, V. H. ; ISHIDA, C. Y. ; SANTOS, L. R. N.	B5	
trabalhoCompletoEmCongresso	Maria do Carmo Duarte Freitas	2015	http://dx.doi.org/10.6084/m9.figshare.1541112	O ENSINO DA FERRAMENTA DESDOBRAMENTO DA FUNÇÃO QUALIDADE (QFD)	Congresso Brasileiro de Educação em Engenharia 2015	ODORCZYK, R. S. ; FREITAS, M.C. D. ; MALACARNE, R.		
trabalhoCompletoEmCongresso	Maria do Carmo Duarte Freitas	2015	http://dx.doi.org/10.6084/m9.figshare.1541174	DINÂMICA PARA O ENSINO DA FERRAMENTA DESDOBRAMENTO DA FUNÇÃO QUALIDADE (QFD)	XV SEPROSUL - Simposio de Ingeniería de la Producción Sudamericano Agosto/Septiembre de 2015	ODORCZYK, R. S. ; FREITAS, M.C. D.		
trabalhoCompletoEmCongresso	Maria do Carmo Duarte Freitas	2015		Visualização e análise da informação científica divulgada no You tubeTM	Euro-ELECS 2015 Latin-American and European Conference on Sustainable Buildings and Communities	FREITAS, M.C.D.; MARTINEZ, M. A. T. ; KUNTZ, V. H. ; ISHIDA, C. Y. ; COMUNELLO, F. ; FLORES, F. N.		
trabalhoCompletoEmCongresso	Maria do Carmo Duarte Freitas	2015		Estudo bibliométrico da produção científica do encontro latino‐americano de edificações e comunidades sustentaveis	EURO‐ELECS 2015 LATIN‐AMERICAN AND EUROPEAN CONFERENCE ON SUSTAINABLE BUILDINGS AND COMMUNITIES	FREITAS, M.C.D.; GRUNBERG, P. R. M. ; TAVARES, J. C. ; REIS, R. A. ; TAVARES, S. F.		
