artigoEmPeriodico	2015	http://dx.doi.org/10.9771/S.CPROSP.2015.008.068	REFLEXÕES SOBRE AS COMPETÊNCIAS DOS NÚCLEOS DE INOVAÇÃO TECNOLÓGICA	Cadernos de Prospecção	ALVES, VIVIAN COSTA ; AMARANTE SEGUNDO, GESIL SAMPAIO ; SAMPAIO, RENELSON RIBEIRO	C	
artigoEmPeriodico	2015	http://dx.doi.org/10.1016/j.wear.2015.08.017	Design and operation of a high temperature wear test apparatus for automotive valve materials	Wear (Lausanne)	BREDA MASCARENHAS, LUIS ALBERTO ; DE OLIVEIRA GOMES, JEFFERSON ; ESTEVÃO BEAL, VALTER ; TEIXEIRA PORTELA, ANDREY ; VASCONCELLOS FERREIRA, CRISTIANO ; ANTONIO BARBOSA, CELSO	A2	
artigoEmPeriodico	2015	http://dx.doi.org/10.1590/0103-166X2015000200010	Work-related values and organizational values from the perspective of university professors: A correlational study	Estudos de Psicologia (PUCCAMP. Impresso)	CAMARA, J. R. S. ; PEREIRA-GUIZZO, C. S.	A2	
artigoEmPeriodico	2015		Jogos eletrônicos, redes sociais e dispositivos móveis: reflexões para os espaços educativos	Anais do Seminário Jogos Eletrônicos, Educação e Comunicação	COUTINHO, I. J. ; RODRIGUES, P. R. ; ALVES, L. R. G.	Qualis nao identificado	Anais do Seminário Jogos Eletrônicos, Educação e Comunicação
artigoEmPeriodico	2015	http://dx.doi.org/10.1016/j.physa.2015.01.002	Quantifying cross-correlation between Ibovespa and Brazilian blue-chips: The DCCA approach	Physica. A (Print)	DA SILVA, MARCUS FERNANDES ; LEÃO PEREIRA, ÉDER JOHNSON DE AREA ; DA SILVA FILHO, ALOISIO MACHADO ; NUNES DE CASTRO, ARLEYS PEREIRA ; MIRANDA, JOSÉ GARCIA VIVAS ; ZEBENDE, GILNEY FIGUEIRA	A2	
artigoEmPeriodico	2015	http://dx.doi.org/10.1016/j.physa.2015.10.013	Why does the Euro fail? The DCCA approach	Physica. A (Print)	FERREIRA, PAULO ; DIONÍSIO, ANDREIA ; Zebende, G.F.	A2	
artigoEmPeriodico	2015	http://dx.doi.org/10.1590/1982-7849rac20151430	The Effect of Longer Development Times on Product Pipeline Management Performance	RAC. Revista de Administração Contemporânea (Online)	Figueiredo, Paulo S.; LOIOLA, E. ; TRAVASSOS, X. L.	B1	
artigoEmPeriodico	2015		Análise temporal dos indicadores da indústria de transformação da Bahia: Uma abordagem com métodos da mecânica estatística	Conjuntura & Planejamento	GUEDES, E. ; SILVA FILHO, A. M. ; ZEBENDE, G. F.	B3	
artigoEmPeriodico	2015		Uma Abordagem Multiagentes para Sistema Defensivo em um Time de Futebol de Robôs Bípedes	Revista de Sistemas e Computação - RSC	LARANJEIRA, C. ; SANTOS, A. ; ARGOLLO, E. ; Diego Frias ; SIMÕES, Marco Antonio Costa ; SOUZA, J. R.	Qualis nao identificado	Revista de Sistemas e Computação - RSC
artigoEmPeriodico	2015		Significado de corresidência na visão de idosos: uma estratégia para análise cognitiva com uso de redes semânticas	Revista Saúde.com	LOPES, C. R. S. ; CARDOSO, J. P. ; MEIRA, S. S. ; CASOTTI, C. A. ; VILELA, A. B. A. ; PEREIRA, H. B. B.	B4	
artigoEmPeriodico	2015		An affinity-based evolutionary model of diffusion of knowledge	Obra Digital: journal of communication and technology	MONTEIRO, R. L. S. ; CARNEIRO, T. K. G. ; ANDRADE, L. P. C. S. ; FADIGAS, Inácio de Sousa ; PEREIRA, H. B. B.	B3	
artigoEmPeriodico	2015	http://dx.doi.org/10.1142/S0129183115501193	Non-Markovian model for the study of pitting corrosion in a water pipe system	International Journal of Modern Physics C	ROSA, A. C. P. ; VAVELIUK, P. ; Moret, M. A.	B1	
artigoEmPeriodico	2015	http://dx.doi.org/10.17564/2316-3801.2015v3n3p13-26	Minerando ciência e tecnologia no mar das canções de Gilberto Gil	Revista Interfaces Científicas Humanas e Sociais	SANTANA, C. S. ; MAGRIS, P. N. ; CUNHA, M. V. ; ROSA, M. G. ; CASAS, Trazíbulo Henrique Pardo ; PEREIRA, H. B. B.	Qualis nao identificado	Revista Interfaces Científicas Humanas e Sociais
artigoEmPeriodico	2015		Importância da Teoria de Redes para a Cabotagem Marítima no Brasil (Importance of Network Theory for Brazil?s Maritime Cabotage)	Business Management Review (BMR)	SANTOS, C. C. R. ; PEREIRA, H. B. B.	Qualis nao identificado	Business Management Review (BMR)
artigoEmPeriodico	2015	http://dx.doi.org/10.1016/j.physa.2015.04.021	Fractal Aspects in O2 Enriched Combustion	Physica. A (Print)	SOUZA, J. W. G. ; A.A.B., SANTOS ; GONCALVES, M. A. M. S. ; Guariero, L.L.N.	A2	
artigoEmPeriodico	2015	http://dx.doi.org/10.1016/j.physa.2015.04.021	Fractal aspects in	Physica. A (Print)	SOUZA, J.W.G. ; SANTOS, A.A.B. ; GUARIEIRO, L.L.N. ; Moret, M.A.	A2	
artigoEmPeriodico	2015	http://dx.doi.org/10.3895/gi.v11n2.2410	PROPOSTA DE UM MÉTODO PARA AVALIAR A COMPETITIVIDADE DO GÁS NATURAL NOS SETORES RESIDENCIAL E COMERCIAL	Revista Gestão Industrial	TEIXEIRA, JOÃO PEDRO BRAGA ; SANTOS, ALEX ÁLISSON BANDEIRA ; GUARIEIRO, LÍLIAN LEFOL NANI	B3	
artigoEmPeriodico	2015		Narrative, history, and fiction: history games as boundary works	COMUNICAÇÃO E SOCIEDADE	TELLES, H. V. ; ALVES, L. R. G.	B1	
trabalhoCompletoEmCongresso	2015	http://dx.doi.org/10.5151/engpro-simea2015-pap222	AVALIAÇÃO DA IMPEDÂNCIA DE TRANSFERÊNCIA DE CABOS COAXIAIS RG213 E RGC213 DE FORNECEDORES DISTINTOS	XXIII Simpósio Internacional de Engenharia Automotiva	ANDRADE, CAIO LUMINATTI ; Silva, Valeria L. da ; NOVO, MARCELA SILVA ; SANTOS, KENEDY MARCONI GERALDO		
trabalhoCompletoEmCongresso	2015		Colaboração em comunidades científicas: uma abordagem metodológica baseada em redes	IV Brazilian Workshop on Social Network Analysis and Mining (BraSNAM)	Andrade, M. T. T. ; ROSA, M. G. ; FADIGAS, Inácio de Sousa ; PEREIRA, H. B. B.		
trabalhoCompletoEmCongresso	2015		Quantification, spatial distribution and speciation of vehicular emissions using SMOKE: a Brazilian Metropolitan Region Case	14th Annual CMAS Conference	ARAUJO, I. B. ; ALBUQUERQUE, T. T. A. ; PEDRUZZI, R. ; Nascimento, E. S. ; Reis Jr, Neyval ; MOREIRA, D.M.		
trabalhoCompletoEmCongresso	2015		Correlação entre bioma e dengue no estado da Bahia	V Workshop de Pesquisa	AZEVEDO, S. M. ; NASCIMENTO FILHO, Aloisio Santos ; Moret, M.A. ; Saba, H.		
trabalhoCompletoEmCongresso	2015		DESENVOLVIMENTO DE UM SISTEMA ESPECIALISTA DE OXIMETRIA COM SISTEMA EMBARCADO OPEN SOURCE	XVIII Encontro Nacional de Modelagem Computacional e o VI Encontro de Ciência e Tecnologia de Materiais	BARRETO, E. B. S. ; SANTOS, L. B. ; MONTEIRO, R. L. S. ; GUIMARAES, R. N. ; CARNEIRO, T. K. G.		
trabalhoCompletoEmCongresso	2015		Gestão organizacional para o desenvolvimento de uma cultura de criatividade e inovação: Um estudo de caso na construção civil	Workshop de Gestão	BASTOS, L. V. ; VIANA, J. D. ; PEREIRA-GUIZZO, C. S.		
trabalhoCompletoEmCongresso	2015		Embrapa e Disseminação da Informação	V WORKSHOP DE PESQUISA TECNOLOGIA E INOVAÇÃO (PTI)	BERGER, J. ; NAKANE, M. T. ; SAMPAIO, R. R.		
trabalhoCompletoEmCongresso	2015		Preparação e caracterização de soluções coloidais de prata para estudo de SERS (Surface-Enhanced Raman Scattering)	V Workshop de Pesquisa	BORGES, L. M. ; Silva, Valeria L.		
trabalhoCompletoEmCongresso	2015		Sistema de controle de velocidade utilizando um conversor eletrônico de potência microprocessado para veículos elétricos leves	Workshop de Gestão	BULHOES, R. L. ; SANTANA, E. S. ; AAB, SANTOS		
trabalhoCompletoEmCongresso	2015		Interatividade e Relações com o Saber: um olhar à luz da Análise de Redes Sociais	IV Brazilian Workshop on Social Network Analysis and Mining (BraSNAM)	CASNATI, A. M. ; LOPES, C. R. S. ; GALEFFI, D. ; BURNHAM, Teresinha Fróes ; VILELA, A. B. A. ; PEREIRA, H. B. B.		
trabalhoCompletoEmCongresso	2015		Modelagem do teste estatístico do coeficiente de correlação cruzada sem tendência rhoDCCA: Teoria e aplicação	IV Workshop de Pesquisa	CASTRO, A. P. N. ; SILVA FILHO, A. M. ; ZEBENDE, G. F. ; SILVA, M. F.		
trabalhoCompletoEmCongresso	2015		O processo de gestão da inovação: um estudo de caso nas empresas baianas do Polo de Informática de Ilhéus	ALTEC 2015 - XVI Congresso Latino-Iberoamericano de Gestão da Tecnologia	COMIN, R. A. P. ; SANCHES, D. C. ; PASSOS, F. U.		
trabalhoCompletoEmCongresso	2015		Jogos eletrônicos, redes sociais e dispositivos móveis: reflexões para os espaços educativos	XI Seminário SJEEC Jogos Eletrônicos - Educação - Comunicação	COUTINHO, Isa ; RODRIGUES, P. R. ; ALVES, L. R. G.		
trabalhoCompletoEmCongresso	2015		Incidência Fidelidade aplicada a rede semântica de títulos	IV Brazilian Workshop on Social Network Analysis and Mining (BraSNAM)	CUNHA, M. V. ; MIRANDA, J. G. V. ; PEREIRA, H. B. B.		
trabalhoCompletoEmCongresso	2015		OBJETOS DE APRENDIZAGEM A PARTIR DA ELEMENTOS DA GAMIFICAÇÃO	XVIII Encontro Nacional de Modelagem Computacional e o VI Encontro de Ciência e Tecnologia de Materiais	DINIZ, M. V. C. ; MONTEIRO, R. L. S. ; CARNEIRO, T. K. G.		
trabalhoCompletoEmCongresso	2015		ESTUDO PARA DETECÇÃO DO ESTADO DOS OLHOS EM IMAGENS UTILIZANDO UM CLASSIFICADOR EM CASCATA	XVIII Encontro Nacional de Modelagem Computacional e o VI Encontro de Ciência e Tecnologia de Materiais	FIGUEREDO, M. ; MONTEIRO, R. L. S.		
trabalhoCompletoEmCongresso	2015		Modelagem cognitiva de uma tecnologia educacional para o desenvolvimento da habilidade espacial no ensino de desenho industrial	I Workshop de Gestão	GOMES, M. V. M. ; PEREIRA-GUIZZO, C. S. ; SAMPAIO, R. R.		
trabalhoCompletoEmCongresso	2015	http://dx.doi.org/10.1007/3-540-45825-5_63	Análise de Métodos de Processamento de Imagens para Reconhecimento Facial utilizando Fisherfaces em Imagens sob Condições Desfavoráveis	Escola Regional de Computação Bahia - Alagoas - Sergipe	JESUS, L. S. ; SAPUCAIA, F. ; Fagner de A. M. Pimentel ; SOUZA, J. R. ; SIMÕES, Marco Antonio Costa ; Diego Frias		
trabalhoCompletoEmCongresso	2015		Uma aproximação às redes sociais para avanços técnico-científicos	IV Brazilian Workshop on Social Network Analysis and Mining (BraSNAM)	LIMA NETO, J. L. A. ; MELO, D. P. ; SANTANA, C. S. ; QUEIROGA, G. L. ; MAGRIS, P. N. ; CASAS, Trazíbulo Henrique Pardo ; PEREIRA, H. B. B.		
trabalhoCompletoEmCongresso	2015		Modelagem de Curvas para Análise de Sistemas Binários de Raios-X	XVIII Encontro Nacional de Modelagem Computacional	LIMA, M. S. ; Moret, M.A. ; ROSA, A. C. P.		
trabalhoCompletoEmCongresso	2015		Análise dos desafios para o desenvolvimento do mercado dos veículos elétricos	V Workshop de Pesquisa	LIMA, T. B. ; GUARIEIRO, L.L.N.		
trabalhoCompletoEmCongresso	2015		Resultados preliminares da elaboração de um modelo digital de superfície (MDS) para a avaliação do potencial eólico em uma área do sul do Brasil	XVII Brazilian Symposium on Remote Sensing	LUCAS, E. A. ; Moraes, M.R. ; BRANCO, V. T. A. ; MOREIRA, D.M. ; SCHAFER, A. G.		
trabalhoCompletoEmCongresso	2015		Ferramenta de Auxílio para Comunicar a Especificação Dimensional Aplicada a um Sistema de Suspensão Veicular	Oitavo Congresso Brasileiro de Engenharia de Fabricação - COBEF 2015	MACHADO, A. M. ; MURARI, Thiago Barros ; Beal, V. E. ; MORET, Marcelo Albano ; PINA, Suzana Angélica da S. M.		
trabalhoCompletoEmCongresso	2015		Análise térmica para uma câmara de combustão de uma bancada experimental para avaliação de desgaste em válvulas e sedes de válvulas automotivas, submetidas a ensaios em alta temperatura	8º Congresso Brasileiro de Engenharia de Fabricação	MASCARENHAS, L. A. B. ; GOMES, J. O. ; PORTELA, A. T. ; A.A.B., SANTOS		
trabalhoCompletoEmCongresso	2015		Utilização da matriz morfológica para desenvolvimento da bancada de testes de válvulas e sedes de válvulas	CONGRESSO BRASILEIRO DE ENGENHARIA DE FABRICAÇÃO	MASCARENHAS, L. A. B. ; GOMES, J. O. ; PORTELA, A. T. ; FERREIRA, C. V. ; GUARIEIRO, L.L.N.		
trabalhoCompletoEmCongresso	2015		Impacto do acumulo de rodagem na degradação de óleo lubrificante para motor ciclo diesel	V Workshop de Pesquisa	MATOS, L. E. ; GUARIEIRO, L.L.N.		
trabalhoCompletoEmCongresso	2015		Redes de colaboração: análise da coautoria em comunidades científicas disciplinares	Wokshop de Trabalhos de Iniciação Científica e Graduação (WTICGBASE)	MEIRELES, A. R. B. ; VERDE, I. S. V. ; Andrade, Maria Teresinha Tamanini ; PEREIRA, H. B. B.		
trabalhoCompletoEmCongresso	2015		Estudo comparativo entre sistema de partida a frio convencional e eletrônico para veículos flex	V Workshop de Pesquisa	MOTTA, T. M. ; GUARIEIRO, L.L.N. ; CAMARA, J. C. C.		
trabalhoCompletoEmCongresso	2015		Autoafinidade na variação de preços de ações de cias petrolíferas	V Workshop de Pesquisa	NASCIMENTO FILHO, Aloisio Santos ; PITOMBO, N. ; Moret, M.A.		
trabalhoCompletoEmCongresso	2015		Autoafinidade na variação de preços de ações em bolsas de valores	XVIII Encontro Nacional de Modelagem Computacional	NASCIMENTO FILHO, Aloisio Santos ; SOUZA, J. W. G. ; Moret, M.A.		
trabalhoCompletoEmCongresso	2015	http://dx.doi.org/10.2495/CMEM150431	Atmospheric dispersion modeling to simulate rocket exhaust clouds	CMEM 2015	NASCIMENTO, E. G. S. ; MOREIRA, D. M. ; ALBUQUERQUE, T. T. A. ; REIS, N. C. ; SANTOS, J. M. ; GOULART, E. V. ; FISCH, G.		
trabalhoCompletoEmCongresso	2015		A hybrid system to simulate the atmospheric dispersion of rocket exhaust clouds	14th International Conference on Wind Engineering	Nascimento, E. S. ; MOREIRA, D.M. ; ALBUQUERQUE, T. T. A. ; FISCH, G.		
trabalhoCompletoEmCongresso	2015		Integrating short and long range approaches for modeling the dispersion and the chemical transport of rocket exhaust clouds	14th Annual CMAS Conference	Nascimento, E. S. ; MOREIRA, D.M. ; FISCH, G. ; ALBUQUERQUE, T. T. A.		
trabalhoCompletoEmCongresso	2015	http://dx.doi.org/10.20906/CPS/CILAMCE2015-0438	Evaluating the Impact of Large Eddy Simulations in Rocket Exhaust Modeling	XXXVI Iberian Latin American Congress on Computational Methods in Engineering	NASCIMENTO, ERICK GIOVANI SPERANDIO ; Moreira, Davidson Martins ; FISCH, GILBERTO ; ALBUQUERQUE, TACIANA TOLEDO DE ALMEIDA ; ROSA, LARISSA COUTINHO ; PEDRUZZI, RIZZIERI		
trabalhoCompletoEmCongresso	2015		Um modelo computacional para o estudo de fenômenos astronômicos	XVIII Encontro Nacional de Modelagem Computacional e VI Encontro de Ciência e Tecnologia de Materiais	NASCIMENTO, J. O. ; NEIDE, I. G. ; PEREIRA, H. B. B. ; Moret, M.A.		
trabalhoCompletoEmCongresso	2015		UNEB Radioativa: Um relato de gamificação na III Unebrinque	XI SJEEC Seminário Jogos Eletrônicos - Educação - Comunicação	Nery, Jesse ; CARIBE, A. ; SARNO, A. ; ALVES, L. R. G.		
trabalhoCompletoEmCongresso	2015		Jogos digitais nas classes hospitalares: desbravando novas interfaces	XI Seminário SJEEC Jogos Eletrônicos - Educação - Comunicação	NEVES, I. B. C. ; GONZALEZ, C. ; ALVES, L. R. G.		
trabalhoCompletoEmCongresso	2015		Desenvolvimento de habilidades com foco na inovação durante a formação de engenheiros utilizando jogos	I Workshop de Gestão	NOGUEIRA, T. B. R. ; PEREIRA-GUIZZO, C. S. ; SANTOS, A. A. B.		
trabalhoCompletoEmCongresso	2015		Práticas e Princípios inovadores Empreendedores de Drucker Aplicados à Escada do Design	XXII SIMPEP	Nolasco, A. ; SAMPAIO, R. R.		
trabalhoCompletoEmCongresso	2015		MODELAGEM ESTATÍSTICA DE DADOS CLIMATOLÓGICOS: UMA APLICAÇÃO NA REGIÃO DE PUNO NO PERU	XVIII Encontro Nacional de Modelagem Computacional	OC, T. ; SILVA FILHO, A. M. ; ZEBENDE, G. F.		
trabalhoCompletoEmCongresso	2015		Habilidades Sociais das equipes de trabalho do projeto TheoPrax: um estudo de	Workshop de Gestão	OLIVEIRA, G. E. S. ; PEREIRA-GUIZZO, C. S.		
trabalhoCompletoEmCongresso	2015		Influence of boundary conditions on CMAQ simulations over metropolitan region of great Vitoria - ES	14th Annual CMAS Conference	PEDRUZZI, R. ; ALBUQUERQUE, T. T. A. ; ARAUJO, I. B. ; HENDERSON, B. ; ARAVANIS, N. ; Nascimento, E. S. ; Reis Jr, Neyval ; MOREIRA, D.M.		
trabalhoCompletoEmCongresso	2015		Uma Análise dos Padrões de Tatuagens Associadas à Criminalidade do Estado da Bahia com Auxílio da Teoria de Redes	IV Brazilian Workshop on Social Network Analysis and Mining (BraSNAM)	PEREIRA, H. B. B.; CORDEIRO, A. J. A. ; SANTOS, C. C. R. ; SILVA, A. J. L.		
trabalhoCompletoEmCongresso	2015		Avaliação dos parâmetros críticos para a caracterização de um leito catalítico do tipo trickle-bed	V Workshop de Pesquisa	QUEIROZ, L. B. ; QUADRO, E. ; GUARIEIRO, L.L.N.		
trabalhoCompletoEmCongresso	2015		Posicionamento Estratégico em Situações de Cobrança de Escanteio para um Time de Futebol de Robôs Autônomos	Escola Regional de Computação Bahia - Alagoas - Sergipe	REIS, C. E. ; SILVA, C. ; SOUZA S. ; SIMÕES, Marco Antonio Costa ; Diego Frias ; SOUZA, J. R.		
trabalhoCompletoEmCongresso	2015		Energy consumption during HCFeCr production at Ferbasa	THE FOURTEENTH INTERNATIONAL FERROALLOYS CONGRESS - INFACON XIV	RINGDALEN, E. ; ROCHA, M. ; Figueiredo, P.		
trabalhoCompletoEmCongresso	2015		PRETREATMENT OF JACURICI ORE FROM FERBASA-BRASIL: EFFECT ON ENERGY CONSUMPTION	Sustainable Industrial Processing Summit Exhibition	ROCHA, M. ; TANGSTAD, M. ; RINGDALEN, E. ; Figueiredo, Paulo S.		
trabalhoCompletoEmCongresso	2015		Estudo do modelo diamante para gestão de projetos de pesquisa nas áreas de manufatura e tecnologia	II Workshop de Gestão	SAMPAIO, R. R.; SILVEIRA, C. P.		
trabalhoCompletoEmCongresso	2015		Infocanção em Gilberto Gil	XXVIII Simpósio Nacional de História	SANTANA, C. S. S. ; CASAS, Trazíbulo Henrique Pardo ; PEREIRA, H. B. B.		
trabalhoCompletoEmCongresso	2015		CMAQ model performance evaluation: PM10 Response to emissions reductions over the metropolitan area of Vitória-ES, Brazil	II CMAS (Community Modeling Analysis System) South America	SANTIAGO, A. M. ; ALBUQUERQUE, T. T. A. ; Reis Jr, Neyval ; Loriato, A.G. ; Nascimento, E. S. ; Salvador, N. ; MOREIRA, D.M.		
trabalhoCompletoEmCongresso	2015		Autoimagem genital feminina: um novo conceito de avaliação por meio de um modelo computacional baseado em lógica fuzzy	XVIII Encontro Nacional de Modelagem Computacional	SANTOS, C. O. ; GOMES, T. B. S. ; SILVA, M. L. ; LORDELO, P. V. S. ; PEREIRA, H. B. B. ; Moret, M.A.		
trabalhoCompletoEmCongresso	2015		Evoluindo o projeto de robôs para liga de futebol Very Small Size Soccer	Escola Regional de Computação Bahia - Alagoas - Sergipe	SANTOS, G. C. ; MERCES, R. ; Fagner de A. M. Pimentel ; SAPUCAIA, F. ; SILVA, C. ; SOUZA, J. R. ; SIMÕES, Marco Antonio Costa ; Diego Frias		
trabalhoCompletoEmCongresso	2015		Correlações de longo alcance em modelagem de flutuações de séries temporais da velocidade do vento em Salvador: resultados preliminares para maximização da geração de energia eólica	V Workshop de Pesquisa Tecnologia e Inovação e I Simpósio Internacional de Inovação e Tecnologia	SANTOS, J. V. C. ; GONCALVES, M. A. M. S. ; MOREIRA, D.M.		
trabalhoCompletoEmCongresso	2015		Modelagem do processo de indução da formação de clusters: Estímulo para inovação em desenvolvimento de produtos em redes industriais de pequeno e médio porte	I Workshop de Gestão	SANTOS, R. L. ; PEREIRA-GUIZZO, C. S.		
trabalhoCompletoEmCongresso	2015		Análise da influência do processo de soldagem GTAW na microestrutura e resistência a corrosão do aço superduplex UNS S32760	CONGRESSO BRASILEIRO DE ENGENHARIA DE FABRICAÇÃO	SANTOS, R. O. ; ALMEIDA, M. R. S. ; COELHO, R. S. ; GUARIEIRO, L.L.N.		
trabalhoCompletoEmCongresso	2015		A Aplicação da Linguagem de Modelagem Unificada (U.M.L.): Novas Perspectivas para o Desenvolvimento de Games Educacionais	XI Seminário SJEEC Jogos Eletrônicos - Educação - Comunicação	SANTOS, W. S. ; ALVES, L. R. G.		
trabalhoCompletoEmCongresso	2015		O Ensino das Funções Quadráticas através da Interação com Jogos Digitais	XI SJEEC Seminário Jogos Eletrônicos - Educação - Comunicação	SANTOS, W. S. ; ALVES, L. R. G.		
trabalhoCompletoEmCongresso	2015		Correlação Cruzada da Dengue nos três biomas da Bahia	Congresso Latino Americano de Bioinformática - SOLABIMA 2015	SILVA FILHO, A. M. ; NASCIMENTO FILHO, Aloisio Santos ; Saba, H. ; Zebende, G. F. ; Moret, M.A.		
trabalhoCompletoEmCongresso	2015		Módulo cooperativo de defesa para um time de futebol de agentes humanoides autônomos	Escola Regional de Computação Bahia - Alagoas - Sergipe	SILVA, C. ; SOARES, A. ; ARGOLLO, E. ; SIMÕES, Marco Antonio Costa ; Diego Frias ; SOUZA, J. R.		
trabalhoCompletoEmCongresso	2015		UMA REVISÃO TEÓRICA A RESPEITO DA SELEÇÃO E GESTÃO DO RELACIONAMENTO COM FORNECEDORES	VWORKSHOPDEPESQUISATECNOLOGIAEINOVAÇÃO(PTI)	SILVA, M. V. L. ; Figueiredo, Paulo S.		
trabalhoCompletoEmCongresso	2015		Aplicação de um instrumento de avaliação de intenção empreendedora junto a estudantes universitários: Um estudo piloto	Workshop de Gestão	SILVA, R. A. ; PEREIRA-GUIZZO, C. S.		
trabalhoCompletoEmCongresso	2015		Superkick: uma vantagem competitiva para times de robôs bípedes jogadores de futebol	Escola Regional de Computação Bahia - Alagoas - Sergipe	SOUZA S. ; SILVA, C. ; REIS, C. E. ; SIMÕES, Marco Antonio Costa ; Diego Frias ; SOUZA, J. R.		
trabalhoCompletoEmCongresso	2015		BahiaRT@Home 2015 Team Description Paper	RoboCup 2015	SOUZA, J. R.; SILVA, A. D. G. ; Fagner de A. M. Pimentel ; SAPUCAIA, F. ; LARANJEIRA, C. ; JESUS, L. S. ; SIMÕES, Marco Antonio Costa ; Diego Frias		
trabalhoCompletoEmCongresso	2015		Uma nova proposta para análise da estabilidade no processo de combustão usando a distância de Hamming	V workshop de pesquisa tecnologia e inovação (PTI) e I simpósio internacional de inovação e tecnologia (SIINTEC)	SOUZA, J. W. G. ; PEREIRA, H. B. B. ; SANTOS, Alex A.B. ; SENNA, V. ; GONCALVES, M. A. M. S.		
trabalhoCompletoEmCongresso	2015		Desenvolvimento de um Método de Otimização dos Processos de Comercialização de Gás Natural	Workshop de Gestão	TEIXEIRA, J. P. B. ; GUARIEIRO, L.L.N.		
trabalhoCompletoEmCongresso	2015		Árvore de classificação para análise de risco de violência em eventos futebolísticos de Salvador	XLVII Simpósio Brasileiro de Pesquisa Operacional	UBIRATAN, A. ; PEREIRA-GUIZZO, C. S. ; SENNA, V.		
trabalhoCompletoEmCongresso	2015		Ensino de História e Videogame: Problematizando a Avaliação de Jogos Baseados em Representações do Passado	XI Seminário SJEEC Jogos Eletrônicos - Educação - Comunicação	Viana, Helyom ; ALVES, L. R. G.		
trabalhoCompletoEmCongresso	2015		Teste de um sensor para monitoramento do revestimento epóxi dopado com corante fluorescente, aplicável em dutos de produção de óleo e componentes de pipeline	V Workshop de Pesquisa	VIANNA, A. L. R. ; Silva, Valeria L. ; PEPE, I. M.		
trabalhoCompletoEmCongresso	2015		Perspectivas para produção de etanol de segunda geração utilizando da fibra de coco verde	V Workshop de Pesquisa	VIEIRA, E. D. ; RAMALHO, J. J. A. ; GUARIEIRO, L.L.N.		
trabalhoCompletoEmCongresso	2015		Prospecção de publicações em base de dados sobre emissão de hpa oriundos da queima de diesel e biodiesel	V Workshop de Pesquisa	VIEIRA, R. P. ; GUARIEIRO, L.L.N.		
trabalhoCompletoEmCongresso	2015		REVISÃO SOBRE VISUALIZACÃO DE REDES SOCIAIS E COMPLEXAS	XVIII Encontro Nacional de Modelagem Computacional e o VI Encontro de Ciência e Tecnologia de Materiais	VILAS BOAS, R. P. ; CAJAHYBA, T. S. A ; MONTEIRO, R. L. S. ; PEREIRA, H. B. B.		
trabalhoCompletoEmCongresso	2015		Ensino de Equações Diferenciais Ordinárias Baseado no Método PBL Project/Problem-Based Learing), Integrado a Modelagem Computacional com a Simulação	V WORKSHOP DE PESQUISA TECNOLOGIA E INOVAÇÃO (PTI)	XAVIER, P. H. ; SAMPAIO, R. R.		
resumoExpandidoEmCongresso	2015	ESTUDO DAS PRATICAS DE GESTAO DE PATRIMONIO EM INSTITUICOES DE ENSINO NA CIDADE DE MACEIO E PROPOSTA DE NOVO MODELO DE GERENCIAMENTO	II Workshop de Gestão, Tecnologia Industrial e Modelagem Computacional, 2015, Salvador. anais do II Workshop de Gestão, Tecnologia Industrial e Modelagem Computacional	ADAGNON, J. ; Figueiredo, Paulo S.		
resumoExpandidoEmCongresso	2015	Sistemas Cognitivos e a construção de competências do trabalhador na Indústria Química	II Workshop de Gestão, Tecnologia Industrial e Modelagem Computacional, 2015, Salvador. Anais do II Workshop de Gestão, Tecnologia Industrial e Modelagem Computacional	ARAGAO, R. N. ; Figueiredo, Paulo S.		
resumoExpandidoEmCongresso	2015	GESTÃO DE PESSOAS PARA A CRIATIVIDADE E INOVAÇÃO ORGANIZACIONAL	II Workshop de Gestão, Tecnologia Industrial e Modelagem Computacional, 2015, Salvador. Anais do II Workshop de Gestão, Tecnologia Industrial e Modelagem Computacional	FELIX, N. ; Figueiredo, Paulo S.		
resumoExpandidoEmCongresso	2015	Modelagem de preços da indústria do petróleo no mercado financeiro internacional	I Workshop Anual de Avaliação dos PRH ANP/MCTI: PRH49, PRH52, PRH55, 2015, Salvador. I Workshop Anual de Avaliação dos PRH ANP/MCTI: PRH49, PRH52, PRH55	NASCIMENTO FILHO, Aloisio Santos ; Moret, M.A.		
resumoExpandidoEmCongresso	2015	Fatores do ambiente de trabalho dos grupos e a criatividade nas organizações	II Workshop de Gestão, Tecnologia Industrial e Modelagem Computacional, 2015, Salvador. Anais do II Workshop de Gestão, Tecnologia Industrial e Modelagem Computacional	RAMOS, M. ; Figueiredo, Paulo S.		
resumoExpandidoEmCongresso	2015	Um método para analisar a produção intelectual: redes de coautores e de títulos de artigos na saúde coletiva	11º Congresso Brasileiro de Saúde Coletiva, 2015, Goiânia. Anais do 11º Congresso Brasileiro de Saúde Coletiva	RODRIGUES, A. A. A. O. ; SOUZA, Eliane Santos ; FADIGAS, Inácio de Sousa ; ROSA, M. G. ; FERREIRA, A. P. C. ; PEREIRA, H. B. B.		
resumoExpandidoEmCongresso	2015	Análise do fluxo de informação e difusão do conhecimento na interação ensino-serviço: o PET Saúde, seus limites e desafios	11º Congresso Brasileiro de Saúde Coletiva, 2015, Goiânia. Anais do 11º Congresso Brasileiro de Saúde Coletiva	RODRIGUES, A. A. A. O. ; SOUZA, Eliane Santos ; PEREIRA, H. B. B.		
resumoExpandidoEmCongresso	2015	Autocorrelação das séries temporais de violência na infância e adolescência em Feira de Santana	IX congresso latinoamericano de biomatemática, 2015, Botucatu. IX congresso latinoamericano de biomatemática	SILVA FILHO, A. M. ; AMARAL, M. ; ZEBENDE, G. F. ; OLIVEIRA, J. ; COSTA, C.		
