
PB0:2015,18;
PB1:2015,3;
PB2:2015,19;
PB3:*itens sem ano,1;
PB4:2015,72;
PB5:2015,8;
PB6:2015,27;
PB8:2015,17;
PB9:2015,1;
PT3:2015,2;
PT4:2015,12;
PT5:2015,5;
OA0:2015,1;2016,2;2017,1;
OA1:2011,4;2012,2;2013,8;2014,14;2015,14;2016,8;2017,8;
OA2:2011,3;2013,2;2015,9;2016,20;2017,11;
OA5:2013,1;2015,1;2017,17;
OA6:2015,1;
OC0:2015,3;
OC1:2015,6;
OC2:2015,21;
OC3:2015,4;
OC4:2015,6;
OC5:2015,4;
OC6:2015,1;
Pm:2015,5;
Pj:1995,2;2007,7;2008,1;2009,3;2010,2;2011,4;2012,7;2013,5;2014,11;2015,10;
PB:*itens sem ano,1;2015,165;
PT:2015,19;
OA:2011,7;2012,2;2013,11;2014,14;2015,26;2016,30;2017,37;
OC:2015,45;
Ep:2015,43;
Eo:2015,7;