strict graph grafo1 {
	graph [bb="0,0,2471,71",
		id=grafo1,
		overlap=False
	];
	node [fontsize=8,
		label="\N",
		shape=rectangle,
		style=filled
	];
	0	 [URL="http://lattes.cnpq.br/6280703103205032",
		color="#17272B",
		fontcolor="#FFFFFF",
		height=0.23611,
		label="Elidia Maria Guerra [2]",
		pos="50,62.5",
		width=1.2778];
	2	 [URL="http://lattes.cnpq.br/6247805873454988",
		color="#17272B",
		fontcolor="#FFFFFF",
		height=0.23611,
		label="Dane Tadeu Cestarolli [2]",
		pos="50,8.5",
		width=1.3889];
	0 -- 2	 [pos="50,53.827 50,43.996 50,27.051 50,17.204"];
	1	 [URL="http://lattes.cnpq.br/1882302261569108",
		color="#17272B",
		fontcolor="#FFFFFF",
		height=0.23611,
		label="Daniela Leite Fabrino [0]",
		pos="163,62.5",
		width=1.3611];
	3	 [URL="http://lattes.cnpq.br/5561482457720983",
		color="#17272B",
		fontcolor="#FFFFFF",
		height=0.23611,
		label="Renata C. Zanetti Lofrano [1]",
		pos="286,62.5",
		width=1.5556];
	21	 [URL="http://lattes.cnpq.br/7513217329977595",
		color="#17272B",
		fontcolor="#FFFFFF",
		height=0.23611,
		label="Heraldo Nunes Pitanga [1]",
		pos="286,8.5",
		width=1.4167];
	3 -- 21	 [pos="286,53.827 286,43.996 286,27.051 286,17.204"];
	4	 [URL="http://lattes.cnpq.br/9089252583772519",
		color="#17272B",
		fontcolor="#FFFFFF",
		height=0.23611,
		label="Ana M. D. C. de Miranda Oliveira [0]",
		pos="429,62.5",
		width=1.9167];
	5	 [URL="http://lattes.cnpq.br/9892291082782946",
		color="#17272B",
		fontcolor="#FFFFFF",
		height=0.23611,
		label="Ana C. Bernardes Silva [0]",
		pos="568,62.5",
		width=1.4306];
	6	 [URL="http://lattes.cnpq.br/4448350387455509",
		color="#17272B",
		fontcolor="#FFFFFF",
		height=0.23611,
		label="Andre L. Barroso de Magalhaes [0]",
		pos="703,62.5",
		width=1.8056];
	7	 [URL="http://lattes.cnpq.br/4505221784644374",
		color="#17272B",
		fontcolor="#FFFFFF",
		height=0.23611,
		label="Telde Natel Custódio [0]",
		pos="834,62.5",
		width=1.3333];
	8	 [URL="http://lattes.cnpq.br/5854072268825877",
		color="#17272B",
		fontcolor="#FFFFFF",
		height=0.23611,
		label="Bruno Meireles Xavier [0]",
		pos="951,62.5",
		width=1.4167];
	9	 [URL="http://lattes.cnpq.br/7204534064025448",
		color="#17272B",
		fontcolor="#FFFFFF",
		height=0.23611,
		label="Boutros Sarrouh [0]",
		pos="1060,62.5",
		width=1.1111];
	10	 [URL="http://lattes.cnpq.br/1697965677198993",
		color="#17272B",
		fontcolor="#FFFFFF",
		height=0.23611,
		label="Antonio Helvecio Totola [1]",
		pos="1172,62.5",
		width=1.5];
	17	 [URL="http://lattes.cnpq.br/7999741482353508",
		color="#17272B",
		fontcolor="#FFFFFF",
		height=0.23611,
		label="Marcel Otavio Cerri [1]",
		pos="1172,8.5",
		width=1.2917];
	10 -- 17	 [pos="1172,53.827 1172,43.996 1172,27.051 1172,17.204"];
	11	 [URL="http://lattes.cnpq.br/1288764472574843",
		color="#17272B",
		fontcolor="#FFFFFF",
		height=0.23611,
		label="Silvana de Queiroz Silva [0]",
		pos="1298,62.5",
		width=1.5];
	12	 [URL="http://lattes.cnpq.br/8339793010218033",
		color="#17272B",
		fontcolor="#FFFFFF",
		height=0.23611,
		label="Sandra de Cassia Dias [0]",
		pos="1420,62.5",
		width=1.375];
	13	 [URL="http://lattes.cnpq.br/6615103620821876",
		color="#17272B",
		fontcolor="#FFFFFF",
		height=0.23611,
		label="Rogério Antonio Picoli [0]",
		pos="1539,62.5",
		width=1.4167];
	14	 [URL="http://lattes.cnpq.br/1409264122407992",
		color="#17272B",
		fontcolor="#FFFFFF",
		height=0.23611,
		label="André Aguiar Mendes [0]",
		pos="1658,62.5",
		width=1.375];
	15	 [URL="http://lattes.cnpq.br/0381402687491195",
		color="#17272B",
		fontcolor="#FFFFFF",
		height=0.23611,
		label="Marcelo P. de Arruda Ribeiro [0]",
		pos="1787,62.5",
		width=1.7083];
	16	 [URL="http://lattes.cnpq.br/9739061759678313",
		color="#17272B",
		fontcolor="#FFFFFF",
		height=0.23611,
		label="Marcelo Batista da Silva [0]",
		pos="1920,62.5",
		width=1.4861];
	18	 [URL="http://lattes.cnpq.br/4199377950118224",
		color="#17272B",
		fontcolor="#FFFFFF",
		height=0.23611,
		label="Luiz G. Martins da Silva [0]",
		pos="2045,62.5",
		width=1.4861];
	19	 [URL="http://lattes.cnpq.br/5009735328331739",
		color="#17272B",
		fontcolor="#FFFFFF",
		height=0.23611,
		label="Juliano Lemos Bicas [0]",
		pos="2164,62.5",
		width=1.3056];
	20	 [URL="http://lattes.cnpq.br/3756997395982734",
		color="#17272B",
		fontcolor="#FFFFFF",
		height=0.23611,
		label="José Carlos de Magalhães [0]",
		pos="2285,62.5",
		width=1.5417];
	22	 [URL="http://lattes.cnpq.br/1123705010561141",
		color="#17272B",
		fontcolor="#FFFFFF",
		height=0.23611,
		label="Ênio N. de Oliveira Júnior [0]",
		pos="2415,62.5",
		width=1.5556];
}
