strict graph grafo1 {
	graph [bb="0,0,976.97,287",
		id=grafo1,
		overlap=False
	];
	node [fontsize=8,
		label="\N",
		shape=rectangle,
		style=filled
	];
	0	 [URL="http://lattes.cnpq.br/0969715025616160",
		color="#17272B",
		fontcolor="#FFFFFF",
		height=0.23611,
		label="Virginia Cielo Rech [7]",
		pos="192.97,278.5",
		width=1.2778];
	4	 [URL="http://lattes.cnpq.br/0953074420467371",
		color="#17272B",
		fontcolor="#FFFFFF",
		height=0.23611,
		label="Rodrigo de Almeida Vaucher [14]",
		pos="238.97,224.5",
		width=1.75];
	0 -- 4	 [pos="199.76,269.83 208.46,260 223.45,243.05 232.16,233.2"];
	5	 [URL="http://lattes.cnpq.br/9176719594431835",
		color="#17272B",
		fontcolor="#FFFFFF",
		height=0.23611,
		label="Roberto C. Vianna Santos [19]",
		pos="271.97,170.5",
		width=1.5972];
	0 -- 5	 [pos="224.93,269.94 256.3,261.8 300.87,248.05 310.97,233.5 324.25,214.39 298.62,190.92 282.92,179.09"];
	6	 [URL="http://lattes.cnpq.br/9315943331569148",
		color="#17272B",
		fontcolor="#FFFFFF",
		height=0.23611,
		label="Renata Platcheck Raffin [12]",
		pos="346.97,116.5",
		width=1.5139];
	0 -- 6	 [pos="239.08,271.21 267.09,265.4 302.11,254.34 326.97,233.5 353.41,211.34 359.45,195.82 355.97,161.5 354.67,148.62 351.27,133.94 349.05,\
125.22"];
	15	 [URL="http://lattes.cnpq.br/3420684025232526",
		color="#17272B",
		fontcolor="#FFFFFF",
		height=0.23611,
		label="Cristiane Luchese [5]",
		pos="185.97,116.5",
		width=1.1806];
	0 -- 15	 [pos="186.8,269.97 180.4,261.65 170.81,247.54 166.97,233.5 156.05,193.54 174.4,144.01 182.46,125.22"];
	17	 [URL="http://lattes.cnpq.br/3376750892363066",
		color="#17272B",
		fontcolor="#FFFFFF",
		height=0.23611,
		label="Carina Rodrigues Boeck [2]",
		pos="66.971,224.5",
		width=1.4722];
	0 -- 17	 [pos="174.65,269.94 150.76,260.08 109.22,242.93 85.315,233.07"];
	19	 [URL="http://lattes.cnpq.br/7478810804464054",
		color="#17272B",
		fontcolor="#FFFFFF",
		height=0.23611,
		label="Aline Ferreira Ourique [13]",
		pos="263.97,62.5",
		width=1.4583];
	0 -- 19	 [pos="146.91,273.2 97.067,267.47 22.362,255.43 4.9707,233.5 0,227.23 1.8922,222.88 4.9707,215.5 31.214,152.55 55.236,142.16 113.97,107.5 \
145.88,88.675 186.41,77.416 217.29,71.006"];
	4 -- 5	 [pos="243.84,215.83 250.08,206 260.84,189.05 267.09,179.2"];
	4 -- 6	 [pos="277.57,215.89 298.69,209.69 323.44,198.69 337.97,179.5 350.19,163.37 349.41,137.95 348.06,125.25"];
	4 -- 15	 [pos="231.78,215.98 224.16,207.66 212.25,193.56 204.97,179.5 195.45,161.1 189.8,137.12 187.38,125.09"];
	5 -- 6	 [pos="283.04,161.83 297.22,152 321.66,135.05 335.86,125.2"];
	5 -- 15	 [pos="259.29,161.83 242.93,151.94 214.68,134.86 198.44,125.04"];
	5 -- 19	 [pos="271.4,161.88 269.92,142.32 266.02,90.536 264.55,71.054"];
	6 -- 19	 [pos="334.73,107.83 318.95,97.939 291.68,80.856 276,71.035"];
	13	 [URL="http://lattes.cnpq.br/7506509328482102",
		color="#17272B",
		fontcolor="#FFFFFF",
		height=0.23611,
		label="Luis O. de Sousa Bulhões [2]",
		pos="459.97,62.5",
		width=1.5417];
	6 -- 13	 [pos="363.65,107.83 385.14,97.939 422.26,80.856 443.6,71.035"];
	17 -- 19	 [pos="69.303,215.73 75.913,195.03 96.741,138.02 133.97,107.5 157.47,88.24 189.81,77.25 216.35,71.071"];
	1	 [URL="http://lattes.cnpq.br/5753973080634017",
		color="#17272B",
		fontcolor="#FFFFFF",
		height=0.23611,
		label="Solange Cristina da Silva [0]",
		pos="311.97,278.5",
		width=1.5139];
	2	 [URL="http://lattes.cnpq.br/8537174715205717",
		color="#17272B",
		fontcolor="#FFFFFF",
		height=0.23611,
		label="Solange Binotto Fagan [18]",
		pos="587.97,170.5",
		width=1.4583];
	2 -- 6	 [pos="553.19,161.99 507.44,152.12 427.5,134.87 381.75,125"];
	2 -- 19	 [pos="567.24,161.96 534.14,149.99 467.24,126.09 409.97,107.5 368.3,93.97 319.49,79.544 290.19,71.036"];
	2 -- 13	 [pos="556.14,161.95 534.58,155.43 506.71,144.05 487.97,125.5 472.37,110.04 464.66,84.317 461.61,71.404"];
	3	 [URL="http://lattes.cnpq.br/7784609477475171",
		color="#17272B",
		fontcolor="#FFFFFF",
		height=0.23611,
		label="Sergio Roberto Mortari [3]",
		pos="547.97,116.5",
		width=1.4306];
	2 -- 3	 [pos="582.07,161.83 574.51,152 561.48,135.05 553.9,125.2"];
	8	 [URL="http://lattes.cnpq.br/2289911377012512",
		color="#17272B",
		fontcolor="#FFFFFF",
		height=0.23611,
		label="Jussane Rossato [2]",
		pos="845.97,116.5",
		width=1.1111];
	2 -- 8	 [pos="625.21,161.99 674.2,152.12 759.77,134.87 808.75,125"];
	9	 [URL="http://lattes.cnpq.br/7107334055877180",
		color="#17272B",
		fontcolor="#FFFFFF",
		height=0.23611,
		label="Ivana Zanella da Silva [10]",
		pos="585.97,62.5",
		width=1.4444];
	2 -- 9	 [pos="593.21,161.98 600.6,150.42 612.7,127.53 607.97,107.5 604.76,93.868 596.63,79.645 591.21,71.182"];
	11	 [URL="http://lattes.cnpq.br/4461596175399704",
		color="#17272B",
		fontcolor="#FFFFFF",
		height=0.23611,
		label="Eder Maiquel Simão [1]",
		pos="740.97,116.5",
		width=1.3056];
	2 -- 11	 [pos="610.22,161.94 639.23,152.08 689.68,134.93 718.7,125.07"];
	16	 [URL="http://lattes.cnpq.br/8097034095042937",
		color="#17272B",
		fontcolor="#FFFFFF",
		height=0.23611,
		label="Cláudia Lange dos Santos [2]",
		pos="665.97,8.5",
		width=1.5417];
	2 -- 16	 [pos="594.81,161.78 602.11,153.28 613.76,139.03 621.97,125.5 644.78,87.943 659.18,36.581 664.09,17.265"];
	3 -- 13	 [pos="534.99,107.83 518.26,97.939 489.35,80.856 472.73,71.035"];
	3 -- 9	 [pos="553.58,107.83 560.77,97.996 573.15,81.051 580.34,71.204"];
	8 -- 9	 [pos="808.45,107.99 759.09,98.122 672.85,80.874 623.49,71.003"];
	8 -- 16	 [pos="833.03,107.88 799.82,88.319 711.88,36.536 678.8,17.054"];
	9 -- 16	 [pos="597.78,53.827 612.99,43.939 639.27,26.856 654.38,17.035"];
	7	 [URL="http://lattes.cnpq.br/9578592161597332",
		color="#17272B",
		fontcolor="#FFFFFF",
		height=0.23611,
		label="Patrícia Gomes [0]",
		pos="422.97,278.5",
		width=1.0694];
	10	 [URL="http://lattes.cnpq.br/0865997296771785",
		color="#17272B",
		fontcolor="#FFFFFF",
		height=0.23611,
		label="Giovani Rubert Librelotto [0]",
		pos="534.97,278.5",
		width=1.5417];
	12	 [URL="http://lattes.cnpq.br/8515173425020878",
		color="#17272B",
		fontcolor="#FFFFFF",
		height=0.23611,
		label="Luiz C. Rodrigues Junior [0]",
		pos="662.97,278.5",
		width=1.5139];
	14	 [URL="http://lattes.cnpq.br/0573570242395130",
		color="#17272B",
		fontcolor="#FFFFFF",
		height=0.23611,
		label="Liana da Silva Fernandes [0]",
		pos="789.97,278.5",
		width=1.5139];
	18	 [URL="http://lattes.cnpq.br/1692497062116657",
		color="#17272B",
		fontcolor="#FFFFFF",
		height=0.23611,
		label="Antonio G. de Souza Filho [0]",
		pos="919.97,278.5",
		width=1.5833];
}
