artigoEmPeriodico	Virginia Cielo Rech	2016	http://dx.doi.org/10.1007/s00580-015-2154-4	Combination of diminazene aceturate and resveratrol reduces the toxic effects of chemotherapy in treating Trypanosoma evansi infection	Comparative Clinical Pathology (Print)	BALDISSERA, MATHEUS D. ; BOTTARI, NATHIELI B. ; RECH, V. C. ; NISHIHIRA, VIVIAN S. K. ; OLIVEIRA, CAMILA B. ; CARGNIN, LARA P. ; MORESCO, R. N. ; THOMÉ, GUSTAVO R. ; SCHETINGER, MARIA ROSA C. ; MORSCH, VERA M. ; MONTEIRO, SILVIA G. ; TONIN, ALEXANDRE A. ; DA SILVA, ALEKSANDRO S.	B3	
artigoEmPeriodico	Virginia Cielo Rech	2016		Meloxicam-loaded nanocapsules as an alternative to improve memory decline in an Alzheimer's disease model in mice: Involvement of Na+, K+-ATPase	Metabolic Brain Disease	IANISKI, F. R. ; ALVES, C. B. ; FERREIRA, C. F. ; RECH, V. C. ; SAVEGNAGO, L. ; WILHELM, E. A. ; LUCHESE, C.	B1	
artigoEmPeriodico	Virginia Cielo Rech	2016	http://dx.doi.org/10.1590/0001-3765201620150776	Amyloid-β peptide absence in short term effects on kinase activity of energy metabolism in mice hippocampus and cerebral cortex	Anais da Academia Brasileira de Ciências (Impresso)	IANISKI, FRANCINE R. ; RECH, VIRGINIA C. ; NISHIHIRA, V. S. K. ; ALVES, C. B. ; BALDISSERA, MATHEUS D. ; LUCHESE, C.	A1	
artigoEmPeriodico	Virginia Cielo Rech	2016		ESTABILIDADE E ATIVIDADE ANTIFÚNGICA DE NANOEMULSÃO CONTENDO ÓLEO DE GERÂNIO INCORPORADA EM HIDROGEL	Disciplinarum Scientia. Série Ciências Naturais e Tecnológicas	PATIAS, I. S. ; FAUSTO, V. P. ; HOMRICH, S. S. ; VAUCHER, RODRIGO A. ; RECH, V. C. ; GIONGO, J.	B3	
artigoEmPeriodico	Virginia Cielo Rech	2016	http://dx.doi.org/10.1016/j.micpath.2016.04.002	Synergistic effects of resveratrol (free and inclusion complex) and sulfamethoxazole-trimetropim treatment on pathology, oxidant/antioxidant status and behavior of mice infected with Toxoplasma gondii	Microbial Pathogenesis	BOTTARI, NATHIELI B. ; BALDISSERA, MATHEUS D. ; TONIN, A. ; RECH, VIRGINIA C. ; ALVES, C. B. ; DAVILA, F. ; THOME, G. R. ; GUARDA, N. S. ; MORESCO, R. N. ; CAMILLO, G. ; VOGEL, F. F. ; LUCHESE, C. ; SCHETINGER, MARIA ROSA C. ; MORSCH, VERA M. ; TOCHETTO, C. ; FIGHERA, R. ; NISHIHIRA, V. S. K. ; DA SILVA, A. S.	B1	
artigoEmPeriodico	Virginia Cielo Rech	2016	http://dx.doi.org/10.1016/j.exppara.2016.04.014	Toxoplasma gondii: Effects of diphenyl diselenide in experimental toxoplasmosis on biomarkers of cardiac function	Experimental Parasitology	MACHADO, VANESSA S. ; BOTTARI, NATHIELI B. ; BALDISSERA, MATHEUS D. ; ISABEL DE AZEVEDO, MARIA ; RECH, V. C. ; IANISKI, FRANCINE R. ; VAUCHER, RODRIGO A. ; MENDES, RICARDO E. ; CAMILLO, GIOVANA ; VOGEL, FERNANDA F. ; de La Rue, Mario L. ; CARMO, GUILHERME M. ; Tonin, Alexandre A. ; DA SILVA, A. S.	A2	
artigoEmPeriodico	Virginia Cielo Rech	2016		Diphenyl diselenide supplementation in infected mice by Toxoplasma gondii: protective effect on behavior, neuromodulation and oxidative stress caused by disease	Experimental Parasitology	MACHADO, V. ; BOTTARI, N. B. ; BALDISSERA, M. D. ; RECH, V. C. ; IANISKI, F. R. ; SIGNOR, C. ; RUBIM, M. ; WACZUK, E. ; SCHWERT, C. ; MENDES, R. E. ; CAMILLO, G. ; VOGEL, F. F. ; RUE, M. ; MORSCH, V. M. ; SCHETINGER, M. R. C. ; FRUHAUF, P. ; DA SILVA, A. S.	A2	
artigoEmPeriodico	Virginia Cielo Rech	2016		ANTIMICROBIAL PEPTIDE P34 INFLUENCES GENE EXPRESSION OF LISTERIA MONOCYTOGENES GROWING IN SOFT CHEESE	International Journal of Pharmacy and Pharmaceutical Sciences	VAUCHER, R. A. ; GIONGO, J. ; RECH, VIRGINIA C. ; SANTOS, R. C. V. ; LOPES, L. ; EBLING, M. ; BALDISSERA, M. D. ; SILVA, A. S. ; BRANDELLI, A.	B4	
artigoEmPeriodico	Virginia Cielo Rech	2016		DEVELOPMENT OF NANOEMULSION CONTAINING PELARGONIUM GRAVEOLENS OIL: CHARACTERIZATION AND STABILITY STUDY	International Journal of Pharmacy and Pharmaceutical Sciences	GIONGO, JANICE L. ; VAUCHER, RODRIGO A. ; OURIQUE, A. ; STEFFLER, M. S. ; FRIZZO, C. P. ; HENNEMMAN, B. ; LOPES, L. Q. S. ; SANTOS, R. C. V. ; RECH, VIRGINIA C. ; NISHIHIRA, V. S. K. ; RAFFIN, R. P. ; GOMES, P. ; STEPPE, M.	B4	
artigoEmPeriodico	Solange Binotto Fagan	2016	http://dx.doi.org/10.1166/jnd.2015.1075	Interaction of <i>α</i>-Tocopherol with <i>α</i>- and <i>β</i>-Cyclodextrins: A First-Principles Investigation	Journal of Nanopharmaceutics and Drug Delivery	FIGUEIREDO, J. ; SILVA, Leandro Barros da ; PONTES, R. B. ; FAGAN, SOLANGE B. ; Zanella da Silva,Ivana	Qualis nao identificado	Journal of Nanopharmaceutics and Drug Delivery
artigoEmPeriodico	Solange Binotto Fagan	2016	http://dx.doi.org/10.1016/j.comptc.2015.11.021	Adsorption of Acridine Orange and Methylene Blue Synthetic Dyes and Anthracene on Single Wall Carbon Nanotubes: a First Principle Approach	Computational and Theoretical Chemistry	JAURIS, I. ; FAGAN, S.B. ; ADEBAYO, M. A. ; MACHADO, Fernando Machado	Qualis nao identificado	Computational and Theoretical Chemistry
artigoEmPeriodico	Solange Binotto Fagan	2016	http://dx.doi.org/10.1039/C5CP05940B	Adsorption of sodium diclofenac on graphene: a combined experimental and theoretical study	PCCP. Physical Chemistry Chemical Physics (Print)	JAURIS, I. M. ; MATOS, C. F. ; SAUCIER, C. ; LIMA, E. C. ; ZARBIN, A. J. G. ; FAGAN, S. B. ; MACHADO, F. M. ; ZANELLA, I.	A1	
artigoEmPeriodico	Solange Binotto Fagan	2016		AS IMPLICAÇÕES DA EPISTEMOLOGIA DE POPPER NO ENSINO DE CIÊNCIAS	Vidya (Santa Maria. Online)	ELLWANGER, A. L. ; ALVES, M. A. ; FAGAN, SOLANGE B.	Qualis nao identificado	Vidya (Santa Maria. Online)
artigoEmPeriodico	Solange Binotto Fagan	2016	http://dx.doi.org/10.1021/acs.jpcc.6b03884	ADSORPTION OF ALIZARIN RED S DYE BY CARBON NANOTUBES: AN EXPERIMENTAL AND THEORETICAL INVESTIGATION	Journal of Physical Chemistry. C. (Online)	MACHADO MACHADO, FERNANDO ; AYYAPPAN, CARMALIN SOPHIA ; LIMA, EDER CLAUDIO ; DIAS, SILVIO LUIS PEREIRA ; PROLA, LIZIÊ DANIELA TENTLER ; SAUCIER, CAROLINE ; JAURIS, IURI MEDEIROS ; ZANELLA, Ivana ; FAGAN, SOLANGE BINOTTO	B1	
artigoEmPeriodico	Solange Binotto Fagan	2016		An Ab Initio Study of Carboxylated Graphene and Black- and Blue- Phosphorene	Disciplinarum Scientia. Série Ciências Naturais e Tecnológicas	TONEL, M. Z. ; LEDUR, C. ; LARA, IVI VALENTINI ; ZANELLA, Ivana ; FAGAN, SOLANGE B.	B3	
artigoEmPeriodico	Solange Binotto Fagan	2016		First Principles Simulations of Mangiferin Interacting with Beta-ciclodextrin	Disciplinarum Scientia. Série Ciências Naturais e Tecnológicas	VENDRAME, L. F. O. ; BONORINO, F. ; CARMO, G. ; MADALOSSO, R. ; RAFFIN, R. P. ; GOMES, P. ; FAGAN, SOLANGE B.	B3	
artigoEmPeriodico	Solange Binotto Fagan	2016		Resveratrol Adsorption on Carbon Nanotubes: a First Principles Study	Disciplinarum Scientia. Série Ciências Naturais e Tecnológicas	SCHARWZ, Stefanie Camile ; ROSSATO, J. ; SANTOS, C. L. ; ZANELLA, Ivana ; FAGAN, SOLANGE B.	B3	
artigoEmPeriodico	Solange Binotto Fagan	2016		Simulation Environment for Polymeric Nanoparticle: Experiment Database	Disciplinarum Scientia. Série Ciências Naturais e Tecnológicas	ZAMBERLAN, A. O. ; DALCIN, A. J. F. ; KURTZ, G. C. ; BORDINI, R. ; RAFFIN, R. P. ; FAGAN, SOLANGE B.	B3	
artigoEmPeriodico	Solange Binotto Fagan	2016		C61(COOH)2 Interacting with the Antiviral Ribavirin	Disciplinarum Scientia. Série Ciências Naturais e Tecnológicas	VENDRAME, L. F. O. ; FAGAN, SOLANGE B. ; ZANELLA, Ivana	B3	
artigoEmPeriodico	Solange Binotto Fagan	2016		Structural and Chemical Characterization of Ti-ZrO2-PO4-3 Protective Coating for Biomedical Applications	Disciplinarum Scientia. Série Ciências Naturais e Tecnológicas	SEVERO, V. ; PINHEIRO, L. D. S. M. ; VOLKMER, T. ; RAFFIN, R. P. ; FAGAN, SOLANGE BINOTTO ; BULHOES, L. O. S.	B3	
trabalhoCompletoEmCongresso	Solange Binotto Fagan	2016	http://dx.doi.org/10.1007/978-3-642-19792-5_2	NANOCIÊNCIA E NANOTENOLOGIA - A PRODUÇÃO CIENTIFICA E A PROPRIEDADE INTELECTUAL	XX Simpósio de Ensino	NORA, L. D. ; OURIQUE, A. F. ; RAFFIN, R. P. ; FAGAN, SOLANGE BINOTTO		
trabalhoCompletoEmCongresso	Solange Binotto Fagan	2016		Funcionalização de Fosforenos via Grupos Funcionais como Possibilidade de Aplicação em Sensores Biológicos	XX Simpósio de Ensino	LEDUR, C. ; LARA, IVI VALENTINI ; FAGAN, SOLANGE BINOTTO		
trabalhoCompletoEmCongresso	Solange Binotto Fagan	2016		Estudo Ab Initio da Adsorção do Benzenono Grafeno	XX Simpósio de Ensino	TONEL, M. Z. ; MORAES, E. ; BARBOSA, M. C. B. ; FAGAN, SOLANGE BINOTTO		
trabalhoCompletoEmCongresso	Solange Binotto Fagan	2016		Corantes Orgânicos interagindo com grafeno: um estudo ab initio	XX Simpósio de Ensino	CARGNELUTTI, J. ; FAGAN, SOLANGE BINOTTO		
trabalhoCompletoEmCongresso	Solange Binotto Fagan	2016		Estudo da Interação de Nanotubos de Carbono e os Isocianetos via Simulação Computacional	XX Simpósio de Ensino	OLIVEIRA, P. V. ; RHODEN, C. R. B. ; FAGAN, SOLANGE BINOTTO		
trabalhoCompletoEmCongresso	Solange Binotto Fagan	2016		Funcionalização de Nanotubos de Carbono com Elementos Fotosensores	XX Simpósio de Ensino	RHODEN, C. R. B. ; TONEL, M. Z. ; ZANELLA, Ivana ; FAGAN, SOLANGE BINOTTO ; MORTARI, S. R.		
artigoEmPeriodico	Sergio Roberto Mortari	2016		TiO2 Thin Films for Photocatalytic Oxidation of Pharmaceutical Compounds	Disciplinarum Scientia. Série Ciências Naturais e Tecnológicas	Andrade, C. T. ; MORTARI, S. R. ; BULHOES, L. O. S.	B3	
artigoEmPeriodico	Sergio Roberto Mortari	2016		Synthesis and Characterization of a Nanofilter whit Carbon Nanotubesfor the Removal of Water Contaminants	Disciplinarum Scientia. Série Ciências Naturais e Tecnológicas	NORA, R. D. ; DORFEY, D. ; MORTARI, S. R. ; MACHADO, F. M. ; VOLKMER, T. M. ; SWAROWSKY, Alexandre	B3	
trabalhoCompletoEmCongresso	Sergio Roberto Mortari	2016		Síntese de Análogos de Peptídeos Incorporados a Materiais Nanoparticulados de Carbono, Via Reação de UGI 4-Componentes	XX Simpósio de Ensino	RHODEN, C. B. ; FALCAO, M. M. ; SIQUEIRA, L. ; BULHOES, L. O. S. ; MORTARI, S. R.		
trabalhoCompletoEmCongresso	Sergio Roberto Mortari	2016		Funcionalização de Nanotubos de Carbono com Elementos Fotosensores	XX Simpósio de Ensino	RHODEN, C. R. B. ; TONEL, M. Z. ; ZANELLA, Ivana ; FAGAN, SOLANGE BINOTTO ; MORTARI, S. R.		
trabalhoCompletoEmCongresso	Sergio Roberto Mortari	2016		Síntese e Caracterização de Óxido de Grafeno	XX Simpósio de Ensino	LOPES, B. C. ; ENDERS, M. S. P. ; MILLER, E. I. ; MORTARI, S. R.		
trabalhoCompletoEmCongresso	Sergio Roberto Mortari	2016		Efeito da Adição de Nanopartículas no Módulo de Elasticidade Dinâmico em Nanocompósito de Cimento	XX Simpósio de Ensino	DUART, M. A. ; CARMO, P. I. O. ; RODRIGUES, O. E. D. ; MORTARI, S. R. ; PIZZOLATO, M.		
trabalhoCompletoEmCongresso	Sergio Roberto Mortari	0		R.. 		MORTARI, S		
resumoExpandidoEmCongresso	Sergio Roberto Mortari	2016	Produção e Modificação de Nanotubos de Carbono para Pré-Concentração de Metais em Amostras Ambientais	VI Salão de Iniciação Científica da UNIFRA, 2016, Santa Maria, RS. Anais do VI Salão de Iniciação Científica, Santa Maria - RS	BRESSA, N. R. ; CAMARGO, C. L. ; MORTARI, S. R.		
resumoExpandidoEmCongresso	Sergio Roberto Mortari	2016	Síntese e Caracterização de Óxidos Nanoestruturados para a Aplicação em Processos Químicos e Industriais	VI Salão de Iniciação Científica da UNIFRA, 2016, Santa Maria, RS. Anais do VI Salão de Iniciação Científica, Santa Maria, RS	LONDERO, L. F. ; MORTARI, S. R.		
artigoEmPeriodico	Rodrigo de Almeida Vaucher	2016		Interference of melanin in the susceptibility profile of Sporothrix species to amphotericin B	Revista Iberoamericana de Micología	MARIO, D. N. ; SANTOS, R. C. V. ; DENARDI, L. ; VAUCHER, Rodrigo de Almeida ; SANTURIO, J. ; ALVES, S. H.	B1	Revista Iberoamericana
artigoEmPeriodico	Rodrigo de Almeida Vaucher	2016		Melaleuca alternifolia essential oil against the Lesser mealworn (Alphitobius diaperinus) and its possible effect on the soil fauna.	Revista Brasileira de Ciência Avícola / Brazilian Journal of Poultry Science	VOLPATO, A. ; LORENZETTI, W. R. ; ZORTEA, T. ; GIOMBELLI, L. C. ; BARETTA, D. ; SANTOS, R. C. V. ; VAUCHER, Rodrigo de Almeida ; RAFFIN, R. P. ; SOUZA, M. E. ; STEFANI, L. M. ; BOLIGON, A. A. ; ATHAYDE, M. L. ; SILVA, A. S.	B1	
artigoEmPeriodico	Rodrigo de Almeida Vaucher	2016		Characterization and antifungal activity of the essential oil of Tagetes minuta front of the Cryptococcus spp. isolates from the environment.	International Journal of Pharmacy and Pharmaceutical Sciences	CUNHA, J. A. ; BOLZAN, L. P. ; FAUSTO, V. P. ; SCHEID, G. ; SCHEEREN, C. A. ; MADALOSSO, R. G. ; HEINZMANN, B. M. ; GIONGO, J. L. ; VAUCHER, Rodrigo de Almeida	B4	
artigoEmPeriodico	Rodrigo de Almeida Vaucher	2016		Imazapyr+imazapic herbicide determines acute toxicity in silver catfish Rhamdia quelen	Ecotoxicology and Environmental Safety	GOLOMBIESKI, J. I. ; SUTILI, F. J. ; SALBEGO, J. ; SEBEN, D. ; GRESSLER, L. T. ; CUNHA, J. A. ; GRESSLER, L. T. ; ZANELLA, R. ; VAUCHER, Rodrigo de Almeida ; MARCHESAN, E. ; BALDISSEROTTO, B.	A1	
artigoEmPeriodico	Rodrigo de Almeida Vaucher	2016		Effects of treatment with the anti-parasitic drug diminazene aceturate on antioxidant enzymes in rat liver and kidney	Naunyn-Schmiedeberg's Archives of Pharmacology	BALDISSERA, M. D. ; GONCALVES, R. A. ; SAGRILLO, M. R. ; GRANDO, T. H. ; RITTER, C. S. ; GROTTO, F. S. ; BRUM, G. F. ; LUZ, S. C. A. ; SILVEIRA, S. O. ; FAUSTO, V. P. ; BOLIGON, A. A. ; VAUCHER, Rodrigo de Almeida ; STEFANI, L. M. ; SILVA, A. S. ; SOUZA, C. F. ; MONTEIRO, S. G.	A2	
artigoEmPeriodico	Rodrigo de Almeida Vaucher	2016		Influence of Melaleuca alternifolia oil nanoparticles on aspects of Pseudomonas aerugionosa biofilm	Microbial Pathogenesis	COMIN, V. M. ; LOPES, L. Q. S. ; QUATRIN, P. M. ; SOUZA, M. E. ; BONEZ, P. C. ; PINTOS, F. G. ; RAFFIN, R. P. ; VAUCHER, Rodrigo de Almeida ; MARTINEZ, D. S. T. ; SANTOS, R. C. V.	B1	
artigoEmPeriodico	Rodrigo de Almeida Vaucher	2016		Estabilidade e atividade antifúngica de nanoemulsão contendo óleo de gerânio incorporada em hidrogel	Disciplinarum Scientia. Série Ciências Naturais e Tecnológicas	PATIAS, I. S. ; FAUSTO, V. P. ; HOMRICH, S. S. ; VAUCHER, Rodrigo de Almeida ; RECH, V. C. ; GIONGO, J. L.	B3	
artigoEmPeriodico	Rodrigo de Almeida Vaucher	2016	http://dx.doi.org/10.1016/j.exppara.2016.04.014	Toxoplasma gondii: Effects of diphenyl diselenide in experimental toxoplasmosis on biomarkers of cardiac function	Experimental Parasitology	MACHADO, VANESSA S. ; BOTTARI, NATHIELI B. ; BALDISSERA, MATHEUS D. ; ISABEL DE AZEVEDO, MARIA ; RECH, V. C. ; IANISKI, FRANCINE R. ; VAUCHER, RODRIGO A. ; MENDES, RICARDO E. ; CAMILLO, GIOVANA ; VOGEL, FERNANDA F. ; de La Rue, Mario L. ; CARMO, GUILHERME M. ; Tonin, Alexandre A. ; DA SILVA, A. S.	A2	
artigoEmPeriodico	Rodrigo de Almeida Vaucher	2016		Combination of the essential oil constituents α-pinene and β-caryophyllene as a potentiator of trypanocidal action on Trypanosoma evansi.	Journal of Applied Biomedicine	AMARAL, R. G ; BALDISSEIRA, M. D. ; GRANDO, T. H. ; COUTO, J. C. M. ; POSSER, C. ; RAMOS, A. P ; SAGRILLO, M. R. ; VAUCHER, Rodrigo de Almeida ; SILVA, A. S. ; BECKER, A. P. ; MONTEIRO, S. G.	B1	
artigoEmPeriodico	Rodrigo de Almeida Vaucher	2016		In vitro effect of seven essential oils on the reproduction of the cattle tick Rhipicephalus microplus	JOURNAL OF ADVANCED RESEARCH	PAZINATO, R. ; VOLPATO, A. ; BALDISSERA, M. D. ; SANTOS, R. C. ; BARETTA, D. ; VAUCHER, Rodrigo de Almeida ; GIONGO, J. L. ; BOLIGON, A. A. ; STEFANI, L. M. ; SILVA, A. S.	Qualis nao identificado	JOURNAL OF ADVANCED RESEARCH
artigoEmPeriodico	Rodrigo de Almeida Vaucher	2016		Evaluation of antimicrobial activity of glycerol monolaurate nanocapsules against American foulbrood disease agent and toxicity	Microbial Pathogenesis	LOPES, L. Q. S. ; SANTOS, C. G. ; VAUCHER, Rodrigo de Almeida ; RAFFIN, R. P. ; SANTOS, R. C. V.	B1	
artigoEmPeriodico	Rodrigo de Almeida Vaucher	2016	http://dx.doi.org/10.1016/j.micpath.2016.05.016	Nanocapsules with glycerol monolaurate: Effects on Candida albicans biofilms	Microbial Pathogenesis	LOPES, L. Q. S. ; GENRO, C. ; VAUCHER, Rodrigo de Almeida ; RAFFIN, R. P. ; SANTOS, R. C. V.	B1	
artigoEmPeriodico	Rodrigo de Almeida Vaucher	2016		Evaluation of tea tree oil for controlling Rhipicephalus microplus in dairy cows	Veterinary Parasitology (Print)	PAZINATO, J. ; SANTOS, R. C. V. ; VAUCHER, Rodrigo de Almeida ; RAFFIN, R. P. ; MACHADO, G. ; TONIN, A. A. ; SILVA, A. S.	A1	
artigoEmPeriodico	Rodrigo de Almeida Vaucher	2016		In vivo bactericidal effect of Melaleuca alternifolia essential oil against Aeromonas hydrophila: silver catfish (Rhamdia quelen) as an experimental mode	Microbial Pathogenesis	SOUZA, C. F. ; BALDISSERA, M. D. ; VAUCHER, Rodrigo de Almeida ; LOPES, L. S. ; VIZZOTTO, B. S. ; RAFFIN, R. P. ; SANTOS, R. C. V. ; VEIGA, M. L. ; ROCHA, M. I. U. M. ; STEFANI, L. M. ; BALDISSEROTTO, B.	B1	
artigoEmPeriodico	Rodrigo de Almeida Vaucher	2016		Antimicrobial peptide P34 influences gene expression of Listeria monocytogenes growing in soft cheese	International Journal of Pharmacy and Pharmaceutical Sciences	VAUCHER, Rodrigo de Almeida; GIONGO, J. L. ; RECH, V. C. ; SANTOS, R. C. V. ; LOPES, L. Q. S. ; SOUZA, M. E. ; BALDISSEIRA, M. D. ; SILVA, A. S. ; BRANDELLI, A.	B4	
artigoEmPeriodico	Rodrigo de Almeida Vaucher	2016		Melaleuca alternifolia anthelmintic activity in gerbils experimentally infected by Haemonchus contortus	Experimental Parasitology	GRANDO, T. H. ; BALDISSERA, M. D. ; GRESSLER, L. T. ; SA, M. F. ; BORTOLUZZI, B. N. ; SCHAFER, A. S. ; EBLING, R. C. ; RAFFIN, R. P. ; SANTOS, R. C. V. ; STEFANI, L. M. ; VAUCHER, Rodrigo de Almeida ; LEAL, M. R. ; MONTEIRO, S. G.	A2	
artigoEmPeriodico	Rodrigo de Almeida Vaucher	2016	http://dx.doi.org/10.1016/j.yrtph.2016.09.023.	Polymeric Nanocapsules as a Technological Alternative to Reduce the Toxicity caused by Meloxicam in Mice	REGULATORY TOXICOLOGY AND PHARMACOLOGY	VILLALBA, B. T. ; IANISKI, F. R. ; VOGT, A. G. ; PINZ, M. P. ; REIS, A. S. ; VAUCHER, Rodrigo de Almeida ; SOARES, M. P. ; WILHELM, E. A. ; LUCHESE, C.	B1	
artigoEmPeriodico	Rodrigo de Almeida Vaucher	2016		Novel Ibuprofenate- and Docusate-Based Ionic Liquids: Emergence of Antimicrobial Activity	RSC Advances	FRIZZO, C. P. ; WUST, K. ; TIER, A. Z. ; BECK, T. S. ; RODRIGUES, L. V. ; VAUCHER, Rodrigo de Almeida ; BOLZAN, L. P. ; TERRA, S. ; SOARES, F. ; MARTINS, M. A.	B2	
artigoEmPeriodico	Rodrigo de Almeida Vaucher	2016		RT-PCR quantification of periodontal pathogens in crack users and non-users	Oral Diseases	CASARIN, M. ; ANTONIAZZI, R. P. ; VAUCHER, Rodrigo de Almeida ; FELDENS, C. A. ; ZANATTA, F. B.	A2	
artigoEmPeriodico	Rodrigo de Almeida Vaucher	2016	http://dx.doi.org/10.1016/j.micpath.2016.12.006	Trypanocidal activity of the compounds present in Aniba canelilla oil against Trypanosoma evansi and its effects on viability of lymphocytes	Microbial Pathogenesis	GIONGO, JANICE L. ; VAUCHER, RODRIGO A. ; DA SILVA, ALEKSANDRO S. ; OLIVEIRA, CAMILA B. ; DE MATTOS, CRISTIANE B. ; BALDISSERA, MATHEUS D. ; SAGRILLO, MICHELE R. ; MONTEIRO, SILVIA G. ; CUSTÓDIO, DAYANA L. ; SOUZA DE MATOS, MARCIELLY ; SAMPAIO, PAULO T. ; TEIXEIRA, HELDER F. ; KOESTER, LETÍCIA S. ; DA VEIGA JUNIOR, VALDIR F.	B1	
artigoEmPeriodico	Rodrigo de Almeida Vaucher	2016		Anti-Candida activity assessment of Pelargonium graveolens oil free and nanoemulsion in biofilm formation in hospital medical supplies	Microbial Pathogenesis	GIONGO, J. L. ; VAUCHER, Rodrigo de Almeida ; FAUSTO, V. P. ; QUATRIN, P. M. ; LOPES, L. Q. S. ; SANTOS, R. C. V. ; GUNDEL, A. ; GOMES, P. ; STEPPE, M.	B1	
artigoEmPeriodico	Roberto Christ Vianna Santos	2016	http://dx.doi.org/10.1016/j.riam.2015.03.001	Interference of melanin in the susceptibility profile of Sporothrix species to amphotericin B	Revista Iberoamericana de Micología	Mário, Débora Nunes ; DENARDI, L. ; SANTURIO, J. M. ; Santos, Roberto Christ Vianna ; VAUCHER, R. A. ; ALVES, S. H.	B1	Revista Iberoamericana
artigoEmPeriodico	Roberto Christ Vianna Santos	2016	http://dx.doi.org/10.1016/j.ejps.2015.12.006	Evaluation of photodynamic activity, photostability and in vitro drug release of zinc phthalocyanine-loaded nanocapsules	European Journal of Pharmaceutical Sciences	DE SOUZA, THIANE DEPRÁ ; ZIEMBOWICZ, FRANCIELI ISA ; MÜLLER, DEBORA FRIEDRICH ; LAUERMANN, SÂMERA CRISTINA ; KLOSTER, CARMEN LUISA ; Santos, Roberto Christ Vianna ; Lopes, Leonardo Quintana Soares ; OURIQUE, ALINE FERREIRA ; MACHADO, GIOVANNA ; VILLETTI, MARCOS ANTONIO	A2	
artigoEmPeriodico	Roberto Christ Vianna Santos	2016		Interferência de solventes químicos na sobrevivência/mortalidade do nematóide Meloidogyne javanica	Cultivar Grandes Culturas	CUNHA, J. A. ; SCHEEREN, C. ; HEINZMANN, B. ; MADALOSSO, Rodrigo Gripa ; SANTOS, ROBERTO C. V. ; SANTOS, P. ; LOPES, A. ; MADALOSSO, M. G.	B4	
artigoEmPeriodico	Roberto Christ Vianna Santos	2016	http://dx.doi.org/10.1016/j.micpath.2016.01.019	Influence of Melaleuca alternifolia oil nanoparticles on aspects of Pseudomonas aerugionosa biofilm	Microbial Pathogenesis	COMIN, VANESSA M. ; LOPES, LEONARDO Q.S. ; QUATRIN, PRISCILLA M. ; DE SOUZA, MÁRCIA E. ; BONEZ, PAULINE C. ; PINTOS, FRANCIELI G. ; RAFFIN, RENATA P. ; VAUCHER, RODRIGO DE A. ; MARTINEZ, DIEGO S.T. ; Santos, Roberto C.V.	B1	
artigoEmPeriodico	Roberto Christ Vianna Santos	2016	http://dx.doi.org/10.1016/j.vetpar.2016.05.031	Evaluation of tea tree oil for controlling Rhipicephalus microplus in dairy cows	Veterinary Parasitology (Print)	PAZINATTO BOITO, JHONATAN ; SANTOS, ROBERTO C. ; VAUCHER, RODRIGO A. ; RAFFIN, RENATA ; MACHADO, GUSTAVO ; TONIN, ALEXANDRE A. ; DA SILVA, ALEKSANDRO S.	A1	
artigoEmPeriodico	Roberto Christ Vianna Santos	2016	http://dx.doi.org/10.1016/j.micpath.2016.07.007	Antibacterial, cyto and genotoxic activities of A22 compound ((S-3, 4 -dichlorobenzyl) isothiourea hydrochloride)	Microbial Pathogenesis	BONEZ, P.C. ; RAMOS, A.P. ; NASCIMENTO, K. ; COPETTI, P.M. ; SOUZA, M.E. ; ROSSI, G.G. ; AGERTT, V.A. ; SAGRILLO, M.R. ; SANTOS, R.C.V. ; CAMPOS, M.M.A.	B1	
artigoEmPeriodico	Roberto Christ Vianna Santos	2016	http://dx.doi.org/10.1016/j.micpath.2016.07.002	In vivo bactericidal effect of Melaleuca alternifolia essential oil against Aeromonas hydrophila: Silver catfish (Rhamdia quelen) as an experimental model	Microbial Pathogenesis	F. SOUZA, CARINE ; BALDISSERA, MATHEUS D. ; A. VAUCHER, RODRIGO ; LOPES, LEONARDO Q.S. ; VIZZOTTO, BRUNO S. ; RAFFIN, RENATA P. ; Santos, Roberto C.V. ; L. DA VEIGA, MARCELO ; U.M. DA ROCHA, MARIA IZABEL ; STEFANI, LENITA M. ; BALDISSEROTTO, BERNARDO	B1	
artigoEmPeriodico	Roberto Christ Vianna Santos	2016	http://dx.doi.org/10.1016/j.micpath.2016.05.014	Evaluation of antimicrobial activity of glycerol monolaurate nanocapsules against american foulbrood disease agent and toxicity on bees	Microbial Pathogenesis	LOPES, LEONARDO Q.S. ; SANTOS, CAYANE G. ; de Almeida Vaucher, Rodrigo ; GENDE, LIESEL ; RAFFIN, RENATA P. ; Santos, Roberto C.V.	B1	
artigoEmPeriodico	Roberto Christ Vianna Santos	2016	http://dx.doi.org/10.1016/j.micpath.2016.05.016	Nanocapsules with glycerol monolaurate: Effects on Candida albicans biofilms	Microbial Pathogenesis	Lopes, Leonardo Quintana Soares ; SANTOS, CAYANE GENRO ; VAUCHER, RODRIGO DE ALMEIDA ; RAFFIN, RENATA PLATCHECK ; Santos, Roberto Christ Vianna	B1	
artigoEmPeriodico	Roberto Christ Vianna Santos	2016	http://dx.doi.org/10.1016/j.micpath.2016.08.013	Anti-Candida activity assessment of Pelargonium graveolans oil free and nanoemulsion in biofilm formation in hospital medical supplies	Microbial Pathogenesis	GIONGO, J. L. ; VAUCHER, Rodrigo de Almeida ; FAUSTO, V. P. ; QUATRIN, P. M. ; LOPES, L. Q. S. ; SANTOS, R. C. V. ; GUNDEL, A. ; GOMES, P. ; STEPPE, M.	B1	
artigoEmPeriodico	Roberto Christ Vianna Santos	2016	http://dx.doi.org/10.1590/1807-2577.26515	Oxygen tension during biofilm growth influences the efficacy antimicrobial agents	Revista de Odontologia da UNESP (Online)	CASARIN, M. ; Alves, Camilla Filippi dos Santos ; ANTONIAZZI, R. P. ; SANTOS, ROBERTO C. ; ZANATTA, F. B.	B2	
artigoEmPeriodico	Roberto Christ Vianna Santos	2016	http://dx.doi.org/10.1016/j.exppara.2016.09.004	Melaleuca alternifolia anthelmintic activity in gerbils experimentally infected by Haemonchus contortus	Experimental Parasitology	GRANDO, T. H. ; BALDISSERA, M. D. ; GRESSLER, L. T. ; SA, M. F. ; BORTOLUZZI, B. N. ; SCHAFER, A. S. ; EBLING, R. C. ; RAFFIN, R. P. ; SANTOS, ROBERTO C. ; STEFANI, LENITA M. ; VAUCHER, R. A. ; LEAL, M. L. R. ; MONTEIRO, SILVIA G.	A2	
artigoEmPeriodico	Roberto Christ Vianna Santos	2016	http://dx.doi.org/10.1007/s11010-016-2840-9	Lymphocyte genotoxicity and protective effect of Calyptranthes tricona (Myrtaceae) against H2O2-induced cell death in MCF-7 cells	Molecular and Cellular Biochemistry	KICH, DÉBORA MARA ; Bitencourt, Shanna ; CAYE, BRUNA ; FALEIRO, DALANA ; ALVES, CELSO ; SILVA, JOANA ; PINTEUS, SUSETE ; MERGENER, MICHELLE ; MAJOLO, FERNANDA ; BOLIGON, ALINE AUGUSTI ; Santos, Roberto Christ Vianna ; PEDROSA, RUI ; DE SOUZA, CLAUCIA FERNANDA VOLKEN ; GOETTERT, MÁRCIA INÊS	A2	
artigoEmPeriodico	Roberto Christ Vianna Santos	2016	http://dx.doi.org/10.1016/j.aspen.2016.10.008	Larvicidal and insecticidal effect of Cinnamomum zeylanicum oil (pure and nanostructured) against mealworm (Alphitobius diaperinus) and its possible environmental effects	Journal of Asia Pacific Entomology	VOLPATO, ANDREIA ; BARETTA, DILMAR ; ZORTÉA, TALYTA ; CAMPIGOTTO, GABRIELA ; GALLI, GABRIELA M. ; GLOMBOWSKY, PATRICIA ; Santos, Roberto C.V. ; QUATRIN, PRISCILLA M. ; OURIQUE, ALINE F. ; BALDISSERA, MATHEUS D. ; STEFANI, LENITA M. ; DA SILVA, ALEKSANDRO S.	Qualis nao identificado	Journal of Asia Pacific Entomology
artigoEmPeriodico	Roberto Christ Vianna Santos	2016	http://dx.doi.org/10.22159/ijpps.2016v8i12.15108	DEVELOPMENT OF NANOEMULSION CONTAINING PELARGONIUM GRAVEOLENS OIL: CHARACTERIZATION AND STABILITY STUDY	International Journal of Pharmacy and Pharmaceutical Sciences	GIONGO, JANICE L. ; VAUCHER, RODRIGO A. ; OURIQUE, A. ; STEFFLER, M. S. ; FRIZZO, C. P. ; HENNEMMAN, B. ; LOPES, L. Q. S. ; SANTOS, R. C. V. ; RECH, VIRGINIA C. ; NISHIHIRA, V. S. K. ; RAFFIN, R. P. ; GOMES, P. ; STEPPE, M.	B4	
artigoEmPeriodico	Roberto Christ Vianna Santos	2016	http://dx.doi.org/10.1016/j.micpath.2016.11.008	Antimicrobial, antitrypanosomal and antibiofilm activity of Equisetum hyemale	Microbial Pathogenesis	ALVES, CAMILLA F. S. ; BONEZ, P. C. ; SOUZA, M. E. ; CRUZ, R. ; BOLIGON, ALINE A. ; PIANA, MARIANA ; BRUM, THIELE FACCIM ; ROSSI, G. G. ; JESUS, R. S. ; GRANDO, T. H. ; MONTEIRO, SILVIA G. ; CAMPUS, M. M. A. ; GIONGO, JANICE L. ; SANTOS, ROBERTO C. V.	B1	
artigoEmPeriodico	Roberto Christ Vianna Santos	2016	http://dx.doi.org/10.1016/j.jare.2016.05.003	In vitro effect of seven essential oils on the reproduction of the cattle tick Rhipicephalus microplus	Journal of Advanced Research	PAZINATO, RAFAEL ; VOLPATO, ANDRÉIA ; BALDISSERA, MATHEUS D. ; Santos, Roberto C.V. ; BARETTA, DILMAR ; VAUCHER, RODRIGO A. ; GIONGO, JANICE L. ; BOLIGON, ALINE A. ; STEFANI, LENITA MOURA ; DA SILVA, ALEKSANDRO SCHAFER	Qualis nao identificado	Journal of Advanced Research
artigoEmPeriodico	Roberto Christ Vianna Santos	2016	http://dx.doi.org/10.1007/s10753-016-0360-0	Fenton Reaction-Generated Advanced Oxidation Protein Products Induces Inflammation in Human Embryonic Kidney Cells	Inflammation	BOCHI, GUILHERME VARGAS ; TORBITZ, VANESSA DORNELES ; SANTOS, R. C. V. ; CUBILLOS-ROJAS, MONICA ; LÓPEZ, JOSÉ LUIS ROSA ; SIEBEL, ANNA MARIA ; GOMES, P. ; DE OLIVEIRA, JARBAS RODRIGUES ; MORESCO, Rafael Noal	B1	
artigoEmPeriodico	Roberto Christ Vianna Santos	2016	http://dx.doi.org/10.22159/ijpps.2017v9i1.15391	INFLUENCE OF PEPTIDE P34 ON GENE EXPRESSION OF LISTERIA MONOCYTOGENES AND LISTERIA SEELEGERI	International Journal of Pharmacy and Pharmaceutical Sciences	VAUCHER, R.A. ; GIONGO, J. L. ; ESTIVALES, M. ; RECH, V.C. ; NISHIHIRA, V.S.K. ; LUCHESE, C. ; WILHELM, E.A. ; DELAMÉA, M. ; LOPES, L.Q.S. ; SANTOS, R. C. V. ; BRANDELLI, A.	B4	
artigoEmPeriodico	Roberto Christ Vianna Santos	2016	http://dx.doi.org/10.22159/ijpps.2016v8i11.13234	ANTIMICROBIAL PEPTIDE P34 INFLUENCES GENE EXPRESSION OF LISTERIA MONOCYTOGENES GROWING IN SOFT CHEESE	INTERNATIONAL JOURNAL OF PHARMACY AND PHARMACEUTICAL SCIENCES	VAUCHER, Rodrigo de Almeida; GIONGO, J. L. ; RECH, V. C. ; SANTOS, R. C. V. ; LOPES, L. Q. S. ; SOUZA, M. E. ; BALDISSEIRA, M. D. ; SILVA, A. S. ; BRANDELLI, A.	B4	
trabalhoCompletoEmCongresso	Roberto Christ Vianna Santos	2016		Atividade antimicrobiana de nanopartículas de Capim limão	VI Salão de Iniciação Científica	GUNDEL, S. S. ; Santos, Roberto Christ ; SOUZA, M. E. ; QUATRIN, P. M. ; OURIQUE, A. F.		
trabalhoCompletoEmCongresso	Roberto Christ Vianna Santos	2016		Desenvolvimento, caracterização e avaliação da atividade antimicrobiana de nanoemulsões contendo óleo essencial de capim limão	XX Simpósio de Ensino	GUNDEL, S. S. ; Santos, Roberto Christ ; SOUZA, M. E. ; QUATRIN, PRISCILLA M. ; OURIQUE, A. F.		
trabalhoCompletoEmCongresso	Roberto Christ Vianna Santos	2016		Atividade antimicrobiana de nanoemulsões contendo óleo de Eucalipto globulus frente a Candida albicans	I CINA - Congresso Internacional sobre Nanotecnologia	GODOI, S. N. ; QUATRIN, P. M. ; SOUZA, M. E. ; OURIQUE, A. F. ; SANTOS, R.C.V.		
trabalhoCompletoEmCongresso	Roberto Christ Vianna Santos	2016		Efeito de Nanoemulsões contendo óleo de Eucalipto na peroxidação lipídica de células mononucleares	I CINA - Congresso Internacional sobre Nanotecnologia	GODOI, S. N. ; QUATRIN, P. M. ; SAGRILLO, M. R. ; SANTOS, R.C.V. ; OURIQUE, A. F.		
artigoEmPeriodico	Renata Platcheck Raffin	2016	http://dx.doi.org/10.1155/2016/7395896	Development and Physicochemical Characterization of Desonide-Loaded Nanocapsule Suspensions	Advances in Materials Science and Engineering (Print)	ANTONOW, M. B. ; Lorenzoni, R. ; BARBOSA, G. M. ; OURIQUE, A. F. ; Gomes, P. ; RAFFIN, R. P.	Qualis nao identificado	Advances in Materials Science and Engineering (Print)
artigoEmPeriodico	Renata Platcheck Raffin	2016	http://dx.doi.org/10.1016/j.micpath.2016.05.014	Evaluation of antimicrobial activity of glycerol monolaurate nanocapsules against american foulbrood disease agent and toxicity on bees	Microbial Pathogenesis	LOPES, LEONARDO Q.S. ; SANTOS, CAYANE G. ; de Almeida Vaucher, Rodrigo ; GENDE, LIESEL ; RAFFIN, RENATA P. ; Santos, Roberto C.V.	B1	
artigoEmPeriodico	Renata Platcheck Raffin	2016	http://dx.doi.org/10.1016/j.vetpar.2016.05.031	Evaluation of tea tree oil for controlling Rhipicephalus microplus in dairy cows	Veterinary Parasitology (Print)	PAZINATTO BOITO, JHONATAN ; SANTOS, ROBERTO C. ; VAUCHER, RODRIGO A. ; RAFFIN, RENATA ; MACHADO, GUSTAVO ; TONIN, ALEXANDRE A. ; DA SILVA, ALEKSANDRO S.	A1	
artigoEmPeriodico	Renata Platcheck Raffin	2016	http://dx.doi.org/10.1016/j.micpath.2016.01.019	Influence of Melaleuca alternifolia oil nanoparticles on aspects of Pseudomonas aerugionosa biofilm	Microbial Pathogenesis	COMIN, VANESSA M. ; LOPES, LEONARDO Q.S. ; QUATRIN, PRISCILLA M. ; DE SOUZA, MÁRCIA E. ; BONEZ, PAULINE C. ; PINTOS, FRANCIELI G. ; RAFFIN, RENATA P. ; VAUCHER, RODRIGO DE A. ; MARTINEZ, DIEGO S.T. ; Santos, Roberto C.V.	B1	
artigoEmPeriodico	Renata Platcheck Raffin	2016	http://dx.doi.org/10.1016/j.micpath.2016.07.002	In vivo bactericidal effect of Melaleuca alternifolia essential oil against Aeromonas hydrophila: Silver catfish (Rhamdia quelen) as an experimental model	Microbial Pathogenesis	F. SOUZA, CARINE ; BALDISSERA, MATHEUS D. ; A. VAUCHER, RODRIGO ; LOPES, LEONARDO Q.S. ; VIZZOTTO, BRUNO S. ; RAFFIN, RENATA P. ; Santos, Roberto C.V. ; L. DA VEIGA, MARCELO ; U.M. DA ROCHA, MARIA IZABEL ; STEFANI, LENITA M. ; BALDISSEROTTO, BERNARDO	B1	
artigoEmPeriodico	Renata Platcheck Raffin	2016		FIRST PRINCIPLES SIMULATIONS OF MANGIFERIN INTERACTING WITH BETA-CYCLODEXTRIN	Disciplinarum Scientia. Série Ciências Naturais e Tecnológicas	VENDRAME, L. ; BONORINO, F. ; CARMO, G. ; MADALOSSO, R. ; RAFFIN, R. P. ; GOMES, PATRICIA ; Fagan, Solange B.	B3	
artigoEmPeriodico	Renata Platcheck Raffin	2016		EVALUATION OF THE ANTIOXIDANT ACTIVITY BY THE DPPH RADICAL SCAVENGING METHOD OF FREE AND LIPOSOME-ASSOCIATED COCOA EXTRACTS	Disciplinarum Scientia. Série Ciências Naturais e Tecnológicas	NASCIMENTO, D. A. O. ; RAFFIN, R ; FOGACA, A. O. ; MORAES4, C. M. B. ; BOLIGON, A. A. ; OURIQUE, A. F.	B3	
artigoEmPeriodico	Renata Platcheck Raffin	2016		STRUCTURAL AND CHEMICAL CHARACTERIZATION OF Ti-ZrO2 -PO4 -3 PROTECTIVE COATINGS FOR BIOMEDICAL APPLICATIONS	Disciplinarum Scientia. Série Ciências Naturais e Tecnológicas	SEVERO, V. A. ; PINHEIRO, L. D. S. M. ; VOLKMER, T. M. ; RAFFIN, R. P. ; Fagan, Solange B. ; BULHOES, L. O. S.	B3	
artigoEmPeriodico	Renata Platcheck Raffin	2016		SIMULATION ENVIRONMENT FOR POLYMERIC NANOPARTICLE: EXPERIMENT DATABASE	Disciplinarum Scientia. Série Ciências Naturais e Tecnológicas	ZAMBERLAN, A. O. ; DALCIN, ANA JÚLIA FIGUEIRÓ ; KURTZ, G. C. ; BORDINI, R. H. ; RAFFIN, R. P. ; Fagan, Solange B.	B3	
artigoEmPeriodico	Renata Platcheck Raffin	2016	http://dx.doi.org/10.1016/j.exppara.2016.09.004	Melaleuca alternifolia anthelmintic activity in gerbils experimentally infected by Haemonchus contortus	Experimental Parasitology	GRANDO, T. H. ; BALDISSERA, M. D. ; GRESSLER, L. T. ; SA, M. F. ; BORTOLUZZI, B. N. ; SCHAFER, A. S. ; EBLING, R. C. ; RAFFIN, R. P. ; SANTOS, ROBERTO C. ; STEFANI, LENITA M. ; VAUCHER, R. A. ; LEAL, M. L. R. ; MONTEIRO, SILVIA G.	A2	
artigoEmPeriodico	Renata Platcheck Raffin	2016		Melaleuca alternifolia essential oil against the Lesser mealworn (Alphitobius diaperinus) and its possible effect on the soil fauna.	Revista Brasileira de Ciência Avícola / Brazilian Journal of Poultry Science	VOLPATO, A. ; LORENZETTI, W. R. ; ZORTEA, T. ; GIOMBELLI, L. C. ; BARETTA, D. ; SANTOS, R. C. V. ; VAUCHER, Rodrigo de Almeida ; RAFFIN, R. P. ; SOUZA, M. E. ; STEFANI, L. M. ; BOLIGON, A. A. ; ATHAYDE, M. L. ; SILVA, A. S.	B1	
artigoEmPeriodico	Renata Platcheck Raffin	2016	http://dx.doi.org/10.22159/ijpps.2016v8i12.15108	DEVELOPMENT OF NANOEMULSION CONTAINING PELARGONIUM GRAVEOLENS OIL: CHARACTERIZATION AND STABILITY STUDY	International Journal of Pharmacy and Pharmaceutical Sciences	GIONGO, JANICE L. ; VAUCHER, RODRIGO A. ; OURIQUE, A. ; STEFFLER, M. S. ; FRIZZO, C. P. ; HENNEMMAN, B. ; LOPES, L. Q. S. ; SANTOS, R. C. V. ; RECH, VIRGINIA C. ; NISHIHIRA, V. S. K. ; RAFFIN, R. P. ; GOMES, P. ; STEPPE, M.	B4	
artigoEmPeriodico	Renata Platcheck Raffin	2016		Derivative ultraviolet spectrophotometric method to determinate synephine in lipid nanocarrier	Disciplinarum Scientia. Série Ciências Naturais e Tecnológicas	BALDISSERA, D. B. ; ZIEGLER, S. ; STEFFLER, M. C. R. ; RAFFIN, R. P. ; ROGGIA, Isabel ; DALCIN, A. J. F. ; GOMES, P.	B3	
trabalhoCompletoEmCongresso	Renata Platcheck Raffin	2016		New delivery system for encapsulation of retinol	29th IFSCC Congress	FELIPPI, CANDICE CAROLINE ; RAFFIN, R. P.		
trabalhoCompletoEmCongresso	Renata Platcheck Raffin	2016		INNOVATIVE ENCAPSULATION SYSTEM FOR SKIN WHITENING	29th IFSCC Congress	RAFFIN, R; ZIEGLER, S. ; Kulkamp, I. C. ; JACOBUS, S. ; MORTARI, S. R. ; Felippi, C. C.		
artigoEmPeriodico	Jussane Rossato	2016		Resveratrol Adsorption on Carbon Nanotubes: A First Principles Study	Disciplinarum Scientia. Série Ciências Naturais e Tecnológicas	SCHARWZ, Stefanie Camile ; ROSSATO, J. ; SANTOS, C. L. ; ZANELLA, Ivana ; FAGAN, SOLANGE B.	B3	
trabalhoCompletoEmCongresso	Jussane Rossato	2016		Estudo computacional de nanotubos de carbono interagindo com 5-fluoruracil e epirrubicina	XX Simpósio de Ensino	PIVOTTO, R. ; GOULART, L. ; ROSSATO, J.		
trabalhoCompletoEmCongresso	Jussane Rossato	2016		Estudo de primeiros princípios da interação do clobazam e clonazepam com óxido de grafeno	XX Simpósio de Ensino	CASSOL, V. M. ; JUNGES, T. A. ; ROSSATO, J.		
trabalhoCompletoEmCongresso	Jussane Rossato	2016		Estudo teórico da interação do grafeno com o 5-fluoruoracil	XX Simpósio de Ensino	GOULART, L. ; PIVOTTO, R. ; ROSSATO, J.		
trabalhoCompletoEmCongresso	Jussane Rossato	2016		Simulação computacional do alprazolam com óxido de grafeno	VI Salão de Iniciação Científica	CASSOL, V. M. ; ROSSATO, J.		
trabalhoCompletoEmCongresso	Jussane Rossato	2016		Grafeno interagindo com quimioterápicos: um estudo ab initio	VI Salão de Iniciação Científica	PIVOTTO, R. ; GOULART, L. ; ROSSATO, J.		
artigoEmPeriodico	Ivana Zanella da Silva	2016	http://dx.doi.org/10.1166/jnd.2015.1075	Interaction of <I>α</I>-Tocopherol with <I>α</I>- and <I>β</I>-Cyclodextrins: A First-Principles Investigation	Journal of Nanopharmaceutics and Drug Delivery	FIGUEIREDO, J. ; SILVA, Leandro Barros da ; PONTES, R. B. ; FAGAN, SOLANGE B. ; Zanella da Silva,Ivana	Qualis nao identificado	Journal of Nanopharmaceutics and Drug Delivery
artigoEmPeriodico	Ivana Zanella da Silva	2016	http://dx.doi.org/10.1039/C5CP05940B	Adsorption of sodium diclofenac on graphene: a combined experimental and theoretical study	PCCP. Physical Chemistry Chemical Physics (Print)	JAURIS, I. M. ; MATOS, C. F. ; SAUCIER, C. ; LIMA, E. C. ; ZARBIN, A. J. G. ; FAGAN, S. B. ; MACHADO, F. M. ; Zanella, I.	A2	
artigoEmPeriodico	Ivana Zanella da Silva	2016	http://dx.doi.org/10.1021/acs.jpcc.6b03884	ADSORPTION OF ALIZARIN RED S DYE BY CARBON NANOTUBES: AN EXPERIMENTAL AND THEORETICAL INVESTIGATION	Journal of Physical Chemistry. C. (Online)	MACHADO MACHADO, FERNANDO ; AYYAPPAN, CARMALIN SOPHIA ; LIMA, EDER CLAUDIO ; DIAS, SILVIO LUIS PEREIRA ; PROLA, LIZIÊ DANIELA TENTLER ; SAUCIER, CAROLINE ; JAURIS, IURI MEDEIROS ; Zanella, Ivana ; FAGAN, SOLANGE BINOTTO	B1	
artigoEmPeriodico	Ivana Zanella da Silva	2016		An ab initio study of carboxylated graphene and black - and blue - phosphorene	Disciplinarum Scientia. Série Ciências Naturais e Tecnológicas	TONEL, M. Z. ; LEDUR, C. ; LARA, IVI VALENTINI ; ZANELLA, Ivana ; FAGAN, SOLANGE B.	B3	
artigoEmPeriodico	Ivana Zanella da Silva	2016		C61(COOH)2 interacting with the antiviral ribavirin	Disciplinarum Scientia. Série Ciências Naturais e Tecnológicas	VENDRAME, L. F. O. ; FAGAN, SOLANGE B. ; ZANELLA, Ivana	B3	
artigoEmPeriodico	Ivana Zanella da Silva	2016		Resveratrol adsorption on carbon nanotubes: a first principles study	Disciplinarum Scientia. Série Ciências Naturais e Tecnológicas	SCHARWZ, Stefanie Camile ; ROSSATO, J. ; SANTOS, C. L. ; ZANELLA, Ivana ; FAGAN, SOLANGE B.	B3	
trabalhoCompletoEmCongresso	Ivana Zanella da Silva	2016	http://dx.doi.org/10.1007/978-3-319-18875-1_2	Funcionalização de nanotubos de carbono com elementos fotosensores	XX Simpósio de Ensino	RHODEN, C. R. B. ; TONEL, M. Z. ; ZANELLA, Ivana ; FAGAN, SOLANGE BINOTTO ; MORTARI, S. R.		
artigoEmPeriodico	Giovani Rubert Librelotto	2016	http://dx.doi.org/10.1007/s10209-016-0479-7	Creating virtual exhibition rooms from emigration digital archives	Universal Access in the Information Society (Internet)	MARTINI, RICARDO G. ; Guimarães, Mónica ; LIBRELOTTO, Giovani R. ; HENRIQUES, Pedro Rangel	Qualis nao identificado	Universal Access in the Information Society (Internet)
artigoEmPeriodico	Giovani Rubert Librelotto	2016		Definição de uma Linguagem para a Programação do Comportamento de Robôs Dentro do Contexto da RoboCup	ComInG - Communications and Innovations Gazette	BONINI, J. A. ; LIBRELOTTO, Giovani R.	Qualis nao identificado	ComInG - Communications and Innovations Gazette
artigoEmPeriodico	Giovani Rubert Librelotto	2016		Representando o conhecimento da inflamação crônica através da Ontocancro	ComInG - Communications and Innovations Gazette	STRINGHINI, R. M. ; BONINI, J. A. ; FALCADE, L. ; LIBRELOTTO, Giovani R.	Qualis nao identificado	ComInG - Communications and Innovations Gazette
artigoEmPeriodico	Giovani Rubert Librelotto	2016		Ontocancro 3.0: Aplicação do Inflammaging no Estudo de Vias Metabólicas	Revista do CCEI	FALCADE, L. ; LIBRELOTTO, GIOVANI RUBERT	B3	
trabalhoCompletoEmCongresso	Giovani Rubert Librelotto	2016	http://dx.doi.org/10.1007/978-3-319-16486-1_40	Bússola visual para futebol de robôs	I Workshop de Robôs Humanoides do Brasil (I Brazilian Humanoid Robots Workshop)	LONDERO, F. T. ; GUERRA, R. S. ; Librelotto, Giovani		
trabalhoCompletoEmCongresso	Giovani Rubert Librelotto	2016		Simulador Computacional para Auxiliar no Desenvolvimentos de Estratégias de Comportamento para Futebol de Robôs	I Workshop de Robôs Humanoides do Brasil (I Brazilian Humanoid Robots Workshop)	MONTENEGRO, F. J. C. ; Librelotto, Giovani		
trabalhoCompletoEmCongresso	Giovani Rubert Librelotto	2016		Estendendo o Domínio da Ontocancro 3.0 para abordar o Inflammaging	XV Congresso Brasileiro de Informática em Saúde	BONINI, J. A. ; STRINGHINI, R. M. ; FALCADE, L. ; LIBRELOTTO, GIOVANI RUBERT		
trabalhoCompletoEmCongresso	Giovani Rubert Librelotto	2016		Formal Description and Automatic Generation of Learning Spaces Based on Ontologies	20th International Conference on Knowledge-Based and Intelligent Information Engineering Systems (KES 2016)	MARTINI, R. G. ; LIBRELOTTO, Giovani R. ; Henriques, Pedro R.		
artigoEmPeriodico	Eder Maiquel Simão	2016		Iniciação de Acadêmicos de Física Médica nas Atividades Profissionais	Disciplinarum Scientia. Série Ciências Naturais e Tecnológicas	FRONER, A. M. ; MESSINA, A. S. ; BRUM, F. ; CARGNELUTTI, J. ; FELDMANN, M. A. G. ; PIVOTTO, R. ; SIMÃO, E. M. ; Schwarz A.P. ; PAULA, V.	B3	
trabalhoCompletoEmCongresso	Eder Maiquel Simão	2016		Gestão de Tecnoligas em Saúde ? Estudo de Caso em uma Clínica Escola	Salão de Iniciação Científica	VENTURI, M. ; RODRIGUES JR, L. F. ; SIMÃO, E. M. ; TAMBARA, R. V. ; SALAZAR, R.		
artigoEmPeriodico	Luis Otavio de Sousa Bulhões	2016		STRUCTURAL AND CHEMICAL CHARACTERIZATION OF Ti-ZrO2 -PO4 -3 PROTECTIVE COATINGS FOR BIOMEDICAL APPLICATIONS	Disciplinarum Scientia. Série Ciências Naturais e Tecnológicas	SEVERO, V. A. ; PINHEIRO, L. D. S. M. ; VOLKMER, T. M. ; RAFFIN, R. P. ; Fagan, Solange B. ; BULHOES, L. O. S.	B3	
artigoEmPeriodico	Luis Otavio de Sousa Bulhões	2016		TiO2 THIN FILMS FOR PHOTOCATALYTIC OXIDATION OF PHARMACEUTICAL COMPOUNDS	Disciplinarum Scientia. Série Ciências Naturais e Tecnológicas	Andrade, C. T. ; MORTARI, S. R. ; BULHOES, L. O. S.	B3	
trabalhoCompletoEmCongresso	Luis Otavio de Sousa Bulhões	2016		APLICAÇÃO E CARACTERIZAÇÃO DE REVESTIMENTOS PROTETIVOS A BASE DE Ti-ZrO2-PO4 -3 PARA PRÓTESES DENTÁRIAS	9° Congresso Latino-Americano de Orgãos Artificiais e Biomateriais e 13° Congresso da Sociedade Latino Americana de Biomateriais	SEVERO, V. A. ; Volkmer, T. M. ; PINHEIRO, L. S. ; Bulhões, L.O.S		
resumoExpandidoEmCongresso	Luis Otavio de Sousa Bulhões	2016	Desenvolvimento e caracterização de biomaterial a base de ZrO2 e PO43- por processo sol-gel e hidrotermal	XXV Congresso Brasileiro de Engenharia Biomédica, 2016, Foz do Iguaçu. Anais do XXV Congresso Brasileiro de Engenharia Biomédica	SEVERO, V. A. ; PINHEIRO, L. S. ; Bulhões, L.O.S		
trabalhoCompletoEmCongresso	Liana da Silva Fernandes	2016		Efeito de lipossoma com Creatina sobre atividade da creatina cinase do coração de ratos hiperfenilalaninêmicos	XX Simpósio de Ensino	BRONDANI, M. ; PARODI, C. B. ; BORIN, D. B. ; FERNANDES, Liana da S. ; VAUCHER, R. A. ; NISHIHIRA, V. S. K. ; RECH, V. C.		
trabalhoCompletoEmCongresso	Liana da Silva Fernandes	2016		Avaliação toxicológica de Lipossomas com Creatina sobre Hemograma e Análises Bioquímicas de ratos com Hiperfenilalaninemia	Salão de Iniciação Científica	PARODI, C. B. ; BORIN, D. B. ; MEZZOMO, N. J. ; FERNANDES, Liana da S. ; NISHIHIRA, V. S. K. ; VAUCHER, R. A. ; RECH, V. C.		
artigoEmPeriodico	Cristiane Luchese	2016	http://dx.doi.org/10.5935/0103-5053.20150239	7-Chloroquinoline-1,2,3-triazoyl Carboxylates: Organocatalytic Synthesis and Antioxidant Properties	Journal of the Brazilian Chemical Society (Impresso)	SARAIVA, MAIARA T. ; KRÜGER, ROBERTA ; BALDINOTTI, RODOLFO S. M. ; LENARDÃO, EDER J. ; LUCHESE, Cristiane ; SAVEGNAGO, LUCIELLI ; WILHELM, ETHEL A. ; ALVES, Diego	A2	
artigoEmPeriodico	Cristiane Luchese	2016	http://dx.doi.org/10.1016/j.pnpbp.2015.10.008	Involvement of monoaminergic system in the antidepressant-like effect of (octylseleno)-xylofuranoside in the mouse tail suspension test	Progress in Neuro-Psychopharmacology & Biological Psychiatry	PINTO BROD, LUCIMAR M. ; FRONZA, MARIANA G. ; VARGAS, JAQUELINE PINTO ; LÜDTKE, DIOGO S. ; LUCHESE, Cristiane ; WILHELM, ETHEL ANTUNES ; SAVEGNAGO, LUCIELLI	A2	
artigoEmPeriodico	Cristiane Luchese	2016	http://dx.doi.org/10.1007/s11011-016-9812-3	Meloxicam-loaded nanocapsules as an alternative to improve memory decline in an Alzheimer?s disease model in mice: involvement of Na+, K+-ATPase	Metabolic Brain Disease	IANISKI, FRANCINE R ; ALVES, C.B. ; Ferreira, C.F. ; RECH, V. C. ; SAVEGNAGO, L. ; WILHELM, ETHEL A. ; LUCHESE, Cristiane	B1	
artigoEmPeriodico	Cristiane Luchese	2016	http://dx.doi.org/10.1590/0001-3765201620150776	Amyloid-β peptide absence in short term effects on kinase activity of energy metabolism in mice hippocampus and cerebral cortex	Anais da Academia Brasileira de Ciências (Impresso)	IANISKI, FRANCINE R ; NISHIHIRA, V. S. K. ; ALVES, C. B. ; BALDISSERA, M. D. ; RECH, V. C. ; WILHELM, E. A. ; LUCHESE, Cristiane	A1	
artigoEmPeriodico	Cristiane Luchese	2016	http://dx.doi.org/10.1016/j.ejphar.2016.03.039	4-Phenylselenyl-7-chloroquinoline, a new quinoline derivative containing selenium, has potential antinociceptive and anti-inflammatory actions	European Journal of Pharmacology	PINZ, MIKAELA ; REIS, ANGÉLICA S. ; DUARTE, VANESSA ; DA ROCHA, MÁRCIA J. ; GOLDANI, BRUNA S. ; ALVES, Diego ; SAVEGNAGO, LUCIELLI ; LUCHESE, Cristiane ; WILHELM, ETHEL A.	A2	
artigoEmPeriodico	Cristiane Luchese	2016	http://dx.doi.org/10.1016/j.jab.2015.04.006	Enhanced anti-inflammatory benefits of meloxicam-loaded lipid-core nanocapsules in a mouse pleurisy model: A comparative study with a free form drug	Journal of Applied Biomedicine	IANISKI, FRANCINE RODRIGUES ; DA SILVA, FERNANDA D?AVILA ; WILHELM, ETHEL ANTUNES ; FERNANDES, RENATA STRECK ; ALVES, Marta Palma ; FRESCURA DUARTE, MARTA MARIA MEDERIOS ; LUCHESE, Cristiane	B1	
artigoEmPeriodico	Cristiane Luchese	2016	http://dx.doi.org/10.1016/j.micpath.2016.04.002	Synergistic effects of resveratrol (free and inclusion complex) and sulfamethoxazole-trimetropim treatment on pathology, oxidant/antioxidant status and behavior of mice infected with Toxoplasma gondii	Microbial Pathogenesis	BOTTARI, NATHIELI B. ; BALDISSERA, MATHEUS D. ; TONIN, ALEXANDRE A. ; RECH, VIRGINIA C. ; Alves, Catiane B. ; D´AVILA, FERNANDA ; THOMÉ, GUSTAVO R. ; GUARDA, NAIARA S. ; MORESCO, RAFAEL N. ; CAMILLO, GIOVANA ; VOGEL, FERNANDA F. ; LUCHESE, Cristiane ; SCHETINGER, MARIA ROSA C. ; MORSCH, VERA M. ; TOCHETTO, CAMILA ; FIGHERA, RAFAEL ; NISHIHIRA, VIVIAN S.K. ; DA SILVA, ALEKSANDRO S.	B1	
artigoEmPeriodico	Cristiane Luchese	2016	http://dx.doi.org/10.1016/j.carbpol.2016.04.049	Chitosan/poly(vinyl alcohol)/bovine bone powder biocomposites: A potential biomaterial for the treatment of atopic dermatitis-like skin lesions	Carbohydrate Polymers	ALVES, NÁTALI O. ; DA SILVA, GABRIELA T. ; WEBER, DOUGLAS M. ; LUCHESE, Cristiane ; WILHELM, ETHEL A. ; FAJARDO, ANDRÉ R.	A1	
artigoEmPeriodico	Cristiane Luchese	2016	http://dx.doi.org/10.1016/j.ejphar.2016.09.005	Neurochemical factors associated with the antidepressant-like effect of flavonoid chrysin in chronically stressed mice	European Journal of Pharmacology	FILHO, CARLOS BORGES ; JESSE, CRISTIANO RICARDO ; DONATO, FRANCIELE ; DEL FABBRO, LUCIAN ; DE GOMES, MARCELO GOMES ; GOES, ANDRÉ TIAGO ROSSITO ; SOUZA, LEANDRO CATTELAN ; GIACOMELI, RENATA ; ANTUNES, MICHELLE ; LUCHESE, Cristiane ; ROMAN, SILVANE SOUZA ; BOEIRA, SILVANA PETERINI	A2	
artigoEmPeriodico	Cristiane Luchese	2016	http://dx.doi.org/10.1016/j.yrtph.2016.09.023.	Polymeric nanocapsules as a technological alternative to reduce the toxicity caused by meloxicam in mice	Regulatory Toxicology and Pharmacology	VILLALBA, BENONIO T. ; Ianiski, Francine R. ; VOGT, ANE G. ; PINZ, MIKAELA P. ; REIS, ANGÉLICA S. ; VAUCHER, RODRIGO A. ; SOARES, MAURO P. ; WILHELM, ETHEL A. ; LUCHESE, Cristiane	B1	
artigoEmPeriodico	Cristiane Luchese	2016	http://dx.doi.org/10.1016/j.tetlet.2016.10.078	Synthesis and Beckmann rearrangement of novel (Z)-2-organylselanyl ketoximes: Promising agents against grapevine anthracnose infection	Tetrahedron Letters	WASKOW, BIANCA ; MANO, RENATA A. ; GIACOMINI, RAFAELA X. ; OLIVEIRA, DANIELA H. ; SCHUMACHER, RICARDO F. ; WILHELM, ETHEL A. ; LUCHESE, Cristiane ; SAVEGNAGO, LUCIELLI ; JACOB, RAQUEL G.	A2	
artigoEmPeriodico	Cristiane Luchese	2016	http://dx.doi.org/10.22159/ijpps.2017v9i1.15391	INFLUENCE OF PEPTIDE P34 ON GENE EXPRESSION OF LISTERIA MONOCYTOGENES AND LISTERIA SEELEGERI	INTERNATIONAL JOURNAL OF PHARMACY AND PHARMACEUTICAL SCIENCES	VAUCHER, RODRIGO DE ALMEIDA ; GIONGO, JANICE LUEHRING ; ESTIVALES, MAGTON ; RECH, VIRGÍNIA CIELO ; NISHIHIRA, VIVIAN SHINOBU KISHIMOTO ; LUCHESE, Cristiane ; WILHELM, ETHEL ANTUNES ; BALDISSERA, MATHEUS DELLAMÉA ; LOPES, LEONARDO QUINTANA SOARES ; SANTOS, ROBERTO CHRIST VIANNA ; BRANDELLI, ADRIANO	B4	
resumoExpandidoEmCongresso	Cristiane Luchese	2016	Envolvimento da via glutamatérgica na ação do tipo - ansiolítica do 7 - cloro - 4 - (fenilseleno) quinolina em camundongos	VI Encontro de Selênio e Telúrio, 2016, Bento Gonçalves. VI ESETE	REIS, A. ; PINZ, M. ; VOGT, A. G. ; DUARTE, L. F. B. ; ALVES, Diego ; Luchese, C. ; WILHELM, E. A.		
resumoExpandidoEmCongresso	Cristiane Luchese	2016	Efeito protetor de 7-cloro-4-(fenilseleno)quinolina contra a oxidação cerebral de lipídeos e proteínas induzido pornitroprussiato de sódio	VI Encontro de Selênio e Telúrio, 2016, Bento Gonçalves. VI ESETE	LUZ, G. Q. ; VOGT, A. G. ; REIS, A. ; FAJARDO, ANDRÉ R. ; CAMPOS, V. F. ; PALTIAN, J. J. ; DUARTE, L. F. B. ; ALVES D ; WILHELM, ETHEL A. ; LUCHESE, Cristiane		
resumoExpandidoEmCongresso	Cristiane Luchese	2016	7- cloro-4-(fenilseleno)quinolina tem efeito anti-inflamatório em um modelo de dermatite atópica em camundongos	VI Encontro de Selênio e Telúrio, 2016, Bento Gonçalves. VI ESETE	VOSS, G. T. ; de OLIVEIRA, Renata ; PINZ, M. ; FAJARDO, ANDRÉ R. ; CAMPOS, V. F. ; DUARTE, L. F. B. ; ALVES D ; LUCHESE, Cristiane ; WILHELM, ETHEL A.		
resumoExpandidoEmCongresso	Cristiane Luchese	2016	Efeito de derivados de purinas contendo selênio na atividade da enzima acetilcolinesterase em córtex cerebral de camundongos	VI Encontro de Selênio e Telúrio, 2016, Bento Gonçalves. VI ESETE	RODRIGUES, K. C. ; de OLIVEIRA, Renata ; VOGT, A. G. ; ALVES D ; WILHELM, ETHEL A. ; LUCHESE, Cristiane		
resumoExpandidoEmCongresso	Cristiane Luchese	2016	Efeito anti-inflamatório de 7-cloro-4-(fenilseleno)quinolina em um modelo de pleurisia induzida por carragenina	VI Encontro de Selênio e Telúrio, 2016, Bento Gonçalves. VI ESETE	PINZ, M. ; REIS, A. ; VOSS, G. T. ; FONSECA, C. A. R. ; JESSE, CRISTIANO R. ; ALVES D ; WILHELM, E. A. ; LUCHESE, Cristiane		
resumoExpandidoEmCongresso	Cristiane Luchese	2016	7- Cloro-4-(fenilseleno)quinolina melhora a recuperação da memória em camundongos	VI Encontro de Selênio e Telúrio, 2016, Bento Gonçalves. VI ESETE	de OLIVEIRA, Renata ; VOSS, G. T. ; ALVES D ; WILHELM, E. A. ; LUCHESE, Cristiane		
resumoExpandidoEmCongresso	Cristiane Luchese	2016	7-CLORO-4-(FENILSELENO) QUINOLINA PROTEGE CONTRA O ESTRESSE OXIDATIVO CEREBRAL INDUZIDO POR NITROPRUSSIATO DE SÓDIO	XVIII Encontro de Pós-Graduação, 2016, Pelotas. Anais do XVIII ENPOS	VOGT, A. G. ; VOSS, G. T. ; REIS, ANGÉLICA S. ; ALVES D ; WILHELM, E. A. ; LUCHESE, Cristiane		
resumoExpandidoEmCongresso	Cristiane Luchese	2016	AVALIAÇÃO DO EFEITO TOXICOLÓGICO DE 7- CLORO - 4 -(FENILSELENO)QUINOLINA EM CAMUNDONGOS	XXV Congresso de Iniciação Científica, 2016, Pelotas. Anais do XXV CIC	REIS, ANGÉLICA S. ; PINZ, M. ; VOSS, G. T. ; OLIVEIRA, R. L. ; LUCHESE, Cristiane ; WILHELM, E. A.		
resumoExpandidoEmCongresso	Cristiane Luchese	2016	O 7- CLORO-4-(FENILSELENO)QUINOLINA REVERTE AS ALTERAÇÕES COMPORTAMENTAIS E INFLAMATÓRIAS EM UM MODELO DE DERMATITE ATÓPICA EM CAMUNDONGOS	XXV Congresso de Iniciação Científica, 2016, Pelotas. Anais do XXV CIC	VOSS, G. T. ; OLIVEIRA, R. L. ; DUARTE, L. F. B. ; ALVES D ; WILHELM, ETHEL A. ; LUCHESE, Cristiane		
resumoExpandidoEmCongresso	Cristiane Luchese	2016	4-FENILSULFONIL-7-CLOROQUINOLINA UMA NOVA QUINOLINA SEM TOXICIDADE GÁSTRICA E COM PROPRIEDADE ANTINOCICEPTIVA EM CAMUNDONGOS	XXV Congresso de Iniciação Científica, 2016, Pelotas. Anais do XXV CIC	PINZ, MIKAELA P. ; VOGT, A. G. ; SACRAMENTO, M. ; ALVES, Diego ; LUCHESE, Cristiane ; WILHELM, E. A.		
resumoExpandidoEmCongresso	Cristiane Luchese	2016	EFEITO DE COMPOSTOS DERIVADOS DE QUINOLINA CONTENDO SELÊNIO NA ATIVIDADE DA ENZIMA ACETILCOLINESTERASE EM CÓRTEX CEREBRAL DE CAMUNDONGOS	XXV Congresso de Iniciação Científica, 2016, Pelotas. Anais do XXV CIC	OLIVEIRA, R. L. ; PINZ, MIKAELA P. ; REIS, ANGÉLICA S. ; ALVES, Diego ; LUCHESE, Cristiane ; WILHELM, E. A.		
artigoEmPeriodico	Cláudia Lange dos Santos	2016	http://dx.doi.org/10.1039/C6CP05901E	Oxidation of InP nanowires: a first principles molecular dynamics study	Physical Chemistry Chemical Physics	BERWANGER, MAILING ; SCHOENHALZ, ALINE L. ; DOS SANTOS, CLÁUDIA L. ; PIQUINI, PAULO	A2	
artigoEmPeriodico	Cláudia Lange dos Santos	2016		Resveratrol Adsorption on Carbon Nanotubes: a First Principles Study	Disciplinarum Scientia. Série Ciências Naturais e Tecnológicas	SCHARWZ, Stefanie Camile ; ROSSATO, J. ; SANTOS, C. L. ; ZANELLA, Ivana ; FAGAN, SOLANGE B.	B3	
artigoEmPeriodico	Aline Ferreira Ourique	2016	http://dx.doi.org/10.1016/j.ejps.2015.12.006	Evaluation of photodynamic activity, photostability and in vitro drug release of zinc phthalocyanine-loaded nanocapsules	European Journal of Pharmaceutical Sciences	DE SOUZA, THIANE DEPRÁ ; ZIEMBOWICZ, FRANCIELI ISA ; MÜLLER, DEBORA FRIEDRICH ; LAUERMANN, SÂMERA CRISTINA ; KLOSTER, CARMEN LUISA ; Santos, Roberto Christ Vianna ; Lopes, Leonardo Quintana Soares ; OURIQUE, ALINE FERREIRA ; MACHADO, GIOVANNA ; VILLETTI, MARCOS ANTONIO	A2	
artigoEmPeriodico	Aline Ferreira Ourique	2016		A DERIVATIVE UV SPECTROPHOTOMETRIC METHOD FOR THE DETERMINATION OF OF METHYLXANTHINES AND TANNINS IN GUARANA BULK (PAULLINIA CUPANA)	International Journal of Pharmaceutical Sciences and Research	ROGGIA, I. ; ZIEGLER, S. ; CRUZ, I. B. M. ; OURIQUE, A. F. ; GOMES, P.	B4	
artigoEmPeriodico	Aline Ferreira Ourique	2016	http://dx.doi.org/10.1155/2016/7395896	Development and Physicochemical Characterization of Desonide-Loaded Nanocapsule Suspensions	Advances in Materials Science and Engineering (Print)	ANTONOW, M. B. ; LORENZONI, R. ; BARBOSA, G. M. ; OURIQUE, A. F. ; GOMES, P. ; RAFFIN, R. P.	Qualis nao identificado	Advances in Materials Science and Engineering (Print)
artigoEmPeriodico	Aline Ferreira Ourique	2016	http://dx.doi.org/10.1016/j.aspen.2016.10.008	Larvicidal and insecticidal effect of Cinnamomum zeylanicum oil (pure and nanostructured) against mealworm (Alphitobius diaperinus) and its possible environmental effects	Journal of Asia Pacific Entomology	VOLPATO, ANDREIA ; BARETTA, DILMAR ; ZORTÉA, TALYTA ; CAMPIGOTTO, GABRIELA ; GALLI, GABRIELA M. ; GLOMBOWSKY, PATRICIA ; Santos, Roberto C.V. ; QUATRIN, PRISCILLA M. ; OURIQUE, ALINE F. ; BALDISSERA, MATHEUS D. ; STEFANI, LENITA M. ; DA SILVA, ALEKSANDRO S.	Qualis nao identificado	Journal of Asia Pacific Entomology
artigoEmPeriodico	Aline Ferreira Ourique	2016	http://dx.doi.org/10.22159/ijpps.2016v8i12.15108	Development of nanoemulsion containing Pelargonium graveolans oil: characterization and stability study	International Journal of Pharmacy and Pharmaceutical Sciences	GIONGO, JANICE L. ; VAUCHER, RODRIGO A. ; OURIQUE, A. ; STEFFLER, M. S. ; FRIZZO, C. P. ; HENNEMMAN, B. ; LOPES, L. Q. S. ; SANTOS, R. C. V. ; RECH, VIRGINIA C. ; NISHIHIRA, V. S. K. ; RAFFIN, R. P. ; GOMES, P. ; STEPPE, M.	B4	
artigoEmPeriodico	Aline Ferreira Ourique	2016		Evaluation of the antioxidant activity by the DPPH radical scavenging method of free and liposome-associated cocoa extracts	Disciplinarum Scientia. Série Ciências Naturais e Tecnológicas	NASCIMENTO, D. A. O. ; RAFFIN, R. P. ; FOGACA, A. O. ; MORAES, C. M. B. ; BOLIGON, A. A. ; OURIQUE, A. F.	B3	
trabalhoCompletoEmCongresso	Aline Ferreira Ourique	2016		DESENVOLVIMENTO, CARACTERIZAÇÃO E AVALIAÇÃO DA ATIVIDADE ANTIMICROBIANA DE NANOEMULSÕES CONTENDO ÓLEO ESSENCIAL DE CAPIM-LIMÃO	XX Simpósio de Ensino	GUNDEL, S. S. ; Santos, Roberto Christ ; SOUZA, M. E. ; QUATRIN, PRISCILLA M. ; OURIQUE, A. F.		
trabalhoCompletoEmCongresso	Aline Ferreira Ourique	2016	http://dx.doi.org/10.1007/978-3-642-19792-5_2	NANOCIÊNCIA E NANOTENOLOGIA - A PRODUÇÃO CIENTIFICA E A PROPRIEDADE INTELECTUAL	XX Simpósio de Ensino	NORA, L. D. ; OURIQUE, A. F. ; RAFFIN, R. P. ; FAGAN, SOLANGE BINOTTO		
resumoExpandidoEmCongresso	Aline Ferreira Ourique	2016	ESTUDO DA CITOTOXICIDADE IN VITRO DE NANOEMULSÕES CONTENDO ÓLEO DE EUCALIPTO	VI Salão de Iniciação Científica - Pesquisa e Inovação para Transformar, 2016, Santa Maria. Anais do VI Salão de Iniciação Científica (SIC)	GODOI, S. N. ; SAGRILLO, M. ; NASCIMENTO, K. ; BRUM, G. F. ; GROTTO, F. S. ; SANTOS, R. C. V. ; OURIQUE, A. F.		
resumoExpandidoEmCongresso	Aline Ferreira Ourique	2016	Atividade antimicrobiana de Nanopartículas de Capim-Limão	VI Salão de Iniciação Científica - Pesquisa e Inovação para Transformar, 2016, Santa Maria. Anais do VI Salão de Iniciação Científica (SIC)	GUNDEL, S. ; SOUZA, M. E. ; QUATRIN, P. ; SANTOS, R. C. V. ; OURIQUE, A. F.		
