0969715025616160
5753973080634017
8537174715205717
7784609477475171
0953074420467371
9176719594431835
9315943331569148
9578592161597332
2289911377012512
7107334055877180
0865997296771785
4461596175399704
8515173425020878
7506509328482102
0573570242395130
3420684025232526
8097034095042937
3376750892363066
1692497062116657
7478810804464054
