
PB0:2016,66;
PB1:2016,1;
PB2:2016,2;
PB3:*itens sem ano,2;2016,1;
PB4:*itens sem ano,1;2016,28;
PB5:2016,16;
PB6:2016,83;
PB7:2016,3;
PB8:2016,37;
PT5:2016,9;
OA1:2013,4;2014,5;2015,10;2016,7;2017,10;
OA2:2015,6;2016,7;2017,14;
OA4:2017,1;
OA5:2013,2;2015,3;2016,12;2017,16;
OA6:2017,10;
OC0:2016,2;
OC1:2016,4;
OC2:2016,13;
OC4:2016,7;
OC5:2016,9;
OC6:2016,7;
Pm:2016,7;
Pj:2005,1;2006,1;2007,2;2008,2;2010,2;2011,5;2012,4;2013,10;2014,14;2015,9;2016,5;
PB:*itens sem ano,3;2016,237;
PT:2016,9;
OA:2013,6;2014,5;2015,19;2016,26;2017,51;
OC:2016,42;
Ep:2016,24;
Eo:2016,4;